%!PS-Adobe-3.0 EPSF-3.0
%%Creator: cairo 1.16.0 (https://cairographics.org)
%%CreationDate: Fri Sep 20 08:56:04 2019
%%Pages: 1
%%DocumentData: Clean7Bit
%%LanguageLevel: 2
%%BoundingBox: 18 18 366 366
%%EndComments
%%BeginProlog
50 dict begin
/q { gsave } bind def
/Q { grestore } bind def
/cm { 6 array astore concat } bind def
/w { setlinewidth } bind def
/J { setlinecap } bind def
/j { setlinejoin } bind def
/M { setmiterlimit } bind def
/d { setdash } bind def
/m { moveto } bind def
/l { lineto } bind def
/c { curveto } bind def
/h { closepath } bind def
/re { exch dup neg 3 1 roll 5 3 roll moveto 0 rlineto
      0 exch rlineto 0 rlineto closepath } bind def
/S { stroke } bind def
/f { fill } bind def
/f* { eofill } bind def
/n { newpath } bind def
/W { clip } bind def
/W* { eoclip } bind def
/BT { } bind def
/ET { } bind def
/BDC { mark 3 1 roll /BDC pdfmark } bind def
/EMC { mark /EMC pdfmark } bind def
/cairo_store_point { /cairo_point_y exch def /cairo_point_x exch def } def
/Tj { show currentpoint cairo_store_point } bind def
/TJ {
  {
    dup
    type /stringtype eq
    { show } { -0.001 mul 0 cairo_font_matrix dtransform rmoveto } ifelse
  } forall
  currentpoint cairo_store_point
} bind def
/cairo_selectfont { cairo_font_matrix aload pop pop pop 0 0 6 array astore
    cairo_font exch selectfont cairo_point_x cairo_point_y moveto } bind def
/Tf { pop /cairo_font exch def /cairo_font_matrix where
      { pop cairo_selectfont } if } bind def
/Td { matrix translate cairo_font_matrix matrix concatmatrix dup
      /cairo_font_matrix exch def dup 4 get exch 5 get cairo_store_point
      /cairo_font where { pop cairo_selectfont } if } bind def
/Tm { 2 copy 8 2 roll 6 array astore /cairo_font_matrix exch def
      cairo_store_point /cairo_font where { pop cairo_selectfont } if } bind def
/g { setgray } bind def
/rg { setrgbcolor } bind def
/d1 { setcachedevice } bind def
/cairo_data_source {
  CairoDataIndex CairoData length lt
    { CairoData CairoDataIndex get /CairoDataIndex CairoDataIndex 1 add def }
    { () } ifelse
} def
/cairo_flush_ascii85_file { cairo_ascii85_file status { cairo_ascii85_file flushfile } if } def
/cairo_image { image cairo_flush_ascii85_file } def
/cairo_imagemask { imagemask cairo_flush_ascii85_file } def
%%EndProlog
%%BeginSetup
%%EndSetup
%%Page: 1 1
%%BeginPageSetup
%%PageBoundingBox: 18 18 366 366
%%EndPageSetup
q 18 18 348 348 rectclip
1 0 0 -1 0 384 cm q
0.964706 0.733333 0 rg
234.09 203.055 m 190.027 177.352 l 174 168 l 90 168 l 73.973 177.352 l 
29.91 203.055 l 22.535 207.355 18 215.25 18 223.785 c 18 366 l 246 366 l
 246 223.785 l 246 215.25 241.465 207.355 234.09 203.055 c h
234.09 203.055 m f
0.929412 0.65098 0 rg
18 366 m 84 366 l 47.551 366 18 336.449 18 300 c h
18 366 m f
0.898039 0.905882 0.913725 rg
190.027 177.352 m 149.859 245.641 l 132 276 l 114.141 245.641 l 73.973 
177.352 l 90 168 l 174 168 l h
190.027 177.352 m f
0.890196 0.239216 0.239216 rg
150 168 m 114 168 l 114 192 l 126 216 l 114.141 245.641 l 132 276 l 149.859
 245.641 l 138 216 l 150 192 l h
150 168 m f
0.317647 0.494118 0.968627 rg
252 144 m 342 144 l 355.297 144 366 154.703 366 168 c 366 312 l 366 325.297
 355.297 336 342 336 c 252 336 l 238.703 336 228 325.297 228 312 c 228 168
 l 228 154.703 238.703 144 252 144 c h
252 144 m f
0.517647 0.847059 0.909804 rg
252 168 90 30 re f
0.694118 0.47451 0.172549 rg
162 54 m 162 36 l 162 26.059 153.941 18 144 18 c 120 18 l 96.805 18 78 
36.805 78 60 c 78 72 l 91.758 58.242 l 94.473 55.527 98.16 54 102 54 c 105.84
 54 109.527 55.527 112.242 58.242 c 121.758 67.758 l 124.473 70.473 128.16
 72 132 72 c 135.84 72 139.527 70.473 142.242 67.758 c 151.758 58.242 l 
154.473 55.527 158.16 54 162 54 c h
162 54 m f
0.584314 0.4 0.145098 rg
168 30 m 177.941 30 186 38.059 186 48 c 186 72 l 172.242 58.242 l 169.527
 55.527 165.84 54 162 54 c 162 36 l 162 32.688 164.688 30 168 30 c h
168 30 m f
0.960784 0.788235 0.615686 rg
186 72 m 186 132 l 186 161.824 161.824 186 132 186 c 102.176 186 78 161.824
 78 132 c 78 72 l 91.758 58.242 l 94.473 55.527 98.16 54 102 54 c 105.84
 54 109.527 55.527 112.242 58.242 c 121.758 67.758 l 124.473 70.473 128.16
 72 132 72 c 135.84 72 139.527 70.473 142.242 67.758 c 151.758 58.242 l 
154.473 55.527 158.16 54 162 54 c 165.84 54 169.527 55.527 172.242 58.242
 c h
186 72 m f
0.694118 0.47451 0.172549 rg
96 90 24 12 re f
0.780392 0.14902 0.14902 rg
138 222 m 126 222 l 122.688 222 120 219.312 120 216 c 120 212.688 122.688
 210 126 210 c 138 210 l 141.312 210 144 212.688 144 216 c 144 219.312 141.312
 222 138 222 c h
138 222 m f
0.870588 0.682353 0.494118 rg
342 336 m 319.352 354.875 l 310.723 362.062 299.852 366 288.621 366 c 228
 366 l 228 336 l h
342 336 m f
0.964706 0.733333 0 rg
252 252 30 60 re f
0.301961 0.388235 0.470588 rg
282 312 m 342 312 l 342 222 l 252 222 l 252 252 l 282 252 l h
282 312 m f
0.929412 0.65098 0 rg
252 276 36 12 re f
0.258824 0.337255 0.419608 rg
318 246 m 318 222 l 306 222 l 306 246 l 288 246 l 288 222 l 276 222 l 276
 246 l 252 246 l 252 258 l 276 258 l 276 312 l 288 312 l 288 288 l 306 288
 l 306 312 l 318 312 l 318 258 l 342 258 l 342 246 l h
306 276 m 288 276 l 288 258 l 306 258 l h
306 276 m f
0.898039 0.905882 0.913725 rg
180 324 m 180 366 l 156 366 l 156 319.762 l h
180 324 m f
0.929412 0.65098 0 rg
98.875 303.594 m 90.266 302.082 83.988 294.602 84 285.863 c 84 270 l 72
 270 l 72 285.863 l 71.984 300.426 82.441 312.895 96.789 315.41 c 187.852
 331.477 l 189.938 319.66 l h
98.875 303.594 m f
0.960784 0.788235 0.615686 rg
180 324 m 217.188 297.438 l 220.148 295.324 224.035 295.02 227.289 296.645
 c 231.25 298.625 233.398 303.012 232.527 307.355 c 228 330 l 241.016 330
 l 244.277 330 247.477 329.113 250.273 327.434 c 269.621 315.828 l 273.371
 313.578 278.168 314.168 281.262 317.262 c 283.047 319.047 284.051 321.473
 284.051 324 c 284.051 326.527 283.047 328.953 281.262 330.738 c 258.301
 353.699 l 250.426 361.574 239.742 366 228.602 366 c 180 366 l h
180 324 m f
0.584314 0.4 0.145098 rg
114 114 m 114 117.312 111.312 120 108 120 c 104.688 120 102 117.312 102
 114 c 102 110.688 104.688 108 108 108 c 111.312 108 114 110.688 114 114
 c h
114 114 m f
0.694118 0.47451 0.172549 rg
144 90 24 12 re f
0.584314 0.4 0.145098 rg
162 114 m 162 117.312 159.312 120 156 120 c 152.688 120 150 117.312 150
 114 c 150 110.688 152.688 108 156 108 c 159.312 108 162 110.688 162 114
 c h
162 114 m f
0.780392 0.576471 0.411765 rg
126 156 m 120 156 l 120 144 l 126 144 l 129.312 143.996 131.996 141.312
 132 138 c 132 126 l 144 126 l 144 138 l 143.988 147.938 135.938 155.988
 126 156 c h
126 156 m f
Q Q
showpage
%%Trailer
end
%%EOF
