%!PS-Adobe-3.0 EPSF-3.0
%%Creator: cairo 1.16.0 (https://cairographics.org)
%%CreationDate: Fri Sep 20 08:56:04 2019
%%Pages: 1
%%DocumentData: Clean7Bit
%%LanguageLevel: 2
%%BoundingBox: 11 18 366 366
%%EndComments
%%BeginProlog
50 dict begin
/q { gsave } bind def
/Q { grestore } bind def
/cm { 6 array astore concat } bind def
/w { setlinewidth } bind def
/J { setlinecap } bind def
/j { setlinejoin } bind def
/M { setmiterlimit } bind def
/d { setdash } bind def
/m { moveto } bind def
/l { lineto } bind def
/c { curveto } bind def
/h { closepath } bind def
/re { exch dup neg 3 1 roll 5 3 roll moveto 0 rlineto
      0 exch rlineto 0 rlineto closepath } bind def
/S { stroke } bind def
/f { fill } bind def
/f* { eofill } bind def
/n { newpath } bind def
/W { clip } bind def
/W* { eoclip } bind def
/BT { } bind def
/ET { } bind def
/BDC { mark 3 1 roll /BDC pdfmark } bind def
/EMC { mark /EMC pdfmark } bind def
/cairo_store_point { /cairo_point_y exch def /cairo_point_x exch def } def
/Tj { show currentpoint cairo_store_point } bind def
/TJ {
  {
    dup
    type /stringtype eq
    { show } { -0.001 mul 0 cairo_font_matrix dtransform rmoveto } ifelse
  } forall
  currentpoint cairo_store_point
} bind def
/cairo_selectfont { cairo_font_matrix aload pop pop pop 0 0 6 array astore
    cairo_font exch selectfont cairo_point_x cairo_point_y moveto } bind def
/Tf { pop /cairo_font exch def /cairo_font_matrix where
      { pop cairo_selectfont } if } bind def
/Td { matrix translate cairo_font_matrix matrix concatmatrix dup
      /cairo_font_matrix exch def dup 4 get exch 5 get cairo_store_point
      /cairo_font where { pop cairo_selectfont } if } bind def
/Tm { 2 copy 8 2 roll 6 array astore /cairo_font_matrix exch def
      cairo_store_point /cairo_font where { pop cairo_selectfont } if } bind def
/g { setgray } bind def
/rg { setrgbcolor } bind def
/d1 { setcachedevice } bind def
/cairo_data_source {
  CairoDataIndex CairoData length lt
    { CairoData CairoDataIndex get /CairoDataIndex CairoDataIndex 1 add def }
    { () } ifelse
} def
/cairo_flush_ascii85_file { cairo_ascii85_file status { cairo_ascii85_file flushfile } if } def
/cairo_image { image cairo_flush_ascii85_file } def
/cairo_imagemask { imagemask cairo_flush_ascii85_file } def
%%EndProlog
%%BeginSetup
%%EndSetup
%%Page: 1 1
%%BeginPageSetup
%%PageBoundingBox: 11 18 366 366
%%EndPageSetup
q 11 18 355 348 rectclip
1 0 0 -1 0 384 cm q
0.929412 0.65098 0 rg
312 114 m 342 114 l 355.254 114 366 124.746 366 138 c 366 228 l 312 228
 l h
312 114 m f
0.494118 0.341176 0.87451 rg
312 87.938 m 312 198 l 84 198 l 84 42 l 84 28.746 94.746 18 108 18 c 242.062
 18 l 248.426 18.008 254.523 20.531 259.027 25.027 c 304.973 70.973 l 309.469
 75.477 311.992 81.574 312 87.938 c h
312 87.938 m f
0.6 0.466667 0.929412 rg
309.84 78 m 264 78 l 260.816 78 257.766 76.738 255.516 74.484 c 253.262
 72.234 252 69.184 252 66 c 252 20.16 l 254.617 21.348 256.996 22.996 259.027
 25.027 c 304.973 70.973 l 307.004 73.004 308.652 75.383 309.84 78 c h
309.84 78 m f
0.964706 0.733333 0 rg
84 174 m 199.031 174 l 209.895 174 220.316 178.316 228 186 c 235.684 193.684
 246.105 198 256.969 198 c 342 198 l 355.254 198 366 208.746 366 222 c 366
 330 l 366 343.254 355.254 354 342 354 c 84 354 l h
84 174 m f
0.388235 0.239216 0.8 rg
138 48 24 12 re f
174 108 12 12 re f
198 108 30 12 re f
240 108 48 12 re f
174 138 72 12 re f
258 138 30 12 re f
162 78 60 12 re f
174 48 48 12 re f
0.231373 0.341176 0.768627 rg
72 186 24 24 re f
0.329412 0.541176 1 rg
66 210 m 102 210 l 102 348 l 102 357.941 93.941 366 84 366 c 74.059 366
 66 357.941 66 348 c h
66 210 m f
0.282353 0.419608 0.878431 rg
66 330 36 12 re f
66 228 36 12 re f
0.517647 0.847059 0.909804 rg
150 120 m 150 156.449 120.449 186 84 186 c 47.551 186 18 156.449 18 120
 c 18 83.551 47.551 54 84 54 c 120.449 54 150 83.551 150 120 c h
150 120 m f
0.317647 0.494118 0.968627 rg
84 192 m 54.879 192 28.625 174.457 17.48 147.555 c 6.336 120.648 12.496
 89.68 33.09 69.09 c 53.68 48.496 84.648 42.336 111.555 53.48 c 138.457 
64.625 156 90.879 156 120 c 155.953 159.746 123.746 191.953 84 192 c h
84 60 m 59.73 60 37.855 74.617 28.566 97.039 c 19.281 119.461 24.414 145.266
 41.574 162.426 c 58.734 179.586 84.539 184.719 106.961 175.434 c 129.383
 166.145 144 144.27 144 120 c 143.961 86.879 117.121 60.039 84 60 c h
84 60 m f
Q Q
showpage
%%Trailer
end
%%EOF
