%!PS-Adobe-3.0 EPSF-3.0
%%Creator: cairo 1.16.0 (https://cairographics.org)
%%CreationDate: Fri Sep 20 08:56:05 2019
%%Pages: 1
%%DocumentData: Clean7Bit
%%LanguageLevel: 2
%%BoundingBox: 18 18 366 366
%%EndComments
%%BeginProlog
50 dict begin
/q { gsave } bind def
/Q { grestore } bind def
/cm { 6 array astore concat } bind def
/w { setlinewidth } bind def
/J { setlinecap } bind def
/j { setlinejoin } bind def
/M { setmiterlimit } bind def
/d { setdash } bind def
/m { moveto } bind def
/l { lineto } bind def
/c { curveto } bind def
/h { closepath } bind def
/re { exch dup neg 3 1 roll 5 3 roll moveto 0 rlineto
      0 exch rlineto 0 rlineto closepath } bind def
/S { stroke } bind def
/f { fill } bind def
/f* { eofill } bind def
/n { newpath } bind def
/W { clip } bind def
/W* { eoclip } bind def
/BT { } bind def
/ET { } bind def
/BDC { mark 3 1 roll /BDC pdfmark } bind def
/EMC { mark /EMC pdfmark } bind def
/cairo_store_point { /cairo_point_y exch def /cairo_point_x exch def } def
/Tj { show currentpoint cairo_store_point } bind def
/TJ {
  {
    dup
    type /stringtype eq
    { show } { -0.001 mul 0 cairo_font_matrix dtransform rmoveto } ifelse
  } forall
  currentpoint cairo_store_point
} bind def
/cairo_selectfont { cairo_font_matrix aload pop pop pop 0 0 6 array astore
    cairo_font exch selectfont cairo_point_x cairo_point_y moveto } bind def
/Tf { pop /cairo_font exch def /cairo_font_matrix where
      { pop cairo_selectfont } if } bind def
/Td { matrix translate cairo_font_matrix matrix concatmatrix dup
      /cairo_font_matrix exch def dup 4 get exch 5 get cairo_store_point
      /cairo_font where { pop cairo_selectfont } if } bind def
/Tm { 2 copy 8 2 roll 6 array astore /cairo_font_matrix exch def
      cairo_store_point /cairo_font where { pop cairo_selectfont } if } bind def
/g { setgray } bind def
/rg { setrgbcolor } bind def
/d1 { setcachedevice } bind def
/cairo_data_source {
  CairoDataIndex CairoData length lt
    { CairoData CairoDataIndex get /CairoDataIndex CairoDataIndex 1 add def }
    { () } ifelse
} def
/cairo_flush_ascii85_file { cairo_ascii85_file status { cairo_ascii85_file flushfile } if } def
/cairo_image { image cairo_flush_ascii85_file } def
/cairo_imagemask { imagemask cairo_flush_ascii85_file } def
%%EndProlog
%%BeginSetup
%%EndSetup
%%Page: 1 1
%%BeginPageSetup
%%PageBoundingBox: 18 18 366 366
%%EndPageSetup
q 18 18 348 348 rectclip
1 0 0 -1 0 384 cm q
0.964706 0.733333 0 rg
246 217.785 m 246 366 l 18 366 l 18 217.785 l 18 209.25 22.535 201.355 
29.91 197.055 c 78 168.996 l 82.027 166.648 l 90 162 l 174 162 l 181.973
 166.648 l 234.09 197.055 l 241.465 201.355 246 209.25 246 217.785 c h
246 217.785 m f
0.317647 0.494118 0.968627 rg
102 306 m 102 252 l 162 252 l 162 318 l h
102 306 m f
0.301961 0.388235 0.470588 rg
181.973 166.648 m 137.062 237.219 l 135.961 238.949 134.051 240 132 240
 c 129.949 240 128.039 238.949 126.938 237.219 c 82.027 166.648 l 90 162
 l 93.293 162 l 132 222.824 l 170.707 162 l 174 162 l h
181.973 166.648 m f
0.960784 0.788235 0.615686 rg
78 60 m 78 126 l 78 140.32 83.688 154.059 93.816 164.184 c 103.941 174.312
 117.68 180 132 180 c 146.32 180 160.059 174.312 170.184 164.184 c 180.312
 154.059 186 140.32 186 126 c 186 60 l 168 36 l 102 36 l h
78 60 m f
0.694118 0.47451 0.172549 rg
186 66 m 135 66 l 120.09 66 108 53.91 108 39 c 108 36 l 108 26.059 116.059
 18 126 18 c 144 18 l 167.195 18 186 36.805 186 60 c h
186 66 m f
0.584314 0.4 0.145098 rg
78 66 m 78 42 l 78 32.059 86.059 24 96 24 c 102.629 24 108 29.371 108 36
 c 108 43.027 l 108 55.715 97.715 66 85.027 66 c h
78 66 m f
0.694118 0.47451 0.172549 rg
144 84 24 12 re f
96.02 96 m 96 84 l 120 84 l 120.02 95.926 l h
96.02 96 m f
0.360784 0.45098 0.529412 rg
132 276 m 130.41 276 128.883 275.367 127.758 274.242 c 126.633 273.117 
126 271.59 126 270 c 126 234 l 126 230.688 128.688 228 132 228 c 135.312
 228 138 230.688 138 234 c 138 270 l 138 271.59 137.367 273.117 136.242 
274.242 c 135.117 275.367 133.59 276 132 276 c h
132 276 m f
0.929412 0.65098 0 rg
184.867 330.953 m 96.785 315.406 l 82.441 312.895 71.984 300.43 72 285.863
 c 72 264 l 84 264 l 84 285.863 l 83.988 294.602 90.266 302.082 98.871 303.59
 c 186.953 319.133 l h
184.867 330.953 m f
0.960784 0.788235 0.615686 rg
276 312 m 270 306 l 222 306 l 222 342 l 258 342 l h
276 312 m f
0.388235 0.239216 0.8 rg
240 144 m 240 114 l 240 107.371 245.371 102 252 102 c 277.184 102 l 284.238
 102 291.133 104.086 297 108 c 302.867 111.914 309.762 114 316.816 114 c
 354 114 l 360.629 114 366 119.371 366 126 c 366 144 l h
240 144 m f
0.494118 0.341176 0.87451 rg
354 240 m 360.629 240 366 234.629 366 228 c 366 144 l 309 144 l 299.262
 144 289.789 140.844 282 135 c 274.211 129.156 264.738 126 255 126 c 228
 126 l 221.371 126 216 131.371 216 138 c 216 228 l 216 234.629 221.371 240
 228 240 c h
354 240 m f
0.282353 0.419608 0.878431 rg
294 280.801 m 273.383 305.535 l 265.695 314.766 l 243 342 l 200.398 342
 l 238.5 294.383 l 246 285.008 l 265.133 261.09 l h
294 280.801 m f
0.231373 0.341176 0.768627 rg
273.383 305.535 m 265.695 314.766 l 238.5 294.383 l 246 285.008 l h
273.383 305.535 m f
0.517647 0.847059 0.909804 rg
342 240 m 342 266.508 320.508 288 294 288 c 267.492 288 246 266.508 246
 240 c 246 213.492 267.492 192 294 192 c 320.508 192 342 213.492 342 240
 c h
342 240 m f
0.317647 0.494118 0.968627 rg
293.996 294 m 264.238 293.996 240.09 269.922 240 240.164 c 239.957 225.844
 245.602 212.09 255.699 201.934 c 265.797 191.777 279.512 186.043 293.836
 186 c 293.891 186 293.949 186 294.004 186 c 323.797 186 347.957 210.129
 348.004 239.918 c 348.047 269.711 323.957 293.91 294.164 294 c 294.109 
294 294.051 294 293.996 294 c h
294.004 198 m 293.961 198 293.914 198 293.871 198 c 282.73 198.035 272.062
 202.492 264.211 210.395 c 256.359 218.293 251.965 228.988 252 240.129 c
 252.07 263.273 270.852 281.996 293.996 282 c 294.039 282 294.086 282 294.129
 282 c 317.297 281.93 336.035 263.105 336 239.938 c 335.965 216.77 317.172
 198.004 294.004 198 c h
294.004 198 m f
0.960784 0.788235 0.615686 rg
180 324 m 211.082 301.797 l 217.801 297 226.617 296.309 234 300 c 230.875
 315.617 l 230.172 319.148 231.086 322.812 233.367 325.598 c 235.652 328.383
 239.066 330 242.668 330 c 244.848 330 246.988 329.406 248.855 328.285 c
 276 312 l 279.184 315.184 280.969 319.5 280.969 324 c 280.969 328.5 279.184
 332.816 276 336 c 258.301 353.699 l 250.426 361.574 239.742 366 228.602
 366 c 180 366 l h
180 324 m f
0.929412 0.65098 0 rg
18 366 m 84 366 l 47.551 366 18 336.449 18 300 c h
18 366 m f
0.584314 0.4 0.145098 rg
114 108 m 114 111.312 111.312 114 108 114 c 104.688 114 102 111.312 102
 108 c 102 104.688 104.688 102 108 102 c 111.312 102 114 104.688 114 108
 c h
114 108 m f
162 108 m 162 111.312 159.312 114 156 114 c 152.688 114 150 111.312 150
 108 c 150 104.688 152.688 102 156 102 c 159.312 102 162 104.688 162 108
 c h
162 108 m f
0.780392 0.576471 0.411765 rg
126 150 m 120 150 l 120 138 l 126 138 l 129.312 137.996 131.996 135.312
 132 132 c 132 120 l 144 120 l 144 132 l 143.988 141.938 135.938 149.988
 126 150 c h
126 150 m f
Q Q
showpage
%%Trailer
end
%%EOF
