%!PS-Adobe-3.0 EPSF-3.0
%%Creator: cairo 1.16.0 (https://cairographics.org)
%%CreationDate: Fri Sep 20 08:56:05 2019
%%Pages: 1
%%DocumentData: Clean7Bit
%%LanguageLevel: 2
%%BoundingBox: 48 18 342 367
%%EndComments
%%BeginProlog
50 dict begin
/q { gsave } bind def
/Q { grestore } bind def
/cm { 6 array astore concat } bind def
/w { setlinewidth } bind def
/J { setlinecap } bind def
/j { setlinejoin } bind def
/M { setmiterlimit } bind def
/d { setdash } bind def
/m { moveto } bind def
/l { lineto } bind def
/c { curveto } bind def
/h { closepath } bind def
/re { exch dup neg 3 1 roll 5 3 roll moveto 0 rlineto
      0 exch rlineto 0 rlineto closepath } bind def
/S { stroke } bind def
/f { fill } bind def
/f* { eofill } bind def
/n { newpath } bind def
/W { clip } bind def
/W* { eoclip } bind def
/BT { } bind def
/ET { } bind def
/BDC { mark 3 1 roll /BDC pdfmark } bind def
/EMC { mark /EMC pdfmark } bind def
/cairo_store_point { /cairo_point_y exch def /cairo_point_x exch def } def
/Tj { show currentpoint cairo_store_point } bind def
/TJ {
  {
    dup
    type /stringtype eq
    { show } { -0.001 mul 0 cairo_font_matrix dtransform rmoveto } ifelse
  } forall
  currentpoint cairo_store_point
} bind def
/cairo_selectfont { cairo_font_matrix aload pop pop pop 0 0 6 array astore
    cairo_font exch selectfont cairo_point_x cairo_point_y moveto } bind def
/Tf { pop /cairo_font exch def /cairo_font_matrix where
      { pop cairo_selectfont } if } bind def
/Td { matrix translate cairo_font_matrix matrix concatmatrix dup
      /cairo_font_matrix exch def dup 4 get exch 5 get cairo_store_point
      /cairo_font where { pop cairo_selectfont } if } bind def
/Tm { 2 copy 8 2 roll 6 array astore /cairo_font_matrix exch def
      cairo_store_point /cairo_font where { pop cairo_selectfont } if } bind def
/g { setgray } bind def
/rg { setrgbcolor } bind def
/d1 { setcachedevice } bind def
/cairo_data_source {
  CairoDataIndex CairoData length lt
    { CairoData CairoDataIndex get /CairoDataIndex CairoDataIndex 1 add def }
    { () } ifelse
} def
/cairo_flush_ascii85_file { cairo_ascii85_file status { cairo_ascii85_file flushfile } if } def
/cairo_image { image cairo_flush_ascii85_file } def
/cairo_imagemask { imagemask cairo_flush_ascii85_file } def
%%EndProlog
%%BeginSetup
%%EndSetup
%%Page: 1 1
%%BeginPageSetup
%%PageBoundingBox: 48 18 342 367
%%EndPageSetup
q 48 18 294 349 rectclip
1 0 0 -1 0 384 cm q
0.890196 0.239216 0.239216 rg
240 18 m 210 84 l 260.375 65.109 l h
240 18 m f
0.301961 0.388235 0.470588 rg
330.496 242.383 m 236.875 25.887 l 235.562 22.848 236.961 19.316 240 18
 c 241.461 17.367 243.113 17.344 244.594 17.93 c 246.074 18.516 247.258 
19.664 247.891 21.125 c 341.508 237.617 l h
330.496 242.383 m f
156 234 m 60 354 l 72 366 l 168 288 l 168 318 l 126 348 l 138 360 l 192
 336 l 210 258 l h
156 234 m f
0.964706 0.733333 0 rg
234 168 m 246.625 163.793 l 250.16 162.613 253.375 160.629 256.008 157.992
 c 294 120 l 306 126 l 284.828 173.641 l 282.98 177.793 279.992 181.34 276.211
 183.859 c 246 204 l 210 258 l 156 234 l 168 210 l 142.777 220.09 l 139.727
 221.309 137.312 223.727 136.09 226.773 c 126 252 l 114 246 l 119.273 209.082
 l 119.738 205.836 121.512 202.922 124.18 201.016 c 157.48 177.23 l 160.453
 175.105 163.875 173.688 167.484 173.086 c 198 168 l h
234 168 m f
0.388235 0.239216 0.8 rg
126.898 287.086 m 120.695 256.055 l 114 252.707 l 84.684 267.367 l 79.316
 256.633 l 111.316 240.633 l 113.008 239.789 114.996 239.789 116.684 240.633
 c 128.684 246.633 l 130.34 247.461 131.523 249.008 131.887 250.824 c 138.668
 284.734 l h
126.898 287.086 m f
0.870588 0.580392 0 rg
203.223 191.949 m 213.773 170.848 l 224.5 176.211 l 213.953 197.312 l h
203.223 191.949 m f
186.508 225.352 m 199.367 199.633 l 210.094 204.996 l 197.234 230.715 l
 h
186.508 225.352 m f
0.960784 0.788235 0.615686 rg
198 144 m 198 162 l 198 171.941 206.059 180 216 180 c 225.941 180 234 171.941
 234 162 c 234 144 l h
198 144 m f
0.694118 0.47451 0.172549 rg
198 144 m 234 144 l 234 129.707 l 234 124.348 229.656 120 224.293 120 c
 222.785 120 221.301 120.352 219.953 121.023 c 198 132 l h
198 144 m f
0.494118 0.341176 0.87451 rg
150 288 m 126 342 l 48 306 l 72 252 l h
150 288 m f
0.6 0.466667 0.929412 rg
150 288 m 120 306 l 78 288 l 72 252 l h
150 288 m f
Q Q
showpage
%%Trailer
end
%%EOF
