%!PS-Adobe-3.0 EPSF-3.0
%%Creator: cairo 1.16.0 (https://cairographics.org)
%%CreationDate: Fri Sep 20 08:56:06 2019
%%Pages: 1
%%DocumentData: Clean7Bit
%%LanguageLevel: 2
%%BoundingBox: 36 12 348 366
%%EndComments
%%BeginProlog
50 dict begin
/q { gsave } bind def
/Q { grestore } bind def
/cm { 6 array astore concat } bind def
/w { setlinewidth } bind def
/J { setlinecap } bind def
/j { setlinejoin } bind def
/M { setmiterlimit } bind def
/d { setdash } bind def
/m { moveto } bind def
/l { lineto } bind def
/c { curveto } bind def
/h { closepath } bind def
/re { exch dup neg 3 1 roll 5 3 roll moveto 0 rlineto
      0 exch rlineto 0 rlineto closepath } bind def
/S { stroke } bind def
/f { fill } bind def
/f* { eofill } bind def
/n { newpath } bind def
/W { clip } bind def
/W* { eoclip } bind def
/BT { } bind def
/ET { } bind def
/BDC { mark 3 1 roll /BDC pdfmark } bind def
/EMC { mark /EMC pdfmark } bind def
/cairo_store_point { /cairo_point_y exch def /cairo_point_x exch def } def
/Tj { show currentpoint cairo_store_point } bind def
/TJ {
  {
    dup
    type /stringtype eq
    { show } { -0.001 mul 0 cairo_font_matrix dtransform rmoveto } ifelse
  } forall
  currentpoint cairo_store_point
} bind def
/cairo_selectfont { cairo_font_matrix aload pop pop pop 0 0 6 array astore
    cairo_font exch selectfont cairo_point_x cairo_point_y moveto } bind def
/Tf { pop /cairo_font exch def /cairo_font_matrix where
      { pop cairo_selectfont } if } bind def
/Td { matrix translate cairo_font_matrix matrix concatmatrix dup
      /cairo_font_matrix exch def dup 4 get exch 5 get cairo_store_point
      /cairo_font where { pop cairo_selectfont } if } bind def
/Tm { 2 copy 8 2 roll 6 array astore /cairo_font_matrix exch def
      cairo_store_point /cairo_font where { pop cairo_selectfont } if } bind def
/g { setgray } bind def
/rg { setrgbcolor } bind def
/d1 { setcachedevice } bind def
/cairo_data_source {
  CairoDataIndex CairoData length lt
    { CairoData CairoDataIndex get /CairoDataIndex CairoDataIndex 1 add def }
    { () } ifelse
} def
/cairo_flush_ascii85_file { cairo_ascii85_file status { cairo_ascii85_file flushfile } if } def
/cairo_image { image cairo_flush_ascii85_file } def
/cairo_imagemask { imagemask cairo_flush_ascii85_file } def
%%EndProlog
%%BeginSetup
%%EndSetup
%%Page: 1 1
%%BeginPageSetup
%%PageBoundingBox: 36 12 348 366
%%EndPageSetup
q 36 12 312 354 rectclip
1 0 0 -1 0 384 cm q
0.301961 0.388235 0.470588 rg
264 198 m 264 300 l 282 300 l 294 228 l 306 300 l 324 300 l 324 198 l h
264 198 m f
0.960784 0.788235 0.615686 rg
324 228 m 330 228 l 336.629 228 342 222.629 342 216 c 342 168 l 324 168
 l h
324 228 m f
246 168 m 246 216 l 246 222.629 251.371 228 258 228 c 264 228 l 264 168
 l h
246 168 m f
0.964706 0.733333 0 rg
282 126 m 263.938 133.227 l 256.316 136.273 250.273 142.316 247.227 149.938
 c 240 168 l 264 180 l 264 198 l 324 198 l 324 180 l 348 168 l 340.773 149.938
 l 337.727 142.316 331.684 136.273 324.062 133.227 c 306 126 l h
282 126 m f
0.870588 0.580392 0 rg
288 132 12 42 re f
0.960784 0.788235 0.615686 rg
312 102 m 312 120 l 312 129.941 303.941 138 294 138 c 284.059 138 276 129.941
 276 120 c 276 102 l h
312 102 m f
0.694118 0.47451 0.172549 rg
312 102 m 276 102 l 276 87.707 l 276 82.348 280.348 78 285.707 78 c 287.215
 78 288.703 78.352 290.051 79.023 c 312 90 l h
312 102 m f
0.301961 0.388235 0.470588 rg
120 198 m 120 300 l 102 300 l 90 228 l 78 300 l 60 300 l 60 198 l h
120 198 m f
0.960784 0.788235 0.615686 rg
60 228 m 54 228 l 47.371 228 42 222.629 42 216 c 42 168 l 60 168 l h
60 228 m f
138 168 m 138 216 l 138 222.629 132.629 228 126 228 c 120 228 l 120 168
 l h
138 168 m f
0.964706 0.733333 0 rg
102 126 m 120.062 133.227 l 127.684 136.273 133.727 142.316 136.773 149.938
 c 144 168 l 120 180 l 120 198 l 60 198 l 60 180 l 36 168 l 43.227 149.938
 l 46.273 142.316 52.316 136.273 59.938 133.227 c 78 126 l h
102 126 m f
0.870588 0.580392 0 rg
84 132 12 42 re f
0.960784 0.788235 0.615686 rg
72 102 m 72 120 l 72 129.941 80.059 138 90 138 c 99.941 138 108 129.941
 108 120 c 108 102 l h
72 102 m f
0.694118 0.47451 0.172549 rg
72 102 m 108 102 l 108 87.707 l 108 85.133 106.977 82.664 105.156 80.844
 c 103.336 79.023 100.867 78 98.293 78 c 96.785 78 95.297 78.352 93.949 
79.023 c 72 90 l h
72 102 m f
0.301961 0.388235 0.470588 rg
222 138 m 222 228 l 204 228 l 192 168 l 180 228 l 162 228 l 162 138 l h
222 138 m f
0.960784 0.788235 0.615686 rg
162 168 m 156 168 l 149.371 168 144 162.629 144 156 c 144 108 l 162 108
 l h
162 168 m f
240 108 m 240 156 l 240 162.629 234.629 168 228 168 c 222 168 l 222 108
 l h
240 108 m f
0.964706 0.733333 0 rg
270 228 m 192 228 l 192 300 l 276 300 l 276 234 l 276 230.688 273.312 228
 270 228 c h
270 228 m f
0.929412 0.65098 0 rg
114 228 m 192 228 l 192 300 l 108 300 l 108 234 l 108 230.688 110.688 228
 114 228 c h
114 228 m f
1 0.882353 0.501961 rg
216 246 12 12 re f
240 246 12 12 re f
216 270 12 12 re f
240 270 12 12 re f
0.980392 0.776471 0.137255 rg
192 300 144 72 re f
1 0.882353 0.501961 rg
156 246 12 12 re f
132 246 12 12 re f
156 270 12 12 re f
132 270 12 12 re f
294 318 12 12 re f
270 318 12 12 re f
246 318 12 12 re f
222 318 12 12 re f
294 342 12 12 re f
270 342 12 12 re f
246 342 12 12 re f
222 342 12 12 re f
0.964706 0.733333 0 rg
204 66 m 222.062 73.227 l 229.684 76.273 235.727 82.316 238.773 89.938 
c 246 108 l 222 120 l 222 138 l 162 138 l 162 120 l 138 108 l 145.227 89.938
 l 148.273 82.316 154.316 76.273 161.938 73.227 c 180 66 l h
204 66 m f
0.870588 0.580392 0 rg
186 72 12 42 re f
0.960784 0.788235 0.615686 rg
174 42 m 174 60 l 174 69.941 182.059 78 192 78 c 201.941 78 210 69.941 
210 60 c 210 42 l h
174 42 m f
0.694118 0.47451 0.172549 rg
174 42 m 210 42 l 210 27.707 l 210 22.348 205.652 18 200.293 18 c 198.785
 18 197.297 18.352 195.949 19.023 c 174 30 l h
174 42 m f
0.964706 0.733333 0 rg
48 300 144 72 re f
1 0.882353 0.501961 rg
150 318 12 12 re f
126 318 12 12 re f
102 318 12 12 re f
78 318 12 12 re f
150 342 12 12 re f
126 342 12 12 re f
102 342 12 12 re f
78 342 12 12 re f
Q Q
showpage
%%Trailer
end
%%EOF
