%!PS-Adobe-3.0 EPSF-3.0
%%Creator: cairo 1.16.0 (https://cairographics.org)
%%CreationDate: Fri Sep 20 08:56:06 2019
%%Pages: 1
%%DocumentData: Clean7Bit
%%LanguageLevel: 2
%%BoundingBox: 18 36 366 342
%%EndComments
%%BeginProlog
50 dict begin
/q { gsave } bind def
/Q { grestore } bind def
/cm { 6 array astore concat } bind def
/w { setlinewidth } bind def
/J { setlinecap } bind def
/j { setlinejoin } bind def
/M { setmiterlimit } bind def
/d { setdash } bind def
/m { moveto } bind def
/l { lineto } bind def
/c { curveto } bind def
/h { closepath } bind def
/re { exch dup neg 3 1 roll 5 3 roll moveto 0 rlineto
      0 exch rlineto 0 rlineto closepath } bind def
/S { stroke } bind def
/f { fill } bind def
/f* { eofill } bind def
/n { newpath } bind def
/W { clip } bind def
/W* { eoclip } bind def
/BT { } bind def
/ET { } bind def
/BDC { mark 3 1 roll /BDC pdfmark } bind def
/EMC { mark /EMC pdfmark } bind def
/cairo_store_point { /cairo_point_y exch def /cairo_point_x exch def } def
/Tj { show currentpoint cairo_store_point } bind def
/TJ {
  {
    dup
    type /stringtype eq
    { show } { -0.001 mul 0 cairo_font_matrix dtransform rmoveto } ifelse
  } forall
  currentpoint cairo_store_point
} bind def
/cairo_selectfont { cairo_font_matrix aload pop pop pop 0 0 6 array astore
    cairo_font exch selectfont cairo_point_x cairo_point_y moveto } bind def
/Tf { pop /cairo_font exch def /cairo_font_matrix where
      { pop cairo_selectfont } if } bind def
/Td { matrix translate cairo_font_matrix matrix concatmatrix dup
      /cairo_font_matrix exch def dup 4 get exch 5 get cairo_store_point
      /cairo_font where { pop cairo_selectfont } if } bind def
/Tm { 2 copy 8 2 roll 6 array astore /cairo_font_matrix exch def
      cairo_store_point /cairo_font where { pop cairo_selectfont } if } bind def
/g { setgray } bind def
/rg { setrgbcolor } bind def
/d1 { setcachedevice } bind def
/cairo_data_source {
  CairoDataIndex CairoData length lt
    { CairoData CairoDataIndex get /CairoDataIndex CairoDataIndex 1 add def }
    { () } ifelse
} def
/cairo_flush_ascii85_file { cairo_ascii85_file status { cairo_ascii85_file flushfile } if } def
/cairo_image { image cairo_flush_ascii85_file } def
/cairo_imagemask { imagemask cairo_flush_ascii85_file } def
%%EndProlog
%%BeginSetup
%%EndSetup
%%Page: 1 1
%%BeginPageSetup
%%PageBoundingBox: 18 36 366 342
%%EndPageSetup
q 18 36 348 306 rectclip
1 0 0 -1 0 384 cm q
0.258824 0.337255 0.419608 rg
36 222 m 18 282 l 18 348 l 36 348 l 48 294 l 60 264 l 60 222 l h
36 222 m f
0.964706 0.733333 0 rg
123.496 163.98 m 121.363 155.453 l 117.93 141.719 l 115.379 131.523 109.555
 122.445 101.348 115.875 c 88.926 105.945 l 85.738 103.391 81.773 101.996
 77.684 102 c 54 102 l 45.742 110.258 l 35.758 120.242 30.676 134.113 31.852
 148.184 c 36 198 l 93.43 198 l 90 222 l 102 228 l 121.809 183.441 l 124.523
 177.324 125.117 170.473 123.496 163.98 c h
123.496 163.98 m f
0.258824 0.337255 0.419608 rg
300 216 m 300 282 l 282 342 l 300 348 l 336 276 l 336 216 l h
300 216 m f
0.301961 0.388235 0.470588 rg
360 198 m 360 216 l 366 264 l 366 348 l 348 348 l 336 276 l 300 234 l 300
 198 l h
360 198 m f
228 198 m 240 348 l 222 348 l 198 234 l 174 348 l 156 348 l 168 198 l h
228 198 m f
0.964706 0.733333 0 rg
269.211 180.277 m 264 222 l 252 222 l 246.254 176.039 l 246.086 174.691
 245.688 173.379 245.078 172.164 c 240 162 l 234 150 l 228 198 l 168 198
 l 162 150 l 156 162 l 150.922 172.164 l 150.312 173.379 149.914 174.691
 149.746 176.039 c 144 222 l 132 222 l 126.789 180.277 l 126.27 176.137 
126.621 171.938 127.816 167.941 c 133.043 150.516 l 137.551 135.488 l 141.637
 121.871 151.551 110.766 164.617 105.164 c 186 96 l 210 96 l 231.383 105.164
 l 244.449 110.766 254.363 121.871 258.449 135.488 c 262.957 150.516 l 268.184
 167.941 l 269.379 171.938 269.73 176.137 269.211 180.277 c h
269.211 180.277 m f
350.258 110.258 m 342 102 l 318.312 102 l 314.227 102 310.262 103.391 307.07
 105.941 c 292.672 117.457 l 285.75 123 280.836 130.656 278.684 139.262 
c 274.637 155.453 l 272.871 162.512 l 271.027 169.895 272.055 177.703 275.754
 184.359 c 300 228 l 312 222 l 305.141 198 l 360 198 l 364.148 148.184 l
 365.324 134.113 360.242 120.242 350.258 110.258 c h
350.258 110.258 m f
0.960784 0.788235 0.615686 rg
312 222 m 300 228 l 275.754 184.359 l 272.055 177.703 271.027 169.895 272.871
 162.512 c 274.637 155.453 l 304.965 167.586 l 301.523 176.191 l 300.535
 178.66 300.395 181.387 301.125 183.945 c h
312 222 m f
0.870588 0.580392 0 rg
342 162 m 330 162 l 330 126.973 l 322.309 103.898 l 333.691 100.102 l 341.691
 124.102 l 341.895 124.715 342 125.355 342 126 c h
342 162 m f
0.301961 0.388235 0.470588 rg
36 198 m 36 222 l 54 240 l 66 288 l 90 348 l 108 348 l 96 270 l 96 198 
l h
36 198 m f
0.870588 0.580392 0 rg
66 162 m 54 162 l 54 126 l 54 125.355 54.105 124.715 54.309 124.102 c 62.309
 100.102 l 73.691 103.898 l 66 126.973 l h
66 162 m f
192 132 12 36 re f
192 96 12 24 re f
0.960784 0.788235 0.615686 rg
156 162 m 150.922 172.164 l 150.312 173.379 149.914 174.691 149.746 176.039
 c 144 222 l 132 222 l 126.789 180.277 l 126.27 176.137 126.621 171.938 
127.816 167.941 c 133.043 150.516 l h
156 162 m f
269.211 180.277 m 264 222 l 252 222 l 246.254 176.039 l 246.086 174.691
 245.688 173.379 245.078 172.164 c 240 162 l 262.957 150.516 l 268.184 167.941
 l 269.379 171.938 269.73 176.137 269.211 180.277 c h
269.211 180.277 m f
0.388235 0.239216 0.8 rg
273.316 248.051 m 260.293 222 l 255.707 222 l 242.684 248.051 l 231.949
 242.684 l 246.633 213.316 l 247.648 211.285 249.727 210 252 210 c 264 210
 l 266.273 210 268.352 211.285 269.367 213.316 c 284.051 242.684 l h
273.316 248.051 m f
0.494118 0.341176 0.87451 rg
198 240 120 66 re f
0.6 0.466667 0.929412 rg
198 240 m 222 270 l 294 270 l 318 240 l h
198 240 m f
0.388235 0.239216 0.8 rg
234 258 12 30 re f
270 258 12 30 re f
0.960784 0.788235 0.615686 rg
312 72 m 312 90 l 312 99.941 320.059 108 330 108 c 339.941 108 348 99.941
 348 90 c 348 72 l h
312 72 m f
0.694118 0.47451 0.172549 rg
312 72 m 348 72 l 348 57.707 l 348 55.133 346.977 52.664 345.156 50.844
 c 343.336 49.023 340.867 48 338.293 48 c 336.785 48 335.297 48.352 333.949
 49.023 c 312 60 l h
312 72 m f
0.960784 0.788235 0.615686 rg
180 66 m 180 84 l 180 93.941 188.059 102 198 102 c 207.941 102 216 93.941
 216 84 c 216 66 l h
180 66 m f
0.694118 0.47451 0.172549 rg
180 66 m 216 66 l 216 51.707 l 216 46.348 211.652 42 206.293 42 c 204.785
 42 203.297 42.352 201.949 43.023 c 180 54 l h
180 66 m f
0.960784 0.788235 0.615686 rg
84 72 m 84 90 l 84 99.941 75.941 108 66 108 c 56.059 108 48 99.941 48 90
 c 48 72 l h
84 72 m f
0.694118 0.47451 0.172549 rg
84 72 m 48 72 l 48 57.707 l 48 52.348 52.348 48 57.707 48 c 59.215 48 60.703
 48.352 62.051 49.023 c 84 60 l h
84 72 m f
0.960784 0.788235 0.615686 rg
121.809 183.441 m 102 228 l 90 222 l 95.551 183.172 l 95.844 181.094 95.586
 178.973 94.809 177.023 c 91.035 167.586 l 121.363 155.453 l 123.496 163.98
 l 125.117 170.473 124.523 177.324 121.809 183.441 c h
121.809 183.441 m f
Q Q
showpage
%%Trailer
end
%%EOF
