%!PS-Adobe-3.0 EPSF-3.0
%%Creator: cairo 1.16.0 (https://cairographics.org)
%%CreationDate: Fri Sep 20 08:56:07 2019
%%Pages: 1
%%DocumentData: Clean7Bit
%%LanguageLevel: 2
%%BoundingBox: 18 18 366 366
%%EndComments
%%BeginProlog
50 dict begin
/q { gsave } bind def
/Q { grestore } bind def
/cm { 6 array astore concat } bind def
/w { setlinewidth } bind def
/J { setlinecap } bind def
/j { setlinejoin } bind def
/M { setmiterlimit } bind def
/d { setdash } bind def
/m { moveto } bind def
/l { lineto } bind def
/c { curveto } bind def
/h { closepath } bind def
/re { exch dup neg 3 1 roll 5 3 roll moveto 0 rlineto
      0 exch rlineto 0 rlineto closepath } bind def
/S { stroke } bind def
/f { fill } bind def
/f* { eofill } bind def
/n { newpath } bind def
/W { clip } bind def
/W* { eoclip } bind def
/BT { } bind def
/ET { } bind def
/BDC { mark 3 1 roll /BDC pdfmark } bind def
/EMC { mark /EMC pdfmark } bind def
/cairo_store_point { /cairo_point_y exch def /cairo_point_x exch def } def
/Tj { show currentpoint cairo_store_point } bind def
/TJ {
  {
    dup
    type /stringtype eq
    { show } { -0.001 mul 0 cairo_font_matrix dtransform rmoveto } ifelse
  } forall
  currentpoint cairo_store_point
} bind def
/cairo_selectfont { cairo_font_matrix aload pop pop pop 0 0 6 array astore
    cairo_font exch selectfont cairo_point_x cairo_point_y moveto } bind def
/Tf { pop /cairo_font exch def /cairo_font_matrix where
      { pop cairo_selectfont } if } bind def
/Td { matrix translate cairo_font_matrix matrix concatmatrix dup
      /cairo_font_matrix exch def dup 4 get exch 5 get cairo_store_point
      /cairo_font where { pop cairo_selectfont } if } bind def
/Tm { 2 copy 8 2 roll 6 array astore /cairo_font_matrix exch def
      cairo_store_point /cairo_font where { pop cairo_selectfont } if } bind def
/g { setgray } bind def
/rg { setrgbcolor } bind def
/d1 { setcachedevice } bind def
/cairo_data_source {
  CairoDataIndex CairoData length lt
    { CairoData CairoDataIndex get /CairoDataIndex CairoDataIndex 1 add def }
    { () } ifelse
} def
/cairo_flush_ascii85_file { cairo_ascii85_file status { cairo_ascii85_file flushfile } if } def
/cairo_image { image cairo_flush_ascii85_file } def
/cairo_imagemask { imagemask cairo_flush_ascii85_file } def
%%EndProlog
%%BeginSetup
%%EndSetup
%%Page: 1 1
%%BeginPageSetup
%%PageBoundingBox: 18 18 366 366
%%EndPageSetup
q 18 18 348 348 rectclip
1 0 0 -1 0 384 cm q
0.964706 0.733333 0 rg
252 108 m 246.855 132.426 l 228 222 l 156 222 l 137.145 132.426 l 132 108
 l 138 66 l 156 66 l 156 102 l 164.398 118.801 l 174 138 l 210 138 l 219.602
 118.801 l 228 102 l 228 66 l 246 66 l h
252 108 m f
0.301961 0.388235 0.470588 rg
228 222 m 234 366 l 216 366 l 192 264 l 168 366 l 150 366 l 156 222 l h
228 222 m f
0.870588 0.580392 0 rg
186 150 12 24 re f
186 186 12 36 re f
0.964706 0.733333 0 rg
212.484 56.484 m 218.578 62.578 226.84 66 235.457 66 c 342 66 l 342 48 
l 249.926 42.582 l 243.531 42.207 237.5 39.5 232.969 34.969 c 222.105 24.105
 207.367 18 192 18 c 176.633 18 161.895 24.105 151.031 34.969 c 146.5 39.5
 140.469 42.207 134.074 42.582 c 42 48 l 42 66 l 148.543 66 l 157.16 66 
165.422 62.578 171.516 56.484 c 176.949 51.051 184.316 48 192 48 c 199.684
 48 207.051 51.051 212.484 56.484 c h
212.484 56.484 m f
0.870588 0.580392 0 rg
344.367 157.668 m 318 83.84 l 291.633 157.668 l 280.332 153.633 l 312.352
 63.98 l 313.203 61.594 315.465 60 318 60 c 320.535 60 322.797 61.594 323.648
 63.98 c 355.668 153.633 l h
344.367 157.668 m f
0.960784 0.788235 0.615686 rg
164.398 118.801 m 137.145 132.426 l 132 108 l 138 66 l 156 66 l 156 102
 l h
164.398 118.801 m f
252 108 m 246.855 132.426 l 219.602 118.801 l 228 102 l 228 66 l 246 66
 l h
252 108 m f
0.964706 0.733333 0 rg
270 150 m 366 150 l 366 156 l 366 182.508 344.508 204 318 204 c 291.492
 204 270 182.508 270 156 c h
270 150 m f
0.960784 0.788235 0.615686 rg
174 120 m 174 138 l 174 147.941 182.059 156 192 156 c 201.941 156 210 147.941
 210 138 c 210 120 l h
174 120 m f
0.694118 0.47451 0.172549 rg
174 120 m 210 120 l 210 105.707 l 210 100.348 205.652 96 200.293 96 c 198.785
 96 197.297 96.352 195.949 97.023 c 174 108 l h
174 120 m f
0.870588 0.580392 0 rg
92.367 157.668 m 66 83.84 l 39.633 157.668 l 28.332 153.633 l 60.352 63.98
 l 61.203 61.594 63.465 60 66 60 c 68.535 60 70.797 61.594 71.648 63.98 
c 103.668 153.633 l h
92.367 157.668 m f
0.964706 0.733333 0 rg
18 150 m 114 150 l 114 156 l 114 182.508 92.508 204 66 204 c 39.492 204
 18 182.508 18 156 c h
18 150 m f
Q Q
showpage
%%Trailer
end
%%EOF
