%!PS-Adobe-3.0 EPSF-3.0
%%Creator: cairo 1.16.0 (https://cairographics.org)
%%CreationDate: Fri Sep 20 08:56:07 2019
%%Pages: 1
%%DocumentData: Clean7Bit
%%LanguageLevel: 2
%%BoundingBox: 18 18 366 366
%%EndComments
%%BeginProlog
50 dict begin
/q { gsave } bind def
/Q { grestore } bind def
/cm { 6 array astore concat } bind def
/w { setlinewidth } bind def
/J { setlinecap } bind def
/j { setlinejoin } bind def
/M { setmiterlimit } bind def
/d { setdash } bind def
/m { moveto } bind def
/l { lineto } bind def
/c { curveto } bind def
/h { closepath } bind def
/re { exch dup neg 3 1 roll 5 3 roll moveto 0 rlineto
      0 exch rlineto 0 rlineto closepath } bind def
/S { stroke } bind def
/f { fill } bind def
/f* { eofill } bind def
/n { newpath } bind def
/W { clip } bind def
/W* { eoclip } bind def
/BT { } bind def
/ET { } bind def
/BDC { mark 3 1 roll /BDC pdfmark } bind def
/EMC { mark /EMC pdfmark } bind def
/cairo_store_point { /cairo_point_y exch def /cairo_point_x exch def } def
/Tj { show currentpoint cairo_store_point } bind def
/TJ {
  {
    dup
    type /stringtype eq
    { show } { -0.001 mul 0 cairo_font_matrix dtransform rmoveto } ifelse
  } forall
  currentpoint cairo_store_point
} bind def
/cairo_selectfont { cairo_font_matrix aload pop pop pop 0 0 6 array astore
    cairo_font exch selectfont cairo_point_x cairo_point_y moveto } bind def
/Tf { pop /cairo_font exch def /cairo_font_matrix where
      { pop cairo_selectfont } if } bind def
/Td { matrix translate cairo_font_matrix matrix concatmatrix dup
      /cairo_font_matrix exch def dup 4 get exch 5 get cairo_store_point
      /cairo_font where { pop cairo_selectfont } if } bind def
/Tm { 2 copy 8 2 roll 6 array astore /cairo_font_matrix exch def
      cairo_store_point /cairo_font where { pop cairo_selectfont } if } bind def
/g { setgray } bind def
/rg { setrgbcolor } bind def
/d1 { setcachedevice } bind def
/cairo_data_source {
  CairoDataIndex CairoData length lt
    { CairoData CairoDataIndex get /CairoDataIndex CairoDataIndex 1 add def }
    { () } ifelse
} def
/cairo_flush_ascii85_file { cairo_ascii85_file status { cairo_ascii85_file flushfile } if } def
/cairo_image { image cairo_flush_ascii85_file } def
/cairo_imagemask { imagemask cairo_flush_ascii85_file } def
%%EndProlog
%%BeginSetup
%%EndSetup
%%Page: 1 1
%%BeginPageSetup
%%PageBoundingBox: 18 18 366 366
%%EndPageSetup
q 18 18 348 348 rectclip
1 0 0 -1 0 384 cm q
0.964706 0.733333 0 rg
234 230.348 m 234 366 l 36 366 l 36 270 l 18 270 l 18 230.348 l 18 213.938
 26.387 198.664 40.23 189.855 c 78.938 165.227 l 84 162 l 168 162 l 173.109
 165.254 l 211.77 189.855 l 225.613 198.664 234 213.938 234 230.348 c h
234 230.348 m f
0.929412 0.65098 0 rg
36 312 60 54 re f
0.317647 0.494118 0.968627 rg
108 240 48 78 re f
0.960784 0.788235 0.615686 rg
18 270 m 18 294 l 18 320.508 39.492 342 66 342 c 186 342 l 186 330.859 
181.574 320.18 173.699 312.301 c 165.82 304.426 155.141 300 144 300 c 132.262
 300 120.789 303.473 111.023 309.984 c 109.176 311.215 106.785 311.273 104.883
 310.129 c 83.824 297.496 l 80.211 295.328 78 291.422 78 287.207 c 78 270
 l h
18 270 m f
0.301961 0.388235 0.470588 rg
173.109 165.254 m 137.445 242.512 l 136.52 244.52 134.566 245.859 132.359
 245.992 c 132.238 246 132.121 246 132 246 c 129.918 246 127.98 244.918 
126.891 243.141 c 78.938 165.227 l 84 162 l 91.043 162 l 131.242 227.324
 l 161.391 162 l 168 162 l h
173.109 165.254 m f
0.388235 0.239216 0.8 rg
258 240 m 356.691 240 l 361.832 240 366 244.168 366 249.309 c 366 251.066
 365.5 252.789 364.562 254.277 c 301.062 354.816 l 296.668 361.777 289.008
 366 280.773 366 c 192 366 l h
258 240 m f
0.6 0.466667 0.929412 rg
198 366 m 84 366 l 74.059 366 66 357.941 66 348 c 66 342 l 198 342 l h
198 366 m f
0.494118 0.341176 0.87451 rg
186 366 m 249.016 245.699 l 250.852 242.195 254.477 240 258.434 240 c 262.152
 240 265.602 241.945 267.527 245.129 c 269.453 248.309 269.574 252.266 267.848
 255.562 c 216.738 353.137 l 212.594 361.043 204.406 366 195.477 366 c h
186 366 m f
0.960784 0.788235 0.615686 rg
72 60 m 72 126 l 72 140.32 77.688 154.059 87.816 164.184 c 97.941 174.312
 111.68 180 126 180 c 140.32 180 154.059 174.312 164.184 164.184 c 174.312
 154.059 180 140.32 180 126 c 180 60 l 162 36 l 96 36 l h
72 60 m f
0.694118 0.47451 0.172549 rg
180 66 m 129 66 l 114.09 66 102 53.91 102 39 c 102 36 l 102 26.059 110.059
 18 120 18 c 138 18 l 161.195 18 180 36.805 180 60 c h
180 66 m f
0.584314 0.4 0.145098 rg
72 66 m 72 42 l 72 32.059 80.059 24 90 24 c 96.629 24 102 29.371 102 36
 c 102 43.027 l 102 55.715 91.715 66 79.027 66 c h
72 66 m f
0.694118 0.47451 0.172549 rg
138 84 24 12 re f
89.965 96 m 89.965 84 l 113.965 84 l 114 96 l h
89.965 96 m f
0.360784 0.45098 0.529412 rg
132 258 m 130.41 258 128.883 257.367 127.758 256.242 c 126.633 255.117 
126 253.59 126 252 c 126 240 l 126 236.688 128.688 234 132 234 c 135.312
 234 138 236.688 138 240 c 138 252 l 138 253.59 137.367 255.117 136.242 
256.242 c 135.117 257.367 133.59 258 132 258 c h
132 258 m f
0.929412 0.65098 0 rg
192 342 m 180 342 l 179.977 322.129 163.871 306.023 144 306 c 133.445 305.988
 123.129 309.113 114.352 314.977 c 111.328 316.992 l 109.398 318.277 106.902
 318.34 104.914 317.145 c 80.738 302.641 l 75.332 299.375 72.02 293.523 
72 287.207 c 72 240 l 84 240 l 84 287.207 l 84.008 289.312 85.109 291.262
 86.914 292.352 c 107.832 304.902 l 118.547 297.781 131.133 293.988 144 
294 c 170.496 294.031 191.969 315.504 192 342 c h
192 342 m f
0.584314 0.4 0.145098 rg
156 108 m 156 111.312 153.312 114 150 114 c 146.688 114 144 111.312 144
 108 c 144 104.688 146.688 102 150 102 c 153.312 102 156 104.688 156 108
 c h
156 108 m f
108 108 m 108 111.312 105.312 114 102 114 c 98.688 114 96 111.312 96 108
 c 96 104.688 98.688 102 102 102 c 105.312 102 108 104.688 108 108 c h
108 108 m f
0.780392 0.576471 0.411765 rg
120 150 m 114 150 l 114 138 l 120 138 l 123.312 137.996 125.996 135.312
 126 132 c 126 120 l 138 120 l 138 132 l 137.988 141.938 129.938 149.988
 120 150 c h
120 150 m f
Q Q
showpage
%%Trailer
end
%%EOF
