%!PS-Adobe-3.0 EPSF-3.0
%%Creator: cairo 1.16.0 (https://cairographics.org)
%%CreationDate: Fri Sep 20 08:56:07 2019
%%Pages: 1
%%DocumentData: Clean7Bit
%%LanguageLevel: 2
%%BoundingBox: 18 18 366 366
%%EndComments
%%BeginProlog
50 dict begin
/q { gsave } bind def
/Q { grestore } bind def
/cm { 6 array astore concat } bind def
/w { setlinewidth } bind def
/J { setlinecap } bind def
/j { setlinejoin } bind def
/M { setmiterlimit } bind def
/d { setdash } bind def
/m { moveto } bind def
/l { lineto } bind def
/c { curveto } bind def
/h { closepath } bind def
/re { exch dup neg 3 1 roll 5 3 roll moveto 0 rlineto
      0 exch rlineto 0 rlineto closepath } bind def
/S { stroke } bind def
/f { fill } bind def
/f* { eofill } bind def
/n { newpath } bind def
/W { clip } bind def
/W* { eoclip } bind def
/BT { } bind def
/ET { } bind def
/BDC { mark 3 1 roll /BDC pdfmark } bind def
/EMC { mark /EMC pdfmark } bind def
/cairo_store_point { /cairo_point_y exch def /cairo_point_x exch def } def
/Tj { show currentpoint cairo_store_point } bind def
/TJ {
  {
    dup
    type /stringtype eq
    { show } { -0.001 mul 0 cairo_font_matrix dtransform rmoveto } ifelse
  } forall
  currentpoint cairo_store_point
} bind def
/cairo_selectfont { cairo_font_matrix aload pop pop pop 0 0 6 array astore
    cairo_font exch selectfont cairo_point_x cairo_point_y moveto } bind def
/Tf { pop /cairo_font exch def /cairo_font_matrix where
      { pop cairo_selectfont } if } bind def
/Td { matrix translate cairo_font_matrix matrix concatmatrix dup
      /cairo_font_matrix exch def dup 4 get exch 5 get cairo_store_point
      /cairo_font where { pop cairo_selectfont } if } bind def
/Tm { 2 copy 8 2 roll 6 array astore /cairo_font_matrix exch def
      cairo_store_point /cairo_font where { pop cairo_selectfont } if } bind def
/g { setgray } bind def
/rg { setrgbcolor } bind def
/d1 { setcachedevice } bind def
/cairo_data_source {
  CairoDataIndex CairoData length lt
    { CairoData CairoDataIndex get /CairoDataIndex CairoDataIndex 1 add def }
    { () } ifelse
} def
/cairo_flush_ascii85_file { cairo_ascii85_file status { cairo_ascii85_file flushfile } if } def
/cairo_image { image cairo_flush_ascii85_file } def
/cairo_imagemask { imagemask cairo_flush_ascii85_file } def
%%EndProlog
%%BeginSetup
%%EndSetup
%%Page: 1 1
%%BeginPageSetup
%%PageBoundingBox: 18 18 366 366
%%EndPageSetup
q 18 18 348 348 rectclip
1 0 0 -1 0 384 cm q
0.811765 0.513726 0 rg
72 336 m 72 342 l 72 355.254 82.746 366 96 366 c 342 366 l 355.254 366 
366 355.254 366 342 c 366 60 l 72 60 l h
72 336 m f
0.870588 0.580392 0 rg
336 60 m 336 342 l 336 355.254 325.254 366 312 366 c 96 366 l 82.746 366
 72 355.254 72 342 c 72 60 l h
336 60 m f
0.964706 0.733333 0 rg
306 60 m 306 306 l 306 322.57 292.57 336 276 336 c 54 336 l 54 60 l h
306 60 m f
0.231373 0.341176 0.768627 rg
306 60 m 366 60 l 366 42 l 366 28.746 355.254 18 342 18 c 306 18 l h
306 60 m f
0.282353 0.419608 0.878431 rg
282 18 m 312 18 l 325.254 18 336 28.746 336 42 c 336 60 l 282 60 l h
282 18 m f
0.329412 0.541176 1 rg
78 18 m 282 18 l 295.254 18 306 28.746 306 42 c 306 60 l 54 60 l 54 42 
l 54 28.746 64.746 18 78 18 c h
78 18 m f
0.988235 0.831373 0.32549 rg
18 294 m 18 306 l 18 322.57 31.43 336 48 336 c 276 336 l 259.43 336 246
 322.57 246 306 c 246 294 l h
18 294 m f
0.937255 0.286275 0.301961 rg
210 132 m 210 148.57 196.57 162 180 162 c 163.43 162 150 148.57 150 132
 c 150 115.43 163.43 102 180 102 c 196.57 102 210 115.43 210 132 c h
210 132 m f
0.811765 0.513726 0 rg
138 186 12 12 re f
210 186 12 12 re f
162 186 36 12 re f
120 216 30 12 re f
162 216 78 12 re f
120 246 66 12 re f
198 246 42 12 re f
Q Q
showpage
%%Trailer
end
%%EOF
