%!PS-Adobe-3.0 EPSF-3.0
%%Creator: cairo 1.16.0 (https://cairographics.org)
%%CreationDate: Fri Sep 20 08:56:07 2019
%%Pages: 1
%%DocumentData: Clean7Bit
%%LanguageLevel: 2
%%BoundingBox: 48 18 336 366
%%EndComments
%%BeginProlog
50 dict begin
/q { gsave } bind def
/Q { grestore } bind def
/cm { 6 array astore concat } bind def
/w { setlinewidth } bind def
/J { setlinecap } bind def
/j { setlinejoin } bind def
/M { setmiterlimit } bind def
/d { setdash } bind def
/m { moveto } bind def
/l { lineto } bind def
/c { curveto } bind def
/h { closepath } bind def
/re { exch dup neg 3 1 roll 5 3 roll moveto 0 rlineto
      0 exch rlineto 0 rlineto closepath } bind def
/S { stroke } bind def
/f { fill } bind def
/f* { eofill } bind def
/n { newpath } bind def
/W { clip } bind def
/W* { eoclip } bind def
/BT { } bind def
/ET { } bind def
/BDC { mark 3 1 roll /BDC pdfmark } bind def
/EMC { mark /EMC pdfmark } bind def
/cairo_store_point { /cairo_point_y exch def /cairo_point_x exch def } def
/Tj { show currentpoint cairo_store_point } bind def
/TJ {
  {
    dup
    type /stringtype eq
    { show } { -0.001 mul 0 cairo_font_matrix dtransform rmoveto } ifelse
  } forall
  currentpoint cairo_store_point
} bind def
/cairo_selectfont { cairo_font_matrix aload pop pop pop 0 0 6 array astore
    cairo_font exch selectfont cairo_point_x cairo_point_y moveto } bind def
/Tf { pop /cairo_font exch def /cairo_font_matrix where
      { pop cairo_selectfont } if } bind def
/Td { matrix translate cairo_font_matrix matrix concatmatrix dup
      /cairo_font_matrix exch def dup 4 get exch 5 get cairo_store_point
      /cairo_font where { pop cairo_selectfont } if } bind def
/Tm { 2 copy 8 2 roll 6 array astore /cairo_font_matrix exch def
      cairo_store_point /cairo_font where { pop cairo_selectfont } if } bind def
/g { setgray } bind def
/rg { setrgbcolor } bind def
/d1 { setcachedevice } bind def
/cairo_data_source {
  CairoDataIndex CairoData length lt
    { CairoData CairoDataIndex get /CairoDataIndex CairoDataIndex 1 add def }
    { () } ifelse
} def
/cairo_flush_ascii85_file { cairo_ascii85_file status { cairo_ascii85_file flushfile } if } def
/cairo_image { image cairo_flush_ascii85_file } def
/cairo_imagemask { imagemask cairo_flush_ascii85_file } def
%%EndProlog
%%BeginSetup
%%EndSetup
%%Page: 1 1
%%BeginPageSetup
%%PageBoundingBox: 48 18 336 366
%%EndPageSetup
q 48 18 288 348 rectclip
1 0 0 -1 0 384 cm q
0.00784314 0.760784 0.415686 rg
263.801 67.195 m 264 66.113 l 264 55.574 l 264 50.66 262.402 45.875 259.453
 41.941 c 251.918 31.883 240.504 25.457 228 24.227 c 226.531 24.074 225.055
 24 223.574 24 c 214.723 23.996 206.066 26.617 198.703 31.531 c 194.574 
34.281 l 173.754 23.879 l 155.883 14.945 134.598 16.27 117.977 27.352 c 
106.926 34.719 99.312 46.23 96.855 59.281 c 96.84 59.324 l 82.254 71.004
 l 73.281 78.172 67.527 88.613 66.258 100.027 c 64.992 111.441 68.309 122.891
 75.488 131.859 c 83.57 141.969 95.379 148.41 108.254 149.738 c 109.906 
149.914 111.566 150.004 113.227 150 c 129.434 150 l 135.102 157.555 143.992
 162 153.434 162 c 213.586 162 l 222.699 162 231.316 157.859 237.008 150.742
 c 252 132 l 255 132 l 273.227 132 288 117.227 288 99 c 287.996 84.164 278.098
 71.156 263.801 67.195 c h
263.801 67.195 m f
0.694118 0.47451 0.172549 rg
215.621 92.934 m 192 126 l 192 155.027 l 192 167.594 194.027 180.078 198
 192 c 201.973 203.922 204 216.406 204 228.973 c 204 246 l 156 246 l 156
 228.973 l 156 216.406 158.027 203.922 162 192 c 165.973 180.078 168 167.594
 168 155.027 c 168 126 l 141.5 99.5 l 138.98 96.98 137.562 93.562 137.562
 90 c 137.562 86.438 138.98 83.02 141.5 80.5 c 146.34 75.66 154.043 75.234
 159.387 79.512 c 180 96 l 194.957 77.305 l 197.258 74.426 200.676 72.664
 204.359 72.461 c 208.039 72.258 211.633 73.633 214.238 76.238 c 218.719
 80.719 219.301 87.777 215.621 92.934 c h
215.621 92.934 m f
0.964706 0.733333 0 rg
300 300 m 300 299.312 l 300 288.855 293.633 279.453 283.926 275.57 c 274.816
 271.926 266.887 265.848 261 258 c 255.336 250.445 246.441 246 237 246 c
 227.262 246 217.789 242.844 210 237 c 202.211 231.156 192.738 228 183 228
 c 178.816 228 l 172.059 228 165.75 231.379 162 237 c 158.25 242.621 151.941
 246 145.184 246 c 141.254 246 l 128.227 246 116.32 253.359 110.496 265.008
 c 108.844 268.316 106.668 271.332 104.055 273.945 c 84 294 l 84 324 l 300
 324 l h
300 300 m f
0.960784 0.788235 0.615686 rg
336 366 m 182.539 366 l 131.562 366 83.277 343.117 51 303.664 c 49.059 
301.293 48 298.328 48 295.266 c 48 291.746 49.398 288.371 51.887 285.887
 c 54.371 283.398 57.746 282 61.266 282 c 64.352 282 67.371 282.914 69.941
 284.625 c 97.328 302.883 l 112.109 312.742 129.48 318 147.25 318 c 192 
318 l 150.148 297.074 l 146.379 295.191 144 291.34 144 287.125 c 144 284.176
 145.172 281.344 147.258 279.258 c 149.344 277.172 152.176 276 155.125 276
 c 189.168 276 l 206.812 276 224.219 280.109 240 288 c 255.781 295.891 273.188
 300 290.832 300 c 336 300 l h
336 366 m f
Q Q
showpage
%%Trailer
end
%%EOF
