%!PS-Adobe-3.0 EPSF-3.0
%%Creator: cairo 1.16.0 (https://cairographics.org)
%%CreationDate: Fri Sep 20 08:56:08 2019
%%Pages: 1
%%DocumentData: Clean7Bit
%%LanguageLevel: 2
%%BoundingBox: 18 18 366 366
%%EndComments
%%BeginProlog
50 dict begin
/q { gsave } bind def
/Q { grestore } bind def
/cm { 6 array astore concat } bind def
/w { setlinewidth } bind def
/J { setlinecap } bind def
/j { setlinejoin } bind def
/M { setmiterlimit } bind def
/d { setdash } bind def
/m { moveto } bind def
/l { lineto } bind def
/c { curveto } bind def
/h { closepath } bind def
/re { exch dup neg 3 1 roll 5 3 roll moveto 0 rlineto
      0 exch rlineto 0 rlineto closepath } bind def
/S { stroke } bind def
/f { fill } bind def
/f* { eofill } bind def
/n { newpath } bind def
/W { clip } bind def
/W* { eoclip } bind def
/BT { } bind def
/ET { } bind def
/BDC { mark 3 1 roll /BDC pdfmark } bind def
/EMC { mark /EMC pdfmark } bind def
/cairo_store_point { /cairo_point_y exch def /cairo_point_x exch def } def
/Tj { show currentpoint cairo_store_point } bind def
/TJ {
  {
    dup
    type /stringtype eq
    { show } { -0.001 mul 0 cairo_font_matrix dtransform rmoveto } ifelse
  } forall
  currentpoint cairo_store_point
} bind def
/cairo_selectfont { cairo_font_matrix aload pop pop pop 0 0 6 array astore
    cairo_font exch selectfont cairo_point_x cairo_point_y moveto } bind def
/Tf { pop /cairo_font exch def /cairo_font_matrix where
      { pop cairo_selectfont } if } bind def
/Td { matrix translate cairo_font_matrix matrix concatmatrix dup
      /cairo_font_matrix exch def dup 4 get exch 5 get cairo_store_point
      /cairo_font where { pop cairo_selectfont } if } bind def
/Tm { 2 copy 8 2 roll 6 array astore /cairo_font_matrix exch def
      cairo_store_point /cairo_font where { pop cairo_selectfont } if } bind def
/g { setgray } bind def
/rg { setrgbcolor } bind def
/d1 { setcachedevice } bind def
/cairo_data_source {
  CairoDataIndex CairoData length lt
    { CairoData CairoDataIndex get /CairoDataIndex CairoDataIndex 1 add def }
    { () } ifelse
} def
/cairo_flush_ascii85_file { cairo_ascii85_file status { cairo_ascii85_file flushfile } if } def
/cairo_image { image cairo_flush_ascii85_file } def
/cairo_imagemask { imagemask cairo_flush_ascii85_file } def
%%EndProlog
%%BeginSetup
%%EndSetup
%%Page: 1 1
%%BeginPageSetup
%%PageBoundingBox: 18 18 366 366
%%EndPageSetup
q 18 18 348 348 rectclip
1 0 0 -1 0 384 cm q
0.964706 0.733333 0 rg
258 270 m 258 366 l 18 366 l 18 270 l 18 240.738 35.016 214.148 61.582 
201.887 c 96 186 l 180 186 l 214.418 201.887 l 240.984 214.148 258 240.738
 258 270 c h
258 270 m f
0.898039 0.905882 0.913725 rg
180 186 m 138 246 l 96 186 l h
180 186 m f
0.329412 0.541176 1 rg
228 120 m 228 228 l 276 228 l 276 252 l 312 228 l 366 228 l 366 120 l h
228 120 m f
0.282353 0.419608 0.878431 rg
270 144 18 12 re f
300 144 42 12 re f
252 168 54 12 re f
318 168 24 12 re f
252 192 30 12 re f
294 192 48 12 re f
0.929412 0.65098 0 rg
168 294 m 102 294 l 85.438 293.98 72.02 280.562 72 264 c 72 252 l 84 252
 l 84 264 l 84.012 273.938 92.062 281.988 102 282 c 168 282 l h
168 294 m f
0.960784 0.788235 0.615686 rg
192 72 m 192 150 l 192 179.824 167.824 204 138 204 c 108.176 204 84 179.824
 84 150 c 84 72 l h
192 72 m f
0.811765 0.513726 0 rg
54 84 m 54 87.312 56.688 90 60 90 c 63.312 90 66 87.312 66 84 c 66 42 l
 54 42 l h
54 84 m f
0.584314 0.4 0.145098 rg
120 138 m 120 141.312 117.312 144 114 144 c 110.688 144 108 141.312 108
 138 c 108 134.688 110.688 132 114 132 c 117.312 132 120 134.688 120 138
 c h
120 138 m f
168 138 m 168 141.312 165.312 144 162 144 c 158.688 144 156 141.312 156
 138 c 156 134.688 158.688 132 162 132 c 165.312 132 168 134.688 168 138
 c h
168 138 m f
0.694118 0.47451 0.172549 rg
102 114 24 12 re f
150 114 24 12 re f
0.870588 0.580392 0 rg
192 48 m 192 78 l 138 96 l 84 78 l 84 48 l h
192 48 m f
0.964706 0.733333 0 rg
228 42 m 138 18 l 48 42 l 138 72 l h
228 42 m f
0.960784 0.788235 0.615686 rg
156 288 m 193.188 261.438 l 196.148 259.324 200.035 259.02 203.289 260.645
 c 207.25 262.625 209.398 267.012 208.527 271.355 c 204 294 l 217.016 294
 l 220.277 294 223.477 293.113 226.273 291.434 c 245.621 279.828 l 249.371
 277.578 254.168 278.168 257.262 281.262 c 259.047 283.047 260.051 285.473
 260.051 288 c 260.051 290.527 259.047 292.953 257.262 294.738 c 234.301
 317.699 l 226.426 325.574 215.742 330 204.602 330 c 156 330 l h
156 288 m f
0.929412 0.65098 0 rg
156 330 12 36 re f
114 366 m 60.98 366 18 323.02 18 270 c 18 366 l h
114 366 m f
0.780392 0.576471 0.411765 rg
132 174 m 126 174 l 126 162 l 132 162 l 135.312 161.996 137.996 159.312
 138 156 c 138 144 l 150 144 l 150 156 l 149.988 165.938 141.938 173.988
 132 174 c h
132 174 m f
Q Q
showpage
%%Trailer
end
%%EOF
