%!PS-Adobe-3.0 EPSF-3.0
%%Creator: cairo 1.16.0 (https://cairographics.org)
%%CreationDate: Fri Sep 20 08:56:08 2019
%%Pages: 1
%%DocumentData: Clean7Bit
%%LanguageLevel: 2
%%BoundingBox: 18 24 366 360
%%EndComments
%%BeginProlog
50 dict begin
/q { gsave } bind def
/Q { grestore } bind def
/cm { 6 array astore concat } bind def
/w { setlinewidth } bind def
/J { setlinecap } bind def
/j { setlinejoin } bind def
/M { setmiterlimit } bind def
/d { setdash } bind def
/m { moveto } bind def
/l { lineto } bind def
/c { curveto } bind def
/h { closepath } bind def
/re { exch dup neg 3 1 roll 5 3 roll moveto 0 rlineto
      0 exch rlineto 0 rlineto closepath } bind def
/S { stroke } bind def
/f { fill } bind def
/f* { eofill } bind def
/n { newpath } bind def
/W { clip } bind def
/W* { eoclip } bind def
/BT { } bind def
/ET { } bind def
/BDC { mark 3 1 roll /BDC pdfmark } bind def
/EMC { mark /EMC pdfmark } bind def
/cairo_store_point { /cairo_point_y exch def /cairo_point_x exch def } def
/Tj { show currentpoint cairo_store_point } bind def
/TJ {
  {
    dup
    type /stringtype eq
    { show } { -0.001 mul 0 cairo_font_matrix dtransform rmoveto } ifelse
  } forall
  currentpoint cairo_store_point
} bind def
/cairo_selectfont { cairo_font_matrix aload pop pop pop 0 0 6 array astore
    cairo_font exch selectfont cairo_point_x cairo_point_y moveto } bind def
/Tf { pop /cairo_font exch def /cairo_font_matrix where
      { pop cairo_selectfont } if } bind def
/Td { matrix translate cairo_font_matrix matrix concatmatrix dup
      /cairo_font_matrix exch def dup 4 get exch 5 get cairo_store_point
      /cairo_font where { pop cairo_selectfont } if } bind def
/Tm { 2 copy 8 2 roll 6 array astore /cairo_font_matrix exch def
      cairo_store_point /cairo_font where { pop cairo_selectfont } if } bind def
/g { setgray } bind def
/rg { setrgbcolor } bind def
/d1 { setcachedevice } bind def
/cairo_data_source {
  CairoDataIndex CairoData length lt
    { CairoData CairoDataIndex get /CairoDataIndex CairoDataIndex 1 add def }
    { () } ifelse
} def
/cairo_flush_ascii85_file { cairo_ascii85_file status { cairo_ascii85_file flushfile } if } def
/cairo_image { image cairo_flush_ascii85_file } def
/cairo_imagemask { imagemask cairo_flush_ascii85_file } def
%%EndProlog
%%BeginSetup
%%EndSetup
%%Page: 1 1
%%BeginPageSetup
%%PageBoundingBox: 18 24 366 360
%%EndPageSetup
q 18 24 348 336 rectclip
1 0 0 -1 0 384 cm q
0.964706 0.733333 0 rg
18 24 348 264 re f
0.329412 0.541176 1 rg
210 229.023 m 210 150 l 210 120.176 185.824 96 156 96 c 132 96 l 102.176
 96 78 120.176 78 150 c 78 221.293 l 78 225.402 75.676 229.16 72 231 c 68.324
 232.84 66 236.598 66 240.707 c 66 252 l 222 252 l 222 246 l 222 238.371
 217.191 231.57 210 229.023 c h
210 229.023 m f
0.929412 0.65098 0 rg
342 24 24 264 re f
0.388235 0.239216 0.8 rg
222 288 m 162 288 l 162 318 l 162 327.941 153.941 336 144 336 c 138 336
 l 138 348 l 222 348 l h
222 288 m f
0.529412 0.376471 0.901961 rg
222 288 m 246 288 l 246 318 l 246 341.195 227.195 360 204 360 c 186 360
 l 186 336 l 204 336 l 213.941 336 222 327.941 222 318 c h
222 288 m f
0.282353 0.419608 0.878431 rg
150 162 m 138 162 l 134.688 162 132 159.312 132 156 c 132 152.688 134.688
 150 138 150 c 162 150 l 162 138 l 150 138 l 150 126 l 138 126 l 138 138
 l 128.059 138 120 146.059 120 156 c 120 165.941 128.059 174 138 174 c 150
 174 l 151.59 174 153.117 174.629 154.242 175.754 c 155.371 176.879 156.004
 178.406 156.004 179.996 c 156.004 181.59 155.371 183.117 154.246 184.242
 c 153.121 185.367 151.598 186 150.004 186 c 126 186 l 126 198 l 138 198
 l 138 210 l 150 210 l 150 198 l 150.004 198 l 159.945 198 168.004 189.938
 168.004 179.996 c 168 170.055 159.941 162 150 162 c h
150 162 m f
126 96 m 120.656 87.984 l 116.316 81.473 114 73.824 114 66 c 174 66 l 174
 73.824 171.684 81.473 167.344 87.984 c 162 96 l h
126 96 m f
264 138 12 24 re f
0.329412 0.541176 1 rg
258 162 m 282 162 l 282 240 l 282 246.629 276.629 252 270 252 c 263.371
 252 258 246.629 258 240 c h
258 162 m f
0.317647 0.494118 0.968627 rg
258 180 24 12 re f
0.6 0.466667 0.929412 rg
90 336 96 24 re f
0.517647 0.847059 0.909804 rg
312 96 m 312 119.195 293.195 138 270 138 c 246.805 138 228 119.195 228 
96 c 228 72.805 246.805 54 270 54 c 293.195 54 312 72.805 312 96 c h
312 96 m f
0.317647 0.494118 0.968627 rg
270 144 m 250.586 144 233.082 132.305 225.652 114.367 c 218.223 96.434 
222.332 75.785 236.059 62.059 c 249.785 48.332 270.434 44.223 288.367 51.652
 c 306.305 59.082 318 76.586 318 96 c 317.969 122.496 296.496 143.969 270
 144 c h
270 60 m 255.438 60 242.312 68.77 236.742 82.223 c 231.168 95.676 234.25
 111.16 244.543 121.457 c 254.84 131.75 270.324 134.832 283.777 129.258 
c 297.23 123.688 306 110.562 306 96 c 305.977 76.129 289.871 60.023 270 
60 c h
270 60 m f
138 96 m 138 100.773 139.895 105.352 143.273 108.727 c 146.648 112.105 
151.227 114 156 114 c 172.57 114 186 127.43 186 144 c 186 228 l 210 228 
l 210 150 l 210 120.176 185.824 96 156 96 c h
138 96 m f
Q Q
showpage
%%Trailer
end
%%EOF
