%!PS-Adobe-3.0 EPSF-3.0
%%Creator: cairo 1.16.0 (https://cairographics.org)
%%CreationDate: Fri Sep 20 08:56:08 2019
%%Pages: 1
%%DocumentData: Clean7Bit
%%LanguageLevel: 2
%%BoundingBox: 17 18 366 366
%%EndComments
%%BeginProlog
50 dict begin
/q { gsave } bind def
/Q { grestore } bind def
/cm { 6 array astore concat } bind def
/w { setlinewidth } bind def
/J { setlinecap } bind def
/j { setlinejoin } bind def
/M { setmiterlimit } bind def
/d { setdash } bind def
/m { moveto } bind def
/l { lineto } bind def
/c { curveto } bind def
/h { closepath } bind def
/re { exch dup neg 3 1 roll 5 3 roll moveto 0 rlineto
      0 exch rlineto 0 rlineto closepath } bind def
/S { stroke } bind def
/f { fill } bind def
/f* { eofill } bind def
/n { newpath } bind def
/W { clip } bind def
/W* { eoclip } bind def
/BT { } bind def
/ET { } bind def
/BDC { mark 3 1 roll /BDC pdfmark } bind def
/EMC { mark /EMC pdfmark } bind def
/cairo_store_point { /cairo_point_y exch def /cairo_point_x exch def } def
/Tj { show currentpoint cairo_store_point } bind def
/TJ {
  {
    dup
    type /stringtype eq
    { show } { -0.001 mul 0 cairo_font_matrix dtransform rmoveto } ifelse
  } forall
  currentpoint cairo_store_point
} bind def
/cairo_selectfont { cairo_font_matrix aload pop pop pop 0 0 6 array astore
    cairo_font exch selectfont cairo_point_x cairo_point_y moveto } bind def
/Tf { pop /cairo_font exch def /cairo_font_matrix where
      { pop cairo_selectfont } if } bind def
/Td { matrix translate cairo_font_matrix matrix concatmatrix dup
      /cairo_font_matrix exch def dup 4 get exch 5 get cairo_store_point
      /cairo_font where { pop cairo_selectfont } if } bind def
/Tm { 2 copy 8 2 roll 6 array astore /cairo_font_matrix exch def
      cairo_store_point /cairo_font where { pop cairo_selectfont } if } bind def
/g { setgray } bind def
/rg { setrgbcolor } bind def
/d1 { setcachedevice } bind def
/cairo_data_source {
  CairoDataIndex CairoData length lt
    { CairoData CairoDataIndex get /CairoDataIndex CairoDataIndex 1 add def }
    { () } ifelse
} def
/cairo_flush_ascii85_file { cairo_ascii85_file status { cairo_ascii85_file flushfile } if } def
/cairo_image { image cairo_flush_ascii85_file } def
/cairo_imagemask { imagemask cairo_flush_ascii85_file } def
%%EndProlog
%%BeginSetup
%%EndSetup
%%Page: 1 1
%%BeginPageSetup
%%PageBoundingBox: 17 18 366 366
%%EndPageSetup
q 17 18 349 348 rectclip
1 0 0 -1 0 384 cm q
0.870588 0.580392 0 rg
72 306 120 12 re f
0.964706 0.733333 0 rg
60.707 258 m 48 366 l 66 366 l 96.855 258 l h
60.707 258 m f
203.293 258 m 216 366 l 198 366 l 167.145 258 l h
203.293 258 m f
0.890196 0.239216 0.239216 rg
246 174 m 246 220.109 218.227 261.676 175.625 279.324 c 133.027 296.969
 83.992 287.215 51.391 254.609 c 18.785 222.008 9.031 172.973 26.676 130.375
 c 44.324 87.773 85.891 60 132 60 c 132 174 l h
246 174 m f
0.898039 0.905882 0.913725 rg
216 174 m 216 207.977 195.535 238.605 164.145 251.605 c 132.758 264.609
 96.625 257.422 72.602 233.398 c 48.578 209.375 41.391 173.242 54.395 141.855
 c 67.395 110.465 98.023 90 132 90 c 132 174 l h
216 174 m f
0.890196 0.239216 0.239216 rg
186 174 m 186 195.84 172.844 215.531 152.664 223.891 c 132.488 232.246 
109.262 227.629 93.816 212.184 c 78.371 196.738 73.754 173.512 82.109 153.336
 c 90.469 133.156 110.16 120 132 120 c 132 174 l h
186 174 m f
0.329412 0.541176 1 rg
300 174 m 324 198 l 366 198 l 348 174 l 366 150 l 324 150 l h
300 174 m f
0.898039 0.905882 0.913725 rg
156 174 m 156 183.707 150.152 192.457 141.184 196.172 c 132.215 199.887
 121.895 197.836 115.031 190.969 c 108.164 184.105 106.113 173.785 109.828
 164.816 c 113.543 155.848 122.293 150 132 150 c 132 174 l h
156 174 m f
0.329412 0.541176 1 rg
288 96 m 288 72 l 270 72 l 264.426 58.543 l 277.152 45.816 l 260.184 28.848
 l 247.457 41.574 l 234 36 l 234 18 l 210 18 l 210 36 l 196.543 41.574 l
 183.816 28.848 l 166.844 45.816 l 179.574 58.543 l 174 72 l 156 72 l 156
 96 l 174 96 l 179.574 109.457 l 166.844 122.184 l 183.816 139.152 l 196.543
 126.426 l 210 132 l 210 150 l 234 150 l 234 132 l 247.457 126.426 l 260.184
 139.152 l 277.152 122.184 l 264.426 109.457 l 270 96 l h
222 102 m 214.719 102 208.156 97.613 205.371 90.887 c 202.586 84.164 204.125
 76.422 209.273 71.273 c 214.422 66.125 222.164 64.586 228.887 67.371 c 
235.613 70.156 240 76.719 240 84 c 240 88.773 238.105 93.352 234.727 96.727
 c 231.352 100.105 226.773 102 222 102 c h
222 102 m f
0.231373 0.341176 0.768627 rg
132 168 m 128.688 168 126 170.688 126 174 c 126 177.312 128.688 180 132
 180 c 330 180 l 330 168 l h
132 168 m f
Q Q
showpage
%%Trailer
end
%%EOF
