%!PS-Adobe-3.0 EPSF-3.0
%%Creator: cairo 1.16.0 (https://cairographics.org)
%%CreationDate: Fri Sep 20 08:56:09 2019
%%Pages: 1
%%DocumentData: Clean7Bit
%%LanguageLevel: 2
%%BoundingBox: 42 12 336 366
%%EndComments
%%BeginProlog
50 dict begin
/q { gsave } bind def
/Q { grestore } bind def
/cm { 6 array astore concat } bind def
/w { setlinewidth } bind def
/J { setlinecap } bind def
/j { setlinejoin } bind def
/M { setmiterlimit } bind def
/d { setdash } bind def
/m { moveto } bind def
/l { lineto } bind def
/c { curveto } bind def
/h { closepath } bind def
/re { exch dup neg 3 1 roll 5 3 roll moveto 0 rlineto
      0 exch rlineto 0 rlineto closepath } bind def
/S { stroke } bind def
/f { fill } bind def
/f* { eofill } bind def
/n { newpath } bind def
/W { clip } bind def
/W* { eoclip } bind def
/BT { } bind def
/ET { } bind def
/BDC { mark 3 1 roll /BDC pdfmark } bind def
/EMC { mark /EMC pdfmark } bind def
/cairo_store_point { /cairo_point_y exch def /cairo_point_x exch def } def
/Tj { show currentpoint cairo_store_point } bind def
/TJ {
  {
    dup
    type /stringtype eq
    { show } { -0.001 mul 0 cairo_font_matrix dtransform rmoveto } ifelse
  } forall
  currentpoint cairo_store_point
} bind def
/cairo_selectfont { cairo_font_matrix aload pop pop pop 0 0 6 array astore
    cairo_font exch selectfont cairo_point_x cairo_point_y moveto } bind def
/Tf { pop /cairo_font exch def /cairo_font_matrix where
      { pop cairo_selectfont } if } bind def
/Td { matrix translate cairo_font_matrix matrix concatmatrix dup
      /cairo_font_matrix exch def dup 4 get exch 5 get cairo_store_point
      /cairo_font where { pop cairo_selectfont } if } bind def
/Tm { 2 copy 8 2 roll 6 array astore /cairo_font_matrix exch def
      cairo_store_point /cairo_font where { pop cairo_selectfont } if } bind def
/g { setgray } bind def
/rg { setrgbcolor } bind def
/d1 { setcachedevice } bind def
/cairo_data_source {
  CairoDataIndex CairoData length lt
    { CairoData CairoDataIndex get /CairoDataIndex CairoDataIndex 1 add def }
    { () } ifelse
} def
/cairo_flush_ascii85_file { cairo_ascii85_file status { cairo_ascii85_file flushfile } if } def
/cairo_image { image cairo_flush_ascii85_file } def
/cairo_imagemask { imagemask cairo_flush_ascii85_file } def
%%EndProlog
%%BeginSetup
%%EndSetup
%%Page: 1 1
%%BeginPageSetup
%%PageBoundingBox: 42 12 336 366
%%EndPageSetup
q 42 12 294 354 rectclip
1 0 0 -1 0 384 cm q
0.870588 0.580392 0 rg
222 240 m 222 246.629 216.629 252 210 252 c 54 252 l 47.371 252 42 246.629
 42 240 c 42 64.969 l 42 61.789 43.266 58.734 45.516 56.484 c 80.484 21.516
 l 82.734 19.266 85.789 18 88.969 18 c 210 18 l 216.629 18 222 23.371 222
 30 c h
222 240 m f
0.929412 0.65098 0 rg
252 270 m 252 276.629 246.629 282 240 282 c 84 282 l 77.371 282 72 276.629
 72 270 c 72 94.969 l 72 91.789 73.266 88.734 75.516 86.484 c 110.484 51.516
 l 112.734 49.266 115.789 48 118.969 48 c 240 48 l 246.629 48 252 53.371
 252 60 c h
252 270 m f
0.964706 0.733333 0 rg
282 312 m 282 318.629 276.629 324 270 324 c 114 324 l 107.371 324 102 318.629
 102 312 c 102 124.969 l 102 121.789 103.266 118.734 105.516 116.484 c 140.484
 81.516 l 142.734 79.266 145.789 78 148.969 78 c 270 78 l 276.629 78 282
 83.371 282 90 c h
282 312 m f
0.329412 0.541176 1 rg
180 156 m 168 165 l 160.445 170.664 156 179.559 156 189 c 156 210 l 228
 210 l 228 189 l 228 179.559 223.555 170.664 216 165 c 204 156 l h
180 156 m f
0.282353 0.419608 0.878431 rg
186 192 12 18 re f
186 156 12 24 re f
0.811765 0.513726 0 rg
180 234 54 12 re f
150 234 18 12 re f
192 282 18 12 re f
222 282 12 12 re f
150 282 30 12 re f
198 258 36 12 re f
150 258 36 12 re f
0.960784 0.788235 0.615686 rg
282 372 m 282 282 l 268.766 263.469 l 257.859 248.207 252 229.918 252 211.156
 c 252 178.461 l 252 172.684 256.684 168 262.461 168 c 266.965 168 270.961
 170.883 272.383 175.152 c 282 204 l 282 118.848 l 282 112.855 286.855 108
 292.848 108 c 297.188 108 301.109 110.586 302.816 114.574 c 328.723 175.02
 l 333.523 186.223 336 198.285 336 210.473 c 336 372 l h
282 372 m f
174 126 m 174 144 l 174 153.941 182.059 162 192 162 c 201.941 162 210 153.941
 210 144 c 210 126 l h
174 126 m f
0.694118 0.47451 0.172549 rg
210 126 m 174 126 l 174 120 l 174 110.059 182.059 102 192 102 c 204 102
 l 207.312 102 210 104.688 210 108 c h
210 126 m f
Q Q
showpage
%%Trailer
end
%%EOF
