%!PS-Adobe-3.0 EPSF-3.0
%%Creator: cairo 1.16.0 (https://cairographics.org)
%%CreationDate: Fri Sep 20 08:56:09 2019
%%Pages: 1
%%DocumentData: Clean7Bit
%%LanguageLevel: 2
%%BoundingBox: 18 18 366 366
%%EndComments
%%BeginProlog
50 dict begin
/q { gsave } bind def
/Q { grestore } bind def
/cm { 6 array astore concat } bind def
/w { setlinewidth } bind def
/J { setlinecap } bind def
/j { setlinejoin } bind def
/M { setmiterlimit } bind def
/d { setdash } bind def
/m { moveto } bind def
/l { lineto } bind def
/c { curveto } bind def
/h { closepath } bind def
/re { exch dup neg 3 1 roll 5 3 roll moveto 0 rlineto
      0 exch rlineto 0 rlineto closepath } bind def
/S { stroke } bind def
/f { fill } bind def
/f* { eofill } bind def
/n { newpath } bind def
/W { clip } bind def
/W* { eoclip } bind def
/BT { } bind def
/ET { } bind def
/BDC { mark 3 1 roll /BDC pdfmark } bind def
/EMC { mark /EMC pdfmark } bind def
/cairo_store_point { /cairo_point_y exch def /cairo_point_x exch def } def
/Tj { show currentpoint cairo_store_point } bind def
/TJ {
  {
    dup
    type /stringtype eq
    { show } { -0.001 mul 0 cairo_font_matrix dtransform rmoveto } ifelse
  } forall
  currentpoint cairo_store_point
} bind def
/cairo_selectfont { cairo_font_matrix aload pop pop pop 0 0 6 array astore
    cairo_font exch selectfont cairo_point_x cairo_point_y moveto } bind def
/Tf { pop /cairo_font exch def /cairo_font_matrix where
      { pop cairo_selectfont } if } bind def
/Td { matrix translate cairo_font_matrix matrix concatmatrix dup
      /cairo_font_matrix exch def dup 4 get exch 5 get cairo_store_point
      /cairo_font where { pop cairo_selectfont } if } bind def
/Tm { 2 copy 8 2 roll 6 array astore /cairo_font_matrix exch def
      cairo_store_point /cairo_font where { pop cairo_selectfont } if } bind def
/g { setgray } bind def
/rg { setrgbcolor } bind def
/d1 { setcachedevice } bind def
/cairo_data_source {
  CairoDataIndex CairoData length lt
    { CairoData CairoDataIndex get /CairoDataIndex CairoDataIndex 1 add def }
    { () } ifelse
} def
/cairo_flush_ascii85_file { cairo_ascii85_file status { cairo_ascii85_file flushfile } if } def
/cairo_image { image cairo_flush_ascii85_file } def
/cairo_imagemask { imagemask cairo_flush_ascii85_file } def
%%EndProlog
%%BeginSetup
%%EndSetup
%%Page: 1 1
%%BeginPageSetup
%%PageBoundingBox: 18 18 366 366
%%EndPageSetup
q 18 18 348 348 rectclip
1 0 0 -1 0 384 cm q
0.964706 0.733333 0 rg
366 66 m 366 342 l 366 355.254 355.254 366 342 366 c 42 366 l 42 66 l h
366 66 m f
0.811765 0.513726 0 rg
228 114 12 12 re f
300 114 42 12 re f
252 114 36 12 re f
192 144 30 12 re f
234 144 108 12 re f
192 174 66 12 re f
270 174 72 12 re f
228 252 12 12 re f
300 252 42 12 re f
252 252 36 12 re f
192 282 30 12 re f
234 282 108 12 re f
192 312 66 12 re f
270 312 72 12 re f
0.329412 0.541176 1 rg
42 18 m 342 18 l 355.254 18 366 28.746 366 42 c 366 66 l 18 66 l 18 42 
l 18 28.746 28.746 18 42 18 c h
42 18 m f
0.231373 0.341176 0.768627 rg
54 42 m 54 45.312 51.312 48 48 48 c 44.688 48 42 45.312 42 42 c 42 38.688
 44.688 36 48 36 c 51.312 36 54 38.688 54 42 c h
54 42 m f
78 42 m 78 45.312 75.312 48 72 48 c 68.688 48 66 45.312 66 42 c 66 38.688
 68.688 36 72 36 c 75.312 36 78 38.688 78 42 c h
78 42 m f
102 42 m 102 45.312 99.312 48 96 48 c 92.688 48 90 45.312 90 42 c 90 38.688
 92.688 36 96 36 c 99.312 36 102 38.688 102 42 c h
102 42 m f
0.929412 0.65098 0 rg
42 66 m 42 366 l 28.746 366 18 355.254 18 342 c 18 66 l h
42 66 m f
0.988235 0.831373 0.32549 rg
30 132 m 36.648 132 42 137.352 42 144 c 42 210 l 42 216.648 36.648 222 
30 222 c 23.352 222 18 216.648 18 210 c 18 144 l 18 137.352 23.352 132 30
 132 c h
30 132 m f
0.329412 0.541176 1 rg
108 150 m 96 159 l 88.445 164.664 84 173.559 84 183 c 84 198 l 156 198 
l 156 183 l 156 173.559 151.555 164.664 144 159 c 132 150 l h
108 150 m f
0.282353 0.419608 0.878431 rg
114 150 12 48 re f
0.960784 0.788235 0.615686 rg
138 120 m 138 138 l 138 147.941 129.941 156 120 156 c 110.059 156 102 147.941
 102 138 c 102 120 l h
138 120 m f
0.694118 0.47451 0.172549 rg
138 120 m 102 120 l 102 114 l 102 104.059 110.059 96 120 96 c 132 96 l 
135.312 96 138 98.688 138 102 c h
138 120 m f
0.329412 0.541176 1 rg
108 288 m 96 297 l 88.445 302.664 84 311.559 84 321 c 84 336 l 156 336 
l 156 321 l 156 311.559 151.555 302.664 144 297 c 132 288 l h
108 288 m f
0.282353 0.419608 0.878431 rg
114 288 12 48 re f
0.960784 0.788235 0.615686 rg
102 258 m 102 276 l 102 285.941 110.059 294 120 294 c 129.941 294 138 285.941
 138 276 c 138 258 l h
102 258 m f
0.694118 0.47451 0.172549 rg
138 258 m 102 258 l 102 247.816 l 102 244.152 103.457 240.637 106.047 238.047
 c 108.637 235.457 112.152 234 115.816 234 c 118.543 234 121.211 234.809
 123.48 236.32 c 138 246 l h
138 258 m f
Q Q
showpage
%%Trailer
end
%%EOF
