%!PS-Adobe-3.0 EPSF-3.0
%%Creator: cairo 1.16.0 (https://cairographics.org)
%%CreationDate: Fri Sep 20 08:56:09 2019
%%Pages: 1
%%DocumentData: Clean7Bit
%%LanguageLevel: 2
%%BoundingBox: 54 18 330 366
%%EndComments
%%BeginProlog
50 dict begin
/q { gsave } bind def
/Q { grestore } bind def
/cm { 6 array astore concat } bind def
/w { setlinewidth } bind def
/J { setlinecap } bind def
/j { setlinejoin } bind def
/M { setmiterlimit } bind def
/d { setdash } bind def
/m { moveto } bind def
/l { lineto } bind def
/c { curveto } bind def
/h { closepath } bind def
/re { exch dup neg 3 1 roll 5 3 roll moveto 0 rlineto
      0 exch rlineto 0 rlineto closepath } bind def
/S { stroke } bind def
/f { fill } bind def
/f* { eofill } bind def
/n { newpath } bind def
/W { clip } bind def
/W* { eoclip } bind def
/BT { } bind def
/ET { } bind def
/BDC { mark 3 1 roll /BDC pdfmark } bind def
/EMC { mark /EMC pdfmark } bind def
/cairo_store_point { /cairo_point_y exch def /cairo_point_x exch def } def
/Tj { show currentpoint cairo_store_point } bind def
/TJ {
  {
    dup
    type /stringtype eq
    { show } { -0.001 mul 0 cairo_font_matrix dtransform rmoveto } ifelse
  } forall
  currentpoint cairo_store_point
} bind def
/cairo_selectfont { cairo_font_matrix aload pop pop pop 0 0 6 array astore
    cairo_font exch selectfont cairo_point_x cairo_point_y moveto } bind def
/Tf { pop /cairo_font exch def /cairo_font_matrix where
      { pop cairo_selectfont } if } bind def
/Td { matrix translate cairo_font_matrix matrix concatmatrix dup
      /cairo_font_matrix exch def dup 4 get exch 5 get cairo_store_point
      /cairo_font where { pop cairo_selectfont } if } bind def
/Tm { 2 copy 8 2 roll 6 array astore /cairo_font_matrix exch def
      cairo_store_point /cairo_font where { pop cairo_selectfont } if } bind def
/g { setgray } bind def
/rg { setrgbcolor } bind def
/d1 { setcachedevice } bind def
/cairo_data_source {
  CairoDataIndex CairoData length lt
    { CairoData CairoDataIndex get /CairoDataIndex CairoDataIndex 1 add def }
    { () } ifelse
} def
/cairo_flush_ascii85_file { cairo_ascii85_file status { cairo_ascii85_file flushfile } if } def
/cairo_image { image cairo_flush_ascii85_file } def
/cairo_imagemask { imagemask cairo_flush_ascii85_file } def
%%EndProlog
%%BeginSetup
%%EndSetup
%%Page: 1 1
%%BeginPageSetup
%%PageBoundingBox: 54 18 330 366
%%EndPageSetup
q 54 18 276 348 rectclip
1 0 0 -1 0 384 cm q
0.964706 0.733333 0 rg
330 117.938 m 330 342 l 330 355.254 319.254 366 306 366 c 78 366 l 64.746
 366 54 355.254 54 342 c 54 42 l 54 28.746 64.746 18 78 18 c 230.062 18 
l 236.426 18.008 242.523 20.531 247.027 25.027 c 322.973 100.973 l 327.469
 105.477 329.992 111.574 330 117.938 c h
330 117.938 m f
0.811765 0.513726 0 rg
219.602 220.801 m 212.398 211.199 l 260.398 175.199 l 261.438 174.422 262.703
 174 264 174 c 306 174 l 306 186 l 266 186 l h
219.602 220.801 m f
294 150 12 12 re f
264 150 18 12 re f
176.398 99.301 m 148 78 l 102 78 l 102 66 l 150 66 l 151.297 66 152.562
 66.422 153.602 67.199 c 183.602 89.699 l h
176.398 99.301 m f
102 42 12 12 re f
126 42 24 12 re f
164.914 266.746 m 130.34 246 l 84 246 l 84 234 l 132 234 l 133.086 234 
134.156 234.297 135.086 234.855 c 171.086 256.453 l h
164.914 266.746 m f
84 210 12 12 re f
108 210 24 12 re f
144 306 18 12 re f
174 306 84 12 re f
126 330 96 12 re f
234 330 24 12 re f
0.988235 0.831373 0.32549 rg
327.84 108 m 264 108 l 250.746 108 240 97.254 240 84 c 240 20.16 l 242.617
 21.348 244.996 22.996 247.027 25.027 c 322.973 100.973 l 325.004 103.004
 326.652 105.383 327.84 108 c h
327.84 108 m f
0.301961 0.388235 0.470588 rg
222 192 m 222 282 l 204 282 l 192 222 l 180 282 l 162 282 l 162 192 l h
222 192 m f
0.960784 0.788235 0.615686 rg
162 210 m 156 210 l 149.371 210 144 204.629 144 198 c 144 162 l 162 162
 l h
162 210 m f
240 162 m 240 198 l 240 204.629 234.629 210 228 210 c 222 210 l 222 162
 l h
240 162 m f
0.329412 0.541176 1 rg
204 120 m 222.062 127.227 l 229.684 130.273 235.727 136.316 238.773 143.938
 c 246 162 l 222 174 l 222 192 l 162 192 l 162 174 l 138 162 l 145.227 143.938
 l 148.273 136.316 154.316 130.273 161.938 127.227 c 180 120 l h
204 120 m f
0.282353 0.419608 0.878431 rg
186 126 12 42 re f
0.960784 0.788235 0.615686 rg
174 96 m 174 114 l 174 123.941 182.059 132 192 132 c 201.941 132 210 123.941
 210 114 c 210 96 l h
174 96 m f
0.694118 0.47451 0.172549 rg
174 96 m 210 96 l 210 85.816 l 210 82.152 208.543 78.637 205.953 76.047
 c 203.363 73.457 199.848 72 196.184 72 c 193.457 72 190.789 72.809 188.52
 74.32 c 174 84 l h
174 96 m f
Q Q
showpage
%%Trailer
end
%%EOF
