%!PS-Adobe-3.0 EPSF-3.0
%%Creator: cairo 1.16.0 (https://cairographics.org)
%%CreationDate: Fri Sep 20 08:56:10 2019
%%Pages: 1
%%DocumentData: Clean7Bit
%%LanguageLevel: 2
%%BoundingBox: 36 18 348 372
%%EndComments
%%BeginProlog
50 dict begin
/q { gsave } bind def
/Q { grestore } bind def
/cm { 6 array astore concat } bind def
/w { setlinewidth } bind def
/J { setlinecap } bind def
/j { setlinejoin } bind def
/M { setmiterlimit } bind def
/d { setdash } bind def
/m { moveto } bind def
/l { lineto } bind def
/c { curveto } bind def
/h { closepath } bind def
/re { exch dup neg 3 1 roll 5 3 roll moveto 0 rlineto
      0 exch rlineto 0 rlineto closepath } bind def
/S { stroke } bind def
/f { fill } bind def
/f* { eofill } bind def
/n { newpath } bind def
/W { clip } bind def
/W* { eoclip } bind def
/BT { } bind def
/ET { } bind def
/BDC { mark 3 1 roll /BDC pdfmark } bind def
/EMC { mark /EMC pdfmark } bind def
/cairo_store_point { /cairo_point_y exch def /cairo_point_x exch def } def
/Tj { show currentpoint cairo_store_point } bind def
/TJ {
  {
    dup
    type /stringtype eq
    { show } { -0.001 mul 0 cairo_font_matrix dtransform rmoveto } ifelse
  } forall
  currentpoint cairo_store_point
} bind def
/cairo_selectfont { cairo_font_matrix aload pop pop pop 0 0 6 array astore
    cairo_font exch selectfont cairo_point_x cairo_point_y moveto } bind def
/Tf { pop /cairo_font exch def /cairo_font_matrix where
      { pop cairo_selectfont } if } bind def
/Td { matrix translate cairo_font_matrix matrix concatmatrix dup
      /cairo_font_matrix exch def dup 4 get exch 5 get cairo_store_point
      /cairo_font where { pop cairo_selectfont } if } bind def
/Tm { 2 copy 8 2 roll 6 array astore /cairo_font_matrix exch def
      cairo_store_point /cairo_font where { pop cairo_selectfont } if } bind def
/g { setgray } bind def
/rg { setrgbcolor } bind def
/d1 { setcachedevice } bind def
/cairo_data_source {
  CairoDataIndex CairoData length lt
    { CairoData CairoDataIndex get /CairoDataIndex CairoDataIndex 1 add def }
    { () } ifelse
} def
/cairo_flush_ascii85_file { cairo_ascii85_file status { cairo_ascii85_file flushfile } if } def
/cairo_image { image cairo_flush_ascii85_file } def
/cairo_imagemask { imagemask cairo_flush_ascii85_file } def
%%EndProlog
%%BeginSetup
%%EndSetup
%%Page: 1 1
%%BeginPageSetup
%%PageBoundingBox: 36 18 348 372
%%EndPageSetup
q 36 18 312 354 rectclip
1 0 0 -1 0 384 cm q
0.960784 0.788235 0.615686 rg
324 186 m 324 222 l 324 228.629 318.629 234 312 234 c 306 234 l 306 186
 l h
324 186 m f
228 186 m 228 222 l 228 228.629 233.371 234 240 234 c 246 234 l 246 186
 l h
228 186 m f
0.964706 0.733333 0 rg
288 144 m 301.289 149.316 l 311.961 153.582 320.418 162.039 324.684 172.711
 c 330 186 l 306 198 l 306 216 l 246 216 l 246 198 l 222 186 l 227.316 172.711
 l 231.582 162.039 240.039 153.582 250.711 149.316 c 264 144 l h
288 144 m f
0.929412 0.65098 0 rg
270 144 12 48 re f
0.301961 0.388235 0.470588 rg
306 216 m 306 306 l 288 306 l 276 246 l 264 306 l 246 306 l 246 216 l h
306 216 m f
0.960784 0.788235 0.615686 rg
156 186 m 156 222 l 156 228.629 150.629 234 144 234 c 138 234 l 138 186
 l h
156 186 m f
60 186 m 60 222 l 60 228.629 65.371 234 72 234 c 78 234 l 78 186 l h
60 186 m f
0.870588 0.682353 0.494118 rg
156 174 m 169.188 159.492 l 199.309 126.359 216 83.188 216 38.41 c 216 
12 l 78 12 l 78 23.922 76.078 35.766 72.309 47.078 c 64.156 71.531 60 97.141
 60 122.922 c 60 174 l h
156 174 m f
0.964706 0.733333 0 rg
120 144 m 133.289 149.316 l 143.961 153.582 152.418 162.039 156.684 172.711
 c 162 186 l 138 198 l 138 216 l 78 216 l 78 198 l 54 186 l 59.316 172.711
 l 63.582 162.039 72.039 153.582 82.711 149.316 c 96 144 l h
120 144 m f
0.929412 0.65098 0 rg
102 144 12 48 re f
0.960784 0.788235 0.615686 rg
102 12 m 102 154.219 l 102 165.145 110.855 174 121.781 174 c 131.211 174.012
 139.332 167.363 141.18 158.117 c 144.008 143.961 147.926 124.375 149.402
 116.984 c 149.797 115.023 150.672 113.195 151.949 111.66 c 166.094 94.688
 l 175.078 83.906 180 70.312 180 56.277 c 180 12 l h
102 12 m f
0.329412 0.541176 1 rg
228 330 m 228 312 l 228 308.688 230.688 306 234 306 c 318 306 l 321.312
 306 324 308.688 324 312 c 324 330 l h
228 330 m f
0.282353 0.419608 0.878431 rg
324 330 m 338.051 337.023 l 344.148 340.074 348 346.309 348 353.125 c 348
 360 l 348 363.312 345.312 366 342 366 c 210 366 l 206.688 366 204 363.312
 204 360 c 204 353.125 l 204 346.309 207.852 340.074 213.949 337.023 c 228
 330 l h
324 330 m f
0.329412 0.541176 1 rg
60 330 m 60 312 l 60 308.688 62.688 306 66 306 c 150 306 l 153.312 306 
156 308.688 156 312 c 156 330 l h
60 330 m f
0.282353 0.419608 0.878431 rg
156 330 m 170.051 337.023 l 176.148 340.074 180 346.309 180 353.125 c 180
 360 l 180 363.312 177.312 366 174 366 c 42 366 l 38.688 366 36 363.312 
36 360 c 36 353.125 l 36 346.309 39.852 340.074 45.949 337.023 c 60 330 
l h
156 330 m f
0.960784 0.788235 0.615686 rg
294 120 m 294 138 l 294 147.941 285.941 156 276 156 c 266.059 156 258 147.941
 258 138 c 258 120 l h
294 120 m f
0.694118 0.47451 0.172549 rg
258 120 m 294 120 l 294 109.816 l 294 106.152 292.543 102.637 289.953 100.047
 c 287.363 97.457 283.848 96 280.184 96 c 277.457 96 274.789 96.809 272.52
 98.32 c 258 108 l h
258 120 m f
0.301961 0.388235 0.470588 rg
138 216 m 138 306 l 120 306 l 108 246 l 96 306 l 78 306 l 78 216 l h
138 216 m f
Q Q
showpage
%%Trailer
end
%%EOF
