%!PS-Adobe-3.0 EPSF-3.0
%%Creator: cairo 1.16.0 (https://cairographics.org)
%%CreationDate: Fri Sep 20 08:56:10 2019
%%Pages: 1
%%DocumentData: Clean7Bit
%%LanguageLevel: 2
%%BoundingBox: 18 18 366 366
%%EndComments
%%BeginProlog
50 dict begin
/q { gsave } bind def
/Q { grestore } bind def
/cm { 6 array astore concat } bind def
/w { setlinewidth } bind def
/J { setlinecap } bind def
/j { setlinejoin } bind def
/M { setmiterlimit } bind def
/d { setdash } bind def
/m { moveto } bind def
/l { lineto } bind def
/c { curveto } bind def
/h { closepath } bind def
/re { exch dup neg 3 1 roll 5 3 roll moveto 0 rlineto
      0 exch rlineto 0 rlineto closepath } bind def
/S { stroke } bind def
/f { fill } bind def
/f* { eofill } bind def
/n { newpath } bind def
/W { clip } bind def
/W* { eoclip } bind def
/BT { } bind def
/ET { } bind def
/BDC { mark 3 1 roll /BDC pdfmark } bind def
/EMC { mark /EMC pdfmark } bind def
/cairo_store_point { /cairo_point_y exch def /cairo_point_x exch def } def
/Tj { show currentpoint cairo_store_point } bind def
/TJ {
  {
    dup
    type /stringtype eq
    { show } { -0.001 mul 0 cairo_font_matrix dtransform rmoveto } ifelse
  } forall
  currentpoint cairo_store_point
} bind def
/cairo_selectfont { cairo_font_matrix aload pop pop pop 0 0 6 array astore
    cairo_font exch selectfont cairo_point_x cairo_point_y moveto } bind def
/Tf { pop /cairo_font exch def /cairo_font_matrix where
      { pop cairo_selectfont } if } bind def
/Td { matrix translate cairo_font_matrix matrix concatmatrix dup
      /cairo_font_matrix exch def dup 4 get exch 5 get cairo_store_point
      /cairo_font where { pop cairo_selectfont } if } bind def
/Tm { 2 copy 8 2 roll 6 array astore /cairo_font_matrix exch def
      cairo_store_point /cairo_font where { pop cairo_selectfont } if } bind def
/g { setgray } bind def
/rg { setrgbcolor } bind def
/d1 { setcachedevice } bind def
/cairo_data_source {
  CairoDataIndex CairoData length lt
    { CairoData CairoDataIndex get /CairoDataIndex CairoDataIndex 1 add def }
    { () } ifelse
} def
/cairo_flush_ascii85_file { cairo_ascii85_file status { cairo_ascii85_file flushfile } if } def
/cairo_image { image cairo_flush_ascii85_file } def
/cairo_imagemask { imagemask cairo_flush_ascii85_file } def
%%EndProlog
%%BeginSetup
%%EndSetup
%%Page: 1 1
%%BeginPageSetup
%%PageBoundingBox: 18 18 366 366
%%EndPageSetup
q 18 18 348 348 rectclip
1 0 0 -1 0 384 cm q
0.870588 0.682353 0.494118 rg
48 330 m 27.648 334.07 l 22.039 335.191 18 340.117 18 345.836 c 18 354 
l 18 360.629 23.371 366 30 366 c 90 366 l 90 330 l h
48 330 m f
0.960784 0.788235 0.615686 rg
90 342 m 66 342 l 58.645 342 51.922 337.844 48.633 331.266 c 48.227 330.457
 47.516 329.84 46.656 329.551 c 34.77 325.59 l 31.922 324.641 30 321.977
 30 318.973 c 30 317.125 30.734 315.352 32.043 314.043 c 33.352 312.734 
35.125 312 36.973 312 c 90 312 l h
90 342 m f
0.870588 0.682353 0.494118 rg
336 330 m 356.352 334.07 l 361.961 335.191 366 340.117 366 345.836 c 366
 354 l 366 360.629 360.629 366 354 366 c 294 366 l 294 330 l h
336 330 m f
0.960784 0.788235 0.615686 rg
294 342 m 318 342 l 325.355 342 332.078 337.844 335.367 331.266 c 335.773
 330.457 336.484 329.84 337.344 329.551 c 349.23 325.59 l 352.078 324.641
 354 321.977 354 318.973 c 354 317.125 353.266 315.352 351.957 314.043 c
 350.648 312.734 348.875 312 347.027 312 c 294 312 l h
294 342 m f
0.980392 0.776471 0.137255 rg
294 282 m 294 366 l 90 366 l 90 282 l 133.551 260.219 l 162 246 l 222 246
 l 250.449 260.219 l h
294 282 m f
0.898039 0.905882 0.913725 rg
250.449 260.219 m 201.602 330 l 182.398 330 l 133.551 260.219 l 162 246
 l 222 246 l h
250.449 260.219 m f
0.890196 0.239216 0.239216 rg
213.023 337.398 m 204 282 l 210 264 l 210 252 l 174 252 l 174 264 l 180
 282 l 170.766 337.398 l h
213.023 337.398 m f
0.780392 0.14902 0.14902 rg
204 288 m 180 288 l 176.688 288 174 285.312 174 282 c 174 278.688 176.688
 276 180 276 c 204 276 l 207.312 276 210 278.688 210 282 c 210 285.312 207.312
 288 204 288 c h
204 288 m f
0.694118 0.47451 0.172549 rg
162 126 m 162 108 l 162 98.059 170.059 90 180 90 c 204 90 l 227.195 90 
246 108.805 246 132 c 246 144 l 232.242 130.242 l 229.527 127.527 225.84
 126 222 126 c 218.16 126 214.473 127.527 211.758 130.242 c 202.242 139.758
 l 199.527 142.473 195.84 144 192 144 c 188.16 144 184.473 142.473 181.758
 139.758 c 172.242 130.242 l 169.527 127.527 165.84 126 162 126 c h
162 126 m f
0.584314 0.4 0.145098 rg
156 102 m 146.059 102 138 110.059 138 120 c 138 144 l 151.758 130.242 l
 154.473 127.527 158.16 126 162 126 c 162 108 l 162 104.688 159.312 102 
156 102 c h
156 102 m f
0.960784 0.788235 0.615686 rg
138 144 m 138 204 l 138 218.32 143.688 232.059 153.816 242.184 c 163.941
 252.312 177.68 258 192 258 c 221.824 258 246 233.824 246 204 c 246 144 
l 232.242 130.242 l 229.527 127.527 225.84 126 222 126 c 218.16 126 214.473
 127.527 211.758 130.242 c 202.242 139.758 l 199.527 142.473 195.84 144 
192 144 c 188.16 144 184.473 142.473 181.758 139.758 c 172.242 130.242 l
 169.527 127.527 165.84 126 162 126 c 158.16 126 154.473 127.527 151.758
 130.242 c h
138 144 m f
0.694118 0.47451 0.172549 rg
156 162 24 12 re f
203.957 173.906 m 203.996 161.906 l 227.996 161.98 l 227.957 173.98 l h
203.957 173.906 m f
0.780392 0.576471 0.411765 rg
186 228 m 180.02 228 l 180.02 216 l 186 216 l 187.594 216 189.121 215.367
 190.246 214.238 c 191.371 213.113 192.004 211.582 192 209.992 c 191.98 
197.945 l 203.98 197.926 l 204 209.973 l 204.008 214.75 202.113 219.336 
198.738 222.719 c 195.359 226.102 190.777 228 186 228 c h
186 228 m f
0.980392 0.776471 0.137255 rg
365.609 180.293 m 359.586 89.656 284.16 18 192 18 c 95.902 18 18.008 95.895
 18 191.992 c 18 192 l 18 288.098 95.902 366 192 366 c 288.098 366 366 288.098
 366 192 c 366 188.062 365.871 184.16 365.609 180.293 c h
192 318 m 142.172 318 97.023 288.633 76.824 243.086 c 56.621 197.535 65.16
 144.359 98.605 107.426 c 132.051 70.492 184.121 56.734 231.445 72.332 c
 278.77 87.93 312.457 129.953 317.387 179.535 c 317.797 183.676 318.004 
187.836 318 192 c 317.996 261.586 261.586 317.996 192 318 c h
192 318 m f
0.329412 0.541176 1 rg
366 192 m 366 288.098 288.098 366 192 366 c 95.902 366 18 288.098 18 192
 c 18 191.992 l 42 174 l 66 192 l 66 261.586 122.414 318 192 318 c 261.586
 318 318 261.586 318 192 c 318.004 187.836 317.797 183.676 317.387 179.535
 c 342 198 l 365.609 180.293 l 365.871 184.164 366.004 188.066 366 192 c
 h
366 192 m f
0.584314 0.4 0.145098 rg
174 186 m 174 189.312 171.312 192 168 192 c 164.688 192 162 189.312 162
 186 c 162 182.688 164.688 180 168 180 c 171.312 180 174 182.688 174 186
 c h
174 186 m f
222 186 m 222 189.312 219.312 192 216 192 c 212.688 192 210 189.312 210
 186 c 210 182.688 212.688 180 216 180 c 219.312 180 222 182.688 222 186
 c h
222 186 m f
Q Q
showpage
%%Trailer
end
%%EOF
