%!PS-Adobe-3.0 EPSF-3.0
%%Creator: cairo 1.16.0 (https://cairographics.org)
%%CreationDate: Fri Sep 20 08:56:11 2019
%%Pages: 1
%%DocumentData: Clean7Bit
%%LanguageLevel: 2
%%BoundingBox: 18 18 366 366
%%EndComments
%%BeginProlog
50 dict begin
/q { gsave } bind def
/Q { grestore } bind def
/cm { 6 array astore concat } bind def
/w { setlinewidth } bind def
/J { setlinecap } bind def
/j { setlinejoin } bind def
/M { setmiterlimit } bind def
/d { setdash } bind def
/m { moveto } bind def
/l { lineto } bind def
/c { curveto } bind def
/h { closepath } bind def
/re { exch dup neg 3 1 roll 5 3 roll moveto 0 rlineto
      0 exch rlineto 0 rlineto closepath } bind def
/S { stroke } bind def
/f { fill } bind def
/f* { eofill } bind def
/n { newpath } bind def
/W { clip } bind def
/W* { eoclip } bind def
/BT { } bind def
/ET { } bind def
/BDC { mark 3 1 roll /BDC pdfmark } bind def
/EMC { mark /EMC pdfmark } bind def
/cairo_store_point { /cairo_point_y exch def /cairo_point_x exch def } def
/Tj { show currentpoint cairo_store_point } bind def
/TJ {
  {
    dup
    type /stringtype eq
    { show } { -0.001 mul 0 cairo_font_matrix dtransform rmoveto } ifelse
  } forall
  currentpoint cairo_store_point
} bind def
/cairo_selectfont { cairo_font_matrix aload pop pop pop 0 0 6 array astore
    cairo_font exch selectfont cairo_point_x cairo_point_y moveto } bind def
/Tf { pop /cairo_font exch def /cairo_font_matrix where
      { pop cairo_selectfont } if } bind def
/Td { matrix translate cairo_font_matrix matrix concatmatrix dup
      /cairo_font_matrix exch def dup 4 get exch 5 get cairo_store_point
      /cairo_font where { pop cairo_selectfont } if } bind def
/Tm { 2 copy 8 2 roll 6 array astore /cairo_font_matrix exch def
      cairo_store_point /cairo_font where { pop cairo_selectfont } if } bind def
/g { setgray } bind def
/rg { setrgbcolor } bind def
/d1 { setcachedevice } bind def
/cairo_data_source {
  CairoDataIndex CairoData length lt
    { CairoData CairoDataIndex get /CairoDataIndex CairoDataIndex 1 add def }
    { () } ifelse
} def
/cairo_flush_ascii85_file { cairo_ascii85_file status { cairo_ascii85_file flushfile } if } def
/cairo_image { image cairo_flush_ascii85_file } def
/cairo_imagemask { imagemask cairo_flush_ascii85_file } def
%%EndProlog
%%BeginSetup
%%EndSetup
%%Page: 1 1
%%BeginPageSetup
%%PageBoundingBox: 18 18 366 366
%%EndPageSetup
q 18 18 348 348 rectclip
1 0 0 -1 0 384 cm q
0.694118 0.47451 0.172549 rg
138 48 228 318 re f
0.964706 0.733333 0 rg
162 78 180 264 re f
0.811765 0.513726 0 rg
222 246 m 186 246 l 182.688 246 180 243.312 180 240 c 180 204 l 180 200.688
 182.688 198 186 198 c 222 198 l 225.312 198 228 200.688 228 204 c 228 240
 l 228 243.312 225.312 246 222 246 c h
192 234 m 216 234 l 216 210 l 192 210 l h
192 234 m f
0.329412 0.541176 1 rg
276 42 m 276 60 l 312 84 l 312 102 l 192 102 l 192 84 l 228 60 l 228 42
 l 228 28.746 238.746 18 252 18 c 265.254 18 276 28.746 276 42 c h
276 42 m f
78 366 m 288 366 l 288 348 l 240 324 l 78 324 l h
78 366 m f
0.317647 0.494118 0.968627 rg
240 324 m 240 312 l 240 255.668 194.332 210 138 210 c 78 210 l 78 324 l
 h
240 324 m f
0.282353 0.419608 0.878431 rg
204 324 m 204 312 l 204 275.551 174.449 246 138 246 c 78 246 l 78 324 l
 h
204 324 m f
0.317647 0.494118 0.968627 rg
162 324 m 138 294 l 78 294 l 78 324 l h
162 324 m f
0.964706 0.733333 0 rg
102 156 m 102 120 l 90 102 l 78 102 l 78 132 l 60 144 l 42 132 l 42 102
 l 30 102 l 18 120 l 18 156 l 42 174 l 42 282 l 18 306 l 18 342 l 42 366
 l 78 366 l 102 342 l 102 306 l 78 282 l 78 174 l h
78 330 m 66 342 l 54 342 l 42 330 l 42 318 l 54 306 l 66 306 l 78 318 l
 h
78 330 m f
0.282353 0.419608 0.878431 rg
258 42 m 258 45.312 255.312 48 252 48 c 248.688 48 246 45.312 246 42 c 
246 38.688 248.688 36 252 36 c 255.312 36 258 38.688 258 42 c h
258 42 m f
0.811765 0.513726 0 rg
222 174 m 186 174 l 182.688 174 180 171.312 180 168 c 180 132 l 180 128.688
 182.688 126 186 126 c 222 126 l 225.312 126 228 128.688 228 132 c 228 168
 l 228 171.312 225.312 174 222 174 c h
192 162 m 216 162 l 216 138 l 192 138 l h
192 162 m f
282 138 42 12 re f
252 138 18 12 re f
300 162 24 12 re f
240 162 48 12 re f
282 204 42 12 re f
252 204 18 12 re f
300 228 24 12 re f
252 228 36 12 re f
282 270 42 12 re f
258 270 12 12 re f
300 294 24 12 re f
258 294 30 12 re f
0.890196 0.239216 0.239216 rg
199.719 145.754 m 229.715 115.758 l 238.199 124.242 l 208.203 154.238 l
 h
199.719 145.754 m f
199.715 217.742 m 229.711 187.746 l 238.195 196.23 l 208.199 226.227 l 
h
199.715 217.742 m f
Q Q
showpage
%%Trailer
end
%%EOF
