%!PS-Adobe-3.0 EPSF-3.0
%%Creator: cairo 1.16.0 (https://cairographics.org)
%%CreationDate: Fri Sep 20 08:56:11 2019
%%Pages: 1
%%DocumentData: Clean7Bit
%%LanguageLevel: 2
%%BoundingBox: 18 18 366 366
%%EndComments
%%BeginProlog
50 dict begin
/q { gsave } bind def
/Q { grestore } bind def
/cm { 6 array astore concat } bind def
/w { setlinewidth } bind def
/J { setlinecap } bind def
/j { setlinejoin } bind def
/M { setmiterlimit } bind def
/d { setdash } bind def
/m { moveto } bind def
/l { lineto } bind def
/c { curveto } bind def
/h { closepath } bind def
/re { exch dup neg 3 1 roll 5 3 roll moveto 0 rlineto
      0 exch rlineto 0 rlineto closepath } bind def
/S { stroke } bind def
/f { fill } bind def
/f* { eofill } bind def
/n { newpath } bind def
/W { clip } bind def
/W* { eoclip } bind def
/BT { } bind def
/ET { } bind def
/BDC { mark 3 1 roll /BDC pdfmark } bind def
/EMC { mark /EMC pdfmark } bind def
/cairo_store_point { /cairo_point_y exch def /cairo_point_x exch def } def
/Tj { show currentpoint cairo_store_point } bind def
/TJ {
  {
    dup
    type /stringtype eq
    { show } { -0.001 mul 0 cairo_font_matrix dtransform rmoveto } ifelse
  } forall
  currentpoint cairo_store_point
} bind def
/cairo_selectfont { cairo_font_matrix aload pop pop pop 0 0 6 array astore
    cairo_font exch selectfont cairo_point_x cairo_point_y moveto } bind def
/Tf { pop /cairo_font exch def /cairo_font_matrix where
      { pop cairo_selectfont } if } bind def
/Td { matrix translate cairo_font_matrix matrix concatmatrix dup
      /cairo_font_matrix exch def dup 4 get exch 5 get cairo_store_point
      /cairo_font where { pop cairo_selectfont } if } bind def
/Tm { 2 copy 8 2 roll 6 array astore /cairo_font_matrix exch def
      cairo_store_point /cairo_font where { pop cairo_selectfont } if } bind def
/g { setgray } bind def
/rg { setrgbcolor } bind def
/d1 { setcachedevice } bind def
/cairo_data_source {
  CairoDataIndex CairoData length lt
    { CairoData CairoDataIndex get /CairoDataIndex CairoDataIndex 1 add def }
    { () } ifelse
} def
/cairo_flush_ascii85_file { cairo_ascii85_file status { cairo_ascii85_file flushfile } if } def
/cairo_image { image cairo_flush_ascii85_file } def
/cairo_imagemask { imagemask cairo_flush_ascii85_file } def
%%EndProlog
%%BeginSetup
%%EndSetup
%%Page: 1 1
%%BeginPageSetup
%%PageBoundingBox: 18 18 366 366
%%EndPageSetup
q 18 18 348 348 rectclip
1 0 0 -1 0 384 cm q
0.929412 0.65098 0 rg
30 312 198 54 re f
0.964706 0.733333 0 rg
162 192 m 207.543 219.59 l 216.52 225.027 222 234.758 222 245.25 c 222 
282 l 222 315.137 195.137 342 162 342 c 78 342 l 44.863 342 18 315.137 18
 282 c 18 245.25 l 18 234.758 23.48 225.027 32.457 219.59 c 78 192 l h
162 192 m f
0.890196 0.239216 0.239216 rg
102 210 m 102 228 l 108 246 l 102 306 l 138 306 l 132 246 l 138 228 l 138
 210 l h
102 210 m f
0.494118 0.341176 0.87451 rg
366 354 m 366 360.629 360.629 366 354 366 c 222 366 l 215.371 366 210 360.629
 210 354 c 210 202.969 l 210 199.789 211.266 196.734 213.516 194.484 c 248.484
 159.516 l 250.734 157.266 253.789 156 256.969 156 c 354 156 l 360.629 156
 366 161.371 366 168 c h
366 354 m f
0.964706 0.733333 0 rg
276 234 m 264 243 l 256.445 248.664 252 257.559 252 267 c 252 282 l 324
 282 l 324 267 l 324 257.559 319.555 248.664 312 243 c 300 234 l h
276 234 m f
0.321569 0.184314 0.741176 rg
276 306 54 12 re f
0.929412 0.65098 0 rg
282 234 12 48 re f
0.321569 0.184314 0.741176 rg
288 330 18 12 re f
318 330 12 12 re f
246 330 30 12 re f
0.329412 0.541176 1 rg
230.484 129.516 m 204 156 l 204 30 l 204 23.371 209.371 18 216 18 c 336
 18 l 342.629 18 348 23.371 348 30 c 348 114 l 348 120.629 342.629 126 336
 126 c 238.969 126 l 235.789 126 232.734 127.266 230.484 129.516 c h
230.484 129.516 m f
0.231373 0.341176 0.768627 rg
264 42 12 12 re f
288 42 36 12 re f
228 66 18 12 re f
306 66 18 12 re f
258 66 36 12 re f
228 90 54 12 re f
294 90 30 12 re f
0.929412 0.65098 0 rg
144 318 m 126 318 l 125.605 318 125.211 317.961 124.824 317.883 c 94.242
 311.766 l 74.355 307.746 60.043 290.289 60 270 c 72 270 l 72.031 284.574
 82.312 297.109 96.594 300 c 126.594 306 l 144 306 l h
144 318 m f
0.960784 0.788235 0.615686 rg
126 312 m 158.855 295.57 l 160.922 294.539 163.203 294 165.516 294 c 167.766
 294 169.922 294.895 171.516 296.484 c 173.105 298.078 174 300.234 174 302.484
 c 174 304.734 173.105 306.895 171.516 308.484 c 162 318 l 203.027 318 l
 206.879 318 210 321.121 210 324.973 c 210 327.977 208.078 330.641 205.23
 331.59 c 180.93 339.691 l 176.34 341.219 171.535 342 166.699 342 c 126 
342 l h
126 312 m f
0.780392 0.14902 0.14902 rg
132 252 m 108 252 l 104.688 252 102 249.312 102 246 c 102 242.688 104.688
 240 108 240 c 132 240 l 135.312 240 138 242.688 138 246 c 138 249.312 135.312
 252 132 252 c h
132 252 m f
0.960784 0.788235 0.615686 rg
66 102 m 66 162 l 66 176.32 71.688 190.059 81.816 200.184 c 91.941 210.312
 105.68 216 120 216 c 134.32 216 148.059 210.312 158.184 200.184 c 168.312
 190.059 174 176.32 174 162 c 174 102 l 156 78 l 90 78 l h
66 102 m f
0.694118 0.47451 0.172549 rg
174 108 m 123 108 l 108.09 108 96 95.91 96 81 c 96 78 l 96 68.059 104.059
 60 114 60 c 132 60 l 155.195 60 174 78.805 174 102 c h
174 108 m f
0.584314 0.4 0.145098 rg
66 108 m 66 84 l 66 74.059 74.059 66 84 66 c 90.629 66 96 71.371 96 78 
c 96 85.027 l 96 97.715 85.715 108 73.027 108 c h
66 108 m f
0.694118 0.47451 0.172549 rg
84 126 24 12 re f
0.960784 0.788235 0.615686 rg
270 204 m 270 222 l 270 231.941 278.059 240 288 240 c 297.941 240 306 231.941
 306 222 c 306 204 l h
270 204 m f
0.694118 0.47451 0.172549 rg
306 204 m 270 204 l 270 193.816 l 270 190.152 271.457 186.637 274.047 184.047
 c 276.637 181.457 280.152 180 283.816 180 c 286.543 180 289.211 180.809
 291.48 182.32 c 306 192 l h
306 204 m f
132 126 24 12 re f
0.584314 0.4 0.145098 rg
102 150 m 102 153.312 99.312 156 96 156 c 92.688 156 90 153.312 90 150 
c 90 146.688 92.688 144 96 144 c 99.312 144 102 146.688 102 150 c h
102 150 m f
150 150 m 150 153.312 147.312 156 144 156 c 140.688 156 138 153.312 138
 150 c 138 146.688 140.688 144 144 144 c 147.312 144 150 146.688 150 150
 c h
150 150 m f
0.780392 0.576471 0.411765 rg
114 192 m 108 192 l 108 180 l 114 180 l 117.312 179.996 119.996 177.312
 120 174 c 120 162 l 132 162 l 132 174 l 131.988 183.938 123.938 191.988
 114 192 c h
114 192 m f
Q Q
showpage
%%Trailer
end
%%EOF
