%!PS-Adobe-3.0 EPSF-3.0
%%Creator: cairo 1.16.0 (https://cairographics.org)
%%CreationDate: Fri Sep 20 08:56:11 2019
%%Pages: 1
%%DocumentData: Clean7Bit
%%LanguageLevel: 2
%%BoundingBox: 18 30 372 354
%%EndComments
%%BeginProlog
50 dict begin
/q { gsave } bind def
/Q { grestore } bind def
/cm { 6 array astore concat } bind def
/w { setlinewidth } bind def
/J { setlinecap } bind def
/j { setlinejoin } bind def
/M { setmiterlimit } bind def
/d { setdash } bind def
/m { moveto } bind def
/l { lineto } bind def
/c { curveto } bind def
/h { closepath } bind def
/re { exch dup neg 3 1 roll 5 3 roll moveto 0 rlineto
      0 exch rlineto 0 rlineto closepath } bind def
/S { stroke } bind def
/f { fill } bind def
/f* { eofill } bind def
/n { newpath } bind def
/W { clip } bind def
/W* { eoclip } bind def
/BT { } bind def
/ET { } bind def
/BDC { mark 3 1 roll /BDC pdfmark } bind def
/EMC { mark /EMC pdfmark } bind def
/cairo_store_point { /cairo_point_y exch def /cairo_point_x exch def } def
/Tj { show currentpoint cairo_store_point } bind def
/TJ {
  {
    dup
    type /stringtype eq
    { show } { -0.001 mul 0 cairo_font_matrix dtransform rmoveto } ifelse
  } forall
  currentpoint cairo_store_point
} bind def
/cairo_selectfont { cairo_font_matrix aload pop pop pop 0 0 6 array astore
    cairo_font exch selectfont cairo_point_x cairo_point_y moveto } bind def
/Tf { pop /cairo_font exch def /cairo_font_matrix where
      { pop cairo_selectfont } if } bind def
/Td { matrix translate cairo_font_matrix matrix concatmatrix dup
      /cairo_font_matrix exch def dup 4 get exch 5 get cairo_store_point
      /cairo_font where { pop cairo_selectfont } if } bind def
/Tm { 2 copy 8 2 roll 6 array astore /cairo_font_matrix exch def
      cairo_store_point /cairo_font where { pop cairo_selectfont } if } bind def
/g { setgray } bind def
/rg { setrgbcolor } bind def
/d1 { setcachedevice } bind def
/cairo_data_source {
  CairoDataIndex CairoData length lt
    { CairoData CairoDataIndex get /CairoDataIndex CairoDataIndex 1 add def }
    { () } ifelse
} def
/cairo_flush_ascii85_file { cairo_ascii85_file status { cairo_ascii85_file flushfile } if } def
/cairo_image { image cairo_flush_ascii85_file } def
/cairo_imagemask { imagemask cairo_flush_ascii85_file } def
%%EndProlog
%%BeginSetup
%%EndSetup
%%Page: 1 1
%%BeginPageSetup
%%PageBoundingBox: 18 30 372 354
%%EndPageSetup
q 18 30 354 324 rectclip
1 0 0 -1 0 384 cm q
0.282353 0.419608 0.878431 rg
126 162 m 126 60 l 96 30 l 42 30 l 42 162 l h
126 162 m f
0.329412 0.541176 1 rg
78 54 m 18 54 l 18 162 l 102 162 l 102 78 l h
78 54 m f
0.231373 0.341176 0.768627 rg
72 102 12 12 re f
36 102 24 12 re f
60 78 24 12 re f
36 78 12 12 re f
60 126 24 12 re f
36 126 12 12 re f
0.964706 0.733333 0 rg
312 162 m 312 174 l 277.426 185.527 l 265.707 189.43 252.797 185.758 244.891
 176.273 c 236.664 166.402 l 228 156 l 222 204 l 162 204 l 156 156 l 147.336
 166.402 l 139.109 176.273 l 131.203 185.758 118.293 189.43 106.574 185.527
 c 72 174 l 72 162 l 107.031 162 l 111.34 162 115.316 159.695 117.457 155.953
 c 120.637 150.383 l 130.02 133.965 l 135.199 124.902 143.188 117.773 152.781
 113.664 c 180 102 l 204 102 l 231.219 113.664 l 240.812 117.773 248.801
 124.902 253.98 133.965 c 263.363 150.383 l 266.543 155.953 l 268.684 159.695
 272.66 162 276.969 162 c h
312 162 m f
0.870588 0.580392 0 rg
186 138 12 36 re f
186 102 12 24 re f
0.301961 0.388235 0.470588 rg
222 204 m 234 354 l 216 354 l 192 240 l 168 354 l 150 354 l 162 204 l h
222 204 m f
0.960784 0.788235 0.615686 rg
174 72 m 174 90 l 174 99.941 182.059 108 192 108 c 201.941 108 210 99.941
 210 90 c 210 72 l h
174 72 m f
0.694118 0.47451 0.172549 rg
210 72 m 174 72 l 174 61.816 l 174 58.152 175.457 54.637 178.047 52.047
 c 180.637 49.457 184.152 48 187.816 48 c 190.543 48 193.211 48.809 195.48
 50.32 c 210 60 l h
210 72 m f
0.960784 0.788235 0.615686 rg
312 162 m 312 174 l 277.426 185.527 l 265.707 189.43 252.797 185.758 244.891
 176.273 c 236.664 166.402 l 263.363 150.383 l 266.543 155.953 l 268.684
 159.695 272.66 162 276.969 162 c h
312 162 m f
147.336 166.402 m 139.109 176.273 l 131.203 185.758 118.293 189.43 106.574
 185.527 c 72 174 l 72 162 l 107.031 162 l 111.34 162 115.316 159.695 117.457
 155.953 c 120.637 150.383 l h
147.336 166.402 m f
0.329412 0.541176 1 rg
366 102 m 366 135.137 339.137 162 306 162 c 272.863 162 246 135.137 246
 102 c 246 68.863 272.863 42 306 42 c 339.137 42 366 68.863 366 102 c h
366 102 m f
0.282353 0.419608 0.878431 rg
306 168 m 279.305 168 255.238 151.918 245.023 127.258 c 234.809 102.594
 240.457 74.207 259.332 55.332 c 278.207 36.457 306.594 30.809 331.258 41.023
 c 355.918 51.238 372 75.305 372 102 c 371.957 138.434 342.434 167.957 306
 168 c h
306 48 m 284.16 48 264.469 61.156 256.109 81.336 c 247.754 101.512 252.371
 124.738 267.816 140.184 c 283.262 155.629 306.488 160.246 326.664 151.891
 c 346.844 143.531 360 123.84 360 102 c 359.965 72.191 335.809 48.035 306
 48 c h
306 48 m f
306 168 m 296.969 168 288.965 160.418 283.457 146.656 c 278.648 134.629
 276 118.773 276 102 c 276 85.227 278.648 69.371 283.457 57.344 c 288.965
 43.582 296.969 36 306 36 c 315.031 36 323.035 43.582 328.543 57.344 c 333.352
 69.371 336 85.227 336 102 c 336 118.773 333.352 134.629 328.543 146.656
 c 323.035 160.418 315.031 168 306 168 c h
306 48 m 298.66 48 288 69.035 288 102 c 288 134.965 298.66 156 306 156 
c 313.34 156 324 134.965 324 102 c 324 69.035 313.34 48 306 48 c h
306 48 m f
306 132 m 289.227 132 273.371 129.352 261.344 124.543 c 247.582 119.035
 240 111.031 240 102 c 240 92.969 247.582 84.965 261.344 79.457 c 273.371
 74.648 289.227 72 306 72 c 322.773 72 338.629 74.648 350.656 79.457 c 364.418
 84.965 372 92.969 372 102 c 372 111.031 364.418 119.035 350.656 124.543
 c 338.629 129.352 322.773 132 306 132 c h
306 84 m 273.035 84 252 94.66 252 102 c 252 109.34 273.035 120 306 120 
c 338.965 120 360 109.34 360 102 c 360 94.66 338.965 84 306 84 c h
306 84 m f
Q Q
showpage
%%Trailer
end
%%EOF
