%!PS-Adobe-3.0 EPSF-3.0
%%Creator: cairo 1.16.0 (https://cairographics.org)
%%CreationDate: Fri Sep 20 08:56:12 2019
%%Pages: 1
%%DocumentData: Clean7Bit
%%LanguageLevel: 2
%%BoundingBox: 18 18 366 366
%%EndComments
%%BeginProlog
50 dict begin
/q { gsave } bind def
/Q { grestore } bind def
/cm { 6 array astore concat } bind def
/w { setlinewidth } bind def
/J { setlinecap } bind def
/j { setlinejoin } bind def
/M { setmiterlimit } bind def
/d { setdash } bind def
/m { moveto } bind def
/l { lineto } bind def
/c { curveto } bind def
/h { closepath } bind def
/re { exch dup neg 3 1 roll 5 3 roll moveto 0 rlineto
      0 exch rlineto 0 rlineto closepath } bind def
/S { stroke } bind def
/f { fill } bind def
/f* { eofill } bind def
/n { newpath } bind def
/W { clip } bind def
/W* { eoclip } bind def
/BT { } bind def
/ET { } bind def
/BDC { mark 3 1 roll /BDC pdfmark } bind def
/EMC { mark /EMC pdfmark } bind def
/cairo_store_point { /cairo_point_y exch def /cairo_point_x exch def } def
/Tj { show currentpoint cairo_store_point } bind def
/TJ {
  {
    dup
    type /stringtype eq
    { show } { -0.001 mul 0 cairo_font_matrix dtransform rmoveto } ifelse
  } forall
  currentpoint cairo_store_point
} bind def
/cairo_selectfont { cairo_font_matrix aload pop pop pop 0 0 6 array astore
    cairo_font exch selectfont cairo_point_x cairo_point_y moveto } bind def
/Tf { pop /cairo_font exch def /cairo_font_matrix where
      { pop cairo_selectfont } if } bind def
/Td { matrix translate cairo_font_matrix matrix concatmatrix dup
      /cairo_font_matrix exch def dup 4 get exch 5 get cairo_store_point
      /cairo_font where { pop cairo_selectfont } if } bind def
/Tm { 2 copy 8 2 roll 6 array astore /cairo_font_matrix exch def
      cairo_store_point /cairo_font where { pop cairo_selectfont } if } bind def
/g { setgray } bind def
/rg { setrgbcolor } bind def
/d1 { setcachedevice } bind def
/cairo_data_source {
  CairoDataIndex CairoData length lt
    { CairoData CairoDataIndex get /CairoDataIndex CairoDataIndex 1 add def }
    { () } ifelse
} def
/cairo_flush_ascii85_file { cairo_ascii85_file status { cairo_ascii85_file flushfile } if } def
/cairo_image { image cairo_flush_ascii85_file } def
/cairo_imagemask { imagemask cairo_flush_ascii85_file } def
%%EndProlog
%%BeginSetup
%%EndSetup
%%Page: 1 1
%%BeginPageSetup
%%PageBoundingBox: 18 18 366 366
%%EndPageSetup
q 18 18 348 348 rectclip
1 0 0 -1 0 384 cm q
0.388235 0.239216 0.8 rg
334 282 m 348 366 l 330 366 l 309 282 l h
334 282 m f
266 282 m 252 366 l 270 366 l 291 282 l h
266 282 m f
0.258824 0.337255 0.419608 rg
267.953 234 m 240 234 l 223.43 234 210 247.43 210 264 c 210 348 l 216 348
 l h
267.953 234 m f
0.301961 0.388235 0.470588 rg
324 246 m 324 259.254 313.254 270 300 270 c 261.953 270 l 228 348 l 210
 348 l 232.352 256.855 l 235.641 243.438 247.668 234 261.488 234 c 270 234
 l 270 222 l 324 222 l h
324 246 m f
0.329412 0.541176 1 rg
288 126 m 178.969 126 l 175.789 126 172.734 127.266 170.484 129.516 c 144
 156 l 144 30 l 144 23.371 149.371 18 156 18 c 276 18 l 282.629 18 288 23.371
 288 30 c h
288 126 m f
0.231373 0.341176 0.768627 rg
192 42 12 12 re f
216 42 48 12 re f
168 66 54 12 re f
234 66 30 12 re f
168 90 24 12 re f
204 90 60 12 re f
0.388235 0.239216 0.8 rg
50 282 m 36 366 l 54 366 l 75 282 l h
50 282 m f
118 282 m 132 366 l 114 366 l 93 282 l h
118 282 m f
0.258824 0.337255 0.419608 rg
116.047 234 m 144 234 l 160.57 234 174 247.43 174 264 c 174 348 l 168 348
 l h
116.047 234 m f
0.301961 0.388235 0.470588 rg
72 234 m 72 258 l 72 264.629 77.371 270 84 270 c 122.047 270 l 156 348 
l 174 348 l 151.648 256.855 l 148.359 243.438 136.332 234 122.512 234 c 
h
72 234 m f
0.960784 0.788235 0.615686 rg
190.02 198 m 162.141 211.941 l 156.906 214.555 150.898 215.168 145.246 
213.668 c 131.934 210.137 l 120 206.961 l 120 162.863 l 142.934 182.504 
l 143.586 183.066 144.262 183.594 144.961 184.086 c 151.715 188.938 160.184
 190.766 168.336 189.137 c 184.02 186 l h
190.02 198 m f
0.929412 0.65098 0 rg
144.961 184.086 m 131.934 210.137 l 120 206.961 l 120 162.863 l 142.934
 182.504 l 143.586 183.066 144.262 183.594 144.961 184.086 c h
144.961 184.086 m f
0.964706 0.733333 0 rg
126 234 m 77.145 234 l 84 258 l 72 264 l 47.754 220.359 l 44.055 213.703
 43.027 205.895 44.871 198.512 c 46.637 191.453 l 50.684 175.262 l 52.836
 166.656 57.75 159 64.672 153.457 c 84 138 l 108 138 l 116.398 149.199 l
 122.633 157.508 126 167.613 126 177.996 c h
126 234 m f
0.929412 0.65098 0 rg
108 162 m 108 198 l 96 198 l 96 162.977 l 87.684 138 l 100.328 138 l 107.691
 160.102 l 107.895 160.715 108 161.355 108 162 c h
108 162 m f
0.494118 0.341176 0.87451 rg
42 246 m 42 259.254 52.746 270 66 270 c 102 270 l 115.254 270 126 280.746
 126 294 c 60 294 l 36.805 294 18 275.195 18 252 c 18 156 l 31.254 156 42
 166.746 42 180 c h
42 246 m f
0.964706 0.733333 0 rg
342 183.039 m 342 207.961 l 341.996 222.34 330.34 233.996 315.961 234 c
 264 234 l 264 178.934 l 264.309 168.652 268.793 157.094 276.891 148.246
 c 286.262 138 l 315.953 138 l 326.527 147.742 l 336.391 156.828 342 169.629
 342 183.039 c h
342 183.039 m f
0.929412 0.65098 0 rg
259.633 223.277 m 256.723 211.633 l 301.457 200.453 l 304.129 199.785 306.004
 197.387 306 194.629 c 306 180 l 318 180 l 318 194.629 l 318.008 202.895
 312.383 210.098 304.367 212.094 c h
259.633 223.277 m f
308.129 138 m 294 163.547 l 294 192 l 282 192 l 282 162 l 282 160.984 282.258
 159.984 282.75 159.098 c 294.414 138 l h
308.129 138 m f
0.494118 0.341176 0.87451 rg
342 246 m 342 259.254 331.254 270 318 270 c 282 270 l 268.746 270 258 280.746
 258 294 c 324 294 l 347.195 294 366 275.195 366 252 c 366 156 l 352.746
 156 342 166.746 342 180 c h
342 246 m f
0.929412 0.65098 0 rg
264 234 m 228 234 l 228 216 l 264 204 l h
264 234 m f
0.960784 0.788235 0.615686 rg
84 258 m 72 264 l 47.754 220.359 l 44.055 213.703 43.027 205.895 44.871
 198.512 c 46.637 191.453 l 76.965 203.586 l 73.523 212.191 l 72.535 214.66
 72.395 217.387 73.125 219.945 c 77.145 234 l h
84 258 m f
114 108 m 114 126 l 114 135.941 105.941 144 96 144 c 86.059 144 78 135.941
 78 126 c 78 108 l h
114 108 m f
0.694118 0.47451 0.172549 rg
78 108 m 114 108 l 114 97.816 l 114 94.152 112.543 90.637 109.953 88.047
 c 107.363 85.457 103.848 84 100.184 84 c 97.457 84 94.789 84.809 92.52 
86.32 c 78 96 l h
78 108 m f
0.960784 0.788235 0.615686 rg
279.953 108 m 279.953 126 l 279.953 135.941 288.012 144 297.953 144 c 307.895
 144 315.953 135.941 315.953 126 c 315.953 108 l h
279.953 108 m f
0.694118 0.47451 0.172549 rg
315.953 108 m 279.953 108 l 279.953 97.816 l 279.953 90.188 286.141 84 
293.77 84 c 296.5 84 299.164 84.809 301.434 86.32 c 315.953 96 l h
315.953 108 m f
Q Q
showpage
%%Trailer
end
%%EOF
