%!PS-Adobe-3.0 EPSF-3.0
%%Creator: cairo 1.16.0 (https://cairographics.org)
%%CreationDate: Fri Sep 20 08:56:12 2019
%%Pages: 1
%%DocumentData: Clean7Bit
%%LanguageLevel: 2
%%BoundingBox: 30 18 360 366
%%EndComments
%%BeginProlog
50 dict begin
/q { gsave } bind def
/Q { grestore } bind def
/cm { 6 array astore concat } bind def
/w { setlinewidth } bind def
/J { setlinecap } bind def
/j { setlinejoin } bind def
/M { setmiterlimit } bind def
/d { setdash } bind def
/m { moveto } bind def
/l { lineto } bind def
/c { curveto } bind def
/h { closepath } bind def
/re { exch dup neg 3 1 roll 5 3 roll moveto 0 rlineto
      0 exch rlineto 0 rlineto closepath } bind def
/S { stroke } bind def
/f { fill } bind def
/f* { eofill } bind def
/n { newpath } bind def
/W { clip } bind def
/W* { eoclip } bind def
/BT { } bind def
/ET { } bind def
/BDC { mark 3 1 roll /BDC pdfmark } bind def
/EMC { mark /EMC pdfmark } bind def
/cairo_store_point { /cairo_point_y exch def /cairo_point_x exch def } def
/Tj { show currentpoint cairo_store_point } bind def
/TJ {
  {
    dup
    type /stringtype eq
    { show } { -0.001 mul 0 cairo_font_matrix dtransform rmoveto } ifelse
  } forall
  currentpoint cairo_store_point
} bind def
/cairo_selectfont { cairo_font_matrix aload pop pop pop 0 0 6 array astore
    cairo_font exch selectfont cairo_point_x cairo_point_y moveto } bind def
/Tf { pop /cairo_font exch def /cairo_font_matrix where
      { pop cairo_selectfont } if } bind def
/Td { matrix translate cairo_font_matrix matrix concatmatrix dup
      /cairo_font_matrix exch def dup 4 get exch 5 get cairo_store_point
      /cairo_font where { pop cairo_selectfont } if } bind def
/Tm { 2 copy 8 2 roll 6 array astore /cairo_font_matrix exch def
      cairo_store_point /cairo_font where { pop cairo_selectfont } if } bind def
/g { setgray } bind def
/rg { setrgbcolor } bind def
/d1 { setcachedevice } bind def
/cairo_data_source {
  CairoDataIndex CairoData length lt
    { CairoData CairoDataIndex get /CairoDataIndex CairoDataIndex 1 add def }
    { () } ifelse
} def
/cairo_flush_ascii85_file { cairo_ascii85_file status { cairo_ascii85_file flushfile } if } def
/cairo_image { image cairo_flush_ascii85_file } def
/cairo_imagemask { imagemask cairo_flush_ascii85_file } def
%%EndProlog
%%BeginSetup
%%EndSetup
%%Page: 1 1
%%BeginPageSetup
%%PageBoundingBox: 30 18 360 366
%%EndPageSetup
q 30 18 330 348 rectclip
1 0 0 -1 0 384 cm q
0.964706 0.733333 0 rg
258 223.785 m 258 366 l 30 366 l 30 223.785 l 30 215.25 34.535 207.355 
41.91 203.055 c 85.297 177.742 l 95.691 171.684 l 102 168 l 186 168 l 192.309
 171.684 l 202.703 177.742 l 246.09 203.055 l 253.465 207.355 258 215.25
 258 223.785 c h
258 223.785 m f
0.870588 0.682353 0.494118 rg
324 330 m 300.301 353.699 l 292.426 361.574 281.742 366 270.602 366 c 222
 366 l 222 330 l h
324 330 m f
0.929412 0.65098 0 rg
30 366 m 108 366 l 64.922 366 30 331.078 30 288 c h
30 366 m f
0.494118 0.341176 0.87451 rg
240 186 96 144 re f
0.658824 0.541176 0.94902 rg
216 210 24 12 re f
216 234 24 12 re f
216 258 24 12 re f
216 282 24 12 re f
336 210 24 12 re f
336 234 24 12 re f
336 258 24 12 re f
336 282 24 12 re f
258 162 12 24 re f
282 162 12 24 re f
306 162 12 24 re f
0.329412 0.541176 1 rg
114 312 m 114 252 l 174 252 l 174 318 l h
114 312 m f
0.301961 0.388235 0.470588 rg
202.703 177.742 m 148.934 255.414 l 147.816 257.031 145.969 258 144 258
 c 142.031 258 140.184 257.031 139.066 255.414 c 85.297 177.742 l 95.691
 171.684 l 144 241.461 l 192.309 171.684 l h
202.703 177.742 m f
0.388235 0.239216 0.8 rg
264 228 m 273.941 228 282 219.941 282 210 c 312 210 l 312 306 l 264 306
 l h
264 228 m f
0.321569 0.184314 0.741176 rg
282 246 12 36 re f
0.929412 0.65098 0 rg
204 330 m 192 330 l 191.648 330 191.301 329.969 190.957 329.91 c 108.785
 315.406 l 94.441 312.895 83.984 300.426 84 285.863 c 84 270 l 96 270 l 
96 285.863 l 95.988 294.602 102.266 302.082 110.871 303.59 c 192.523 318
 l 204 318 l h
204 330 m f
0.960784 0.788235 0.615686 rg
192 366 m 240.602 366 l 251.742 366 262.426 361.574 270.301 353.699 c 293.438
 330.562 l 297.254 326.746 297.844 320.766 294.852 316.277 c 293.09 313.637
 290.301 311.855 287.168 311.367 c 284.031 310.883 280.836 311.734 278.355
 313.715 c 262.93 326.055 l 259.738 328.609 255.773 330 251.688 330 c 240
 330 l 240 330 242.742 316.285 244.539 307.41 c 245.422 303.035 243.258 
298.617 239.262 296.633 c 239.109 296.555 l 235.938 294.969 232.145 295.266
 229.262 297.332 c 192 324 l h
192 366 m f
0.694118 0.47451 0.172549 rg
174 54 m 174 36 l 174 26.059 165.941 18 156 18 c 132 18 l 108.805 18 90
 36.805 90 60 c 90 72 l 103.758 58.242 l 106.473 55.527 110.16 54 114 54
 c 117.84 54 121.527 55.527 124.242 58.242 c 133.758 67.758 l 136.473 70.473
 140.16 72 144 72 c 147.84 72 151.527 70.473 154.242 67.758 c 163.758 58.242
 l 166.473 55.527 170.16 54 174 54 c h
174 54 m f
0.584314 0.4 0.145098 rg
180 30 m 189.941 30 198 38.059 198 48 c 198 72 l 184.242 58.242 l 181.527
 55.527 177.84 54 174 54 c 174 36 l 174 32.688 176.688 30 180 30 c h
180 30 m f
0.960784 0.788235 0.615686 rg
198 72 m 198 132 l 198 146.32 192.312 160.059 182.184 170.184 c 172.059
 180.312 158.32 186 144 186 c 114.176 186 90 161.824 90 132 c 90 72 l 103.758
 58.242 l 106.473 55.527 110.16 54 114 54 c 117.84 54 121.527 55.527 124.242
 58.242 c 133.758 67.758 l 136.473 70.473 140.16 72 144 72 c 147.84 72 151.527
 70.473 154.242 67.758 c 163.758 58.242 l 166.473 55.527 170.16 54 174 54
 c 177.84 54 181.527 55.527 184.242 58.242 c h
198 72 m f
0.694118 0.47451 0.172549 rg
108 90 24 12 re f
0.360784 0.45098 0.529412 rg
144 276 m 140.688 276 138 273.312 138 270 c 138 252 l 138 248.688 140.688
 246 144 246 c 147.312 246 150 248.688 150 252 c 150 270 l 150 273.312 147.312
 276 144 276 c h
144 276 m f
0.780392 0.576471 0.411765 rg
138 156 m 132 156 l 132 144 l 138 144 l 141.312 143.996 143.996 141.312
 144 138 c 144 126 l 156 126 l 156 138 l 155.988 147.938 147.938 155.988
 138 156 c h
138 156 m f
0.584314 0.4 0.145098 rg
126 114 m 126 117.312 123.312 120 120 120 c 116.688 120 114 117.312 114
 114 c 114 110.688 116.688 108 120 108 c 123.312 108 126 110.688 126 114
 c h
126 114 m f
174 114 m 174 117.312 171.312 120 168 120 c 164.688 120 162 117.312 162
 114 c 162 110.688 164.688 108 168 108 c 171.312 108 174 110.688 174 114
 c h
174 114 m f
0.694118 0.47451 0.172549 rg
156 90 24 12 re f
Q Q
showpage
%%Trailer
end
%%EOF
