%!PS-Adobe-3.0 EPSF-3.0
%%Creator: cairo 1.16.0 (https://cairographics.org)
%%CreationDate: Fri Sep 20 08:56:12 2019
%%Pages: 1
%%DocumentData: Clean7Bit
%%LanguageLevel: 2
%%BoundingBox: 18 42 366 342
%%EndComments
%%BeginProlog
50 dict begin
/q { gsave } bind def
/Q { grestore } bind def
/cm { 6 array astore concat } bind def
/w { setlinewidth } bind def
/J { setlinecap } bind def
/j { setlinejoin } bind def
/M { setmiterlimit } bind def
/d { setdash } bind def
/m { moveto } bind def
/l { lineto } bind def
/c { curveto } bind def
/h { closepath } bind def
/re { exch dup neg 3 1 roll 5 3 roll moveto 0 rlineto
      0 exch rlineto 0 rlineto closepath } bind def
/S { stroke } bind def
/f { fill } bind def
/f* { eofill } bind def
/n { newpath } bind def
/W { clip } bind def
/W* { eoclip } bind def
/BT { } bind def
/ET { } bind def
/BDC { mark 3 1 roll /BDC pdfmark } bind def
/EMC { mark /EMC pdfmark } bind def
/cairo_store_point { /cairo_point_y exch def /cairo_point_x exch def } def
/Tj { show currentpoint cairo_store_point } bind def
/TJ {
  {
    dup
    type /stringtype eq
    { show } { -0.001 mul 0 cairo_font_matrix dtransform rmoveto } ifelse
  } forall
  currentpoint cairo_store_point
} bind def
/cairo_selectfont { cairo_font_matrix aload pop pop pop 0 0 6 array astore
    cairo_font exch selectfont cairo_point_x cairo_point_y moveto } bind def
/Tf { pop /cairo_font exch def /cairo_font_matrix where
      { pop cairo_selectfont } if } bind def
/Td { matrix translate cairo_font_matrix matrix concatmatrix dup
      /cairo_font_matrix exch def dup 4 get exch 5 get cairo_store_point
      /cairo_font where { pop cairo_selectfont } if } bind def
/Tm { 2 copy 8 2 roll 6 array astore /cairo_font_matrix exch def
      cairo_store_point /cairo_font where { pop cairo_selectfont } if } bind def
/g { setgray } bind def
/rg { setrgbcolor } bind def
/d1 { setcachedevice } bind def
/cairo_data_source {
  CairoDataIndex CairoData length lt
    { CairoData CairoDataIndex get /CairoDataIndex CairoDataIndex 1 add def }
    { () } ifelse
} def
/cairo_flush_ascii85_file { cairo_ascii85_file status { cairo_ascii85_file flushfile } if } def
/cairo_image { image cairo_flush_ascii85_file } def
/cairo_imagemask { imagemask cairo_flush_ascii85_file } def
%%EndProlog
%%BeginSetup
%%EndSetup
%%Page: 1 1
%%BeginPageSetup
%%PageBoundingBox: 18 42 366 342
%%EndPageSetup
q 18 42 348 300 rectclip
1 0 0 -1 0 384 cm q
0.870588 0.580392 0 rg
289.5 90 m 282 60 l 318 60 l 310.5 90 l h
289.5 90 m f
0.282353 0.419608 0.878431 rg
78 66 12 24 re f
45.805 84.297 m 54.285 75.812 l 71.254 92.781 l 62.77 101.266 l h
45.805 84.297 m f
36 108 24 12 re f
45.801 143.684 m 62.766 126.715 l 71.25 135.199 l 54.285 152.168 l h
45.801 143.684 m f
78 138 12 24 re f
96.703 135.207 m 105.188 126.723 l 122.156 143.691 l 113.672 152.176 l 
h
96.703 135.207 m f
108 108 24 12 re f
96.707 92.781 m 113.676 75.816 l 122.16 84.297 l 105.191 101.266 l h
96.707 92.781 m f
0.964706 0.733333 0 rg
348 246 m 333.977 264.699 l 321.383 281.488 298.328 286.402 279.984 276.211
 c 258 264 l 258 342 l 126 342 l 126 264 l 104.016 276.211 l 85.672 286.402
 62.617 281.488 50.023 264.699 c 36 246 l 66 228 l 75.516 237.516 l 80.203
 242.199 87.797 242.199 92.484 237.516 c 120.496 209.504 l 124.141 205.859
 128.355 202.824 132.969 200.52 c 135.164 199.418 l 143.961 195.023 153.234
 191.66 162.801 189.398 c 187.23 183.633 212.82 185.23 236.34 193.988 c 
240.602 195.57 244.773 197.383 248.836 199.418 c 251.031 200.52 l 255.645
 202.824 259.859 205.859 263.504 209.504 c 291.516 237.516 l 296.203 242.199
 303.797 242.199 308.484 237.516 c 318 228 l h
348 246 m f
0.898039 0.905882 0.913725 rg
236.34 193.988 m 192 270 l 147.66 193.988 l 152.605 192.141 157.664 190.605
 162.801 189.398 c 170.418 187.598 178.184 186.512 186 186.141 c 187.996
 186.047 189.996 185.996 192 186 c 194.004 186 196.004 186.047 198 186.141
 c 211.109 186.758 224.043 189.406 236.34 193.988 c h
236.34 193.988 m f
0.964706 0.733333 0 rg
336 156 m 264 156 l 264 148.242 l 264 145.527 265.078 142.922 267 141 c
 268.922 139.078 270 136.473 270 133.758 c 270 114 l 270 97.43 283.43 84
 300 84 c 316.57 84 330 97.43 330 114 c 330 133.758 l 330 136.473 331.078
 139.078 333 141 c 334.922 142.922 336 145.527 336 148.242 c h
336 156 m f
0.870588 0.580392 0 rg
312 114 m 312 120.629 306.629 126 300 126 c 293.371 126 288 120.629 288
 114 c 288 107.371 293.371 102 300 102 c 306.629 102 312 107.371 312 114
 c h
312 114 m f
0.494118 0.341176 0.87451 rg
162 42 m 222 42 l 228.648 42 234 47.352 234 54 c 234 150 l 234 156.648 
228.648 162 222 162 c 162 162 l 155.352 162 150 156.648 150 150 c 150 54
 l 150 47.352 155.352 42 162 42 c h
162 42 m f
0.517647 0.847059 0.909804 rg
168 66 48 12 re f
0.258824 0.337255 0.419608 rg
168 90 12 12 re f
186 90 12 12 re f
204 90 12 12 re f
168 108 12 12 re f
186 108 12 12 re f
204 108 12 12 re f
168 126 12 12 re f
186 126 12 12 re f
204 126 12 12 re f
0.329412 0.541176 1 rg
114 114 m 114 130.57 100.57 144 84 144 c 67.43 144 54 130.57 54 114 c 54
 97.43 67.43 84 84 84 c 91.957 84 99.586 87.16 105.215 92.785 c 110.84 98.414
 114 106.043 114 114 c h
114 114 m f
0.180392 0.270588 0.670588 rg
96 114 m 96 120.629 90.629 126 84 126 c 77.371 126 72 120.629 72 114 c 
72 107.371 77.371 102 84 102 c 90.629 102 96 107.371 96 114 c h
96 114 m f
0.745098 0.764706 0.780392 rg
198 186.141 m 198 210 l 186 210 l 186 186.141 l 187.996 186.047 189.996
 185.996 192 186 c 194.004 186 196.004 186.047 198 186.141 c h
198 186.141 m f
198 222 m 198 259.719 l 192 270 l 186 259.719 l 186 222 l h
198 222 m f
0.870588 0.682353 0.494118 rg
348 246 m 361.727 223.125 l 364.523 218.461 366 213.129 366 207.691 c 366
 186 l 366 179.371 360.629 174 354 174 c 348.422 174 l 344.41 174 340.664
 176.004 338.438 179.344 c 328.027 194.957 l 318 228 l h
348 246 m f
0.960784 0.788235 0.615686 rg
318 228 m 318 199.816 l 318 195.5 321.5 192 325.816 192 c 328.43 192 330.871
 193.305 332.32 195.48 c 342 210 l 342 222 l 332.285 236.57 l h
318 228 m f
0.870588 0.682353 0.494118 rg
36 246 m 22.273 223.125 l 19.477 218.461 18 213.129 18 207.691 c 18 186
 l 18 179.371 23.371 174 30 174 c 35.578 174 l 39.59 174 43.336 176.004 
45.562 179.344 c 55.973 194.957 l 66 228 l h
36 246 m f
0.960784 0.788235 0.615686 rg
66 228 m 66 199.816 l 66 195.5 62.5 192 58.184 192 c 55.57 192 53.129 193.305
 51.68 195.48 c 42 210 l 42 222 l 51.715 236.57 l h
66 228 m f
Q Q
showpage
%%Trailer
end
%%EOF
