%!PS-Adobe-3.0 EPSF-3.0
%%Creator: cairo 1.16.0 (https://cairographics.org)
%%CreationDate: Fri Sep 20 08:56:13 2019
%%Pages: 1
%%DocumentData: Clean7Bit
%%LanguageLevel: 2
%%BoundingBox: 48 18 336 366
%%EndComments
%%BeginProlog
50 dict begin
/q { gsave } bind def
/Q { grestore } bind def
/cm { 6 array astore concat } bind def
/w { setlinewidth } bind def
/J { setlinecap } bind def
/j { setlinejoin } bind def
/M { setmiterlimit } bind def
/d { setdash } bind def
/m { moveto } bind def
/l { lineto } bind def
/c { curveto } bind def
/h { closepath } bind def
/re { exch dup neg 3 1 roll 5 3 roll moveto 0 rlineto
      0 exch rlineto 0 rlineto closepath } bind def
/S { stroke } bind def
/f { fill } bind def
/f* { eofill } bind def
/n { newpath } bind def
/W { clip } bind def
/W* { eoclip } bind def
/BT { } bind def
/ET { } bind def
/BDC { mark 3 1 roll /BDC pdfmark } bind def
/EMC { mark /EMC pdfmark } bind def
/cairo_store_point { /cairo_point_y exch def /cairo_point_x exch def } def
/Tj { show currentpoint cairo_store_point } bind def
/TJ {
  {
    dup
    type /stringtype eq
    { show } { -0.001 mul 0 cairo_font_matrix dtransform rmoveto } ifelse
  } forall
  currentpoint cairo_store_point
} bind def
/cairo_selectfont { cairo_font_matrix aload pop pop pop 0 0 6 array astore
    cairo_font exch selectfont cairo_point_x cairo_point_y moveto } bind def
/Tf { pop /cairo_font exch def /cairo_font_matrix where
      { pop cairo_selectfont } if } bind def
/Td { matrix translate cairo_font_matrix matrix concatmatrix dup
      /cairo_font_matrix exch def dup 4 get exch 5 get cairo_store_point
      /cairo_font where { pop cairo_selectfont } if } bind def
/Tm { 2 copy 8 2 roll 6 array astore /cairo_font_matrix exch def
      cairo_store_point /cairo_font where { pop cairo_selectfont } if } bind def
/g { setgray } bind def
/rg { setrgbcolor } bind def
/d1 { setcachedevice } bind def
/cairo_data_source {
  CairoDataIndex CairoData length lt
    { CairoData CairoDataIndex get /CairoDataIndex CairoDataIndex 1 add def }
    { () } ifelse
} def
/cairo_flush_ascii85_file { cairo_ascii85_file status { cairo_ascii85_file flushfile } if } def
/cairo_image { image cairo_flush_ascii85_file } def
/cairo_imagemask { imagemask cairo_flush_ascii85_file } def
%%EndProlog
%%BeginSetup
%%EndSetup
%%Page: 1 1
%%BeginPageSetup
%%PageBoundingBox: 48 18 336 366
%%EndPageSetup
q 48 18 288 348 rectclip
1 0 0 -1 0 384 cm q
0.964706 0.733333 0 rg
264 366 m 264 316.043 l 264 305.723 258.695 296.129 249.957 290.637 c 198
 258 l 114 258 l 62.043 290.637 l 53.305 296.129 48 305.723 48 316.043 c
 48 366 l h
264 366 m f
0.929412 0.65098 0 rg
84 330 60 36 re f
0.890196 0.239216 0.239216 rg
174 366 m 168 300 l 174 282 l 174 270 l 138 270 l 138 282 l 144 300 l 138
 366 l h
174 366 m f
0.960784 0.788235 0.615686 rg
210 144 m 102 144 l 102 222 l 102 236.32 107.688 250.059 117.816 260.184
 c 127.941 270.312 141.68 276 156 276 c 185.824 276 210 251.824 210 222 
c h
210 144 m f
0.584314 0.4 0.145098 rg
144 102 m 132.859 102 122.18 106.426 114.301 114.301 c 106.426 122.18 102
 132.859 102 144 c 102 162 l 115.758 148.242 l 118.473 145.527 122.156 144
 126 144 c 144 144 l h
144 102 m f
0.517647 0.847059 0.909804 rg
312 120 m 312 163.078 277.078 198 234 198 c 190.922 198 156 163.078 156
 120 c 156 76.922 190.922 42 234 42 c 277.078 42 312 76.922 312 120 c h
312 120 m f
0.231373 0.341176 0.768627 rg
216 210 36 54 re f
0.329412 0.541176 1 rg
198 294 72 72 re f
0.282353 0.419608 0.878431 rg
270 294 m 198 294 l 216 264 l 252 264 l h
270 294 m f
0.694118 0.47451 0.172549 rg
120 180 18 12 re f
0.780392 0.576471 0.411765 rg
150 246 m 144 246 l 144 234 l 150 234 l 153.312 233.996 155.996 231.312
 156 228 c 156 216 l 168 216 l 168 228 l 167.988 237.938 159.938 245.988
 150 246 c h
150 246 m f
0.960784 0.788235 0.615686 rg
210 198 m 210 138 l 150 138 l 150 153.914 156.32 169.176 167.574 180.426
 c 178.824 191.68 194.086 198 210 198 c h
210 198 m f
0.811765 0.513726 0 rg
234 138 m 230.688 138 228 135.312 228 132 c 228 96 l 228 92.688 230.688
 90 234 90 c 237.312 90 240 92.688 240 96 c 240 132 l 240 135.312 237.312
 138 234 138 c h
234 138 m f
0.929412 0.65098 0 rg
210 102 m 210 138 l 156 162 l 156 102 l h
210 102 m f
0.964706 0.733333 0 rg
156 60 m 246 90 l 150 128.398 l h
156 60 m f
0.329412 0.541176 1 rg
234 18 m 192.746 18 155.551 42.852 139.766 80.965 c 123.977 119.082 132.703
 162.953 161.875 192.125 c 191.047 221.297 234.918 230.023 273.035 214.234
 c 311.148 198.449 336 161.254 336 120 c 336 92.949 325.254 67.004 306.125
 47.875 c 286.996 28.746 261.051 18 234 18 c h
234 198 m 202.453 198 174.012 178.996 161.938 149.848 c 149.863 120.703
 156.539 87.152 178.844 64.844 c 201.152 42.539 234.703 35.863 263.848 47.938
 c 292.996 60.012 312 88.453 312 120 c 312 163.078 277.078 198 234 198 c
 h
234 198 m f
0.780392 0.14902 0.14902 rg
168 306 m 144 306 l 140.688 306 138 303.312 138 300 c 138 296.688 140.688
 294 144 294 c 168 294 l 171.312 294 174 296.688 174 300 c 174 303.312 171.312
 306 168 306 c h
168 306 m f
0.584314 0.4 0.145098 rg
138 204 m 138 207.312 135.312 210 132 210 c 128.688 210 126 207.312 126
 204 c 126 200.688 128.688 198 132 198 c 135.312 198 138 200.688 138 204
 c h
138 204 m f
Q Q
showpage
%%Trailer
end
%%EOF
