%!PS-Adobe-3.0 EPSF-3.0
%%Creator: cairo 1.16.0 (https://cairographics.org)
%%CreationDate: Fri Sep 20 08:56:13 2019
%%Pages: 1
%%DocumentData: Clean7Bit
%%LanguageLevel: 2
%%BoundingBox: 18 18 366 366
%%EndComments
%%BeginProlog
50 dict begin
/q { gsave } bind def
/Q { grestore } bind def
/cm { 6 array astore concat } bind def
/w { setlinewidth } bind def
/J { setlinecap } bind def
/j { setlinejoin } bind def
/M { setmiterlimit } bind def
/d { setdash } bind def
/m { moveto } bind def
/l { lineto } bind def
/c { curveto } bind def
/h { closepath } bind def
/re { exch dup neg 3 1 roll 5 3 roll moveto 0 rlineto
      0 exch rlineto 0 rlineto closepath } bind def
/S { stroke } bind def
/f { fill } bind def
/f* { eofill } bind def
/n { newpath } bind def
/W { clip } bind def
/W* { eoclip } bind def
/BT { } bind def
/ET { } bind def
/BDC { mark 3 1 roll /BDC pdfmark } bind def
/EMC { mark /EMC pdfmark } bind def
/cairo_store_point { /cairo_point_y exch def /cairo_point_x exch def } def
/Tj { show currentpoint cairo_store_point } bind def
/TJ {
  {
    dup
    type /stringtype eq
    { show } { -0.001 mul 0 cairo_font_matrix dtransform rmoveto } ifelse
  } forall
  currentpoint cairo_store_point
} bind def
/cairo_selectfont { cairo_font_matrix aload pop pop pop 0 0 6 array astore
    cairo_font exch selectfont cairo_point_x cairo_point_y moveto } bind def
/Tf { pop /cairo_font exch def /cairo_font_matrix where
      { pop cairo_selectfont } if } bind def
/Td { matrix translate cairo_font_matrix matrix concatmatrix dup
      /cairo_font_matrix exch def dup 4 get exch 5 get cairo_store_point
      /cairo_font where { pop cairo_selectfont } if } bind def
/Tm { 2 copy 8 2 roll 6 array astore /cairo_font_matrix exch def
      cairo_store_point /cairo_font where { pop cairo_selectfont } if } bind def
/g { setgray } bind def
/rg { setrgbcolor } bind def
/d1 { setcachedevice } bind def
/cairo_data_source {
  CairoDataIndex CairoData length lt
    { CairoData CairoDataIndex get /CairoDataIndex CairoDataIndex 1 add def }
    { () } ifelse
} def
/cairo_flush_ascii85_file { cairo_ascii85_file status { cairo_ascii85_file flushfile } if } def
/cairo_image { image cairo_flush_ascii85_file } def
/cairo_imagemask { imagemask cairo_flush_ascii85_file } def
%%EndProlog
%%BeginSetup
%%EndSetup
%%Page: 1 1
%%BeginPageSetup
%%PageBoundingBox: 18 18 366 366
%%EndPageSetup
q 18 18 348 348 rectclip
1 0 0 -1 0 384 cm q
0.317647 0.494118 0.968627 rg
324 216 m 316.688 220.875 l 310.012 225.328 306 232.82 306 240.844 c 306
 264 l 366 264 l 366 240.844 l 366 232.82 361.988 225.328 355.312 220.875
 c 348 216 l h
324 216 m f
0.282353 0.419608 0.878431 rg
330 216 12 48 re f
0.964706 0.733333 0 rg
186 160.215 m 246.094 195.27 l 253.465 199.57 258 207.465 258 216 c 258
 366 l 18 366 l 18 216 l 18 207.465 22.535 199.57 29.906 195.27 c 90 160.215
 l h
186 160.215 m f
0.890196 0.239216 0.239216 rg
150 210 m 156 192 l 156 174 l 120 174 l 120 192 l 126 210 l 120 270 l 138
 288 l 156 270 l h
150 210 m f
0.929412 0.65098 0 rg
18 366 m 84 366 l 47.551 366 18 336.449 18 300 c h
18 366 m f
192 330 m 180 330 l 179.652 330 179.301 329.969 178.957 329.91 c 96.785
 315.406 l 82.441 312.895 71.984 300.43 72 285.863 c 72 252 l 84 252 l 84
 285.863 l 83.988 294.602 90.266 302.082 98.871 303.59 c 180.527 318 l 192
 318 l h
192 330 m f
0.960784 0.788235 0.615686 rg
180 324 m 217.188 297.438 l 220.148 295.324 224.035 295.02 227.289 296.645
 c 231.25 298.625 233.398 303.012 232.527 307.355 c 228 330 l 238.039 335.02
 l 247.113 339.555 257.391 341.102 267.395 339.434 c 282.379 336.938 l 285.719
 336.379 289.035 338.066 290.551 341.098 c 291.465 342.93 291.613 345.047
 290.969 346.988 c 290.32 348.93 288.93 350.535 287.098 351.449 c 268.137
 360.934 l 261.469 364.266 254.121 366 246.668 366 c 180 366 l h
180 324 m f
0.780392 0.14902 0.14902 rg
150 216 m 126 216 l 122.688 216 120 213.312 120 210 c 120 206.688 122.688
 204 126 204 c 150 204 l 153.312 204 156 206.688 156 210 c 156 213.312 153.312
 216 150 216 c h
150 216 m f
0.694118 0.47451 0.172549 rg
168 54 m 168 36 l 168 26.059 159.941 18 150 18 c 126 18 l 102.805 18 84
 36.805 84 60 c 84 72 l 97.758 58.242 l 100.473 55.527 104.16 54 108 54 
c 111.84 54 115.527 55.527 118.242 58.242 c 127.758 67.758 l 130.473 70.473
 134.16 72 138 72 c 141.84 72 145.527 70.473 148.242 67.758 c 157.758 58.242
 l 160.473 55.527 164.16 54 168 54 c h
168 54 m f
0.584314 0.4 0.145098 rg
174 30 m 183.941 30 192 38.059 192 48 c 192 72 l 178.242 58.242 l 175.527
 55.527 171.84 54 168 54 c 168 36 l 168 32.688 170.688 30 174 30 c h
174 30 m f
0.960784 0.788235 0.615686 rg
192 72 m 192 132 l 192 161.824 167.824 186 138 186 c 108.176 186 84 161.824
 84 132 c 84 72 l 97.758 58.242 l 100.473 55.527 104.16 54 108 54 c 111.84
 54 115.527 55.527 118.242 58.242 c 127.758 67.758 l 130.473 70.473 134.16
 72 138 72 c 141.84 72 145.527 70.473 148.242 67.758 c 157.758 58.242 l 
160.473 55.527 164.16 54 168 54 c 171.84 54 175.527 55.527 178.242 58.242
 c h
192 72 m f
0.694118 0.47451 0.172549 rg
102 90 24 12 re f
0.960784 0.788235 0.615686 rg
318 186 m 318 204 l 318 213.941 326.059 222 336 222 c 345.941 222 354 213.941
 354 204 c 354 186 l h
318 186 m f
0.694118 0.47451 0.172549 rg
354 186 m 318 186 l 318 180 l 318 170.059 326.059 162 336 162 c 348 162
 l 351.312 162 354 164.688 354 168 c h
354 186 m f
0.317647 0.494118 0.968627 rg
216 216 m 208.688 220.875 l 202.012 225.328 198 232.82 198 240.844 c 198
 264 l 258 264 l 258 240.844 l 258 232.82 253.988 225.328 247.312 220.875
 c 240 216 l h
216 216 m f
0.282353 0.419608 0.878431 rg
222 216 12 48 re f
0.960784 0.788235 0.615686 rg
210 186 m 210 204 l 210 213.941 218.059 222 228 222 c 237.941 222 246 213.941
 246 204 c 246 186 l h
210 186 m f
0.694118 0.47451 0.172549 rg
246 186 m 210 186 l 210 180 l 210 170.059 218.059 162 228 162 c 240 162
 l 243.312 162 246 164.688 246 168 c h
246 186 m f
0.329412 0.541176 1 rg
270 240 m 262.688 244.875 l 256.012 249.328 252 256.82 252 264.844 c 252
 288 l 312 288 l 312 264.844 l 312 256.82 307.988 249.328 301.312 244.875
 c 294 240 l h
270 240 m f
0.282353 0.419608 0.878431 rg
276 240 12 48 re f
0.960784 0.788235 0.615686 rg
264 210 m 264 228 l 264 237.941 272.059 246 282 246 c 291.941 246 300 237.941
 300 228 c 300 210 l h
264 210 m f
0.694118 0.47451 0.172549 rg
300 210 m 264 210 l 264 204 l 264 194.059 272.059 186 282 186 c 294 186
 l 297.312 186 300 188.688 300 192 c h
300 210 m f
0.584314 0.4 0.145098 rg
120 114 m 120 117.312 117.312 120 114 120 c 110.688 120 108 117.312 108
 114 c 108 110.688 110.688 108 114 108 c 117.312 108 120 110.688 120 114
 c h
120 114 m f
0.694118 0.47451 0.172549 rg
150 90 24 12 re f
0.584314 0.4 0.145098 rg
168 114 m 168 117.312 165.312 120 162 120 c 158.688 120 156 117.312 156
 114 c 156 110.688 158.688 108 162 108 c 165.312 108 168 110.688 168 114
 c h
168 114 m f
0.780392 0.576471 0.411765 rg
132 156 m 126 156 l 126 144 l 132 144 l 135.312 143.996 137.996 141.312
 138 138 c 138 126 l 150 126 l 150 138 l 149.988 147.938 141.938 155.988
 132 156 c h
132 156 m f
Q Q
showpage
%%Trailer
end
%%EOF
