%!PS-Adobe-3.0 EPSF-3.0
%%Creator: cairo 1.16.0 (https://cairographics.org)
%%CreationDate: Fri Sep 20 08:56:13 2019
%%Pages: 1
%%DocumentData: Clean7Bit
%%LanguageLevel: 2
%%BoundingBox: 30 18 354 366
%%EndComments
%%BeginProlog
50 dict begin
/q { gsave } bind def
/Q { grestore } bind def
/cm { 6 array astore concat } bind def
/w { setlinewidth } bind def
/J { setlinecap } bind def
/j { setlinejoin } bind def
/M { setmiterlimit } bind def
/d { setdash } bind def
/m { moveto } bind def
/l { lineto } bind def
/c { curveto } bind def
/h { closepath } bind def
/re { exch dup neg 3 1 roll 5 3 roll moveto 0 rlineto
      0 exch rlineto 0 rlineto closepath } bind def
/S { stroke } bind def
/f { fill } bind def
/f* { eofill } bind def
/n { newpath } bind def
/W { clip } bind def
/W* { eoclip } bind def
/BT { } bind def
/ET { } bind def
/BDC { mark 3 1 roll /BDC pdfmark } bind def
/EMC { mark /EMC pdfmark } bind def
/cairo_store_point { /cairo_point_y exch def /cairo_point_x exch def } def
/Tj { show currentpoint cairo_store_point } bind def
/TJ {
  {
    dup
    type /stringtype eq
    { show } { -0.001 mul 0 cairo_font_matrix dtransform rmoveto } ifelse
  } forall
  currentpoint cairo_store_point
} bind def
/cairo_selectfont { cairo_font_matrix aload pop pop pop 0 0 6 array astore
    cairo_font exch selectfont cairo_point_x cairo_point_y moveto } bind def
/Tf { pop /cairo_font exch def /cairo_font_matrix where
      { pop cairo_selectfont } if } bind def
/Td { matrix translate cairo_font_matrix matrix concatmatrix dup
      /cairo_font_matrix exch def dup 4 get exch 5 get cairo_store_point
      /cairo_font where { pop cairo_selectfont } if } bind def
/Tm { 2 copy 8 2 roll 6 array astore /cairo_font_matrix exch def
      cairo_store_point /cairo_font where { pop cairo_selectfont } if } bind def
/g { setgray } bind def
/rg { setrgbcolor } bind def
/d1 { setcachedevice } bind def
/cairo_data_source {
  CairoDataIndex CairoData length lt
    { CairoData CairoDataIndex get /CairoDataIndex CairoDataIndex 1 add def }
    { () } ifelse
} def
/cairo_flush_ascii85_file { cairo_ascii85_file status { cairo_ascii85_file flushfile } if } def
/cairo_image { image cairo_flush_ascii85_file } def
/cairo_imagemask { imagemask cairo_flush_ascii85_file } def
%%EndProlog
%%BeginSetup
%%EndSetup
%%Page: 1 1
%%BeginPageSetup
%%PageBoundingBox: 30 18 354 366
%%EndPageSetup
q 30 18 324 348 rectclip
1 0 0 -1 0 384 cm q
0.870588 0.580392 0 rg
231 102 m 210 144 l 174 144 l 153 102 l h
231 102 m f
0.929412 0.65098 0 rg
216 84 m 204 54 l 180 54 l 168 84 l h
216 84 m f
0.964706 0.733333 0 rg
212.484 116.484 m 218.578 122.578 226.84 126 235.457 126 c 342 126 l 342
 108 l 249.926 102.582 l 243.531 102.207 237.5 99.5 232.969 94.969 c 222.105
 84.105 207.367 78 192 78 c 176.633 78 161.895 84.105 151.031 94.969 c 146.5
 99.5 140.469 102.207 134.074 102.582 c 42 108 l 42 126 l 148.543 126 l 
157.16 126 165.422 122.578 171.516 116.484 c 176.949 111.051 184.316 108
 192 108 c 199.684 108 207.051 111.051 212.484 116.484 c h
212.484 116.484 m f
204 54 m 216 24 l 216 18 l 168 18 l 168 24 l 180 54 l h
204 54 m f
174 144 36 78 re f
174 246 36 72 re f
0.870588 0.580392 0 rg
210 246 m 205.777 238.559 205.777 229.441 210 222 c 174 222 l 177.777 229.555
 177.777 238.445 174 246 c h
210 246 m f
0.929412 0.65098 0 rg
174 318 m 210 318 l 223.254 318 234 328.746 234 342 c 150 342 l 150 328.746
 160.746 318 174 318 c h
174 318 m f
0.870588 0.580392 0 rg
144 342 m 240 342 l 253.254 342 264 352.746 264 366 c 120 366 l 120 352.746
 130.746 342 144 342 c h
144 342 m f
114 216 m 102 216 l 102 211.039 l 78 143.84 l 54 211.039 l 54 216 l 42 
216 l 42 210 l 42 209.312 42.117 208.629 42.348 207.98 c 72.348 123.98 l
 73.203 121.594 75.465 120 78 120 c 80.535 120 82.797 121.594 83.652 123.98
 c 113.652 207.98 l 113.883 208.629 114 209.312 114 210 c h
114 216 m f
342 216 m 330 216 l 330 211.039 l 306 143.84 l 282 211.039 l 282 216 l 
270 216 l 270 210 l 270 209.312 270.117 208.629 270.348 207.98 c 300.348
 123.98 l 301.203 121.594 303.465 120 306 120 c 308.535 120 310.797 121.594
 311.652 123.98 c 341.652 207.98 l 341.883 208.629 342 209.312 342 210 c
 h
342 216 m f
0.964706 0.733333 0 rg
30 210 m 126 210 l 126 216 l 126 228.73 120.941 240.938 111.941 249.941
 c 102.938 258.941 90.73 264 78 264 c 51.492 264 30 242.508 30 216 c h
30 210 m f
258 210 m 354 210 l 354 216 l 354 242.508 332.508 264 306 264 c 279.492
 264 258 242.508 258 216 c h
258 210 m f
Q Q
showpage
%%Trailer
end
%%EOF
