%!PS-Adobe-3.0 EPSF-3.0
%%Creator: cairo 1.16.0 (https://cairographics.org)
%%CreationDate: Fri Sep 20 08:56:13 2019
%%Pages: 1
%%DocumentData: Clean7Bit
%%LanguageLevel: 2
%%BoundingBox: 30 18 354 366
%%EndComments
%%BeginProlog
50 dict begin
/q { gsave } bind def
/Q { grestore } bind def
/cm { 6 array astore concat } bind def
/w { setlinewidth } bind def
/J { setlinecap } bind def
/j { setlinejoin } bind def
/M { setmiterlimit } bind def
/d { setdash } bind def
/m { moveto } bind def
/l { lineto } bind def
/c { curveto } bind def
/h { closepath } bind def
/re { exch dup neg 3 1 roll 5 3 roll moveto 0 rlineto
      0 exch rlineto 0 rlineto closepath } bind def
/S { stroke } bind def
/f { fill } bind def
/f* { eofill } bind def
/n { newpath } bind def
/W { clip } bind def
/W* { eoclip } bind def
/BT { } bind def
/ET { } bind def
/BDC { mark 3 1 roll /BDC pdfmark } bind def
/EMC { mark /EMC pdfmark } bind def
/cairo_store_point { /cairo_point_y exch def /cairo_point_x exch def } def
/Tj { show currentpoint cairo_store_point } bind def
/TJ {
  {
    dup
    type /stringtype eq
    { show } { -0.001 mul 0 cairo_font_matrix dtransform rmoveto } ifelse
  } forall
  currentpoint cairo_store_point
} bind def
/cairo_selectfont { cairo_font_matrix aload pop pop pop 0 0 6 array astore
    cairo_font exch selectfont cairo_point_x cairo_point_y moveto } bind def
/Tf { pop /cairo_font exch def /cairo_font_matrix where
      { pop cairo_selectfont } if } bind def
/Td { matrix translate cairo_font_matrix matrix concatmatrix dup
      /cairo_font_matrix exch def dup 4 get exch 5 get cairo_store_point
      /cairo_font where { pop cairo_selectfont } if } bind def
/Tm { 2 copy 8 2 roll 6 array astore /cairo_font_matrix exch def
      cairo_store_point /cairo_font where { pop cairo_selectfont } if } bind def
/g { setgray } bind def
/rg { setrgbcolor } bind def
/d1 { setcachedevice } bind def
/cairo_data_source {
  CairoDataIndex CairoData length lt
    { CairoData CairoDataIndex get /CairoDataIndex CairoDataIndex 1 add def }
    { () } ifelse
} def
/cairo_flush_ascii85_file { cairo_ascii85_file status { cairo_ascii85_file flushfile } if } def
/cairo_image { image cairo_flush_ascii85_file } def
/cairo_imagemask { imagemask cairo_flush_ascii85_file } def
%%EndProlog
%%BeginSetup
%%EndSetup
%%Page: 1 1
%%BeginPageSetup
%%PageBoundingBox: 30 18 354 366
%%EndPageSetup
q 30 18 324 348 rectclip
1 0 0 -1 0 384 cm q
0.964706 0.733333 0 rg
354 287.145 m 354 303.062 347.676 318.324 336.422 329.578 c 306 360 l 276
 366 l 108 366 l 78 360 l 47.578 329.578 l 30.809 312.809 25.488 287.734
 33.996 265.598 c 52.477 217.551 l 57.277 205.086 67.051 195.184 79.453 
190.223 c 125.004 171.996 l 150 162 l 234 162 l 258.996 172.004 l 304.547
 190.223 l 316.949 195.184 326.723 205.086 331.523 217.551 c 350.004 265.598
 l 352.648 272.473 354.004 279.777 354 287.145 c h
354 287.145 m f
0.898039 0.905882 0.913725 rg
258.996 172.004 m 216 258 l 168 258 l 125.004 171.996 l 150 162 l 234 162
 l h
258.996 172.004 m f
0.329412 0.541176 1 rg
240 288 m 234.426 274.543 l 247.152 261.816 l 230.184 244.848 l 217.457
 257.574 l 204 252 l 204 234 l 180 234 l 180 252 l 166.543 257.574 l 153.816
 244.848 l 136.848 261.816 l 149.574 274.543 l 144 288 l 126 288 l 126 366
 l 258 366 l 258 288 l h
192 330 m 182.293 330 173.543 324.152 169.828 315.184 c 166.113 306.215
 168.164 295.895 175.031 289.031 c 181.895 282.164 192.215 280.113 201.184
 283.828 c 210.152 287.543 216 296.293 216 306 c 216 319.254 205.254 330
 192 330 c h
192 330 m f
0.929412 0.65098 0 rg
93.633 326.684 m 81.316 302.051 l 78.797 296.98 78.797 291.02 81.316 285.949
 c 96.633 255.316 l 107.367 260.684 l 92.051 291.316 l 91.211 293.008 91.211
 294.992 92.051 296.684 c 104.367 321.316 l h
93.633 326.684 m f
290.367 326.684 m 279.633 321.316 l 293.293 294 l 276.633 260.684 l 287.367
 255.316 l 305.367 291.316 l 306.211 293.004 306.211 294.996 305.367 296.684
 c h
290.367 326.684 m f
0.745098 0.764706 0.780392 rg
186 162 12 72 re f
0.960784 0.788235 0.615686 rg
99.266 320.184 m 128.637 312.84 l 130.723 312.32 132.93 312.93 134.449 
314.449 c 136.516 316.516 136.836 319.746 135.215 322.176 c 126 336 l 160.559
 345.875 l 164.965 347.133 168 351.16 168 355.738 c 168 358.461 166.918 
361.07 164.996 362.996 c 163.07 364.918 160.461 366 157.738 366 c 108 366
 l 78 360 l 81.414 339.52 l 82.984 330.098 89.996 322.5 99.266 320.184 c
 h
99.266 320.184 m f
284.734 320.184 m 255.363 312.84 l 253.277 312.32 251.07 312.93 249.551
 314.449 c 247.484 316.516 247.164 319.746 248.785 322.176 c 258 336 l 223.441
 345.875 l 219.035 347.133 216 351.16 216 355.738 c 216 358.461 217.082 
361.07 219.004 362.996 c 220.93 364.918 223.539 366 226.262 366 c 276 366
 l 306 360 l 302.586 339.52 l 301.016 330.098 294.004 322.5 284.734 320.184
 c h
284.734 320.184 m f
138 60 m 138 132 l 138 146.32 143.688 160.059 153.816 170.184 c 163.941
 180.312 177.68 186 192 186 c 206.32 186 220.059 180.312 230.184 170.184
 c 240.312 160.059 246 146.32 246 132 c 246 60 l 228 36 l 162 36 l h
138 60 m f
0.694118 0.47451 0.172549 rg
246 66 m 195 66 l 180.09 66 168 53.91 168 39 c 168 36 l 168 26.059 176.059
 18 186 18 c 204 18 l 227.195 18 246 36.805 246 60 c h
246 66 m f
0.584314 0.4 0.145098 rg
138 66 m 138 42 l 138 32.059 146.059 24 156 24 c 162.629 24 168 29.371 
168 36 c 168 43.027 l 168 55.715 157.715 66 145.027 66 c h
138 66 m f
0.694118 0.47451 0.172549 rg
204 90 24 12 re f
156 90 24 12 re f
0.780392 0.576471 0.411765 rg
186 156 m 180 156 l 180 144 l 186 144 l 189.312 143.996 191.996 141.312
 192 138 c 192 126 l 204 126 l 204 138 l 203.988 147.938 195.938 155.988
 186 156 c h
186 156 m f
0.584314 0.4 0.145098 rg
174 114 m 174 117.312 171.312 120 168 120 c 164.688 120 162 117.312 162
 114 c 162 110.688 164.688 108 168 108 c 171.312 108 174 110.688 174 114
 c h
174 114 m f
222 114 m 222 117.312 219.312 120 216 120 c 212.688 120 210 117.312 210
 114 c 210 110.688 212.688 108 216 108 c 219.312 108 222 110.688 222 114
 c h
222 114 m f
Q Q
showpage
%%Trailer
end
%%EOF
