%!PS-Adobe-3.0 EPSF-3.0
%%Creator: cairo 1.16.0 (https://cairographics.org)
%%CreationDate: Fri Sep 20 08:56:14 2019
%%Pages: 1
%%DocumentData: Clean7Bit
%%LanguageLevel: 2
%%BoundingBox: 54 18 336 366
%%EndComments
%%BeginProlog
50 dict begin
/q { gsave } bind def
/Q { grestore } bind def
/cm { 6 array astore concat } bind def
/w { setlinewidth } bind def
/J { setlinecap } bind def
/j { setlinejoin } bind def
/M { setmiterlimit } bind def
/d { setdash } bind def
/m { moveto } bind def
/l { lineto } bind def
/c { curveto } bind def
/h { closepath } bind def
/re { exch dup neg 3 1 roll 5 3 roll moveto 0 rlineto
      0 exch rlineto 0 rlineto closepath } bind def
/S { stroke } bind def
/f { fill } bind def
/f* { eofill } bind def
/n { newpath } bind def
/W { clip } bind def
/W* { eoclip } bind def
/BT { } bind def
/ET { } bind def
/BDC { mark 3 1 roll /BDC pdfmark } bind def
/EMC { mark /EMC pdfmark } bind def
/cairo_store_point { /cairo_point_y exch def /cairo_point_x exch def } def
/Tj { show currentpoint cairo_store_point } bind def
/TJ {
  {
    dup
    type /stringtype eq
    { show } { -0.001 mul 0 cairo_font_matrix dtransform rmoveto } ifelse
  } forall
  currentpoint cairo_store_point
} bind def
/cairo_selectfont { cairo_font_matrix aload pop pop pop 0 0 6 array astore
    cairo_font exch selectfont cairo_point_x cairo_point_y moveto } bind def
/Tf { pop /cairo_font exch def /cairo_font_matrix where
      { pop cairo_selectfont } if } bind def
/Td { matrix translate cairo_font_matrix matrix concatmatrix dup
      /cairo_font_matrix exch def dup 4 get exch 5 get cairo_store_point
      /cairo_font where { pop cairo_selectfont } if } bind def
/Tm { 2 copy 8 2 roll 6 array astore /cairo_font_matrix exch def
      cairo_store_point /cairo_font where { pop cairo_selectfont } if } bind def
/g { setgray } bind def
/rg { setrgbcolor } bind def
/d1 { setcachedevice } bind def
/cairo_data_source {
  CairoDataIndex CairoData length lt
    { CairoData CairoDataIndex get /CairoDataIndex CairoDataIndex 1 add def }
    { () } ifelse
} def
/cairo_flush_ascii85_file { cairo_ascii85_file status { cairo_ascii85_file flushfile } if } def
/cairo_image { image cairo_flush_ascii85_file } def
/cairo_imagemask { imagemask cairo_flush_ascii85_file } def
%%EndProlog
%%BeginSetup
%%EndSetup
%%Page: 1 1
%%BeginPageSetup
%%PageBoundingBox: 54 18 336 366
%%EndPageSetup
q 54 18 282 348 rectclip
1 0 0 -1 0 384 cm q
0.870588 0.580392 0 rg
306 42 m 306 288 l 306 294.629 300.629 300 294 300 c 168 300 l 168 54 l
 168 47.371 173.371 42 180 42 c h
306 42 m f
0.929412 0.65098 0 rg
264 330 m 270.629 330 276 324.629 276 318 c 276 72 l 150 72 l 143.371 72
 138 77.371 138 84 c 138 330 l h
264 330 m f
0.964706 0.733333 0 rg
246 102 m 115.457 102 l 110.684 102 106.105 103.895 102.727 107.273 c 59.273
 150.727 l 55.895 154.105 54 158.684 54 163.457 c 54 354 l 54 360.629 59.371
 366 66 366 c 234 366 l 240.629 366 246 360.629 246 354 c h
246 102 m f
0.329412 0.541176 1 rg
138 192 m 126 201 l 118.445 206.664 114 215.559 114 225 c 114 246 l 186
 246 l 186 225 l 186 215.559 181.555 206.664 174 201 c 162 192 l h
138 192 m f
0.282353 0.419608 0.878431 rg
144 228 12 18 re f
144 192 12 24 re f
0.329412 0.541176 1 rg
216 18 m 324 18 l 330.648 18 336 23.352 336 30 c 336 138 l 336 144.648 
330.648 150 324 150 c 216 150 l 209.352 150 204 144.648 204 138 c 204 30
 l 204 23.352 209.352 18 216 18 c h
216 18 m f
0.898039 0.905882 0.913725 rg
270 102 m 300 126 l 288 90 l 312 66 l 282 66 l 270 36 l 258 66 l 228 66
 l 252 90 l 240 126 l h
270 102 m f
0.811765 0.513726 0 rg
120 324 m 84 324 l 80.688 324 78 321.312 78 318 c 78 282 l 78 278.688 80.688
 276 84 276 c 120 276 l 123.312 276 126 278.688 126 282 c 126 318 l 126 
321.312 123.312 324 120 324 c h
90 312 m 114 312 l 114 288 l 90 288 l h
90 312 m f
180 288 42 12 re f
150 288 18 12 re f
198 312 24 12 re f
138 312 48 12 re f
0.890196 0.239216 0.239216 rg
97.719 295.738 m 127.711 265.742 l 136.199 274.227 l 106.203 304.223 l 
h
97.719 295.738 m f
0.960784 0.788235 0.615686 rg
168 162 m 168 180 l 168 189.941 159.941 198 150 198 c 140.059 198 132 189.941
 132 180 c 132 162 l h
168 162 m f
0.694118 0.47451 0.172549 rg
132 162 m 168 162 l 168 151.816 l 168 148.152 166.543 144.637 163.953 142.047
 c 161.363 139.457 157.848 138 154.184 138 c 151.457 138 148.789 138.809
 146.52 140.32 c 132 150 l h
132 162 m f
Q Q
showpage
%%Trailer
end
%%EOF
