%!PS-Adobe-3.0 EPSF-3.0
%%Creator: cairo 1.16.0 (https://cairographics.org)
%%CreationDate: Fri Sep 20 08:56:14 2019
%%Pages: 1
%%DocumentData: Clean7Bit
%%LanguageLevel: 2
%%BoundingBox: 18 54 366 360
%%EndComments
%%BeginProlog
50 dict begin
/q { gsave } bind def
/Q { grestore } bind def
/cm { 6 array astore concat } bind def
/w { setlinewidth } bind def
/J { setlinecap } bind def
/j { setlinejoin } bind def
/M { setmiterlimit } bind def
/d { setdash } bind def
/m { moveto } bind def
/l { lineto } bind def
/c { curveto } bind def
/h { closepath } bind def
/re { exch dup neg 3 1 roll 5 3 roll moveto 0 rlineto
      0 exch rlineto 0 rlineto closepath } bind def
/S { stroke } bind def
/f { fill } bind def
/f* { eofill } bind def
/n { newpath } bind def
/W { clip } bind def
/W* { eoclip } bind def
/BT { } bind def
/ET { } bind def
/BDC { mark 3 1 roll /BDC pdfmark } bind def
/EMC { mark /EMC pdfmark } bind def
/cairo_store_point { /cairo_point_y exch def /cairo_point_x exch def } def
/Tj { show currentpoint cairo_store_point } bind def
/TJ {
  {
    dup
    type /stringtype eq
    { show } { -0.001 mul 0 cairo_font_matrix dtransform rmoveto } ifelse
  } forall
  currentpoint cairo_store_point
} bind def
/cairo_selectfont { cairo_font_matrix aload pop pop pop 0 0 6 array astore
    cairo_font exch selectfont cairo_point_x cairo_point_y moveto } bind def
/Tf { pop /cairo_font exch def /cairo_font_matrix where
      { pop cairo_selectfont } if } bind def
/Td { matrix translate cairo_font_matrix matrix concatmatrix dup
      /cairo_font_matrix exch def dup 4 get exch 5 get cairo_store_point
      /cairo_font where { pop cairo_selectfont } if } bind def
/Tm { 2 copy 8 2 roll 6 array astore /cairo_font_matrix exch def
      cairo_store_point /cairo_font where { pop cairo_selectfont } if } bind def
/g { setgray } bind def
/rg { setrgbcolor } bind def
/d1 { setcachedevice } bind def
/cairo_data_source {
  CairoDataIndex CairoData length lt
    { CairoData CairoDataIndex get /CairoDataIndex CairoDataIndex 1 add def }
    { () } ifelse
} def
/cairo_flush_ascii85_file { cairo_ascii85_file status { cairo_ascii85_file flushfile } if } def
/cairo_image { image cairo_flush_ascii85_file } def
/cairo_imagemask { imagemask cairo_flush_ascii85_file } def
%%EndProlog
%%BeginSetup
%%EndSetup
%%Page: 1 1
%%BeginPageSetup
%%PageBoundingBox: 18 54 366 360
%%EndPageSetup
q 18 54 348 306 rectclip
1 0 0 -1 0 384 cm q
0.231373 0.341176 0.768627 rg
282 288 30 12 re f
0.964706 0.733333 0 rg
198 209.25 m 198 198.758 192.52 189.027 183.543 183.59 c 138 156 l 78 156
 l 32.457 183.59 l 23.48 189.027 18 198.758 18 209.25 c 18 246 l 17.98 258.984
 22.191 271.621 29.996 282 c 30 282 l 30 330 l 198 330 l h
198 209.25 m f
0.890196 0.239216 0.239216 rg
102 174 m 102 192 l 108 210 l 102 270 l 138 270 l 131.418 210 l 132 210
 l 138 192 l 138 174 l h
102 174 m f
0.317647 0.494118 0.968627 rg
246 276 m 270 276 l 279.973 276 288 284.027 288 294 c 288 303.973 279.973
 312 270 312 c 246 312 l 236.027 312 228 303.973 228 294 c 228 284.027 236.027
 276 246 276 c h
246 276 m f
0.231373 0.341176 0.768627 rg
252 258 m 204 258 l 194.062 257.988 186.012 249.938 186 240 c 186 216 l
 198 216 l 198 240 l 198.004 243.312 200.688 245.996 204 246 c 252 246 l
 255.312 245.996 257.996 243.312 258 240 c 258 216 l 270 216 l 270 240 l
 269.988 249.938 261.938 257.988 252 258 c h
252 258 m f
330 222 12 60 re f
0.317647 0.494118 0.968627 rg
312 276 m 319.555 272.223 328.445 272.223 336 276 c 338.059 277.031 l 344.426
 280.211 351.793 280.734 358.543 278.484 c 366 276 l 366 312 l 312 312 l
 h
312 276 m f
318 186 48 36 re f
0.231373 0.341176 0.768627 rg
282 198 36 12 re f
204 186 m 192 186 l 192 150 l 192.012 140.062 200.062 132.012 210 132 c
 240 132 l 240 144 l 210 144 l 206.688 144.004 204.004 146.688 204 150 c
 h
204 186 m f
204 198 42 12 re f
0.929412 0.65098 0 rg
29.996 282 m 41.32 297.121 59.109 306.016 78 306 c 144 306 l 168 288 l 
198 288 l 198 330 l 30 330 l h
29.996 282 m f
138 282 m 126 282 l 125.605 282 125.211 281.961 124.824 281.883 c 94.242
 275.766 l 74.355 271.746 60.043 254.289 60 234 c 72 234 l 72.031 248.57
 82.312 261.109 96.594 264 c 126.594 270 l 138 270 l h
138 282 m f
0.960784 0.788235 0.615686 rg
126 276 m 158.855 259.57 l 160.922 258.539 163.203 258 165.516 258 c 167.766
 258 169.922 258.895 171.516 260.484 c 173.105 262.078 174 264.234 174 266.484
 c 174 268.734 173.105 270.895 171.516 272.484 c 162 282 l 203.027 282 l
 206.879 282 210 285.121 210 288.973 c 210 291.977 208.078 294.641 205.23
 295.59 c 180.93 303.691 l 176.34 305.219 171.535 306 166.699 306 c 126 
306 l h
126 276 m f
0.780392 0.14902 0.14902 rg
132 216 m 108 216 l 104.688 216 102 213.312 102 210 c 102 206.688 104.688
 204 108 204 c 132 204 l 135.312 204 138 206.688 138 210 c 138 213.312 135.312
 216 132 216 c h
132 216 m f
0.960784 0.788235 0.615686 rg
66 66 m 66 126 l 66 140.32 71.688 154.059 81.816 164.184 c 91.941 174.312
 105.68 180 120 180 c 134.32 180 148.059 174.312 158.184 164.184 c 168.312
 154.059 174 140.32 174 126 c 174 66 l 156 42 l 90 42 l h
66 66 m f
0.694118 0.47451 0.172549 rg
174 72 m 123 72 l 108.09 72 96 59.91 96 45 c 96 42 l 96 32.059 104.059 
24 114 24 c 132 24 l 155.195 24 174 42.805 174 66 c h
174 72 m f
0.584314 0.4 0.145098 rg
66 72 m 66 48 l 66 38.059 74.059 30 84 30 c 90.629 30 96 35.371 96 42 c
 96 49.027 l 96 61.715 85.715 72 73.027 72 c h
66 72 m f
0.694118 0.47451 0.172549 rg
132 90 24 12 re f
84 90 24 12 re f
0.780392 0.576471 0.411765 rg
114 156 m 108 156 l 108 144 l 114 144 l 117.312 143.996 119.996 141.312
 120 138 c 120 126 l 132 126 l 132 138 l 131.988 147.938 123.938 155.988
 114 156 c h
114 156 m f
0.584314 0.4 0.145098 rg
102 114 m 102 117.312 99.312 120 96 120 c 92.688 120 90 117.312 90 114 
c 90 110.688 92.688 108 96 108 c 99.312 108 102 110.688 102 114 c h
102 114 m f
150 114 m 150 117.312 147.312 120 144 120 c 140.688 120 138 117.312 138
 114 c 138 110.688 140.688 108 144 108 c 147.312 108 150 110.688 150 114
 c h
150 114 m f
0.317647 0.494118 0.968627 rg
252 120 m 276 120 l 285.973 120 294 128.027 294 138 c 294 147.973 285.973
 156 276 156 c 252 156 l 242.027 156 234 147.973 234 138 c 234 128.027 242.027
 120 252 120 c h
252 120 m f
264 228 m 300 204 l 264 180 l 228 204 l h
264 228 m f
216 186 m 168 186 l 156 216 l 204 216 l h
216 186 m f
Q Q
showpage
%%Trailer
end
%%EOF
