%!PS-Adobe-3.0 EPSF-3.0
%%Creator: cairo 1.16.0 (https://cairographics.org)
%%CreationDate: Fri Sep 20 08:56:14 2019
%%Pages: 1
%%DocumentData: Clean7Bit
%%LanguageLevel: 2
%%BoundingBox: 12 18 366 366
%%EndComments
%%BeginProlog
50 dict begin
/q { gsave } bind def
/Q { grestore } bind def
/cm { 6 array astore concat } bind def
/w { setlinewidth } bind def
/J { setlinecap } bind def
/j { setlinejoin } bind def
/M { setmiterlimit } bind def
/d { setdash } bind def
/m { moveto } bind def
/l { lineto } bind def
/c { curveto } bind def
/h { closepath } bind def
/re { exch dup neg 3 1 roll 5 3 roll moveto 0 rlineto
      0 exch rlineto 0 rlineto closepath } bind def
/S { stroke } bind def
/f { fill } bind def
/f* { eofill } bind def
/n { newpath } bind def
/W { clip } bind def
/W* { eoclip } bind def
/BT { } bind def
/ET { } bind def
/BDC { mark 3 1 roll /BDC pdfmark } bind def
/EMC { mark /EMC pdfmark } bind def
/cairo_store_point { /cairo_point_y exch def /cairo_point_x exch def } def
/Tj { show currentpoint cairo_store_point } bind def
/TJ {
  {
    dup
    type /stringtype eq
    { show } { -0.001 mul 0 cairo_font_matrix dtransform rmoveto } ifelse
  } forall
  currentpoint cairo_store_point
} bind def
/cairo_selectfont { cairo_font_matrix aload pop pop pop 0 0 6 array astore
    cairo_font exch selectfont cairo_point_x cairo_point_y moveto } bind def
/Tf { pop /cairo_font exch def /cairo_font_matrix where
      { pop cairo_selectfont } if } bind def
/Td { matrix translate cairo_font_matrix matrix concatmatrix dup
      /cairo_font_matrix exch def dup 4 get exch 5 get cairo_store_point
      /cairo_font where { pop cairo_selectfont } if } bind def
/Tm { 2 copy 8 2 roll 6 array astore /cairo_font_matrix exch def
      cairo_store_point /cairo_font where { pop cairo_selectfont } if } bind def
/g { setgray } bind def
/rg { setrgbcolor } bind def
/d1 { setcachedevice } bind def
/cairo_data_source {
  CairoDataIndex CairoData length lt
    { CairoData CairoDataIndex get /CairoDataIndex CairoDataIndex 1 add def }
    { () } ifelse
} def
/cairo_flush_ascii85_file { cairo_ascii85_file status { cairo_ascii85_file flushfile } if } def
/cairo_image { image cairo_flush_ascii85_file } def
/cairo_imagemask { imagemask cairo_flush_ascii85_file } def
%%EndProlog
%%BeginSetup
%%EndSetup
%%Page: 1 1
%%BeginPageSetup
%%PageBoundingBox: 12 18 366 366
%%EndPageSetup
q 12 18 354 348 rectclip
1 0 0 -1 0 384 cm q
0.964706 0.733333 0 rg
120 366 m 120 122.059 l 120 108.805 130.746 98.059 144 98.059 c 248.059
 98.059 l 254.426 98.059 260.527 100.586 265.031 105.09 c 310.969 151.031
 l 315.473 155.531 318 161.637 318 168 c 318 342 l 318 355.254 307.254 366
 294 366 c h
120 366 m f
0.329412 0.541176 1 rg
198 192 90 144 re f
0.282353 0.419608 0.878431 rg
288 342 m 198 342 l 194.688 342 192 339.312 192 336 c 192 192 l 192 188.688
 194.688 186 198 186 c 288 186 l 291.312 186 294 188.688 294 192 c 294 336
 l 294 339.312 291.312 342 288 342 c h
204 330 m 282 330 l 282 198 l 204 198 l h
204 330 m f
0.811765 0.513726 0 rg
192 120 24 12 re f
162 120 18 12 re f
144 144 30 12 re f
186 144 30 12 re f
0.282353 0.419608 0.878431 rg
240 192 12 144 re f
204 222 84 12 re f
0.317647 0.494118 0.968627 rg
260.484 129.516 m 234 156 l 234 30 l 234 23.371 239.371 18 246 18 c 354
 18 l 360.629 18 366 23.371 366 30 c 366 114 l 366 120.629 360.629 126 354
 126 c 268.969 126 l 265.789 126 262.734 127.266 260.484 129.516 c h
260.484 129.516 m f
0.231373 0.341176 0.768627 rg
294 42 12 12 re f
318 42 24 12 re f
258 66 18 12 re f
330 66 12 12 re f
288 66 30 12 re f
258 90 48 12 re f
318 90 24 12 re f
0.964706 0.733333 0 rg
72 146.168 m 72 336 l 36 336 l 36 146.168 l 36 145.449 36.016 144.719 36.039
 144 c 36.355 135.422 38.504 127.012 42.336 119.332 c 54 96 l 65.664 119.332
 l 67.684 123.367 69.238 127.617 70.297 132 c 71.258 135.934 71.816 139.953
 71.961 144 c 71.984 144.719 72 145.449 72 146.168 c h
72 146.168 m f
0.929412 0.65098 0 rg
72 336 m 36 336 l 36 348 l 36 357.941 44.059 366 54 366 c 63.941 366 72
 357.941 72 348 c h
72 336 m f
71.961 144 m 36.039 144 l 36.184 139.953 36.742 135.934 37.703 132 c 70.297
 132 l 71.258 135.934 71.816 139.953 71.961 144 c h
71.961 144 m f
36 330 m 22.75 329.984 12.016 319.25 12 306 c 12 240 l 24 240 l 24 306 
l 24.008 312.625 29.375 317.992 36 318 c h
36 330 m f
0.494118 0.341176 0.87451 rg
90 174 m 180 174 l 193.297 174 204 184.703 204 198 c 204 342 l 204 355.297
 193.297 366 180 366 c 90 366 l 76.703 366 66 355.297 66 342 c 66 198 l 
66 184.703 76.703 174 90 174 c h
90 174 m f
0.517647 0.847059 0.909804 rg
90 198 90 30 re f
0.964706 0.733333 0 rg
90 282 30 60 re f
0.301961 0.388235 0.470588 rg
90 252 m 90 282 l 120 282 l 120 342 l 180 342 l 180 252 l h
90 252 m f
0.929412 0.65098 0 rg
90 306 30 12 re f
0.258824 0.337255 0.419608 rg
180 276 m 156 276 l 156 252 l 144 252 l 144 276 l 126 276 l 126 252 l 114
 252 l 114 276 l 90 276 l 90 288 l 114 288 l 114 342 l 126 342 l 126 318
 l 144 318 l 144 342 l 156 342 l 156 288 l 180 288 l h
144 306 m 126 306 l 126 288 l 144 288 l h
144 306 m f
Q Q
showpage
%%Trailer
end
%%EOF
