%!PS-Adobe-3.0 EPSF-3.0
%%Creator: cairo 1.16.0 (https://cairographics.org)
%%CreationDate: Fri Sep 20 08:56:14 2019
%%Pages: 1
%%DocumentData: Clean7Bit
%%LanguageLevel: 2
%%BoundingBox: 12 22 372 360
%%EndComments
%%BeginProlog
50 dict begin
/q { gsave } bind def
/Q { grestore } bind def
/cm { 6 array astore concat } bind def
/w { setlinewidth } bind def
/J { setlinecap } bind def
/j { setlinejoin } bind def
/M { setmiterlimit } bind def
/d { setdash } bind def
/m { moveto } bind def
/l { lineto } bind def
/c { curveto } bind def
/h { closepath } bind def
/re { exch dup neg 3 1 roll 5 3 roll moveto 0 rlineto
      0 exch rlineto 0 rlineto closepath } bind def
/S { stroke } bind def
/f { fill } bind def
/f* { eofill } bind def
/n { newpath } bind def
/W { clip } bind def
/W* { eoclip } bind def
/BT { } bind def
/ET { } bind def
/BDC { mark 3 1 roll /BDC pdfmark } bind def
/EMC { mark /EMC pdfmark } bind def
/cairo_store_point { /cairo_point_y exch def /cairo_point_x exch def } def
/Tj { show currentpoint cairo_store_point } bind def
/TJ {
  {
    dup
    type /stringtype eq
    { show } { -0.001 mul 0 cairo_font_matrix dtransform rmoveto } ifelse
  } forall
  currentpoint cairo_store_point
} bind def
/cairo_selectfont { cairo_font_matrix aload pop pop pop 0 0 6 array astore
    cairo_font exch selectfont cairo_point_x cairo_point_y moveto } bind def
/Tf { pop /cairo_font exch def /cairo_font_matrix where
      { pop cairo_selectfont } if } bind def
/Td { matrix translate cairo_font_matrix matrix concatmatrix dup
      /cairo_font_matrix exch def dup 4 get exch 5 get cairo_store_point
      /cairo_font where { pop cairo_selectfont } if } bind def
/Tm { 2 copy 8 2 roll 6 array astore /cairo_font_matrix exch def
      cairo_store_point /cairo_font where { pop cairo_selectfont } if } bind def
/g { setgray } bind def
/rg { setrgbcolor } bind def
/d1 { setcachedevice } bind def
/cairo_data_source {
  CairoDataIndex CairoData length lt
    { CairoData CairoDataIndex get /CairoDataIndex CairoDataIndex 1 add def }
    { () } ifelse
} def
/cairo_flush_ascii85_file { cairo_ascii85_file status { cairo_ascii85_file flushfile } if } def
/cairo_image { image cairo_flush_ascii85_file } def
/cairo_imagemask { imagemask cairo_flush_ascii85_file } def
%%EndProlog
%%BeginSetup
%%EndSetup
%%Page: 1 1
%%BeginPageSetup
%%PageBoundingBox: 12 22 372 360
%%EndPageSetup
q 12 22 360 338 rectclip
1 0 0 -1 0 384 cm q
0.317647 0.494118 0.968627 rg
269.656 170.066 m 271.676 165.184 276.441 161.996 281.73 162 c 306 162 
l 306 114 l 281.73 114 l 276.441 114.004 271.676 110.816 269.656 105.934
 c 269.637 105.879 269.613 105.824 269.59 105.773 c 267.562 100.887 268.68
 95.262 272.418 91.523 c 289.582 74.359 l 255.641 40.418 l 238.477 57.582
 l 234.738 61.32 229.113 62.438 224.227 60.41 c 224.176 60.387 224.121 60.363
 224.066 60.344 c 219.184 58.324 215.996 53.559 216 48.27 c 216 24 l 168
 24 l 168 48.27 l 168.004 53.559 164.816 58.324 159.934 60.344 c 159.879
 60.363 159.824 60.387 159.773 60.41 c 154.887 62.438 149.262 61.32 145.523
 57.582 c 128.359 40.418 l 94.418 74.359 l 111.582 91.523 l 115.32 95.262
 116.438 100.887 114.41 105.773 c 114.387 105.824 114.363 105.879 114.344
 105.93 c 112.324 110.816 107.559 114.004 102.27 114 c 78 114 l 78 162 l
 102.27 162 l 107.559 161.996 112.324 165.184 114.344 170.066 c 114.363 
170.121 114.387 170.176 114.41 170.227 c 116.438 175.113 115.32 180.738 
111.582 184.477 c 94.418 201.641 l 128.359 235.582 l 145.523 218.418 l 149.262
 214.68 154.887 213.562 159.773 215.59 c 159.824 215.613 159.879 215.637
 159.934 215.656 c 164.816 217.676 168.004 222.441 168 227.73 c 168 252 
l 216 252 l 216 227.73 l 215.996 222.441 219.184 217.676 224.066 215.656
 c 224.121 215.637 224.176 215.613 224.227 215.59 c 229.113 213.562 234.738
 214.68 238.477 218.418 c 255.641 235.582 l 289.582 201.641 l 272.418 184.477
 l 268.68 180.738 267.562 175.113 269.59 170.227 c 269.613 170.176 269.637
 170.121 269.656 170.066 c h
192 168 m 179.867 168 168.926 160.691 164.285 149.48 c 159.641 138.27 162.207
 125.367 170.785 116.785 c 179.367 108.207 192.27 105.641 203.48 110.285
 c 214.691 114.926 222 125.867 222 138 c 222 154.57 208.57 168 192 168 c
 h
192 168 m f
0.282353 0.419608 0.878431 rg
192.043 204.035 m 163.004 204 137.383 185.031 128.871 157.27 c 140.348 
153.758 l 145.809 171.66 160.148 185.457 178.25 190.223 c 196.348 194.988
 215.625 190.043 229.195 177.152 c 242.762 164.258 248.688 145.262 244.855
 126.941 c 241.023 108.621 227.977 93.594 210.379 87.223 c 214.461 75.941
 l 244.566 86.875 262.484 117.836 256.961 149.387 c 251.441 180.938 224.07
 203.977 192.043 204.035 c h
192.043 204.035 m f
0.960784 0.788235 0.615686 rg
342 198 m 204 198 l 204 312 l 274.965 312 l 283.387 312 291.543 309.047
 298.012 303.656 c 313.988 290.344 l 320.457 284.953 328.613 282 337.035
 282 c 342 282 l h
342 198 m f
0.870588 0.682353 0.494118 rg
228 264 m 247.199 278.398 l 250.223 280.668 252 284.223 252 288 c 252 318
 l 252 324.629 246.629 330 240 330 c 228 330 l 210 342 l 84 294 l 75.516
 285.516 l 73.266 283.266 70.211 282 67.031 282 c 48 282 l 48 198 l 78 198
 l 108 192 l 134.027 192 l 140.555 192 146.957 193.773 152.551 197.129 c
 174 210 l h
228 264 m f
0.964706 0.733333 0 rg
12 192 36 96 re f
342 192 30 96 re f
0.960784 0.788235 0.615686 rg
288 198 m 264.438 188.574 l 260.184 186.875 255.648 186 251.066 186 c 214.898
 186 l 207.793 186 200.844 188.105 194.93 192.047 c 124.93 238.715 l 118.688
 242.875 116.52 251.039 119.875 257.75 c 123.336 264.672 131.523 267.785
 138.711 264.914 c 168.52 252.992 l 179.375 248.648 191.711 250.281 201.062
 257.297 c 206.863 261.648 213.918 264 221.168 264 c 261.668 264 l 273.402
 264 283.414 255.52 285.344 243.945 c 288 228 l h
288 198 m f
78 300 m 93.516 284.484 l 95.766 282.234 98.816 280.969 102 280.969 c 105.184
 280.969 108.234 282.234 110.484 284.484 c 117.516 291.516 l 119.766 293.766
 121.031 296.816 121.031 300 c 121.031 303.184 119.766 306.234 117.516 308.484
 c 102 324 l 98.816 327.184 94.5 328.969 90 328.969 c 85.5 328.969 81.184
 327.184 78 324 c 74.816 320.816 73.031 316.5 73.031 312 c 73.031 307.5 
74.816 303.184 78 300 c h
78 300 m f
114 312 m 129.516 296.484 l 131.766 294.234 134.816 292.969 138 292.969
 c 141.184 292.969 144.234 294.234 146.484 296.484 c 153.516 303.516 l 155.766
 305.766 157.031 308.816 157.031 312 c 157.031 315.184 155.766 318.234 153.516
 320.484 c 138 336 l 134.816 339.184 130.5 340.969 126 340.969 c 121.5 340.969
 117.184 339.184 114 336 c 110.816 332.816 109.031 328.5 109.031 324 c 109.031
 319.5 110.816 315.184 114 312 c h
114 312 m f
150 324 m 165.516 308.484 l 167.766 306.234 170.816 304.969 174 304.969
 c 177.184 304.969 180.234 306.234 182.484 308.484 c 189.516 315.516 l 191.766
 317.766 193.031 320.816 193.031 324 c 193.031 327.184 191.766 330.234 189.516
 332.484 c 174 348 l 170.816 351.184 166.5 352.969 162 352.969 c 157.5 352.969
 153.184 351.184 150 348 c 146.816 344.816 145.031 340.5 145.031 336 c 145.031
 331.5 146.816 327.184 150 324 c h
150 324 m f
189 333 m 201.516 320.484 l 203.766 318.234 206.816 316.969 210 316.969
 c 213.184 316.969 216.234 318.234 218.484 320.484 c 225.516 327.516 l 227.766
 329.766 229.031 332.816 229.031 336 c 229.031 339.184 227.766 342.234 225.516
 344.484 c 213 357 l 209.816 360.184 205.5 361.969 201 361.969 c 196.5 361.969
 192.184 360.184 189 357 c 185.816 353.816 184.031 349.5 184.031 345 c 184.031
 340.5 185.816 336.184 189 333 c h
189 333 m f
0.870588 0.682353 0.494118 rg
245.504 270 m 192 270 l 188.688 270 186 267.312 186 264 c 186 260.688 188.688
 258 192 258 c 245.504 258 l 263.648 258.047 279.145 244.918 282.082 227.012
 c 282.344 225.445 283.219 224.043 284.512 223.117 c 285.809 222.191 287.418
 221.82 288.988 222.082 c 292.254 222.625 294.465 225.719 293.918 228.988
 c 290.035 252.688 269.52 270.062 245.504 270 c h
245.504 270 m f
Q Q
showpage
%%Trailer
end
%%EOF
