%!PS-Adobe-3.0 EPSF-3.0
%%Creator: cairo 1.16.0 (https://cairographics.org)
%%CreationDate: Fri Sep 20 08:56:15 2019
%%Pages: 1
%%DocumentData: Clean7Bit
%%LanguageLevel: 2
%%BoundingBox: 18 18 366 366
%%EndComments
%%BeginProlog
50 dict begin
/q { gsave } bind def
/Q { grestore } bind def
/cm { 6 array astore concat } bind def
/w { setlinewidth } bind def
/J { setlinecap } bind def
/j { setlinejoin } bind def
/M { setmiterlimit } bind def
/d { setdash } bind def
/m { moveto } bind def
/l { lineto } bind def
/c { curveto } bind def
/h { closepath } bind def
/re { exch dup neg 3 1 roll 5 3 roll moveto 0 rlineto
      0 exch rlineto 0 rlineto closepath } bind def
/S { stroke } bind def
/f { fill } bind def
/f* { eofill } bind def
/n { newpath } bind def
/W { clip } bind def
/W* { eoclip } bind def
/BT { } bind def
/ET { } bind def
/BDC { mark 3 1 roll /BDC pdfmark } bind def
/EMC { mark /EMC pdfmark } bind def
/cairo_store_point { /cairo_point_y exch def /cairo_point_x exch def } def
/Tj { show currentpoint cairo_store_point } bind def
/TJ {
  {
    dup
    type /stringtype eq
    { show } { -0.001 mul 0 cairo_font_matrix dtransform rmoveto } ifelse
  } forall
  currentpoint cairo_store_point
} bind def
/cairo_selectfont { cairo_font_matrix aload pop pop pop 0 0 6 array astore
    cairo_font exch selectfont cairo_point_x cairo_point_y moveto } bind def
/Tf { pop /cairo_font exch def /cairo_font_matrix where
      { pop cairo_selectfont } if } bind def
/Td { matrix translate cairo_font_matrix matrix concatmatrix dup
      /cairo_font_matrix exch def dup 4 get exch 5 get cairo_store_point
      /cairo_font where { pop cairo_selectfont } if } bind def
/Tm { 2 copy 8 2 roll 6 array astore /cairo_font_matrix exch def
      cairo_store_point /cairo_font where { pop cairo_selectfont } if } bind def
/g { setgray } bind def
/rg { setrgbcolor } bind def
/d1 { setcachedevice } bind def
/cairo_data_source {
  CairoDataIndex CairoData length lt
    { CairoData CairoDataIndex get /CairoDataIndex CairoDataIndex 1 add def }
    { () } ifelse
} def
/cairo_flush_ascii85_file { cairo_ascii85_file status { cairo_ascii85_file flushfile } if } def
/cairo_image { image cairo_flush_ascii85_file } def
/cairo_imagemask { imagemask cairo_flush_ascii85_file } def
%%EndProlog
%%BeginSetup
%%EndSetup
%%Page: 1 1
%%BeginPageSetup
%%PageBoundingBox: 18 18 366 366
%%EndPageSetup
q 18 18 348 348 rectclip
1 0 0 -1 0 384 cm q
0.258824 0.337255 0.419608 rg
354 258 m 354 309.367 l 354 311.117 354.191 312.863 354.57 314.57 c 366
 366 l 348 366 l 325.645 326.875 l 324.551 324.969 323.73 322.918 323.195
 320.789 c 318 300 l 318 258 l h
354 258 m f
0.964706 0.733333 0 rg
354 196.973 m 354 252 l 300 252 l 300 196.973 l 300 186.105 304.316 175.684
 312 168 c 342 168 l 349.684 175.684 354 186.105 354 196.973 c h
354 196.973 m f
0.929412 0.65098 0 rg
300 234 m 320.059 234 l 326.426 234 332.527 231.473 337.031 226.969 c 354
 210 l 354 252 l 300 252 l h
300 234 m f
300 204 m 307.758 204 l 313.414 204 318 208.586 318 214.242 c 318 222 l
 300 222 l h
300 204 m f
0.960784 0.788235 0.615686 rg
312 210 m 258 216 l 258 234 l 320.062 234 l 325.922 234.004 331.582 231.855
 335.961 227.961 c 315 207 l h
312 210 m f
0.301961 0.388235 0.470588 rg
354 252 m 354 263.648 l 354 271.398 350.258 278.672 343.949 283.18 c 318.68
 301.23 l 314.348 304.32 311.172 308.766 309.641 313.863 c 294 366 l 276
 366 l 281.59 304.512 l 281.859 301.531 282.688 298.625 284.023 295.949 
c 300 264 l 300 252 l h
354 252 m f
0.960784 0.788235 0.615686 rg
342 144 m 342 162 l 342 171.941 333.941 180 324 180 c 314.059 180 306 171.941
 306 162 c 306 144 l h
342 144 m f
0.694118 0.47451 0.172549 rg
342 144 m 306 144 l 306 129.707 l 306 127.133 307.023 124.664 308.844 122.844
 c 310.664 121.023 313.133 120 315.707 120 c 317.215 120 318.703 120.352
 320.051 121.023 c 342 132 l h
342 144 m f
0.258824 0.337255 0.419608 rg
30 258 m 30 309.367 l 30 311.117 29.809 312.863 29.43 314.57 c 18 366 l
 36 366 l 58.355 326.875 l 59.449 324.969 60.27 322.918 60.805 320.789 c
 66 300 l 66 258 l h
30 258 m f
0.964706 0.733333 0 rg
30 196.973 m 30 252 l 84 252 l 84 196.973 l 84 186.105 79.684 175.684 72
 168 c 42 168 l 34.316 175.684 30 186.105 30 196.973 c h
30 196.973 m f
0.929412 0.65098 0 rg
84 234 m 63.941 234 l 57.574 234 51.473 231.473 46.969 226.969 c 30 210
 l 30 252 l 84 252 l h
84 234 m f
84 222 m 66 222 l 66 214.242 l 66 211.527 67.078 208.922 69 207 c 70.922
 205.078 73.527 204 76.242 204 c 84 204 l h
84 222 m f
0.960784 0.788235 0.615686 rg
72 210 m 126 216 l 126 234 l 63.938 234 l 58.078 234 52.418 231.855 48.039
 227.961 c 69 207 l h
72 210 m f
0.301961 0.388235 0.470588 rg
30 252 m 30 263.648 l 30 271.398 33.742 278.672 40.051 283.18 c 65.32 301.23
 l 69.652 304.32 72.828 308.766 74.359 313.863 c 90 366 l 108 366 l 102.41
 304.512 l 102.141 301.531 101.312 298.625 99.977 295.949 c 84 264 l 84 
252 l h
30 252 m f
0.960784 0.788235 0.615686 rg
42 144 m 42 162 l 42 171.941 50.059 180 60 180 c 69.941 180 78 171.941 
78 162 c 78 144 l h
42 144 m f
0.694118 0.47451 0.172549 rg
42 144 m 78 144 l 78 129.707 l 78 127.133 76.977 124.664 75.156 122.844
 c 73.336 121.023 70.867 120 68.293 120 c 66.785 120 65.297 120.352 63.949
 121.023 c 42 132 l h
42 144 m f
0.317647 0.494118 0.968627 rg
269.656 164.066 m 271.676 159.184 276.441 155.996 281.73 156 c 306 156 
l 306 108 l 281.73 108 l 276.441 108.004 271.676 104.816 269.656 99.934 
c 269.637 99.879 269.613 99.824 269.59 99.773 c 267.562 94.887 268.68 89.262
 272.418 85.523 c 289.582 68.359 l 255.641 34.418 l 238.477 51.582 l 234.738
 55.32 229.113 56.438 224.227 54.41 c 224.176 54.387 224.121 54.363 224.066
 54.344 c 219.184 52.324 215.996 47.559 216 42.27 c 216 18 l 168 18 l 168
 42.27 l 168.004 47.559 164.816 52.324 159.934 54.344 c 159.879 54.363 159.824
 54.387 159.773 54.41 c 154.887 56.438 149.262 55.32 145.523 51.582 c 128.359
 34.418 l 94.418 68.359 l 111.582 85.523 l 115.32 89.262 116.438 94.887 
114.41 99.773 c 114.387 99.824 114.363 99.879 114.344 99.93 c 112.324 104.816
 107.559 108.004 102.27 108 c 78 108 l 78 156 l 102.27 156 l 107.559 155.996
 112.324 159.184 114.344 164.066 c 114.363 164.121 114.387 164.176 114.41
 164.227 c 116.438 169.113 115.32 174.738 111.582 178.477 c 94.418 195.641
 l 128.359 229.582 l 145.523 212.418 l 149.262 208.68 154.887 207.562 159.773
 209.59 c 159.824 209.613 159.879 209.637 159.934 209.656 c 164.816 211.676
 168.004 216.441 168 221.73 c 168 246 l 216 246 l 216 221.73 l 215.996 216.441
 219.184 211.676 224.066 209.656 c 224.121 209.637 224.176 209.613 224.227
 209.59 c 229.113 207.562 234.738 208.68 238.477 212.418 c 255.641 229.582
 l 289.582 195.641 l 272.418 178.477 l 268.68 174.738 267.562 169.113 269.59
 164.227 c 269.613 164.176 269.637 164.121 269.656 164.066 c h
192 162 m 179.867 162 168.926 154.691 164.285 143.48 c 159.641 132.27 162.207
 119.367 170.785 110.785 c 179.367 102.207 192.27 99.641 203.48 104.285 
c 214.691 108.926 222 119.867 222 132 c 222 148.57 208.57 162 192 162 c 
h
192 162 m f
0.282353 0.419608 0.878431 rg
192.043 198.035 m 163.004 198 137.383 179.031 128.871 151.27 c 140.348 
147.758 l 145.809 165.66 160.148 179.457 178.25 184.223 c 196.348 188.988
 215.625 184.043 229.195 171.152 c 242.762 158.258 248.688 139.262 244.855
 120.941 c 241.023 102.621 227.977 87.594 210.379 81.223 c 214.461 69.941
 l 244.566 80.875 262.484 111.836 256.961 143.387 c 251.441 174.938 224.07
 197.977 192.043 198.035 c h
192.043 198.035 m f
Q Q
showpage
%%Trailer
end
%%EOF
