%!PS-Adobe-3.0 EPSF-3.0
%%Creator: cairo 1.16.0 (https://cairographics.org)
%%CreationDate: Fri Sep 20 08:56:15 2019
%%Pages: 1
%%DocumentData: Clean7Bit
%%LanguageLevel: 2
%%BoundingBox: 18 18 366 366
%%EndComments
%%BeginProlog
50 dict begin
/q { gsave } bind def
/Q { grestore } bind def
/cm { 6 array astore concat } bind def
/w { setlinewidth } bind def
/J { setlinecap } bind def
/j { setlinejoin } bind def
/M { setmiterlimit } bind def
/d { setdash } bind def
/m { moveto } bind def
/l { lineto } bind def
/c { curveto } bind def
/h { closepath } bind def
/re { exch dup neg 3 1 roll 5 3 roll moveto 0 rlineto
      0 exch rlineto 0 rlineto closepath } bind def
/S { stroke } bind def
/f { fill } bind def
/f* { eofill } bind def
/n { newpath } bind def
/W { clip } bind def
/W* { eoclip } bind def
/BT { } bind def
/ET { } bind def
/BDC { mark 3 1 roll /BDC pdfmark } bind def
/EMC { mark /EMC pdfmark } bind def
/cairo_store_point { /cairo_point_y exch def /cairo_point_x exch def } def
/Tj { show currentpoint cairo_store_point } bind def
/TJ {
  {
    dup
    type /stringtype eq
    { show } { -0.001 mul 0 cairo_font_matrix dtransform rmoveto } ifelse
  } forall
  currentpoint cairo_store_point
} bind def
/cairo_selectfont { cairo_font_matrix aload pop pop pop 0 0 6 array astore
    cairo_font exch selectfont cairo_point_x cairo_point_y moveto } bind def
/Tf { pop /cairo_font exch def /cairo_font_matrix where
      { pop cairo_selectfont } if } bind def
/Td { matrix translate cairo_font_matrix matrix concatmatrix dup
      /cairo_font_matrix exch def dup 4 get exch 5 get cairo_store_point
      /cairo_font where { pop cairo_selectfont } if } bind def
/Tm { 2 copy 8 2 roll 6 array astore /cairo_font_matrix exch def
      cairo_store_point /cairo_font where { pop cairo_selectfont } if } bind def
/g { setgray } bind def
/rg { setrgbcolor } bind def
/d1 { setcachedevice } bind def
/cairo_data_source {
  CairoDataIndex CairoData length lt
    { CairoData CairoDataIndex get /CairoDataIndex CairoDataIndex 1 add def }
    { () } ifelse
} def
/cairo_flush_ascii85_file { cairo_ascii85_file status { cairo_ascii85_file flushfile } if } def
/cairo_image { image cairo_flush_ascii85_file } def
/cairo_imagemask { imagemask cairo_flush_ascii85_file } def
%%EndProlog
%%BeginSetup
%%EndSetup
%%Page: 1 1
%%BeginPageSetup
%%PageBoundingBox: 18 18 366 366
%%EndPageSetup
q 18 18 348 348 rectclip
1 0 0 -1 0 384 cm q
0.94902 0.952941 0.956863 rg
330 192 m 330 247.816 296.379 298.137 244.809 319.496 c 193.242 340.855
 133.887 329.047 94.418 289.582 c 54.953 250.113 43.145 190.758 64.504 139.191
 c 85.863 87.621 136.184 54 192 54 c 192 192 l h
330 192 m f
0.317647 0.494118 0.968627 rg
354 108 m 354 84 l 336 84 l 330.426 70.543 l 343.152 57.816 l 326.184 40.848
 l 313.457 53.574 l 300 48 l 300 30 l 276 30 l 276 48 l 262.543 53.574 l
 249.816 40.848 l 232.848 57.816 l 245.574 70.543 l 240 84 l 222 84 l 222
 108 l 240 108 l 245.574 121.457 l 232.848 134.184 l 249.816 151.152 l 262.543
 138.426 l 276 144 l 276 162 l 300 162 l 300 144 l 313.457 138.426 l 326.184
 151.152 l 343.152 134.184 l 330.426 121.457 l 336 108 l h
288 114 m 280.719 114 274.156 109.613 271.371 102.887 c 268.586 96.164 
270.125 88.422 275.273 83.273 c 280.422 78.125 288.164 76.586 294.887 79.371
 c 301.613 82.156 306 88.719 306 96 c 306 100.773 304.105 105.352 300.727
 108.727 c 297.352 112.105 292.773 114 288 114 c h
288 114 m f
0.870588 0.580392 0 rg
186 294 12 18 re f
237.801 283.324 m 248.191 277.324 l 257.191 292.91 l 246.801 298.91 l h
237.801 283.324 m f
126.801 91.074 m 137.195 85.07 l 146.195 100.66 l 135.801 106.66 l h
126.801 91.074 m f
277.328 248.207 m 283.328 237.816 l 298.918 246.816 l 292.918 257.207 l
 h
277.328 248.207 m f
85.074 137.199 m 91.074 126.809 l 106.664 135.809 l 100.66 146.199 l h
85.074 137.199 m f
72 186 18 12 re f
85.078 246.793 m 100.668 237.793 l 106.668 248.184 l 91.082 257.184 l h
85.078 246.793 m f
126.797 292.938 m 135.797 277.348 l 146.188 283.348 l 137.188 298.938 l
 h
126.797 292.938 m f
0.964706 0.733333 0 rg
192 18 m 95.902 18 18 95.902 18 192 c 18 288.098 95.902 366 192 366 c 288.098
 366 366 288.098 366 192 c 330 192 l 330 247.816 296.379 298.137 244.809
 319.496 c 193.242 340.855 133.887 329.047 94.418 289.582 c 54.953 250.113
 43.145 190.758 64.504 139.191 c 85.863 87.621 136.184 54 192 54 c h
192 18 m f
0.839216 0.184314 0.184314 rg
159.582 229.48 m 175.746 197.332 l 178.723 191.414 185.934 189.027 191.852
 192.004 c 197.77 194.98 200.156 202.191 197.18 208.109 c 181.016 240.254
 l 178.039 246.176 170.828 248.559 164.91 245.582 c 158.992 242.609 156.605
 235.398 159.582 229.48 c h
159.582 229.48 m f
0.937255 0.286275 0.301961 rg
196.977 181.082 m 136.918 153.711 l 134.023 152.391 130.723 152.273 127.742
 153.391 c 124.758 154.504 122.344 156.758 121.023 159.652 c 118.273 165.684
 120.938 172.801 126.965 175.547 c 187.023 202.918 l 193.055 205.668 200.172
 203.008 202.918 196.977 c 204.238 194.082 204.355 190.777 203.238 187.797
 c 202.125 184.816 199.871 182.398 196.977 181.082 c h
196.977 181.082 m f
Q Q
showpage
%%Trailer
end
%%EOF
