%!PS-Adobe-3.0 EPSF-3.0
%%Creator: cairo 1.16.0 (https://cairographics.org)
%%CreationDate: Fri Sep 20 08:56:15 2019
%%Pages: 1
%%DocumentData: Clean7Bit
%%LanguageLevel: 2
%%BoundingBox: 54 18 330 366
%%EndComments
%%BeginProlog
50 dict begin
/q { gsave } bind def
/Q { grestore } bind def
/cm { 6 array astore concat } bind def
/w { setlinewidth } bind def
/J { setlinecap } bind def
/j { setlinejoin } bind def
/M { setmiterlimit } bind def
/d { setdash } bind def
/m { moveto } bind def
/l { lineto } bind def
/c { curveto } bind def
/h { closepath } bind def
/re { exch dup neg 3 1 roll 5 3 roll moveto 0 rlineto
      0 exch rlineto 0 rlineto closepath } bind def
/S { stroke } bind def
/f { fill } bind def
/f* { eofill } bind def
/n { newpath } bind def
/W { clip } bind def
/W* { eoclip } bind def
/BT { } bind def
/ET { } bind def
/BDC { mark 3 1 roll /BDC pdfmark } bind def
/EMC { mark /EMC pdfmark } bind def
/cairo_store_point { /cairo_point_y exch def /cairo_point_x exch def } def
/Tj { show currentpoint cairo_store_point } bind def
/TJ {
  {
    dup
    type /stringtype eq
    { show } { -0.001 mul 0 cairo_font_matrix dtransform rmoveto } ifelse
  } forall
  currentpoint cairo_store_point
} bind def
/cairo_selectfont { cairo_font_matrix aload pop pop pop 0 0 6 array astore
    cairo_font exch selectfont cairo_point_x cairo_point_y moveto } bind def
/Tf { pop /cairo_font exch def /cairo_font_matrix where
      { pop cairo_selectfont } if } bind def
/Td { matrix translate cairo_font_matrix matrix concatmatrix dup
      /cairo_font_matrix exch def dup 4 get exch 5 get cairo_store_point
      /cairo_font where { pop cairo_selectfont } if } bind def
/Tm { 2 copy 8 2 roll 6 array astore /cairo_font_matrix exch def
      cairo_store_point /cairo_font where { pop cairo_selectfont } if } bind def
/g { setgray } bind def
/rg { setrgbcolor } bind def
/d1 { setcachedevice } bind def
/cairo_data_source {
  CairoDataIndex CairoData length lt
    { CairoData CairoDataIndex get /CairoDataIndex CairoDataIndex 1 add def }
    { () } ifelse
} def
/cairo_flush_ascii85_file { cairo_ascii85_file status { cairo_ascii85_file flushfile } if } def
/cairo_image { image cairo_flush_ascii85_file } def
/cairo_imagemask { imagemask cairo_flush_ascii85_file } def
%%EndProlog
%%BeginSetup
%%EndSetup
%%Page: 1 1
%%BeginPageSetup
%%PageBoundingBox: 54 18 330 366
%%EndPageSetup
q 54 18 276 348 rectclip
1 0 0 -1 0 384 cm q
0.964706 0.733333 0 rg
72 42 240 210 re f
0.721569 0.431373 0 rg
162 336 60 12 re f
0.870588 0.580392 0 rg
54 18 276 24 re f
54 252 276 24 re f
0.721569 0.431373 0 rg
180 276 24 42 re f
0.870588 0.580392 0 rg
180 318 m 156 366 l 138 366 l 155.848 316.918 l 159.543 306.762 169.195
 300 180 300 c h
180 318 m f
204 318 m 228 366 l 246 366 l 228.152 316.918 l 224.457 306.762 214.805
 300 204 300 c h
204 318 m f
0.839216 0.184314 0.184314 rg
246 126 m 246 109.43 232.57 96 216 96 c 216 66 l 249.137 66 276 92.863 
276 126 c h
246 126 m f
0.870588 0.580392 0 rg
144 116.484 m 129.516 102 l 102 102 l 102 90 l 132 90 l 133.59 90 135.117
 90.633 136.242 91.758 c 152.484 108 l h
144 116.484 m f
138 66 12 12 re f
102 66 24 12 re f
282 210 m 252 210 l 250.41 210 248.883 209.367 247.758 208.242 c 231.516
 192 l 240 183.516 l 254.484 198 l 282 198 l h
282 210 m f
234 222 12 12 re f
258 222 24 12 re f
132 210 m 102 210 l 102 198 l 129.516 198 l 144 183.516 l 152.484 192 l
 136.242 208.242 l 135.117 209.367 133.59 210 132 210 c h
132 210 m f
138 222 12 12 re f
102 222 24 12 re f
0.329412 0.541176 1 rg
252 150 m 251.996 180.812 228.656 206.617 198 209.707 c 196.027 209.902
 194.027 210 192 210 c 189.977 210 187.977 209.902 186 209.707 c 155.344
 206.617 132.004 180.812 132 150 c 132 147.953 132.105 145.934 132.301 143.941
 c 135.391 113.293 161.199 89.973 192 90 c 192 120 l 176.598 120 163.699
 131.664 162.152 146.988 c 160.605 162.312 170.91 176.32 186 179.398 c 189.961
 180.199 194.039 180.199 198 179.398 c 211.969 176.543 222 164.258 222 150
 c h
252 150 m f
0.282353 0.419608 0.878431 rg
198 179.398 m 198 209.707 l 196.027 209.902 194.027 210 192 210 c 189.977
 210 187.977 209.902 186 209.707 c 186 179.398 l 189.961 180.199 194.039
 180.199 198 179.398 c h
198 179.398 m f
164.391 138.238 m 162.809 141.957 161.996 145.957 162 150 c 132.301 143.941
 l 132.703 139.949 133.508 136.012 134.691 132.18 c h
164.391 138.238 m f
Q Q
showpage
%%Trailer
end
%%EOF
