%!PS-Adobe-3.0 EPSF-3.0
%%Creator: cairo 1.16.0 (https://cairographics.org)
%%CreationDate: Mon Dec 23 07:43:58 2019
%%Pages: 1
%%DocumentData: Clean7Bit
%%LanguageLevel: 2
%%BoundingBox: 18 72 366 312
%%EndComments
%%BeginProlog
50 dict begin
/q { gsave } bind def
/Q { grestore } bind def
/cm { 6 array astore concat } bind def
/w { setlinewidth } bind def
/J { setlinecap } bind def
/j { setlinejoin } bind def
/M { setmiterlimit } bind def
/d { setdash } bind def
/m { moveto } bind def
/l { lineto } bind def
/c { curveto } bind def
/h { closepath } bind def
/re { exch dup neg 3 1 roll 5 3 roll moveto 0 rlineto
      0 exch rlineto 0 rlineto closepath } bind def
/S { stroke } bind def
/f { fill } bind def
/f* { eofill } bind def
/n { newpath } bind def
/W { clip } bind def
/W* { eoclip } bind def
/BT { } bind def
/ET { } bind def
/BDC { mark 3 1 roll /BDC pdfmark } bind def
/EMC { mark /EMC pdfmark } bind def
/cairo_store_point { /cairo_point_y exch def /cairo_point_x exch def } def
/Tj { show currentpoint cairo_store_point } bind def
/TJ {
  {
    dup
    type /stringtype eq
    { show } { -0.001 mul 0 cairo_font_matrix dtransform rmoveto } ifelse
  } forall
  currentpoint cairo_store_point
} bind def
/cairo_selectfont { cairo_font_matrix aload pop pop pop 0 0 6 array astore
    cairo_font exch selectfont cairo_point_x cairo_point_y moveto } bind def
/Tf { pop /cairo_font exch def /cairo_font_matrix where
      { pop cairo_selectfont } if } bind def
/Td { matrix translate cairo_font_matrix matrix concatmatrix dup
      /cairo_font_matrix exch def dup 4 get exch 5 get cairo_store_point
      /cairo_font where { pop cairo_selectfont } if } bind def
/Tm { 2 copy 8 2 roll 6 array astore /cairo_font_matrix exch def
      cairo_store_point /cairo_font where { pop cairo_selectfont } if } bind def
/g { setgray } bind def
/rg { setrgbcolor } bind def
/d1 { setcachedevice } bind def
/cairo_data_source {
  CairoDataIndex CairoData length lt
    { CairoData CairoDataIndex get /CairoDataIndex CairoDataIndex 1 add def }
    { () } ifelse
} def
/cairo_flush_ascii85_file { cairo_ascii85_file status { cairo_ascii85_file flushfile } if } def
/cairo_image { image cairo_flush_ascii85_file } def
/cairo_imagemask { imagemask cairo_flush_ascii85_file } def
%%EndProlog
%%BeginSetup
%%EndSetup
%%Page: 1 1
%%BeginPageSetup
%%PageBoundingBox: 18 72 366 312
%%EndPageSetup
q 18 72 348 240 rectclip
1 0 0 -1 0 384 cm q
0.164706 0.443137 0.678431 rg
330 132 m 330 141.941 321.941 150 312 150 c 302.059 150 294 141.941 294
 132 c 294 122.059 302.059 114 312 114 c 321.941 114 330 122.059 330 132
 c h
330 132 m f
0.203922 0.556863 0.839216 rg
336 174 m 336 154.117 319.883 138 300 138 c 266.055 104.055 l 245.531 83.531
 217.695 72 188.668 72 c 186.098 72 l 93.195 72 18 147.195 18 239.949 c 
18 312 l 90 312 l 90 306 l 90 296.059 81.941 288 72 288 c 72 276.859 76.426
 266.18 84.301 258.301 c 92.18 250.426 102.859 246 114 246 c 114 312 l 186
 312 l 186 306 l 186 296.059 177.941 288 168 288 c 168 282 l 168 272.453
 171.793 263.297 178.543 256.543 c 185.297 249.793 194.453 246 204 246 c
 223.883 246 240 262.117 240 282 c 240 312 l 312 312 l 312 306 l 312 296.059
 303.941 288 294 288 c 294 216 l 310.57 232.57 337.43 232.57 354 216 c 366
 204 l h
336 174 m f
0.164706 0.443137 0.678431 rg
282 222 m 282 282 l 270 282 l 263.371 282 258 287.371 258 294 c 282 294
 l 286.773 294 291.352 295.895 294.727 299.273 c 298.105 302.648 300 307.227
 300 312 c 312 312 l 312 306 l 312 296.074 303.969 288.023 294.043 288 c
 294 288 l 294 222 l h
282 222 m f
252 162 m 242.059 162 234 153.941 234 144 c 234 134.059 242.059 126 252
 126 c 261.941 126 270 134.059 270 144 c 260.059 144 252 152.059 252 162
 c h
252 162 m f
294 216 m 294 228 l 288 228 l 284.539 228.004 281.094 227.574 277.738 226.727
 c 262.105 235.59 242.477 232.941 229.754 220.246 c 228.629 219.121 227.992
 217.594 227.992 216 c 227.992 214.406 228.625 212.879 229.75 211.75 c 230.875
 210.625 232.406 209.992 234 209.992 c 235.594 209.992 237.121 210.629 238.246
 211.754 c 244.668 218.164 253.797 221.062 262.738 219.531 c 252.203 211.605
 246.004 199.188 246 186 c 246 182.688 248.688 180 252 180 c 255.312 180
 258 182.688 258 186 c 258.016 202.562 271.438 215.984 288 216 c h
294 216 m f
114 246 m 114 198 l 114 194.688 111.312 192 108 192 c 104.688 192 102 194.688
 102 198 c 102 247.75 l 105.895 246.59 109.938 246 114 246 c h
114 246 m f
114 246 m 96 246 l 76.117 246 60 262.117 60 282 c 48 282 l 41.371 282 36
 287.371 36 294 c 60 294 l 69.941 294 78 302.059 78 312 c 90 312 l 90 306
 l 90 296.074 81.969 288.023 72.043 288 c 72 288 l 72 276.859 76.426 266.18
 84.301 258.301 c 92.18 250.426 102.859 246 114 246 c h
114 246 m f
210 246 m 192 246 l 172.117 246 156 262.117 156 282 c 144 282 l 137.371
 282 132 287.371 132 294 c 156 294 l 165.941 294 174 302.059 174 312 c 186
 312 l 186 306 l 186 296.074 177.969 288.023 168.043 288 c 168 288 l 168
 282 l 168 262.117 184.117 246 204 246 c h
210 246 m f
Q Q
showpage
%%Trailer
end
%%EOF
