%!PS-Adobe-3.0 EPSF-3.0
%%Creator: cairo 1.16.0 (https://cairographics.org)
%%CreationDate: Mon Dec 23 07:44:02 2019
%%Pages: 1
%%DocumentData: Clean7Bit
%%LanguageLevel: 2
%%BoundingBox: 18 18 366 366
%%EndComments
%%BeginProlog
50 dict begin
/q { gsave } bind def
/Q { grestore } bind def
/cm { 6 array astore concat } bind def
/w { setlinewidth } bind def
/J { setlinecap } bind def
/j { setlinejoin } bind def
/M { setmiterlimit } bind def
/d { setdash } bind def
/m { moveto } bind def
/l { lineto } bind def
/c { curveto } bind def
/h { closepath } bind def
/re { exch dup neg 3 1 roll 5 3 roll moveto 0 rlineto
      0 exch rlineto 0 rlineto closepath } bind def
/S { stroke } bind def
/f { fill } bind def
/f* { eofill } bind def
/n { newpath } bind def
/W { clip } bind def
/W* { eoclip } bind def
/BT { } bind def
/ET { } bind def
/BDC { mark 3 1 roll /BDC pdfmark } bind def
/EMC { mark /EMC pdfmark } bind def
/cairo_store_point { /cairo_point_y exch def /cairo_point_x exch def } def
/Tj { show currentpoint cairo_store_point } bind def
/TJ {
  {
    dup
    type /stringtype eq
    { show } { -0.001 mul 0 cairo_font_matrix dtransform rmoveto } ifelse
  } forall
  currentpoint cairo_store_point
} bind def
/cairo_selectfont { cairo_font_matrix aload pop pop pop 0 0 6 array astore
    cairo_font exch selectfont cairo_point_x cairo_point_y moveto } bind def
/Tf { pop /cairo_font exch def /cairo_font_matrix where
      { pop cairo_selectfont } if } bind def
/Td { matrix translate cairo_font_matrix matrix concatmatrix dup
      /cairo_font_matrix exch def dup 4 get exch 5 get cairo_store_point
      /cairo_font where { pop cairo_selectfont } if } bind def
/Tm { 2 copy 8 2 roll 6 array astore /cairo_font_matrix exch def
      cairo_store_point /cairo_font where { pop cairo_selectfont } if } bind def
/g { setgray } bind def
/rg { setrgbcolor } bind def
/d1 { setcachedevice } bind def
/cairo_data_source {
  CairoDataIndex CairoData length lt
    { CairoData CairoDataIndex get /CairoDataIndex CairoDataIndex 1 add def }
    { () } ifelse
} def
/cairo_flush_ascii85_file { cairo_ascii85_file status { cairo_ascii85_file flushfile } if } def
/cairo_image { image cairo_flush_ascii85_file } def
/cairo_imagemask { imagemask cairo_flush_ascii85_file } def
%%EndProlog
%%BeginSetup
%%EndSetup
%%Page: 1 1
%%BeginPageSetup
%%PageBoundingBox: 18 18 366 366
%%EndPageSetup
q 18 18 348 348 rectclip
1 0 0 -1 0 384 cm q
0.988235 0.654902 0.0745098 rg
18 18 300 300 re f
0.976471 0.521569 0 rg
35.875 306 m 18 306 l 18 318 l 318 318 l 318 108.238 l 276.191 223.586 
165.66 306 35.875 306 c h
35.875 306 m f
0.956863 0.419608 0.152941 rg
204 78 m 186 60 l 168 78 l 150 60 l 132 78 l 132 18 l 204 18 l h
204 78 m f
90 204 m 42 204 l 40.41 204 38.883 203.367 37.758 202.242 c 36.633 201.117
 36 199.59 36 198 c 36 150 l 36 148.41 36.633 146.883 37.758 145.758 c 38.883
 144.633 40.41 144 42 144 c 90 144 l 91.59 144 93.117 144.633 94.242 145.758
 c 95.367 146.883 96 148.41 96 150 c 96 198 l 96 199.59 95.367 201.117 94.242
 202.242 c 93.117 203.367 91.59 204 90 204 c h
48 192 m 84 192 l 84 156 l 48 156 l h
48 192 m f
90 276 m 42 276 l 40.41 276 38.883 275.367 37.758 274.242 c 36.633 273.117
 36 271.59 36 270 c 36 222 l 36 220.41 36.633 218.883 37.758 217.758 c 38.883
 216.633 40.41 216 42 216 c 90 216 l 91.59 216 93.117 216.633 94.242 217.758
 c 95.367 218.883 96 220.41 96 222 c 96 270 l 96 271.59 95.367 273.117 94.242
 274.242 c 93.117 275.367 91.59 276 90 276 c h
48 264 m 84 264 l 84 228 l 48 228 l h
48 264 m f
108 192 96 12 re f
108 264 96 12 re f
0.301961 0.717647 0.898039 rg
342 354 m 222 354 l 222 144 l 366 144 l 366 330 l 366 343.254 355.254 354
 342 354 c h
342 354 m f
0.188235 0.52549 0.803922 rg
294 306 m 307.254 306 318 316.746 318 330 c 318 343.254 328.746 354 342
 354 c 228 354 l 228 306 l h
294 306 m f
0.278431 0.635294 0.831373 rg
126 330 m 126 316.746 136.746 306 150 306 c 294 306 l 280.746 306 270 316.746
 270 330 c 270 366 l 126 366 l h
126 330 m f
0.203922 0.560784 0.85098 rg
246 162 96 24 re f
240 204 30 12 re f
282 204 36 12 re f
330 204 18 12 re f
306 228 42 12 re f
240 228 54 12 re f
240 252 12 12 re f
264 252 36 12 re f
312 252 36 12 re f
240 276 24 12 re f
276 276 24 12 re f
312 276 36 12 re f
Q Q
showpage
%%Trailer
end
%%EOF
