%!PS-Adobe-3.0 EPSF-3.0
%%Creator: cairo 1.16.0 (https://cairographics.org)
%%CreationDate: Mon Dec 23 07:44:02 2019
%%Pages: 1
%%DocumentData: Clean7Bit
%%LanguageLevel: 2
%%BoundingBox: 18 18 366 366
%%EndComments
%%BeginProlog
50 dict begin
/q { gsave } bind def
/Q { grestore } bind def
/cm { 6 array astore concat } bind def
/w { setlinewidth } bind def
/J { setlinecap } bind def
/j { setlinejoin } bind def
/M { setmiterlimit } bind def
/d { setdash } bind def
/m { moveto } bind def
/l { lineto } bind def
/c { curveto } bind def
/h { closepath } bind def
/re { exch dup neg 3 1 roll 5 3 roll moveto 0 rlineto
      0 exch rlineto 0 rlineto closepath } bind def
/S { stroke } bind def
/f { fill } bind def
/f* { eofill } bind def
/n { newpath } bind def
/W { clip } bind def
/W* { eoclip } bind def
/BT { } bind def
/ET { } bind def
/BDC { mark 3 1 roll /BDC pdfmark } bind def
/EMC { mark /EMC pdfmark } bind def
/cairo_store_point { /cairo_point_y exch def /cairo_point_x exch def } def
/Tj { show currentpoint cairo_store_point } bind def
/TJ {
  {
    dup
    type /stringtype eq
    { show } { -0.001 mul 0 cairo_font_matrix dtransform rmoveto } ifelse
  } forall
  currentpoint cairo_store_point
} bind def
/cairo_selectfont { cairo_font_matrix aload pop pop pop 0 0 6 array astore
    cairo_font exch selectfont cairo_point_x cairo_point_y moveto } bind def
/Tf { pop /cairo_font exch def /cairo_font_matrix where
      { pop cairo_selectfont } if } bind def
/Td { matrix translate cairo_font_matrix matrix concatmatrix dup
      /cairo_font_matrix exch def dup 4 get exch 5 get cairo_store_point
      /cairo_font where { pop cairo_selectfont } if } bind def
/Tm { 2 copy 8 2 roll 6 array astore /cairo_font_matrix exch def
      cairo_store_point /cairo_font where { pop cairo_selectfont } if } bind def
/g { setgray } bind def
/rg { setrgbcolor } bind def
/d1 { setcachedevice } bind def
/cairo_data_source {
  CairoDataIndex CairoData length lt
    { CairoData CairoDataIndex get /CairoDataIndex CairoDataIndex 1 add def }
    { () } ifelse
} def
/cairo_flush_ascii85_file { cairo_ascii85_file status { cairo_ascii85_file flushfile } if } def
/cairo_image { image cairo_flush_ascii85_file } def
/cairo_imagemask { imagemask cairo_flush_ascii85_file } def
%%EndProlog
%%BeginSetup
%%EndSetup
%%Page: 1 1
%%BeginPageSetup
%%PageBoundingBox: 18 18 366 366
%%EndPageSetup
q 18 18 348 348 rectclip
1 0 0 -1 0 384 cm q
0.988235 0.654902 0.0745098 rg
366 192 m 366 288.098 288.098 366 192 366 c 95.902 366 18 288.098 18 192
 c 18 95.902 95.902 18 192 18 c 288.098 18 366 95.902 366 192 c h
366 192 m f
0.945098 0.552941 0 rg
342 204 m 342 280.215 280.215 342 204 342 c 127.785 342 66 280.215 66 204
 c 66 127.785 127.785 66 204 66 c 280.215 66 342 127.785 342 204 c h
342 204 m f
0.992157 0.713726 0.184314 rg
330 192 m 330 268.215 268.215 330 192 330 c 115.785 330 54 268.215 54 192
 c 54 115.785 115.785 54 192 54 c 268.215 54 330 115.785 330 192 c h
330 192 m f
330 192 m 330 268.215 268.215 330 192 330 c 115.785 330 54 268.215 54 192
 c 54 115.785 115.785 54 192 54 c 268.215 54 330 115.785 330 192 c h
330 192 m f
0.988235 0.654902 0.0745098 rg
66 204 m 65.996 149.727 97.809 100.488 147.289 78.188 c 196.77 55.887 254.73
 64.66 295.391 100.609 c 270.176 72.082 234.297 55.238 196.242 54.066 c 
158.188 52.895 121.34 67.496 94.418 94.418 c 67.496 121.34 52.895 158.188
 54.066 196.242 c 55.238 234.297 72.082 270.176 100.609 295.391 c 78.27 
270.195 65.953 237.676 66 204 c h
66 204 m f
0.878431 0.384314 0.141176 rg
168 126 12 18 re f
192 126 12 18 re f
168 240 12 18 re f
192 240 12 18 re f
0.956863 0.419608 0.152941 rg
198 246 m 156 246 l 152.688 246 150 243.312 150 240 c 150 144 l 150 140.688
 152.688 138 156 138 c 198 138 l 216.711 138 226.5 153.09 226.5 168 c 226.605
 175.391 224.121 182.586 219.484 188.34 c 218.375 189.676 217.141 190.902
 215.793 192 c 222.867 197.766 226.5 206.918 226.5 216 c 226.5 230.91 216.711
 246 198 246 c h
162 234 m 198 234 l 203.184 234 207.312 232.203 210.266 228.66 c 213.086
 225.051 214.582 220.582 214.5 216 c 214.5 209.316 211.027 198 198 198 c
 162 198 l h
162 186 m 198 186 l 203.184 186 207.312 184.203 210.266 180.66 c 213.086
 177.051 214.582 172.582 214.5 168 c 214.5 161.316 211.027 150 198 150 c
 162 150 l h
162 186 m f
0.976471 0.521569 0 rg
104.488 152.477 m 93.555 147.523 l 96.215 141.648 99.398 136.023 103.062
 130.715 c 112.938 137.535 l 109.68 142.25 106.852 147.254 104.488 152.477
 c h
104.488 152.477 m f
0.992157 0.482353 0.184314 rg
287.344 180.699 m 283.008 144.148 258.156 113.293 223.371 101.27 c 188.582
 89.242 149.984 98.164 124.004 124.238 c 115.5 115.762 l 144.734 86.434 
188.16 76.398 227.297 89.93 c 266.434 103.461 294.391 138.18 299.262 179.301
 c h
287.344 180.699 m f
0.976471 0.521569 0 rg
280.938 253.285 m 271.062 246.465 l 274.32 241.75 277.148 236.746 279.512
 231.523 c 290.445 236.477 l 287.785 242.352 284.602 247.977 280.938 253.285
 c h
280.938 253.285 m f
0.992157 0.482353 0.184314 rg
192 300 m 137.254 300.027 91.152 259.066 84.738 204.699 c 96.656 203.301
 l 100.984 239.793 125.766 270.613 160.477 282.68 c 195.184 294.742 233.738
 285.938 259.766 259.996 c 268.238 268.5 l 248.035 288.738 220.594 300.074
 192 300 c h
192 300 m f
0.878431 0.384314 0.141176 rg
294 210 m 286.719 210 280.156 205.613 277.371 198.887 c 274.586 192.164
 276.125 184.422 281.273 179.273 c 286.422 174.125 294.164 172.586 300.887
 175.371 c 307.613 178.156 312 184.719 312 192 c 311.988 201.938 303.938
 209.988 294 210 c h
294 186 m 291.574 186 289.387 187.461 288.457 189.703 c 287.527 191.945
 288.043 194.527 289.758 196.242 c 291.473 197.957 294.055 198.473 296.297
 197.543 c 298.539 196.613 300 194.426 300 192 c 299.996 188.688 297.312
 186.004 294 186 c h
294 186 m f
90 210 m 82.719 210 76.156 205.613 73.371 198.887 c 70.586 192.164 72.125
 184.422 77.273 179.273 c 82.422 174.125 90.164 172.586 96.887 175.371 c
 103.613 178.156 108 184.719 108 192 c 107.988 201.938 99.938 209.988 90
 210 c h
90 186 m 87.574 186 85.387 187.461 84.457 189.703 c 83.527 191.945 84.043
 194.527 85.758 196.242 c 87.473 197.957 90.055 198.473 92.297 197.543 c
 94.539 196.613 96 194.426 96 192 c 95.996 188.688 93.312 186.004 90 186
 c h
90 186 m f
186 36 12 18 re f
210.102 55.016 m 213.23 37.285 l 225.051 39.375 l 221.922 57.105 l h
210.102 55.016 m f
233.5 60.156 m 239.656 43.23 l 250.938 47.336 l 244.781 64.258 l h
233.5 60.156 m f
255.82 69.512 m 264.82 53.926 l 275.215 59.926 l 266.215 75.512 l h
255.82 69.512 m f
276.199 82.508 m 287.773 68.719 l 296.965 76.434 l 285.391 90.223 l h
276.199 82.508 m f
293.84 98.57 m 307.629 86.996 l 315.344 96.188 l 301.555 107.762 l h
293.84 98.57 m f
308.496 117.77 m 324.086 108.77 l 330.086 119.164 l 314.5 128.164 l h
308.496 117.77 m f
319.727 139.105 m 336.648 132.949 l 340.754 144.23 l 323.832 150.387 l 
h
319.727 139.105 m f
326.961 162.102 m 344.691 158.969 l 346.781 170.789 l 329.051 173.922 l
 h
326.961 162.102 m f
330 186 18 12 re f
327.016 221.879 m 329.102 210.059 l 346.836 213.191 l 344.746 225.012 l
 h
327.016 221.879 m f
319.711 244.762 m 323.812 233.48 l 340.734 239.637 l 336.629 250.918 l 
h
319.711 244.762 m f
308.496 266.176 m 314.496 255.781 l 330.082 264.781 l 324.082 275.176 l
 h
308.496 266.176 m f
293.906 285.352 m 301.625 276.16 l 315.414 287.734 l 307.695 296.93 l h
293.906 285.352 m f
276.156 301.516 m 285.352 293.797 l 296.926 307.586 l 287.73 315.305 l 
h
276.156 301.516 m f
255.801 314.5 m 266.195 308.496 l 275.195 324.086 l 264.801 330.086 l h
255.801 314.5 m f
233.602 323.871 m 244.879 319.77 l 251.035 336.688 l 239.758 340.793 l 
h
233.602 323.871 m f
210.211 328.934 m 222.031 326.848 l 225.164 344.578 l 213.34 346.668 l 
h
210.211 328.934 m f
186.004 330 12 18 re f
159 344.457 m 162.113 326.727 l 173.934 328.805 l 170.82 346.531 l h
159 344.457 m f
133.109 336.598 m 139.266 319.68 l 150.547 323.785 l 144.395 340.703 l 
h
133.109 336.598 m f
108.793 324.137 m 117.793 308.547 l 128.188 314.551 l 119.188 330.137 l
 h
108.793 324.137 m f
87.113 307.777 m 98.688 293.988 l 107.879 301.703 l 96.305 315.492 l h
87.113 307.777 m f
68.734 287.605 m 82.523 276.031 l 90.238 285.223 l 76.453 296.797 l h
68.734 287.605 m f
53.918 264.781 m 69.504 255.781 l 75.508 266.176 l 59.922 275.176 l h
53.918 264.781 m f
43.43 239.754 m 60.348 233.598 l 64.453 244.879 l 47.531 251.035 l h
43.43 239.754 m f
37.375 213.227 m 55.105 210.094 l 57.195 221.914 l 39.465 225.047 l h
37.375 213.227 m f
36 186.004 18 12 re f
37.371 170.867 m 39.461 159.047 l 57.188 162.176 l 55.102 174 l h
37.371 170.867 m f
43.395 144.277 m 47.5 132.996 l 64.418 139.148 l 60.312 150.434 l h
43.395 144.277 m f
53.895 119.203 m 59.895 108.809 l 75.484 117.809 l 69.48 128.203 l h
53.895 119.203 m f
68.648 96.344 m 76.367 87.152 l 90.152 98.727 l 82.438 107.918 l h
68.648 96.344 m f
87.133 76.355 m 96.328 68.637 l 107.902 82.426 l 98.707 90.141 l h
87.133 76.355 m f
108.797 59.918 m 119.188 53.918 l 128.188 69.508 l 117.797 75.508 l h
108.797 59.918 m f
133.043 47.496 m 144.32 43.395 l 150.477 60.312 l 139.199 64.418 l h
133.043 47.496 m f
159.043 39.363 m 170.863 37.277 l 173.992 55.008 l 162.172 57.094 l h
159.043 39.363 m f
0.992157 0.482353 0.184314 rg
192 336 m 112.598 336 48 271.402 48 192 c 48 112.598 112.598 48 192 48 
c 271.402 48 336 112.598 336 192 c 336 271.402 271.402 336 192 336 c h
192 60 m 119.215 60 60 119.215 60 192 c 60 264.785 119.215 324 192 324 
c 264.785 324 324 264.785 324 192 c 324 119.215 264.785 60 192 60 c h
192 60 m f
Q Q
showpage
%%Trailer
end
%%EOF
