%!PS-Adobe-3.0 EPSF-3.0
%%Creator: cairo 1.16.0 (https://cairographics.org)
%%CreationDate: Mon Dec 23 07:44:03 2019
%%Pages: 1
%%DocumentData: Clean7Bit
%%LanguageLevel: 2
%%BoundingBox: 12 24 372 372
%%EndComments
%%BeginProlog
50 dict begin
/q { gsave } bind def
/Q { grestore } bind def
/cm { 6 array astore concat } bind def
/w { setlinewidth } bind def
/J { setlinecap } bind def
/j { setlinejoin } bind def
/M { setmiterlimit } bind def
/d { setdash } bind def
/m { moveto } bind def
/l { lineto } bind def
/c { curveto } bind def
/h { closepath } bind def
/re { exch dup neg 3 1 roll 5 3 roll moveto 0 rlineto
      0 exch rlineto 0 rlineto closepath } bind def
/S { stroke } bind def
/f { fill } bind def
/f* { eofill } bind def
/n { newpath } bind def
/W { clip } bind def
/W* { eoclip } bind def
/BT { } bind def
/ET { } bind def
/BDC { mark 3 1 roll /BDC pdfmark } bind def
/EMC { mark /EMC pdfmark } bind def
/cairo_store_point { /cairo_point_y exch def /cairo_point_x exch def } def
/Tj { show currentpoint cairo_store_point } bind def
/TJ {
  {
    dup
    type /stringtype eq
    { show } { -0.001 mul 0 cairo_font_matrix dtransform rmoveto } ifelse
  } forall
  currentpoint cairo_store_point
} bind def
/cairo_selectfont { cairo_font_matrix aload pop pop pop 0 0 6 array astore
    cairo_font exch selectfont cairo_point_x cairo_point_y moveto } bind def
/Tf { pop /cairo_font exch def /cairo_font_matrix where
      { pop cairo_selectfont } if } bind def
/Td { matrix translate cairo_font_matrix matrix concatmatrix dup
      /cairo_font_matrix exch def dup 4 get exch 5 get cairo_store_point
      /cairo_font where { pop cairo_selectfont } if } bind def
/Tm { 2 copy 8 2 roll 6 array astore /cairo_font_matrix exch def
      cairo_store_point /cairo_font where { pop cairo_selectfont } if } bind def
/g { setgray } bind def
/rg { setrgbcolor } bind def
/d1 { setcachedevice } bind def
/cairo_data_source {
  CairoDataIndex CairoData length lt
    { CairoData CairoDataIndex get /CairoDataIndex CairoDataIndex 1 add def }
    { () } ifelse
} def
/cairo_flush_ascii85_file { cairo_ascii85_file status { cairo_ascii85_file flushfile } if } def
/cairo_image { image cairo_flush_ascii85_file } def
/cairo_imagemask { imagemask cairo_flush_ascii85_file } def
%%EndProlog
%%BeginSetup
%%EndSetup
%%Page: 1 1
%%BeginPageSetup
%%PageBoundingBox: 12 24 372 372
%%EndPageSetup
q 12 24 360 348 rectclip
1 0 0 -1 0 384 cm q
0.917647 0.290196 0.231373 rg
258 312.363 m 246 300 l 246 258 l 149.637 258 l 252 360 l 306 360 l h
258 312.363 m f
0.839216 0.172549 0.133333 rg
246 270 m 161.641 270 l 149.641 258 l 246 258 l h
246 270 m f
251.82 306 m 197.641 306 l 185.641 294 l 246 294 l 246 300 l h
251.82 306 m f
0.741176 0.203922 0.152941 rg
257.648 312 m 246 300 l 246 258 l 149.641 258 l 161.641 270 l 226.262 270
 l 226.262 281.273 l 226.262 285.664 227.207 290.004 229.027 294 c 185.641
 294 l 197.641 306 l 238.75 306 l 244.031 309.898 250.422 312 256.988 312
 c h
257.648 312 m f
0.917647 0.290196 0.231373 rg
234 252 m 234 281.273 l 234 289.422 237.238 297.238 243 303 c 248.762 308.762
 256.578 312 264.727 312 c 281.273 312 l 289.422 312 297.238 308.762 303
 303 c 308.762 297.238 312 289.422 312 281.273 c 312 252 l h
234 252 m f
0.811765 0.231373 0.180392 rg
234 258 m 234 270 l 300 270 l 304.066 269.977 308.109 269.359 312 268.172
 c 312 255.402 l 308.223 257.094 304.137 257.98 300 258 c h
234 258 m f
0.992157 0.713726 0.184314 rg
186 12 12 24 re f
264.82 53.922 m 276.82 33.141 l 287.215 39.141 l 275.215 59.926 l h
264.82 53.922 m f
324.082 108.77 m 344.871 96.77 l 350.871 107.164 l 330.086 119.164 l h
324.082 108.77 m f
348 186 24 12 re f
12 186 24 12 re f
33.109 107.203 m 39.113 96.809 l 59.898 108.809 l 53.895 119.203 l h
33.109 107.203 m f
96.801 39.121 m 107.195 33.121 l 119.195 53.902 l 108.801 59.902 l h
96.801 39.121 m f
0.917647 0.290196 0.231373 rg
330 220.418 m 330 228 l 330 244.566 316.566 258 300 258 c 84 258 l 67.434
 257.992 54.008 244.566 54 228 c 54 212.453 l 54 187.445 61.812 163.059 
76.352 142.711 c 78.105 140.25 l 96.664 114.266 124.812 96.75 156.324 91.582
 c 160.484 90.898 164.68 90.434 168.891 90.195 c 171.172 90.066 173.461 
90.004 175.754 90 c 203.488 90 l 239.266 89.996 273.18 105.961 295.973 133.539
 c 298.555 136.656 300.973 139.906 303.219 143.273 c 303.914 144.301 304.594
 145.344 305.25 146.398 c 311.762 156.816 l 316.316 164.125 320.082 171.895
 322.988 180 c 327.629 192.969 330 206.641 330 220.418 c h
330 220.418 m f
0.811765 0.231373 0.180392 rg
244.246 220.246 m 238.188 226.309 230.336 230.254 221.859 231.496 c 221.023
 241.547 216.586 250.961 209.363 258 c 180 258 l 195.234 257.98 208.043 
246.566 209.805 231.434 c 201.449 230.152 193.723 226.23 187.754 220.246
 c 196.246 211.754 l 207.16 222.652 224.84 222.652 235.754 211.754 c h
244.246 220.246 m f
266.227 180.262 m 281.184 199.555 279.48 226.957 262.246 244.246 c 248.488
 258 l 231.512 258 l 253.754 235.754 l 267.301 222.184 268.02 200.441 255.406
 186 c 170.633 186 l 161.289 197.094 161.988 213.496 172.246 223.754 c 163.754
 232.246 l 151.578 220.039 148.582 201.406 156.324 186 c 146.484 186 l 132
 200.484 l 132 237.516 l 152.488 258 l 135.512 258 l 123.391 245.879 l 107.898
 244.516 96.012 231.551 96 216 c 108 216 l 108.008 223.625 112.812 230.418
 120 232.965 c 120 198 l 120 196.41 120.629 194.883 121.754 193.754 c 147.512
 168 l 136.531 157.02 l 131.633 160.277 125.883 162.008 120 162 c 120 150
 l 129.938 149.988 137.988 141.938 138 132 c 150 132 l 150.008 137.883 148.277
 143.633 145.02 148.531 c 156 159.512 l 223.777 91.734 l 228.43 92.523 233.031
 93.594 237.555 94.934 c 206.488 126 l 208.246 127.754 l 217.199 136.734
 217.199 151.266 208.246 160.246 c 199.754 151.754 l 204.039 147.473 204.039
 140.527 199.754 136.246 c 198 134.488 l 158.488 174 l 236.379 174 l 232.613
 164.824 233.371 154.414 238.434 145.883 c 235.543 141.828 233.996 136.977
 234 132 c 246 132 l 246.008 138.625 251.375 143.992 258 144 c 258 156 l
 254.488 156.004 251.02 155.234 247.836 153.742 c 244.73 160.391 245.625
 168.223 250.148 174 c 255.512 174 l 295.973 133.539 l 298.555 136.656 300.973
 139.906 303.219 143.273 c h
266.227 180.262 m f
173.699 109.754 m 165.211 118.246 l 158.223 111.25 154.93 101.371 156.324
 91.582 c 160.484 90.898 164.68 90.434 168.891 90.195 c 166.73 97.102 168.582
 104.637 173.699 109.754 c h
173.699 109.754 m f
112.109 192.172 m 103.891 200.918 l 92.902 190.508 75.613 190.777 64.957
 201.523 c 54 212.488 l 54 212.453 l 54 206.309 54.469 200.176 55.41 194.109
 c 56.477 193.043 l 71.703 177.68 96.41 177.293 112.109 192.172 c h
112.109 192.172 m f
330 220.418 m 330 224.488 l 328.246 226.246 l 315.949 238.504 296.051 238.504
 283.754 226.246 c 292.246 217.754 l 299.844 225.344 312.156 225.344 319.754
 217.754 c 329.371 208.141 l 329.789 212.219 330 216.316 330 220.418 c h
330 220.418 m f
322.988 180 m 294 180 l 294 168 l 317.941 168 l 319.84 171.906 321.527 
175.91 322.988 180 c h
322.988 180 m f
Q Q
showpage
%%Trailer
end
%%EOF
