%!PS-Adobe-3.0 EPSF-3.0
%%Creator: cairo 1.16.0 (https://cairographics.org)
%%CreationDate: Mon Dec 23 07:44:03 2019
%%Pages: 1
%%DocumentData: Clean7Bit
%%LanguageLevel: 2
%%BoundingBox: 18 36 366 366
%%EndComments
%%BeginProlog
50 dict begin
/q { gsave } bind def
/Q { grestore } bind def
/cm { 6 array astore concat } bind def
/w { setlinewidth } bind def
/J { setlinecap } bind def
/j { setlinejoin } bind def
/M { setmiterlimit } bind def
/d { setdash } bind def
/m { moveto } bind def
/l { lineto } bind def
/c { curveto } bind def
/h { closepath } bind def
/re { exch dup neg 3 1 roll 5 3 roll moveto 0 rlineto
      0 exch rlineto 0 rlineto closepath } bind def
/S { stroke } bind def
/f { fill } bind def
/f* { eofill } bind def
/n { newpath } bind def
/W { clip } bind def
/W* { eoclip } bind def
/BT { } bind def
/ET { } bind def
/BDC { mark 3 1 roll /BDC pdfmark } bind def
/EMC { mark /EMC pdfmark } bind def
/cairo_store_point { /cairo_point_y exch def /cairo_point_x exch def } def
/Tj { show currentpoint cairo_store_point } bind def
/TJ {
  {
    dup
    type /stringtype eq
    { show } { -0.001 mul 0 cairo_font_matrix dtransform rmoveto } ifelse
  } forall
  currentpoint cairo_store_point
} bind def
/cairo_selectfont { cairo_font_matrix aload pop pop pop 0 0 6 array astore
    cairo_font exch selectfont cairo_point_x cairo_point_y moveto } bind def
/Tf { pop /cairo_font exch def /cairo_font_matrix where
      { pop cairo_selectfont } if } bind def
/Td { matrix translate cairo_font_matrix matrix concatmatrix dup
      /cairo_font_matrix exch def dup 4 get exch 5 get cairo_store_point
      /cairo_font where { pop cairo_selectfont } if } bind def
/Tm { 2 copy 8 2 roll 6 array astore /cairo_font_matrix exch def
      cairo_store_point /cairo_font where { pop cairo_selectfont } if } bind def
/g { setgray } bind def
/rg { setrgbcolor } bind def
/d1 { setcachedevice } bind def
/cairo_data_source {
  CairoDataIndex CairoData length lt
    { CairoData CairoDataIndex get /CairoDataIndex CairoDataIndex 1 add def }
    { () } ifelse
} def
/cairo_flush_ascii85_file { cairo_ascii85_file status { cairo_ascii85_file flushfile } if } def
/cairo_image { image cairo_flush_ascii85_file } def
/cairo_imagemask { imagemask cairo_flush_ascii85_file } def
%%EndProlog
%%BeginSetup
%%EndSetup
%%Page: 1 1
%%BeginPageSetup
%%PageBoundingBox: 18 36 366 366
%%EndPageSetup
q 18 36 348 330 rectclip
1 0 0 -1 0 384 cm q
0.878431 0.25098 0.219608 rg
234 264 m 168 264 l 156 252 l 234 252 l h
234 264 m f
234 276 m 234 288 l 192 288 l 180 276 l h
234 276 m f
0.917647 0.290196 0.231373 rg
156 252 m 228 324 l 270 324 l 234 288 l 234 252 l h
156 252 m f
0.741176 0.203922 0.152941 rg
239.848 293.848 m 234 288 l 234 252 l 156 252 l 168 264 l 210.137 264 l
 210.512 268.184 211.688 272.258 213.602 276 c 180 276 l 192 288 l 224.035
 288 l 228.707 291.293 234.156 293.309 239.848 293.848 c h
239.848 293.848 m f
0.917647 0.290196 0.231373 rg
216 240 m 216 261 l 216 279.227 230.773 294 249 294 c 267.227 294 282 279.227
 282 261 c 282 240 l h
216 240 m f
0.811765 0.231373 0.180392 rg
252.59 264 m 262.91 264.027 273.055 261.332 282 256.191 c 282 241.777 l
 273.648 248.434 263.273 252.039 252.59 252 c 216 252 l 216 261 l 216 262.012
 216.062 263.012 216.152 264 c h
252.59 264 m f
0.917647 0.290196 0.231373 rg
300 207.938 m 300 208.5 l 300 232.523 280.523 252 256.5 252 c 115.5 252
 l 103.961 252.008 92.891 247.426 84.73 239.27 c 76.574 231.109 71.992 220.039
 72 208.5 c 72 198.164 l 72.004 186.32 75.512 174.742 82.078 164.887 c 84.871
 160.695 l 106.645 128.02 143.215 108.277 182.484 108.008 c 182.766 108 
183.047 108 183.328 108 c 216.641 107.996 248.414 122.039 270.832 146.676
 c 273.543 149.648 276.102 152.762 278.488 156 c 281.242 159.723 283.773
 163.605 286.074 167.625 c 292.094 178.164 l 297.277 187.23 300 197.492 
300 207.938 c h
300 207.938 m f
0.811765 0.231373 0.180392 rg
172.246 118.246 m 167.961 122.527 167.961 129.473 172.246 133.754 c 163.754
 142.246 l 154.801 133.266 154.801 118.734 163.754 109.754 c 163.906 109.605
 l 170.047 108.582 176.258 108.047 182.484 108.008 c h
172.246 118.246 m f
203.461 222.961 m 207.074 232.656 205.707 243.508 199.801 252 c 183.512
 252 l 187.754 247.754 l 194.613 240.895 195.367 230.027 189.523 222.285
 c 184.316 220.84 179.574 218.07 175.754 214.246 c 184.246 205.754 l 191.844
 213.344 204.156 213.344 211.754 205.754 c 220.246 214.246 l 215.684 218.812
 209.82 221.859 203.461 222.961 c h
203.461 222.961 m f
280.246 199.754 m 271.754 208.246 l 267.473 203.961 260.527 203.961 256.246
 208.246 c 255.891 208.598 l 256.301 219.668 252.082 230.41 244.246 238.246
 c 230.488 252 l 213.512 252 l 235.754 229.754 l 241.527 223.984 244.484
 215.977 243.84 207.84 c 243.324 204.188 l 242.379 199.695 240.332 195.508
 237.375 192 c 147.172 192 l 138 200.602 l 138 225.516 l 164.484 252 l 147.512
 252 l 129.512 234 l 126 234 l 112.754 233.984 102.016 223.246 102 210 c
 114 210 l 114.008 216.625 119.375 221.992 126 222 c 126 198 l 126.004 196.34
 126.688 194.758 127.898 193.621 c 141.953 180.441 l 130.531 169.02 l 125.633
 172.277 119.883 174.008 114 174 c 114 162 l 123.938 161.988 131.988 153.938
 132 144 c 144 144 l 144.008 149.883 142.277 155.633 139.02 160.531 c 150.719
 172.23 l 214.711 112.238 l 219.09 113.441 223.398 114.895 227.609 116.594
 c 199.141 143.289 l 205.188 152.398 203.977 164.512 196.246 172.246 c 187.754
 163.754 l 190.91 160.605 191.84 155.855 190.109 151.746 c 159.977 180 l
 214.418 180 l 210.133 172.984 209.914 164.219 213.84 156.996 c 211.328 
153.129 209.996 148.613 210 144 c 222 144 l 222.008 150.625 227.375 155.992
 234 156 c 234 168 l 230.297 168.008 226.641 167.145 223.328 165.488 c 222.453
 169.184 223.559 173.07 226.246 175.754 c 230.488 180 l 237.512 180 l 270.832
 146.676 l 273.543 149.648 276.102 152.762 278.488 156 c 248.168 186.324
 l 250.293 189.191 252.012 192.34 253.281 195.676 c 262.195 190.996 273.113
 192.648 280.246 199.754 c h
280.246 199.754 m f
106.246 187.754 m 97.754 196.246 l 93.473 191.961 86.527 191.961 82.246
 196.246 c 72 206.488 l 72 198.164 l 72 195.02 72.246 191.875 72.742 188.766
 c 73.754 187.754 l 82.734 178.801 97.266 178.801 106.246 187.754 c h
106.246 187.754 m f
0.301961 0.717647 0.898039 rg
54 108 m 96 150 l 96 108 l 114 108 l 114 36 l 18 36 l 18 108 l h
54 108 m f
0.203922 0.560784 0.85098 rg
48 54 48 12 re f
36 78 42 12 re f
0.301961 0.717647 0.898039 rg
318 276 m 276 234 l 276 276 l 258 276 l 258 348 l 366 348 l 366 276 l h
318 276 m f
0.203922 0.560784 0.85098 rg
276 318 60 12 re f
294 294 54 12 re f
0.301961 0.717647 0.898039 rg
306 114 m 270 150 l 270 114 l 252 114 l 252 18 l 366 18 l 366 114 l h
306 114 m f
0.203922 0.560784 0.85098 rg
282 36 66 12 re f
270 60 78 12 re f
270 84 54 12 re f
0.301961 0.717647 0.898039 rg
54 276 m 96 234 l 96 276 l 132 276 l 132 348 l 18 348 l 18 276 l h
54 276 m f
0.203922 0.560784 0.85098 rg
36 318 54 12 re f
48 294 66 12 re f
Q Q
showpage
%%Trailer
end
%%EOF
