%!PS-Adobe-3.0 EPSF-3.0
%%Creator: cairo 1.16.0 (https://cairographics.org)
%%CreationDate: Mon Dec 23 07:44:03 2019
%%Pages: 1
%%DocumentData: Clean7Bit
%%LanguageLevel: 2
%%BoundingBox: 14 90 372 300
%%EndComments
%%BeginProlog
50 dict begin
/q { gsave } bind def
/Q { grestore } bind def
/cm { 6 array astore concat } bind def
/w { setlinewidth } bind def
/J { setlinecap } bind def
/j { setlinejoin } bind def
/M { setmiterlimit } bind def
/d { setdash } bind def
/m { moveto } bind def
/l { lineto } bind def
/c { curveto } bind def
/h { closepath } bind def
/re { exch dup neg 3 1 roll 5 3 roll moveto 0 rlineto
      0 exch rlineto 0 rlineto closepath } bind def
/S { stroke } bind def
/f { fill } bind def
/f* { eofill } bind def
/n { newpath } bind def
/W { clip } bind def
/W* { eoclip } bind def
/BT { } bind def
/ET { } bind def
/BDC { mark 3 1 roll /BDC pdfmark } bind def
/EMC { mark /EMC pdfmark } bind def
/cairo_store_point { /cairo_point_y exch def /cairo_point_x exch def } def
/Tj { show currentpoint cairo_store_point } bind def
/TJ {
  {
    dup
    type /stringtype eq
    { show } { -0.001 mul 0 cairo_font_matrix dtransform rmoveto } ifelse
  } forall
  currentpoint cairo_store_point
} bind def
/cairo_selectfont { cairo_font_matrix aload pop pop pop 0 0 6 array astore
    cairo_font exch selectfont cairo_point_x cairo_point_y moveto } bind def
/Tf { pop /cairo_font exch def /cairo_font_matrix where
      { pop cairo_selectfont } if } bind def
/Td { matrix translate cairo_font_matrix matrix concatmatrix dup
      /cairo_font_matrix exch def dup 4 get exch 5 get cairo_store_point
      /cairo_font where { pop cairo_selectfont } if } bind def
/Tm { 2 copy 8 2 roll 6 array astore /cairo_font_matrix exch def
      cairo_store_point /cairo_font where { pop cairo_selectfont } if } bind def
/g { setgray } bind def
/rg { setrgbcolor } bind def
/d1 { setcachedevice } bind def
/cairo_data_source {
  CairoDataIndex CairoData length lt
    { CairoData CairoDataIndex get /CairoDataIndex CairoDataIndex 1 add def }
    { () } ifelse
} def
/cairo_flush_ascii85_file { cairo_ascii85_file status { cairo_ascii85_file flushfile } if } def
/cairo_image { image cairo_flush_ascii85_file } def
/cairo_imagemask { imagemask cairo_flush_ascii85_file } def
%%EndProlog
%%BeginSetup
%%EndSetup
%%Page: 1 1
%%BeginPageSetup
%%PageBoundingBox: 14 90 372 300
%%EndPageSetup
q 14 90 358 210 rectclip
1 0 0 -1 0 384 cm q
0.811765 0.231373 0.180392 rg
39.203 182.543 m 31.574 182.559 24.145 180.098 18.035 175.527 c 14.398 
172.801 l 21.602 163.199 l 25.234 165.926 l 34.547 172.848 47.52 171.926
 55.758 163.758 c 64.242 172.242 l 57.594 178.863 48.586 182.566 39.203 
182.543 c h
39.203 182.543 m f
372 222 m 342 222 l 340.41 222 338.883 221.367 337.758 220.242 c 336.633
 219.117 336 217.59 336 216 c 336 147.941 l 336 140.66 331.613 134.098 324.887
 131.312 c 318.164 128.523 310.422 130.066 305.273 135.215 c 292.242 148.242
 l 283.758 139.758 l 296.785 126.727 l 305.367 118.148 318.27 115.582 329.48
 120.227 c 340.691 124.867 348 135.809 348 147.941 c 348 210 l 372 210 l
 h
372 222 m f
0.952941 0.321569 0.266667 rg
84 234 m 66 234 l 48 192 l 48 180 l 48 126.98 90.98 84 144 84 c 259.98 
84 354 178.02 354 294 c 312 294 l 312 285 l 312 269.086 305.68 253.824 294.426
 242.574 c 283.176 231.32 267.914 225 252 225 c 252 294 l 210 294 l 210 
282 l 210 270.859 205.574 260.18 197.699 252.301 c 189.82 244.426 179.141
 240 168 240 c 144.805 240 126 258.805 126 282 c 126 294 l 84 294 l h
84 234 m f
0.917647 0.290196 0.231373 rg
264 186 m 252 186 l 252 225 l 256.031 225 260.051 225.402 264 226.203 c
 h
264 186 m f
0.811765 0.231373 0.180392 rg
93.203 182.543 m 85.574 182.559 78.145 180.098 72.035 175.527 c 68.398 
172.801 l 75.602 163.199 l 79.234 165.926 l 88.547 172.848 101.52 171.926
 109.758 163.758 c 118.242 172.242 l 111.594 178.863 102.586 182.566 93.203
 182.543 c h
93.203 182.543 m f
0.917647 0.290196 0.231373 rg
175.758 187.758 m 157.758 205.758 l 149.941 213.555 138.266 216.027 127.961
 212.066 c 138.559 180.277 l 139.273 178.121 138.715 175.742 137.105 174.137
 c 122.453 159.48 l 121.328 158.355 119.801 157.723 118.211 157.723 c 118.188
 157.723 l 116.586 157.73 115.055 158.375 113.934 159.516 c 109.723 163.789
 l 113.988 167.988 l 126 180 l 108 234 l 84 234 l 84 246 l 112.324 246 l
 114.906 246 117.199 244.348 118.016 241.898 c 124.16 223.461 l 138.789 
228.84 155.207 225.242 166.242 214.242 c 184.242 196.242 l h
175.758 187.758 m f
Q Q
showpage
%%Trailer
end
%%EOF
