%!PS-Adobe-3.0 EPSF-3.0
%%Creator: cairo 1.16.0 (https://cairographics.org)
%%CreationDate: Mon Dec 23 07:44:04 2019
%%Pages: 1
%%DocumentData: Clean7Bit
%%LanguageLevel: 2
%%BoundingBox: 18 18 366 366
%%EndComments
%%BeginProlog
50 dict begin
/q { gsave } bind def
/Q { grestore } bind def
/cm { 6 array astore concat } bind def
/w { setlinewidth } bind def
/J { setlinecap } bind def
/j { setlinejoin } bind def
/M { setmiterlimit } bind def
/d { setdash } bind def
/m { moveto } bind def
/l { lineto } bind def
/c { curveto } bind def
/h { closepath } bind def
/re { exch dup neg 3 1 roll 5 3 roll moveto 0 rlineto
      0 exch rlineto 0 rlineto closepath } bind def
/S { stroke } bind def
/f { fill } bind def
/f* { eofill } bind def
/n { newpath } bind def
/W { clip } bind def
/W* { eoclip } bind def
/BT { } bind def
/ET { } bind def
/BDC { mark 3 1 roll /BDC pdfmark } bind def
/EMC { mark /EMC pdfmark } bind def
/cairo_store_point { /cairo_point_y exch def /cairo_point_x exch def } def
/Tj { show currentpoint cairo_store_point } bind def
/TJ {
  {
    dup
    type /stringtype eq
    { show } { -0.001 mul 0 cairo_font_matrix dtransform rmoveto } ifelse
  } forall
  currentpoint cairo_store_point
} bind def
/cairo_selectfont { cairo_font_matrix aload pop pop pop 0 0 6 array astore
    cairo_font exch selectfont cairo_point_x cairo_point_y moveto } bind def
/Tf { pop /cairo_font exch def /cairo_font_matrix where
      { pop cairo_selectfont } if } bind def
/Td { matrix translate cairo_font_matrix matrix concatmatrix dup
      /cairo_font_matrix exch def dup 4 get exch 5 get cairo_store_point
      /cairo_font where { pop cairo_selectfont } if } bind def
/Tm { 2 copy 8 2 roll 6 array astore /cairo_font_matrix exch def
      cairo_store_point /cairo_font where { pop cairo_selectfont } if } bind def
/g { setgray } bind def
/rg { setrgbcolor } bind def
/d1 { setcachedevice } bind def
/cairo_data_source {
  CairoDataIndex CairoData length lt
    { CairoData CairoDataIndex get /CairoDataIndex CairoDataIndex 1 add def }
    { () } ifelse
} def
/cairo_flush_ascii85_file { cairo_ascii85_file status { cairo_ascii85_file flushfile } if } def
/cairo_image { image cairo_flush_ascii85_file } def
/cairo_imagemask { imagemask cairo_flush_ascii85_file } def
%%EndProlog
%%BeginSetup
%%EndSetup
%%Page: 1 1
%%BeginPageSetup
%%PageBoundingBox: 18 18 366 366
%%EndPageSetup
q 18 18 348 348 rectclip
1 0 0 -1 0 384 cm q
0.564706 0.807843 0.878431 rg
264 336 m 261.941 333.941 l 240.207 312.207 228 282.734 228 252 c 156 252
 l 156 282.734 143.793 312.207 122.059 333.941 c 120 336 l 120 366 l 264
 366 l h
264 336 m f
0.827451 0.854902 0.878431 rg
156 252 m 180 252 l 180 286.574 166.266 319.734 141.816 344.184 c 120 366
 l 120 336 l 122.062 333.938 l 143.793 312.207 156 282.734 156 252 c h
156 252 m f
264 336 m 264 366 l 242.184 344.184 l 217.734 319.734 204 286.574 204 252
 c 228 252 l 228 282.73 240.207 312.207 261.938 333.938 c h
264 336 m f
0.486275 0.717647 0.882353 rg
180 252 m 180 286.574 166.266 319.734 141.816 344.184 c 120 366 l 120 336
 l 122.062 333.938 l 143.793 312.207 156 282.734 156 252 c h
180 252 m f
264 336 m 264 366 l 242.184 344.184 l 217.734 319.734 204 286.574 204 252
 c 228 252 l 228 282.73 240.207 312.207 261.938 333.938 c h
264 336 m f
312 312 m 297.68 312 283.941 317.688 273.816 327.816 c 263.688 337.941 
258 351.68 258 366 c 366 366 l 366 351.68 360.312 337.941 350.184 327.816
 c 340.059 317.688 326.32 312 312 312 c h
312 312 m f
0.564706 0.807843 0.878431 rg
306.184 344.539 m 291.047 347.754 277.508 343.348 275.953 334.707 c 274.398
 326.062 285.41 316.457 300.547 313.242 c 303.547 312.598 306.605 312.25
 309.672 312.203 c 314.445 312.289 319.164 313.191 323.633 314.867 c 327.535
 316.742 330.148 319.559 330.785 323.078 c 332.336 331.719 321.32 341.332
 306.184 344.539 c h
306.184 344.539 m f
0.486275 0.717647 0.882353 rg
276 330 m 266.453 330 257.297 333.793 250.543 340.543 c 243.793 347.297
 240 356.453 240 366 c 312 366 l 312 356.453 308.207 347.297 301.457 340.543
 c 294.703 333.793 285.547 330 276 330 c h
276 330 m f
0.564706 0.807843 0.878431 rg
271.992 354.242 m 261.57 357.113 251.727 354.367 250.008 348.117 c 248.766
 343.625 252.062 338.539 257.891 334.961 c 260.34 333.48 262.984 332.348
 265.75 331.598 c 276.172 328.727 286.016 331.465 287.742 337.723 c 289.461
 343.973 282.41 351.367 271.992 354.242 c h
271.992 354.242 m f
0.486275 0.717647 0.882353 rg
275.398 366 m 272.547 352.031 260.258 342 246 342 c 231.742 342 219.453
 352.031 216.602 366 c h
275.398 366 m f
0.564706 0.807843 0.878431 rg
242.109 359.617 m 234.344 362.836 226.363 362.043 224.277 357.844 c 222.543
 354.332 225.477 349.555 231.02 346.203 c 231.184 346.105 231.348 346.008
 231.52 345.914 c 231.684 345.824 231.855 345.73 232.02 345.641 c 236.543
 343.254 241.66 342.223 246.758 342.672 c 249.434 343.148 251.492 344.336
 252.41 346.184 c 254.488 350.383 249.879 356.398 242.109 359.617 c h
242.109 359.617 m f
0.486275 0.717647 0.882353 rg
72 312 m 86.32 312 100.059 317.688 110.184 327.816 c 120.312 337.941 126
 351.68 126 366 c 18 366 l 18 351.68 23.688 337.941 33.816 327.816 c 43.941
 317.688 57.68 312 72 312 c h
72 312 m f
0.564706 0.807843 0.878431 rg
77.816 344.539 m 92.953 347.754 106.492 343.348 108.047 334.707 c 109.602
 326.062 98.59 316.457 83.453 313.242 c 80.453 312.598 77.395 312.25 74.328
 312.203 c 69.555 312.289 64.836 313.191 60.367 314.867 c 56.465 316.742
 53.852 319.559 53.215 323.078 c 51.664 331.719 62.68 341.332 77.816 344.539
 c h
77.816 344.539 m f
0.486275 0.717647 0.882353 rg
108 330 m 117.547 330 126.703 333.793 133.457 340.543 c 140.207 347.297
 144 356.453 144 366 c 72 366 l 72 356.453 75.793 347.297 82.543 340.543
 c 89.297 333.793 98.453 330 108 330 c h
108 330 m f
0.564706 0.807843 0.878431 rg
112.008 354.242 m 122.43 357.113 132.273 354.367 133.992 348.117 c 135.234
 343.625 131.938 338.539 126.109 334.961 c 123.66 333.48 121.016 332.348
 118.25 331.598 c 107.828 328.727 97.984 331.465 96.258 337.723 c 94.539
 343.973 101.59 351.367 112.008 354.242 c h
112.008 354.242 m f
0.486275 0.717647 0.882353 rg
108.602 366 m 111.453 352.031 123.742 342 138 342 c 152.258 342 164.547
 352.031 167.398 366 c h
108.602 366 m f
0.564706 0.807843 0.878431 rg
141.891 359.617 m 149.656 362.836 157.637 362.043 159.723 357.844 c 161.457
 354.332 158.523 349.555 152.98 346.203 c 152.816 346.105 152.652 346.008
 152.48 345.914 c 152.316 345.824 152.145 345.73 151.98 345.641 c 147.457
 343.254 142.34 342.223 137.242 342.672 c 134.566 343.148 132.508 344.336
 131.59 346.184 c 129.512 350.383 134.121 356.398 141.891 359.617 c h
141.891 359.617 m f
0.988235 0.654902 0.0745098 rg
162.004 252 m 154.516 270.719 156.969 291.953 168.531 308.469 c 192.004
 342 l 215.473 308.469 l 227.035 291.953 229.492 270.719 222.004 252 c h
162.004 252 m f
0.984314 0.407843 0.356863 rg
234 96.039 m 234 228 l 150 228 l 150 96.039 l 150 72.961 159.168 50.832
 175.484 34.516 c 192 18 l 208.523 34.516 l 224.836 50.832 234 72.965 234
 96.039 c h
234 96.039 m f
0.811765 0.231373 0.180392 rg
192.004 156 m 189.574 156 187.387 154.539 186.461 152.297 c 185.531 150.055
 186.043 147.473 187.762 145.758 c 189.477 144.043 192.059 143.527 194.301
 144.457 c 196.543 145.387 198.004 147.574 198.004 150 c 210.004 150 l 209.992
 142.375 205.188 135.582 198.004 133.031 c 198.004 120 l 186.004 120 l 186.004
 133.031 l 177.738 135.953 172.781 144.406 174.262 153.047 c 175.746 161.684
 183.238 168 192.004 168 c 194.43 168 196.617 169.461 197.547 171.703 c 
198.477 173.945 197.961 176.527 196.246 178.242 c 194.531 179.957 191.949
 180.473 189.707 179.543 c 187.465 178.613 186.004 176.426 186.004 174 c
 174.004 174 l 174.012 181.625 178.816 188.418 186.004 190.969 c 186.004
 204 l 198.004 204 l 198.004 190.969 l 206.27 188.047 211.227 179.594 209.742
 170.953 c 208.262 162.316 200.77 156 192.004 156 c h
192.004 156 m f
150 144 m 125.406 151.027 l 115.102 153.969 108 163.387 108 174.102 c 108
 192 l 150 192 l h
150 144 m f
0.729412 0.2 0.152941 rg
234 144 m 258.594 151.027 l 268.898 153.969 276 163.387 276 174.102 c 276
 192 l 234 192 l h
234 144 m f
0.811765 0.231373 0.180392 rg
144 228 m 240 228 l 246.629 228 252 233.371 252 240 c 252 252 l 132 252
 l 132 240 l 132 233.371 137.371 228 144 228 c h
144 228 m f
0.729412 0.2 0.152941 rg
240 228 m 216 228 l 222.629 228 228 233.371 228 240 c 228 252 l 252 252
 l 252 240 l 252 233.371 246.629 228 240 228 c h
240 228 m f
0.811765 0.231373 0.180392 rg
234 96 m 150 96 l 150.008 72.938 159.176 50.82 175.484 34.516 c 192 18 
l 208.523 34.516 l 224.828 50.824 233.992 72.938 234 96 c h
234 96 m f
0.917647 0.290196 0.231373 rg
234 96.039 m 234 228 l 216 228 l 216 96.039 l 216 72.965 206.836 50.832
 190.523 34.516 c 183 27 l 192 18 l 208.523 34.516 l 224.836 50.832 234 
72.965 234 96.039 c h
234 96.039 m f
0.811765 0.231373 0.180392 rg
234 96 m 150 96 l 150.008 72.938 159.176 50.82 175.484 34.516 c 192 18 
l 208.523 34.516 l 224.828 50.824 233.992 72.938 234 96 c h
234 96 m f
0.729412 0.2 0.152941 rg
234 96 m 216 96 l 215.992 72.938 206.828 50.824 190.523 34.516 c 183 27
 l 192 18 l 208.523 34.516 l 224.828 50.824 233.992 72.938 234 96 c h
234 96 m f
0.992157 0.713726 0.184314 rg
180.004 252 m 180.004 259.031 l 180.004 269.895 184.32 280.316 192.004 
288 c 199.688 280.316 204.004 269.895 204.004 259.031 c 204.004 252 l h
180.004 252 m f
Q Q
showpage
%%Trailer
end
%%EOF
