%!PS-Adobe-3.0 EPSF-3.0
%%Creator: cairo 1.16.0 (https://cairographics.org)
%%CreationDate: Mon Dec 23 07:44:04 2019
%%Pages: 1
%%DocumentData: Clean7Bit
%%LanguageLevel: 2
%%BoundingBox: 18 12 366 366
%%EndComments
%%BeginProlog
50 dict begin
/q { gsave } bind def
/Q { grestore } bind def
/cm { 6 array astore concat } bind def
/w { setlinewidth } bind def
/J { setlinecap } bind def
/j { setlinejoin } bind def
/M { setmiterlimit } bind def
/d { setdash } bind def
/m { moveto } bind def
/l { lineto } bind def
/c { curveto } bind def
/h { closepath } bind def
/re { exch dup neg 3 1 roll 5 3 roll moveto 0 rlineto
      0 exch rlineto 0 rlineto closepath } bind def
/S { stroke } bind def
/f { fill } bind def
/f* { eofill } bind def
/n { newpath } bind def
/W { clip } bind def
/W* { eoclip } bind def
/BT { } bind def
/ET { } bind def
/BDC { mark 3 1 roll /BDC pdfmark } bind def
/EMC { mark /EMC pdfmark } bind def
/cairo_store_point { /cairo_point_y exch def /cairo_point_x exch def } def
/Tj { show currentpoint cairo_store_point } bind def
/TJ {
  {
    dup
    type /stringtype eq
    { show } { -0.001 mul 0 cairo_font_matrix dtransform rmoveto } ifelse
  } forall
  currentpoint cairo_store_point
} bind def
/cairo_selectfont { cairo_font_matrix aload pop pop pop 0 0 6 array astore
    cairo_font exch selectfont cairo_point_x cairo_point_y moveto } bind def
/Tf { pop /cairo_font exch def /cairo_font_matrix where
      { pop cairo_selectfont } if } bind def
/Td { matrix translate cairo_font_matrix matrix concatmatrix dup
      /cairo_font_matrix exch def dup 4 get exch 5 get cairo_store_point
      /cairo_font where { pop cairo_selectfont } if } bind def
/Tm { 2 copy 8 2 roll 6 array astore /cairo_font_matrix exch def
      cairo_store_point /cairo_font where { pop cairo_selectfont } if } bind def
/g { setgray } bind def
/rg { setrgbcolor } bind def
/d1 { setcachedevice } bind def
/cairo_data_source {
  CairoDataIndex CairoData length lt
    { CairoData CairoDataIndex get /CairoDataIndex CairoDataIndex 1 add def }
    { () } ifelse
} def
/cairo_flush_ascii85_file { cairo_ascii85_file status { cairo_ascii85_file flushfile } if } def
/cairo_image { image cairo_flush_ascii85_file } def
/cairo_imagemask { imagemask cairo_flush_ascii85_file } def
%%EndProlog
%%BeginSetup
%%EndSetup
%%Page: 1 1
%%BeginPageSetup
%%PageBoundingBox: 18 12 366 366
%%EndPageSetup
q 18 12 348 354 rectclip
1 0 0 -1 0 384 cm q
0.411765 0.721569 0.741176 rg
18 18 192 294 re f
0.878431 0.878431 0.870588 rg
18 18 192 294 re f
0.741176 0.741176 0.729412 rg
168 96 m 168 125.824 143.824 150 114 150 c 84.176 150 60 125.824 60 96 
c 60 66.176 84.176 42 114 42 c 143.824 42 168 66.176 168 96 c h
168 96 m f
1 0.854902 0.823529 rg
102 78 m 126 78 l 126 96 l 126 102.629 120.629 108 114 108 c 107.371 108
 102 102.629 102 96 c h
102 78 m f
0.203922 0.560784 0.85098 rg
126 108 m 102 108 l 98.816 108 95.766 109.266 93.516 111.516 c 91.266 113.766
 90 116.816 90 120 c 90 144.32 l 105.105 151.895 122.895 151.895 138 144.32
 c 138 120 l 138 116.816 136.734 113.766 134.484 111.516 c 132.234 109.266
 129.184 108 126 108 c h
126 108 m f
0.992157 0.713726 0.184314 rg
96 174 m 96 177.312 93.312 180 90 180 c 86.688 180 84 177.312 84 174 c 
84 170.688 86.688 168 90 168 c 93.312 168 96 170.688 96 174 c h
96 174 m f
72 174 m 72 177.312 69.312 180 66 180 c 62.688 180 60 177.312 60 174 c 
60 170.688 62.688 168 66 168 c 69.312 168 72 170.688 72 174 c h
72 174 m f
120 174 m 120 177.312 117.312 180 114 180 c 110.688 180 108 177.312 108
 174 c 108 170.688 110.688 168 114 168 c 117.312 168 120 170.688 120 174
 c h
120 174 m f
144 174 m 144 177.312 141.312 180 138 180 c 134.688 180 132 177.312 132
 174 c 132 170.688 134.688 168 138 168 c 141.312 168 144 170.688 144 174
 c h
144 174 m f
168 174 m 168 177.312 165.312 180 162 180 c 158.688 180 156 177.312 156
 174 c 156 170.688 158.688 168 162 168 c 165.312 168 168 170.688 168 174
 c h
168 174 m f
0.741176 0.741176 0.729412 rg
108 192 12 102 re f
42 222 54 12 re f
42 252 36 12 re f
42 282 48 12 re f
132 222 54 12 re f
132 192 54 12 re f
42 191.617 54 12 re f
0.419608 0.25098 0.164706 rg
90 72 36 12 re f
0.301961 0.717647 0.898039 rg
366 372 m 366 269.699 l 366 250.684 358.445 232.445 345 219 c 331.555 205.555
 313.316 198 294.301 198 c 276 198 l 234 204 l 210.949 227.051 198 258.312
 198 290.91 c 198 372 l h
366 372 m f
1 0.854902 0.823529 rg
279.828 105.828 m 273.535 99.535 265 96 256.102 96 c 204 96 l 197.371 96
 192 101.371 192 108 c 192 114.629 197.371 120 204 120 c 192 162 l 204 162
 l 204 198 l 228 198 l 252 222 l 276 198 l 276 180 l 288.242 139.195 l 291.789
 127.375 288.559 114.559 279.828 105.828 c h
279.828 105.828 m f
0.419608 0.25098 0.164706 rg
279.828 105.828 m 273.535 99.535 265 96 256.102 96 c 204 96 l 197.371 96
 192 101.371 192 108 c 192 114.629 197.371 120 204 120 c 240 120 l 240 150
 l 252 138 l 264 150 l 260.457 160.629 264.465 172.312 273.785 178.523 c
 276 180 l 288.242 139.195 l 291.789 127.375 288.559 114.559 279.828 105.828
 c h
279.828 105.828 m f
1 0.623529 0.607843 rg
254.484 180 m 252.141 177.656 248.344 177.656 246 180 c 228 198 l 236.484
 206.484 l 254.484 188.484 l 256.828 186.141 256.828 182.344 254.484 180
 c h
254.484 180 m f
0.278431 0.635294 0.831373 rg
305.973 269.434 m 305.844 267.84 305.078 266.363 303.844 265.348 c 302.613
 264.328 301.02 263.852 299.434 264.027 c 297.848 264.18 296.387 264.953
 295.375 266.18 c 294.359 267.406 293.879 268.984 294.027 270.566 c 303.668
 372 l 315.715 372 l h
305.973 269.434 m f
0.176471 0.490196 0.74902 rg
264 246 m 264 210 l 252 222 l 240 210 l 240 246 l h
264 246 m f
0.203922 0.560784 0.85098 rg
240 246 m 240 278.258 l 240 296.73 241.312 315.18 243.922 333.465 c 246
 348 l 270 360 l 282 342 l 274.344 316.48 l 267.484 293.617 264 269.871 
264 246 c h
240 246 m f
Q Q
showpage
%%Trailer
end
%%EOF
