%!PS-Adobe-3.0 EPSF-3.0
%%Creator: cairo 1.16.0 (https://cairographics.org)
%%CreationDate: Mon Dec 23 07:44:04 2019
%%Pages: 1
%%DocumentData: Clean7Bit
%%LanguageLevel: 2
%%BoundingBox: 18 18 366 366
%%EndComments
%%BeginProlog
50 dict begin
/q { gsave } bind def
/Q { grestore } bind def
/cm { 6 array astore concat } bind def
/w { setlinewidth } bind def
/J { setlinecap } bind def
/j { setlinejoin } bind def
/M { setmiterlimit } bind def
/d { setdash } bind def
/m { moveto } bind def
/l { lineto } bind def
/c { curveto } bind def
/h { closepath } bind def
/re { exch dup neg 3 1 roll 5 3 roll moveto 0 rlineto
      0 exch rlineto 0 rlineto closepath } bind def
/S { stroke } bind def
/f { fill } bind def
/f* { eofill } bind def
/n { newpath } bind def
/W { clip } bind def
/W* { eoclip } bind def
/BT { } bind def
/ET { } bind def
/BDC { mark 3 1 roll /BDC pdfmark } bind def
/EMC { mark /EMC pdfmark } bind def
/cairo_store_point { /cairo_point_y exch def /cairo_point_x exch def } def
/Tj { show currentpoint cairo_store_point } bind def
/TJ {
  {
    dup
    type /stringtype eq
    { show } { -0.001 mul 0 cairo_font_matrix dtransform rmoveto } ifelse
  } forall
  currentpoint cairo_store_point
} bind def
/cairo_selectfont { cairo_font_matrix aload pop pop pop 0 0 6 array astore
    cairo_font exch selectfont cairo_point_x cairo_point_y moveto } bind def
/Tf { pop /cairo_font exch def /cairo_font_matrix where
      { pop cairo_selectfont } if } bind def
/Td { matrix translate cairo_font_matrix matrix concatmatrix dup
      /cairo_font_matrix exch def dup 4 get exch 5 get cairo_store_point
      /cairo_font where { pop cairo_selectfont } if } bind def
/Tm { 2 copy 8 2 roll 6 array astore /cairo_font_matrix exch def
      cairo_store_point /cairo_font where { pop cairo_selectfont } if } bind def
/g { setgray } bind def
/rg { setrgbcolor } bind def
/d1 { setcachedevice } bind def
/cairo_data_source {
  CairoDataIndex CairoData length lt
    { CairoData CairoDataIndex get /CairoDataIndex CairoDataIndex 1 add def }
    { () } ifelse
} def
/cairo_flush_ascii85_file { cairo_ascii85_file status { cairo_ascii85_file flushfile } if } def
/cairo_image { image cairo_flush_ascii85_file } def
/cairo_imagemask { imagemask cairo_flush_ascii85_file } def
%%EndProlog
%%BeginSetup
%%EndSetup
%%Page: 1 1
%%BeginPageSetup
%%PageBoundingBox: 18 18 366 366
%%EndPageSetup
q 18 18 348 348 rectclip
1 0 0 -1 0 384 cm q
0.976471 0.521569 0 rg
36 286.5 312 25.5 re f
0.992157 0.713726 0.184314 rg
18 42 348 246 re f
0.870588 0.364706 0.113725 rg
180 18 24 24 re f
0.976471 0.521569 0 rg
108 186 m 72 186 l 70.41 186 68.883 185.367 67.758 184.242 c 66.633 183.117
 66 181.59 66 180 c 66 132 l 78 132 l 78 174 l 108 174 l h
108 186 m f
0.956863 0.419608 0.152941 rg
276 365.961 m 222 312 l 155.926 312 l 102.039 365.961 l 138 365.961 l 192
 312 l 246 365.961 l h
276 365.961 m f
0.976471 0.521569 0 rg
168 246 m 132 246 l 130.41 246 128.883 245.367 127.758 244.242 c 126.633
 243.117 126 241.59 126 240 c 126 192 l 138 192 l 138 234 l 168 234 l h
168 246 m f
0.870588 0.364706 0.113725 rg
192 311.992 m 180 324 l 180 366 l 204 366 l 204 324 l h
192 311.992 m f
0.976471 0.521569 0 rg
96 114 66 12 re f
0.917647 0.290196 0.231373 rg
60 102 m 84 102 l 93.973 102 102 110.027 102 120 c 102 129.973 93.973 138
 84 138 c 60 138 l 50.027 138 42 129.973 42 120 c 42 110.027 50.027 102 
60 102 c h
60 102 m f
0.976471 0.521569 0 rg
252 246 m 216 246 l 216 234 l 246 234 l 246 192 l 258 192 l 258 240 l 258
 241.59 257.367 243.117 256.242 244.242 c 255.117 245.367 253.59 246 252
 246 c h
252 246 m f
0.917647 0.290196 0.231373 rg
180 222 m 204 222 l 213.973 222 222 230.027 222 240 c 222 249.973 213.973
 258 204 258 c 180 258 l 170.027 258 162 249.973 162 240 c 162 230.027 170.027
 222 180 222 c h
180 222 m f
0.976471 0.521569 0 rg
312 186 m 276 186 l 276 174 l 306 174 l 306 132 l 318 132 l 318 180 l 318
 181.59 317.367 183.117 316.242 184.242 c 315.117 185.367 313.59 186 312
 186 c h
312 186 m f
0.301961 0.717647 0.898039 rg
162 102 60 36 re f
222 162 60 36 re f
102 162 60 36 re f
0.976471 0.521569 0 rg
222 114 72 12 re f
96 66 66 12 re f
222 66 66 12 re f
174 66 36 12 re f
0.301961 0.717647 0.898039 rg
312 102 m 282 120 l 312 138 l 342 120 l h
312 102 m f
Q Q
showpage
%%Trailer
end
%%EOF
