%!PS-Adobe-3.0 EPSF-3.0
%%Creator: cairo 1.16.0 (https://cairographics.org)
%%CreationDate: Mon Dec 23 07:44:05 2019
%%Pages: 1
%%DocumentData: Clean7Bit
%%LanguageLevel: 2
%%BoundingBox: 18 18 366 366
%%EndComments
%%BeginProlog
50 dict begin
/q { gsave } bind def
/Q { grestore } bind def
/cm { 6 array astore concat } bind def
/w { setlinewidth } bind def
/J { setlinecap } bind def
/j { setlinejoin } bind def
/M { setmiterlimit } bind def
/d { setdash } bind def
/m { moveto } bind def
/l { lineto } bind def
/c { curveto } bind def
/h { closepath } bind def
/re { exch dup neg 3 1 roll 5 3 roll moveto 0 rlineto
      0 exch rlineto 0 rlineto closepath } bind def
/S { stroke } bind def
/f { fill } bind def
/f* { eofill } bind def
/n { newpath } bind def
/W { clip } bind def
/W* { eoclip } bind def
/BT { } bind def
/ET { } bind def
/BDC { mark 3 1 roll /BDC pdfmark } bind def
/EMC { mark /EMC pdfmark } bind def
/cairo_store_point { /cairo_point_y exch def /cairo_point_x exch def } def
/Tj { show currentpoint cairo_store_point } bind def
/TJ {
  {
    dup
    type /stringtype eq
    { show } { -0.001 mul 0 cairo_font_matrix dtransform rmoveto } ifelse
  } forall
  currentpoint cairo_store_point
} bind def
/cairo_selectfont { cairo_font_matrix aload pop pop pop 0 0 6 array astore
    cairo_font exch selectfont cairo_point_x cairo_point_y moveto } bind def
/Tf { pop /cairo_font exch def /cairo_font_matrix where
      { pop cairo_selectfont } if } bind def
/Td { matrix translate cairo_font_matrix matrix concatmatrix dup
      /cairo_font_matrix exch def dup 4 get exch 5 get cairo_store_point
      /cairo_font where { pop cairo_selectfont } if } bind def
/Tm { 2 copy 8 2 roll 6 array astore /cairo_font_matrix exch def
      cairo_store_point /cairo_font where { pop cairo_selectfont } if } bind def
/g { setgray } bind def
/rg { setrgbcolor } bind def
/d1 { setcachedevice } bind def
/cairo_data_source {
  CairoDataIndex CairoData length lt
    { CairoData CairoDataIndex get /CairoDataIndex CairoDataIndex 1 add def }
    { () } ifelse
} def
/cairo_flush_ascii85_file { cairo_ascii85_file status { cairo_ascii85_file flushfile } if } def
/cairo_image { image cairo_flush_ascii85_file } def
/cairo_imagemask { imagemask cairo_flush_ascii85_file } def
%%EndProlog
%%BeginSetup
%%EndSetup
%%Page: 1 1
%%BeginPageSetup
%%PageBoundingBox: 18 18 366 366
%%EndPageSetup
q 18 18 348 348 rectclip
1 0 0 -1 0 384 cm q
0.917647 0.290196 0.231373 rg
18 78 348 288 re f
0.729412 0.2 0.152941 rg
18 210 348 12 re f
0.858824 0.254902 0.196078 rg
114 312 m 90 336 l 66 312 l 66 168 l 114 168 l h
114 312 m f
0.984314 0.407843 0.356863 rg
42 288 m 66 288 l 66 258 l 114 258 l 114 288 l 138 288 l 138 264 l 138 
247.43 124.57 234 108 234 c 72 234 l 55.43 234 42 247.43 42 264 c h
42 288 m f
0.952941 0.321569 0.266667 rg
84 258 12 30 re f
0.858824 0.254902 0.196078 rg
318 312 m 294 336 l 270 312 l 270 168 l 318 168 l h
318 312 m f
0.984314 0.407843 0.356863 rg
246 288 m 270 288 l 270 258 l 318 258 l 318 288 l 342 288 l 342 264 l 342
 247.43 328.57 234 312 234 c 276 234 l 259.43 234 246 247.43 246 264 c h
246 288 m f
0.952941 0.321569 0.266667 rg
288 258 12 30 re f
0.984314 0.407843 0.356863 rg
138 18 m 144 18 l 144 78 l 108 78 l 108 48 l 108 31.43 121.43 18 138 18
 c h
138 18 m f
240 18 m 246 18 l 262.57 18 276 31.43 276 48 c 276 78 l 240 78 l h
240 18 m f
0.858824 0.254902 0.196078 rg
144 18 96 36 re f
0.811765 0.231373 0.180392 rg
36 96 12 24 re f
36 132 12 24 re f
36 168 12 24 re f
336 96 12 24 re f
336 132 12 24 re f
336 168 12 24 re f
36 306 12 24 re f
36 342 12 24 re f
336 306 12 24 re f
336 342 12 24 re f
0.729412 0.2 0.152941 rg
162 36 12 18 re f
186 36 12 18 re f
210 36 12 18 re f
Q Q
showpage
%%Trailer
end
%%EOF
