%!PS-Adobe-3.0 EPSF-3.0
%%Creator: cairo 1.16.0 (https://cairographics.org)
%%CreationDate: Mon Dec 23 07:44:06 2019
%%Pages: 1
%%DocumentData: Clean7Bit
%%LanguageLevel: 2
%%BoundingBox: 12 18 365 366
%%EndComments
%%BeginProlog
50 dict begin
/q { gsave } bind def
/Q { grestore } bind def
/cm { 6 array astore concat } bind def
/w { setlinewidth } bind def
/J { setlinecap } bind def
/j { setlinejoin } bind def
/M { setmiterlimit } bind def
/d { setdash } bind def
/m { moveto } bind def
/l { lineto } bind def
/c { curveto } bind def
/h { closepath } bind def
/re { exch dup neg 3 1 roll 5 3 roll moveto 0 rlineto
      0 exch rlineto 0 rlineto closepath } bind def
/S { stroke } bind def
/f { fill } bind def
/f* { eofill } bind def
/n { newpath } bind def
/W { clip } bind def
/W* { eoclip } bind def
/BT { } bind def
/ET { } bind def
/BDC { mark 3 1 roll /BDC pdfmark } bind def
/EMC { mark /EMC pdfmark } bind def
/cairo_store_point { /cairo_point_y exch def /cairo_point_x exch def } def
/Tj { show currentpoint cairo_store_point } bind def
/TJ {
  {
    dup
    type /stringtype eq
    { show } { -0.001 mul 0 cairo_font_matrix dtransform rmoveto } ifelse
  } forall
  currentpoint cairo_store_point
} bind def
/cairo_selectfont { cairo_font_matrix aload pop pop pop 0 0 6 array astore
    cairo_font exch selectfont cairo_point_x cairo_point_y moveto } bind def
/Tf { pop /cairo_font exch def /cairo_font_matrix where
      { pop cairo_selectfont } if } bind def
/Td { matrix translate cairo_font_matrix matrix concatmatrix dup
      /cairo_font_matrix exch def dup 4 get exch 5 get cairo_store_point
      /cairo_font where { pop cairo_selectfont } if } bind def
/Tm { 2 copy 8 2 roll 6 array astore /cairo_font_matrix exch def
      cairo_store_point /cairo_font where { pop cairo_selectfont } if } bind def
/g { setgray } bind def
/rg { setrgbcolor } bind def
/d1 { setcachedevice } bind def
/cairo_data_source {
  CairoDataIndex CairoData length lt
    { CairoData CairoDataIndex get /CairoDataIndex CairoDataIndex 1 add def }
    { () } ifelse
} def
/cairo_flush_ascii85_file { cairo_ascii85_file status { cairo_ascii85_file flushfile } if } def
/cairo_image { image cairo_flush_ascii85_file } def
/cairo_imagemask { imagemask cairo_flush_ascii85_file } def
%%EndProlog
%%BeginSetup
%%EndSetup
%%Page: 1 1
%%BeginPageSetup
%%PageBoundingBox: 12 18 365 366
%%EndPageSetup
q 12 18 353 348 rectclip
1 0 0 -1 0 384 cm q
0.301961 0.717647 0.898039 rg
60 18 216 264 re f
0.278431 0.635294 0.831373 rg
84 42 168 24 re f
0.203922 0.560784 0.85098 rg
228 186 24 24 re f
228 138 24 24 re f
228 90 24 24 re f
180 138 24 24 re f
180 90 24 24 re f
132 138 24 24 re f
132 90 24 24 re f
84 138 24 24 re f
84 90 24 24 re f
180 186 24 24 re f
84 186 24 24 re f
228 234 24 24 re f
180 234 24 24 re f
132 234 24 24 re f
0.984314 0.407843 0.356863 rg
160.242 190.242 m 151.758 181.758 l 144 189.516 l 136.242 181.758 l 127.758
 190.242 l 135.516 198 l 127.758 205.758 l 136.242 214.242 l 144 206.484
 l 151.758 214.242 l 160.242 205.758 l 152.484 198 l h
160.242 190.242 m f
0.639216 0.639216 0.631373 rg
288 60 12 25.5 re f
0.741176 0.741176 0.729412 rg
342 132 m 342 158.508 320.508 180 294 180 c 267.492 180 246 158.508 246
 132 c 246 105.492 267.492 84 294 84 c 320.508 84 342 105.492 342 132 c 
h
342 132 m f
0.321569 0.321569 0.313726 rg
282 54 24 12 re f
0.439216 0.439216 0.431373 rg
280.242 154.242 m 271.758 145.758 l 288 129.516 l 288 102 l 300 102 l 300
 134.484 l h
280.242 154.242 m f
0.301961 0.717647 0.898039 rg
292.973 246 24 102 re f
0.929412 0.564706 0.545098 rg
81.129 237.676 m 76.973 252 l 130.973 312 l 136.973 288 l 133.223 280.32
 l 115.418 240.766 l 112.488 234.258 106.281 229.836 99.176 229.195 c 92.07
 228.555 85.172 231.797 81.129 237.676 c h
81.129 237.676 m f
1 0.623529 0.607843 rg
43.254 236.281 m 88.973 288 l 130.973 318 l 130.973 300 l 130.973 300 124.973
 296.676 124.988 296.52 c 124.988 296.512 l 81.129 237.676 l 74.371 228.609
 l 70.188 223.004 63.055 220.449 56.266 222.125 c 49.477 223.797 44.352 
229.375 43.254 236.281 c h
43.254 236.281 m f
1 0.854902 0.823529 rg
16.973 258 m 82.547 323.574 l 109.711 350.738 146.555 366 184.973 366 c
 223.391 366 260.234 350.738 287.398 323.574 c 292.973 318 l 292.973 264
 l 276.402 247.434 249.543 247.434 232.973 264 c 220.973 276 l 145.973 276
 l 141.363 275.996 136.879 277.516 133.223 280.32 c 132.48 280.883 131.781
 281.492 131.121 282.148 c 127.301 285.965 125.102 291.113 124.988 296.512
 c 124.988 296.52 l 124.973 296.676 124.973 296.836 124.973 297 c 124.965
 301.867 126.656 306.582 129.75 310.336 c 129.734 310.336 l 116.102 304.902
 103.715 296.746 93.336 286.363 c 40.973 234 l 34.344 227.379 23.605 227.383
 16.98 234.008 c 10.355 240.633 10.352 251.371 16.973 258 c h
16.973 258 m f
0.188235 0.52549 0.803922 rg
316.973 234 48 132 re f
1 0.623529 0.607843 rg
145.973 330 m 220.973 330 l 224.285 330 226.973 327.312 226.973 324 c 226.973
 320.688 224.285 318 220.973 318 c 145.973 318 l 138.957 317.996 132.41 
314.492 128.516 308.66 c 126.672 305.906 122.941 305.172 120.191 307.016
 c 117.438 308.863 116.703 312.59 118.551 315.34 c 124.668 324.5 134.957
 330 145.973 330 c h
145.973 330 m f
Q Q
showpage
%%Trailer
end
%%EOF
