%!PS-Adobe-3.0 EPSF-3.0
%%Creator: cairo 1.16.0 (https://cairographics.org)
%%CreationDate: Mon Dec 23 07:44:06 2019
%%Pages: 1
%%DocumentData: Clean7Bit
%%LanguageLevel: 2
%%BoundingBox: 18 18 366 366
%%EndComments
%%BeginProlog
50 dict begin
/q { gsave } bind def
/Q { grestore } bind def
/cm { 6 array astore concat } bind def
/w { setlinewidth } bind def
/J { setlinecap } bind def
/j { setlinejoin } bind def
/M { setmiterlimit } bind def
/d { setdash } bind def
/m { moveto } bind def
/l { lineto } bind def
/c { curveto } bind def
/h { closepath } bind def
/re { exch dup neg 3 1 roll 5 3 roll moveto 0 rlineto
      0 exch rlineto 0 rlineto closepath } bind def
/S { stroke } bind def
/f { fill } bind def
/f* { eofill } bind def
/n { newpath } bind def
/W { clip } bind def
/W* { eoclip } bind def
/BT { } bind def
/ET { } bind def
/BDC { mark 3 1 roll /BDC pdfmark } bind def
/EMC { mark /EMC pdfmark } bind def
/cairo_store_point { /cairo_point_y exch def /cairo_point_x exch def } def
/Tj { show currentpoint cairo_store_point } bind def
/TJ {
  {
    dup
    type /stringtype eq
    { show } { -0.001 mul 0 cairo_font_matrix dtransform rmoveto } ifelse
  } forall
  currentpoint cairo_store_point
} bind def
/cairo_selectfont { cairo_font_matrix aload pop pop pop 0 0 6 array astore
    cairo_font exch selectfont cairo_point_x cairo_point_y moveto } bind def
/Tf { pop /cairo_font exch def /cairo_font_matrix where
      { pop cairo_selectfont } if } bind def
/Td { matrix translate cairo_font_matrix matrix concatmatrix dup
      /cairo_font_matrix exch def dup 4 get exch 5 get cairo_store_point
      /cairo_font where { pop cairo_selectfont } if } bind def
/Tm { 2 copy 8 2 roll 6 array astore /cairo_font_matrix exch def
      cairo_store_point /cairo_font where { pop cairo_selectfont } if } bind def
/g { setgray } bind def
/rg { setrgbcolor } bind def
/d1 { setcachedevice } bind def
/cairo_data_source {
  CairoDataIndex CairoData length lt
    { CairoData CairoDataIndex get /CairoDataIndex CairoDataIndex 1 add def }
    { () } ifelse
} def
/cairo_flush_ascii85_file { cairo_ascii85_file status { cairo_ascii85_file flushfile } if } def
/cairo_image { image cairo_flush_ascii85_file } def
/cairo_imagemask { imagemask cairo_flush_ascii85_file } def
%%EndProlog
%%BeginSetup
%%EndSetup
%%Page: 1 1
%%BeginPageSetup
%%PageBoundingBox: 18 18 366 366
%%EndPageSetup
q 18 18 348 348 rectclip
1 0 0 -1 0 384 cm q
0.203922 0.560784 0.85098 rg
18 84 179.797 282 re f
0.301961 0.717647 0.898039 rg
41.797 108 132.203 210 re f
90 336 36 12 re f
0.203922 0.560784 0.85098 rg
66 132 84 24 re f
60 198 48 12 re f
120 198 30 12 re f
60 222 90 12 re f
60 246 90 12 re f
60 270 78 12 re f
72 174 30.293 12 re f
114.293 174 36 12 re f
0.917647 0.290196 0.231373 rg
156 246 m 186 168 l 156 168 l 156 18 l 366 18 l 366 168 l 252 168 l h
156 246 m f
0.988235 0.654902 0.0745098 rg
342 48 m 312 48 l 312 60 l 327.516 60 l 282 105.516 l 256.242 79.758 l 
254.965 78.496 253.195 77.863 251.41 78.027 c 249.621 78.207 248.004 79.176
 247.008 80.672 c 226.527 111.395 l 207.602 97.199 l 206.281 96.211 204.613
 95.809 202.988 96.086 c 201.363 96.367 199.922 97.301 199.008 98.672 c 
175.008 134.672 l 184.992 141.328 l 205.473 110.605 l 224.398 124.801 l 
225.719 125.789 227.387 126.191 229.012 125.914 c 230.637 125.633 232.078
 124.699 232.992 123.328 c 252.934 93.418 l 277.758 118.242 l 278.883 119.367
 280.41 120 282 120 c 283.59 120 285.117 119.367 286.242 118.242 c 336 68.484
 l 336 84 l 348 84 l 348 54 l 348 52.41 347.367 50.883 346.242 49.758 c 
345.117 48.633 343.59 48 342 48 c h
342 48 m f
Q Q
showpage
%%Trailer
end
%%EOF
