%!PS-Adobe-3.0 EPSF-3.0
%%Creator: cairo 1.16.0 (https://cairographics.org)
%%CreationDate: Mon Dec 23 07:44:06 2019
%%Pages: 1
%%DocumentData: Clean7Bit
%%LanguageLevel: 2
%%BoundingBox: 18 12 369 367
%%EndComments
%%BeginProlog
50 dict begin
/q { gsave } bind def
/Q { grestore } bind def
/cm { 6 array astore concat } bind def
/w { setlinewidth } bind def
/J { setlinecap } bind def
/j { setlinejoin } bind def
/M { setmiterlimit } bind def
/d { setdash } bind def
/m { moveto } bind def
/l { lineto } bind def
/c { curveto } bind def
/h { closepath } bind def
/re { exch dup neg 3 1 roll 5 3 roll moveto 0 rlineto
      0 exch rlineto 0 rlineto closepath } bind def
/S { stroke } bind def
/f { fill } bind def
/f* { eofill } bind def
/n { newpath } bind def
/W { clip } bind def
/W* { eoclip } bind def
/BT { } bind def
/ET { } bind def
/BDC { mark 3 1 roll /BDC pdfmark } bind def
/EMC { mark /EMC pdfmark } bind def
/cairo_store_point { /cairo_point_y exch def /cairo_point_x exch def } def
/Tj { show currentpoint cairo_store_point } bind def
/TJ {
  {
    dup
    type /stringtype eq
    { show } { -0.001 mul 0 cairo_font_matrix dtransform rmoveto } ifelse
  } forall
  currentpoint cairo_store_point
} bind def
/cairo_selectfont { cairo_font_matrix aload pop pop pop 0 0 6 array astore
    cairo_font exch selectfont cairo_point_x cairo_point_y moveto } bind def
/Tf { pop /cairo_font exch def /cairo_font_matrix where
      { pop cairo_selectfont } if } bind def
/Td { matrix translate cairo_font_matrix matrix concatmatrix dup
      /cairo_font_matrix exch def dup 4 get exch 5 get cairo_store_point
      /cairo_font where { pop cairo_selectfont } if } bind def
/Tm { 2 copy 8 2 roll 6 array astore /cairo_font_matrix exch def
      cairo_store_point /cairo_font where { pop cairo_selectfont } if } bind def
/g { setgray } bind def
/rg { setrgbcolor } bind def
/d1 { setcachedevice } bind def
/cairo_data_source {
  CairoDataIndex CairoData length lt
    { CairoData CairoDataIndex get /CairoDataIndex CairoDataIndex 1 add def }
    { () } ifelse
} def
/cairo_flush_ascii85_file { cairo_ascii85_file status { cairo_ascii85_file flushfile } if } def
/cairo_image { image cairo_flush_ascii85_file } def
/cairo_imagemask { imagemask cairo_flush_ascii85_file } def
%%EndProlog
%%BeginSetup
%%EndSetup
%%Page: 1 1
%%BeginPageSetup
%%PageBoundingBox: 18 12 369 367
%%EndPageSetup
q 18 12 351 355 rectclip
1 0 0 -1 0 384 cm q
0.109804 0.341176 0.541176 rg
246 336 m 294 336 l 310.57 336 324 349.43 324 366 c 324 372 l 246 372 l
 h
246 336 m f
0.164706 0.439216 0.670588 rg
246 336 m 168 336 l 168 311.52 l 30 306 l 22.074 325.816 18 346.965 18 
368.312 c 18 372 l 276 372 l 276 366 l 276 349.43 262.57 336 246 336 c h
246 336 m f
0.109804 0.341176 0.541176 rg
54 336 m 168 336 l 168 324 l 54 324 l 50.688 324 48 326.688 48 330 c 48
 333.312 50.688 336 54 336 c h
54 336 m f
0.278431 0.635294 0.831373 rg
180 234 m 237.633 282.027 l 216 306 l 147 306 l h
180 234 m f
0.301961 0.717647 0.898039 rg
192 126 m 199.812 161.156 196.691 197.863 183.055 231.199 c 150.484 310.82
 l 30 306 l 18 180 l 18 151.457 l 18 135.156 24.477 119.523 36 108 c 47.523
 96.477 63.156 90 79.457 90 c 138 90 l h
192 126 m f
1 0.854902 0.823529 rg
264 54.219 m 264 64.035 256.043 71.996 246.227 72 c 244.926 72 l 243.289
 72.004 241.656 71.773 240.082 71.324 c 234 120 l 222 114 l 210 138 l 192
 126 l 150 126 l 138 90 l 149.371 71.656 l 175.629 29.289 l 181.625 19.293
 193.938 15.055 204.816 19.238 c 204.816 19.238 235.41 31.004 252.602 37.621
 c 259.469 40.258 264.004 46.859 264 54.219 c h
264 54.219 m f
0.419608 0.25098 0.164706 rg
264 54.219 m 264 64.035 256.043 71.996 246.227 72 c 244.926 72 l 243.289
 72.004 241.656 71.773 240.082 71.324 c 238.57 70.898 237.125 70.273 235.777
 69.465 c 210 54 l 198 84 l 187.77 58.434 l 181.672 66.32 l 173.965 76.285
 159.871 78.613 149.371 71.656 c 175.629 29.289 l 181.625 19.293 193.938
 15.055 204.816 19.238 c 204.816 19.238 235.41 31.004 252.602 37.621 c 259.469
 40.258 264.004 46.859 264 54.219 c h
264 54.219 m f
0.278431 0.635294 0.831373 rg
90 276 m 86.688 276 84 273.312 84 270 c 84 168 l 84 164.688 86.688 162 
90 162 c 93.312 162 96 164.688 96 168 c 96 270 l 96 273.312 93.312 276 90
 276 c h
90 276 m f
1 0.623529 0.607843 rg
216 264 m 234 264 l 270 252 l 312 288 l 300 300 l 270 282 l 234 306 l 216
 306 l h
216 264 m f
0.301961 0.717647 0.898039 rg
210 312 m 300 312 l 306.648 312 312 317.352 312 324 c 312 330.648 306.648
 336 300 336 c 210 336 l 203.352 336 198 330.648 198 324 c 198 317.352 203.352
 312 210 312 c h
210 312 m f
344.172 208.453 m 309.844 301.578 l 307.656 307.512 310.281 314.141 315.938
 316.969 c 317.398 317.699 l 320.586 319.293 324.305 319.438 327.609 318.098
 c 330.91 316.762 333.48 314.066 334.656 310.699 c 367.527 216.848 l 368.68
 213.555 368.395 209.926 366.738 206.855 c 365.082 203.785 362.211 201.551
 358.824 200.707 c 352.68 199.168 346.363 202.508 344.172 208.453 c h
344.172 208.453 m f
0.203922 0.560784 0.85098 rg
149.445 149.168 m 147.223 177.184 137.879 204.164 122.297 227.555 c 101.398
 258.902 91.859 296.461 95.27 333.984 c 96 342 l 132 366 l 144 342 l 142.18
 332.902 l 135.555 299.77 139.262 265.398 152.809 234.441 c 160.172 217.609
 l 169.293 196.762 174 174.254 174 151.496 c 174 150 l h
149.445 149.168 m f
0.176471 0.490196 0.74902 rg
150 126 m 150 136.059 l 150 140.445 149.793 144.816 149.445 149.168 c 174
 150 l 174 126 l h
150 126 m f
0.278431 0.635294 0.831373 rg
114 90 m 132 132 l 150 126 l 138 90 l h
114 90 m f
0.301961 0.717647 0.898039 rg
84 168 m 84 264 l 180 270 l 180 312 l 30 306 l 18 180 l 18 151.457 l 18
 135.156 24.477 119.523 36 108 c 47.523 96.477 63.156 90 79.457 90 c 84 
90 l h
84 168 m f
1 0.623529 0.607843 rg
192.02 126.012 m 192.012 126.008 192.012 126.004 192.004 126 c 174 114 
l 174 102 l 174 98.688 171.312 96 168 96 c 164.688 96 162 98.688 162 102
 c 162 117.211 l 162 119.219 163.004 121.09 164.672 122.203 c 170.367 126
 l 192 126 l h
192.02 126.012 m f
1 0.854902 0.823529 rg
180 270 m 198 270 l 234 258 l 276 294 l 264 306 l 234 288 l 198 312 l 180
 312 l h
180 270 m f
Q Q
showpage
%%Trailer
end
%%EOF
