%!PS-Adobe-3.0 EPSF-3.0
%%Creator: cairo 1.16.0 (https://cairographics.org)
%%CreationDate: Mon Dec 23 07:44:08 2019
%%Pages: 1
%%DocumentData: Clean7Bit
%%LanguageLevel: 2
%%BoundingBox: 42 12 360 367
%%EndComments
%%BeginProlog
50 dict begin
/q { gsave } bind def
/Q { grestore } bind def
/cm { 6 array astore concat } bind def
/w { setlinewidth } bind def
/J { setlinecap } bind def
/j { setlinejoin } bind def
/M { setmiterlimit } bind def
/d { setdash } bind def
/m { moveto } bind def
/l { lineto } bind def
/c { curveto } bind def
/h { closepath } bind def
/re { exch dup neg 3 1 roll 5 3 roll moveto 0 rlineto
      0 exch rlineto 0 rlineto closepath } bind def
/S { stroke } bind def
/f { fill } bind def
/f* { eofill } bind def
/n { newpath } bind def
/W { clip } bind def
/W* { eoclip } bind def
/BT { } bind def
/ET { } bind def
/BDC { mark 3 1 roll /BDC pdfmark } bind def
/EMC { mark /EMC pdfmark } bind def
/cairo_store_point { /cairo_point_y exch def /cairo_point_x exch def } def
/Tj { show currentpoint cairo_store_point } bind def
/TJ {
  {
    dup
    type /stringtype eq
    { show } { -0.001 mul 0 cairo_font_matrix dtransform rmoveto } ifelse
  } forall
  currentpoint cairo_store_point
} bind def
/cairo_selectfont { cairo_font_matrix aload pop pop pop 0 0 6 array astore
    cairo_font exch selectfont cairo_point_x cairo_point_y moveto } bind def
/Tf { pop /cairo_font exch def /cairo_font_matrix where
      { pop cairo_selectfont } if } bind def
/Td { matrix translate cairo_font_matrix matrix concatmatrix dup
      /cairo_font_matrix exch def dup 4 get exch 5 get cairo_store_point
      /cairo_font where { pop cairo_selectfont } if } bind def
/Tm { 2 copy 8 2 roll 6 array astore /cairo_font_matrix exch def
      cairo_store_point /cairo_font where { pop cairo_selectfont } if } bind def
/g { setgray } bind def
/rg { setrgbcolor } bind def
/d1 { setcachedevice } bind def
/cairo_data_source {
  CairoDataIndex CairoData length lt
    { CairoData CairoDataIndex get /CairoDataIndex CairoDataIndex 1 add def }
    { () } ifelse
} def
/cairo_flush_ascii85_file { cairo_ascii85_file status { cairo_ascii85_file flushfile } if } def
/cairo_image { image cairo_flush_ascii85_file } def
/cairo_imagemask { imagemask cairo_flush_ascii85_file } def
%%EndProlog
%%BeginSetup
%%EndSetup
%%Page: 1 1
%%BeginPageSetup
%%PageBoundingBox: 42 12 360 367
%%EndPageSetup
q 42 12 318 355 rectclip
1 0 0 -1 0 384 cm q
0.203922 0.529412 0.796078 rg
42 372 m 270 372 l 284.379 338.445 l 294.5 314.832 294.145 288.031 283.398
 264.695 c 272.652 241.355 252.523 223.664 228 216 c 168 222 l 120.098 244.355
 l 93.223 256.895 72.688 279.938 63.309 308.07 c h
42 372 m f
0.360784 0.215686 0.141176 rg
258 120 m 270.352 132.352 l 277.492 139.492 279.984 150.051 276.793 159.625
 c 276.074 161.777 l 272.445 172.66 262.262 180 250.789 180 c 248.508 180
 l 234.824 180 223.363 169.629 222 156.012 c 221.398 150 l h
258 120 m f
1 0.854902 0.823529 rg
222 150 m 228 216 l 168 222 l 174 183 l 186 180 l 204 156 l h
222 150 m f
0.458824 0.27451 0.180392 rg
204 156 m 122.516 72.68 l 128.312 46.602 148.57 26.176 174.598 20.168 c
 178.602 19.246 l 198.512 14.652 219.434 19.074 235.781 31.336 c 250.043
 42.031 259.637 57.812 262.566 75.395 c 263.57 81.422 l 267.562 105.367 
258.738 129.656 240.305 145.453 c 232.363 152.258 222.25 156 211.793 156
 c h
204 156 m f
1 0.854902 0.823529 rg
232.906 117.457 m 204 156 l 186 180 l 138 192 l 126 138 l 108 138 l 122.512
 72.676 l 123.797 66.914 125.809 61.34 128.496 56.086 c 198 114 l 212.363
 99.637 l 217.422 94.582 225.527 94.293 230.934 98.98 c 236.336 103.668 
237.195 111.734 232.906 117.457 c h
232.906 117.457 m f
0.258824 0.627451 0.882353 rg
168 222 m 119.512 266.758 l 100.953 283.887 91.645 308.816 94.434 333.914
 c 94.434 333.918 l 95.469 343.23 98.145 352.289 102.336 360.676 c 108 372
 l 270 372 l 284.379 338.445 l 294.5 314.832 294.145 288.031 283.398 264.695
 c 272.652 241.355 252.523 223.664 228 216 c h
168 222 m f
0.203922 0.529412 0.796078 rg
360 372 m 337.461 293.113 l 329.059 263.707 306.422 240.508 277.23 231.387
 c 228 216 l 218.199 235.602 l 197.023 277.953 186 324.652 186 372 c 270
 372 l 284.379 338.445 l 284.402 338.395 284.418 338.34 284.438 338.285 
c 300 372 l h
360 372 m f
1 0.623529 0.607843 rg
193.043 190.605 m 204.637 175.145 l 205.594 173.871 206.004 172.27 205.777
 170.695 c 205.551 169.121 204.711 167.699 203.438 166.746 c 202.164 165.793
 200.566 165.383 198.992 165.609 c 197.414 165.832 195.996 166.676 195.043
 167.949 c 186 180 l 174 183 l 172.023 195.859 l h
193.043 190.605 m f
0.137255 0.380392 0.556863 rg
269.684 306.316 m 269.02 304.871 267.805 303.746 266.309 303.195 c 264.816
 302.645 263.164 302.707 261.719 303.375 c 260.273 304.043 259.152 305.258
 258.602 306.75 c 258.051 308.246 258.117 309.898 258.785 311.344 c 278.078
 353.148 l 284.379 338.445 l 284.402 338.395 284.418 338.34 284.438 338.285
 c h
269.684 306.316 m f
0.105882 0.298039 0.439216 rg
138 102 m 150 102 l 153.324 102 156 104.676 156 108 c 156 111.324 153.324
 114 150 114 c 138 114 l 134.676 114 132 111.324 132 108 c 132 104.676 134.676
 102 138 102 c h
138 102 m f
Q Q
showpage
%%Trailer
end
%%EOF
