%!PS-Adobe-3.0 EPSF-3.0
%%Creator: cairo 1.16.0 (https://cairographics.org)
%%CreationDate: Mon Dec 23 07:44:10 2019
%%Pages: 1
%%DocumentData: Clean7Bit
%%LanguageLevel: 2
%%BoundingBox: 18 42 366 353
%%EndComments
%%BeginProlog
50 dict begin
/q { gsave } bind def
/Q { grestore } bind def
/cm { 6 array astore concat } bind def
/w { setlinewidth } bind def
/J { setlinecap } bind def
/j { setlinejoin } bind def
/M { setmiterlimit } bind def
/d { setdash } bind def
/m { moveto } bind def
/l { lineto } bind def
/c { curveto } bind def
/h { closepath } bind def
/re { exch dup neg 3 1 roll 5 3 roll moveto 0 rlineto
      0 exch rlineto 0 rlineto closepath } bind def
/S { stroke } bind def
/f { fill } bind def
/f* { eofill } bind def
/n { newpath } bind def
/W { clip } bind def
/W* { eoclip } bind def
/BT { } bind def
/ET { } bind def
/BDC { mark 3 1 roll /BDC pdfmark } bind def
/EMC { mark /EMC pdfmark } bind def
/cairo_store_point { /cairo_point_y exch def /cairo_point_x exch def } def
/Tj { show currentpoint cairo_store_point } bind def
/TJ {
  {
    dup
    type /stringtype eq
    { show } { -0.001 mul 0 cairo_font_matrix dtransform rmoveto } ifelse
  } forall
  currentpoint cairo_store_point
} bind def
/cairo_selectfont { cairo_font_matrix aload pop pop pop 0 0 6 array astore
    cairo_font exch selectfont cairo_point_x cairo_point_y moveto } bind def
/Tf { pop /cairo_font exch def /cairo_font_matrix where
      { pop cairo_selectfont } if } bind def
/Td { matrix translate cairo_font_matrix matrix concatmatrix dup
      /cairo_font_matrix exch def dup 4 get exch 5 get cairo_store_point
      /cairo_font where { pop cairo_selectfont } if } bind def
/Tm { 2 copy 8 2 roll 6 array astore /cairo_font_matrix exch def
      cairo_store_point /cairo_font where { pop cairo_selectfont } if } bind def
/g { setgray } bind def
/rg { setrgbcolor } bind def
/d1 { setcachedevice } bind def
/cairo_data_source {
  CairoDataIndex CairoData length lt
    { CairoData CairoDataIndex get /CairoDataIndex CairoDataIndex 1 add def }
    { () } ifelse
} def
/cairo_flush_ascii85_file { cairo_ascii85_file status { cairo_ascii85_file flushfile } if } def
/cairo_image { image cairo_flush_ascii85_file } def
/cairo_imagemask { imagemask cairo_flush_ascii85_file } def
%%EndProlog
%%BeginSetup
%%EndSetup
%%Page: 1 1
%%BeginPageSetup
%%PageBoundingBox: 18 42 366 353
%%EndPageSetup
q 18 42 348 311 rectclip
1 0 0 -1 0 384 cm q
0.203922 0.529412 0.796078 rg
18 318 348 24 re f
0.337255 0.654902 0.882353 rg
36 90 312 228 re f
0.564706 0.807843 0.878431 rg
60 114 264 180 re f
0.0823529 0.294118 0.478431 rg
138 168 m 160.395 190.395 169.672 222.746 162.551 253.609 c 153.418 294
 l 108 294 l 114 168 l h
138 168 m f
0.109804 0.341176 0.541176 rg
60 114 m 120 114 l 144 162 l 138 180 l 138 219.352 127.973 258.051 108.863
 292.449 c 108 294 l 60 294 l h
60 114 m f
0.0823529 0.294118 0.478431 rg
138.797 173.48 m 121.973 163.34 108.902 147.996 101.574 129.77 c 90.426
 134.23 l 98.738 154.887 113.551 172.277 132.621 183.77 c 137.781 186.863
 l 137.852 184.574 138 182.293 138 180 c 139.945 174.168 l h
138.797 173.48 m f
1 0.854902 0.823529 rg
260.047 65.875 m 217.391 37.316 l 209.133 32.238 199.176 30.699 189.773
 33.059 c 180.367 35.414 172.312 41.465 167.43 49.84 c 144 90 l 120 114 
l 144 162 l 174 156 l 192 168 l 216 144 l 234 150 l 240 114 l 246.035 83.816
 l 249.102 85.551 l 254.188 88.094 260.367 86.453 263.52 81.723 c 265.215
 79.176 265.805 76.051 265.148 73.062 c 264.496 70.074 262.652 67.48 260.047
 65.875 c h
260.047 65.875 m f
1 0.623529 0.607843 rg
157.359 159.328 m 174 156 l 156 144 l 162 126 l 162.504 124.492 162.391
 122.844 161.68 121.418 c 160.969 119.992 159.719 118.91 158.211 118.406
 c 156.699 117.902 155.051 118.02 153.629 118.73 c 152.207 119.445 151.125
 120.691 150.621 122.203 c 141.715 148.898 l h
157.359 159.328 m f
0.419608 0.25098 0.164706 rg
144 90 m 167.43 49.84 l 172.312 41.465 180.367 35.414 189.773 33.059 c 
199.176 30.699 209.133 32.238 217.391 37.316 c 260.047 65.875 l 262.652 
67.48 264.496 70.074 265.148 73.062 c 265.805 76.051 265.215 79.176 263.52
 81.723 c 260.367 86.453 254.188 88.094 249.102 85.551 c 204 60 l 186 108
 l 180 72 l 173.129 83.449 l 170.227 88.285 165.473 91.723 159.969 92.961
 c 154.465 94.199 148.695 93.129 144 90 c h
144 90 m f
0.0823529 0.294118 0.478431 rg
191.078 94.461 m 210 126 l 238 126 l 241.016 108.922 l 194.637 84.965 l
 h
191.078 94.461 m f
1 0.623529 0.607843 rg
114 294 m 222 240 l 281.805 254.949 l 284.984 255.746 287.703 257.809 289.324
 260.66 c 290.945 263.512 291.328 266.898 290.387 270.039 c 279.555 306.152
 l 278.621 309.262 276.469 311.859 273.59 313.355 c 270.707 314.852 267.344
 315.113 264.266 314.09 c 204 294 l h
114 294 m f
1 0.854902 0.823529 rg
222 264 m 236.445 267.613 l 240.75 268.688 245.508 267.156 247.871 263.402
 c 249.52 260.848 249.941 257.695 249.02 254.801 c 248.098 251.906 245.93
 249.574 243.113 248.445 c 222 240 l 114 294 l 198 294 l 205.898 290.051
 l 215.766 285.117 222 275.031 222 264 c h
222 264 m f
Q Q
showpage
%%Trailer
end
%%EOF
