%!PS-Adobe-3.0 EPSF-3.0
%%Creator: cairo 1.16.0 (https://cairographics.org)
%%CreationDate: Mon Dec 23 07:44:10 2019
%%Pages: 1
%%DocumentData: Clean7Bit
%%LanguageLevel: 2
%%BoundingBox: 18 18 366 366
%%EndComments
%%BeginProlog
50 dict begin
/q { gsave } bind def
/Q { grestore } bind def
/cm { 6 array astore concat } bind def
/w { setlinewidth } bind def
/J { setlinecap } bind def
/j { setlinejoin } bind def
/M { setmiterlimit } bind def
/d { setdash } bind def
/m { moveto } bind def
/l { lineto } bind def
/c { curveto } bind def
/h { closepath } bind def
/re { exch dup neg 3 1 roll 5 3 roll moveto 0 rlineto
      0 exch rlineto 0 rlineto closepath } bind def
/S { stroke } bind def
/f { fill } bind def
/f* { eofill } bind def
/n { newpath } bind def
/W { clip } bind def
/W* { eoclip } bind def
/BT { } bind def
/ET { } bind def
/BDC { mark 3 1 roll /BDC pdfmark } bind def
/EMC { mark /EMC pdfmark } bind def
/cairo_store_point { /cairo_point_y exch def /cairo_point_x exch def } def
/Tj { show currentpoint cairo_store_point } bind def
/TJ {
  {
    dup
    type /stringtype eq
    { show } { -0.001 mul 0 cairo_font_matrix dtransform rmoveto } ifelse
  } forall
  currentpoint cairo_store_point
} bind def
/cairo_selectfont { cairo_font_matrix aload pop pop pop 0 0 6 array astore
    cairo_font exch selectfont cairo_point_x cairo_point_y moveto } bind def
/Tf { pop /cairo_font exch def /cairo_font_matrix where
      { pop cairo_selectfont } if } bind def
/Td { matrix translate cairo_font_matrix matrix concatmatrix dup
      /cairo_font_matrix exch def dup 4 get exch 5 get cairo_store_point
      /cairo_font where { pop cairo_selectfont } if } bind def
/Tm { 2 copy 8 2 roll 6 array astore /cairo_font_matrix exch def
      cairo_store_point /cairo_font where { pop cairo_selectfont } if } bind def
/g { setgray } bind def
/rg { setrgbcolor } bind def
/d1 { setcachedevice } bind def
/cairo_data_source {
  CairoDataIndex CairoData length lt
    { CairoData CairoDataIndex get /CairoDataIndex CairoDataIndex 1 add def }
    { () } ifelse
} def
/cairo_flush_ascii85_file { cairo_ascii85_file status { cairo_ascii85_file flushfile } if } def
/cairo_image { image cairo_flush_ascii85_file } def
/cairo_imagemask { imagemask cairo_flush_ascii85_file } def
%%EndProlog
%%BeginSetup
%%EndSetup
%%Page: 1 1
%%BeginPageSetup
%%PageBoundingBox: 18 18 366 366
%%EndPageSetup
q 18 18 348 348 rectclip
1 0 0 -1 0 384 cm q
0.952941 0.321569 0.266667 rg
366 114 m 366 294 l 366 313.094 358.414 331.41 344.91 344.91 c 331.41 358.414
 313.094 366 294 366 c 162 366 l 142.906 366 124.59 358.414 111.09 344.91
 c 97.586 331.41 90 313.094 90 294 c 90 185.047 l 48.699 179.098 18.035 
143.727 18 102 c 18 84 l 42 84 l 42 98.789 l 42 125.469 58.184 150.227 83.43
 158.859 c 114.613 169.523 144.676 151.824 156.809 124.312 c 162.172 112.164
 162 96 162 96 c 162 84 l 186 84 l 186 102 l 185.965 143.727 155.301 179.098
 114 185.047 c 114 294 l 114 306.73 119.055 318.941 128.059 327.941 c 137.059
 336.945 149.27 342 162 342 c 294 342 l 306.73 342 318.941 336.945 327.941
 327.941 c 336.945 318.941 342 306.73 342 294 c 342 114 l 342 99.438 333.23
 86.312 319.777 80.738 c 306.324 75.168 290.84 78.25 280.547 88.547 c 280.074
 89.016 279.613 89.504 279.172 90 c 273.254 96.59 269.984 105.141 270 114
 c 246 114 l 246 80.863 272.863 54 306 54 c 339.137 54 366 80.863 366 114
 c h
366 114 m f
0.878431 0.878431 0.870588 rg
54 30 m 37.441 30.02 24.02 43.441 24 60 c 24 84 l 36 84 l 36 60 l 36.012
 50.062 44.062 42.012 54 42 c 66 42 l 66 30 l h
54 30 m f
150 30 m 138 30 l 138 42 l 150 42 l 159.938 42.012 167.988 50.062 168 60
 c 168 84 l 180 84 l 180 60 l 179.98 43.441 166.559 30.02 150 30 c h
150 30 m f
0.639216 0.639216 0.631373 rg
90 36 m 90 45.941 81.941 54 72 54 c 62.059 54 54 45.941 54 36 c 54 26.059
 62.059 18 72 18 c 81.941 18 90 26.059 90 36 c h
90 36 m f
150 36 m 150 45.941 141.941 54 132 54 c 122.059 54 114 45.941 114 36 c 
114 26.059 122.059 18 132 18 c 141.941 18 150 26.059 150 36 c h
150 36 m f
0.301961 0.717647 0.898039 rg
282 366 m 138 366 l 138 108 l 318 108 l 318 330 l 318 349.883 301.883 366
 282 366 c h
282 366 m f
0.203922 0.560784 0.85098 rg
156 234 144 12 re f
156 264 144 12 re f
156 294 144 12 re f
168 204 132 12 re f
162 144 132 36 re f
0.278431 0.635294 0.831373 rg
246 330 m 66 330 l 66 339.547 69.793 348.703 76.543 355.457 c 83.297 362.207
 92.453 366 102 366 c 282 366 l 272.453 366 263.297 362.207 256.543 355.457
 c 249.793 348.703 246 339.547 246 330 c h
246 330 m f
0.984314 0.407843 0.356863 rg
294 174 m 294 193.883 277.883 210 258 210 c 238.117 210 222 193.883 222
 174 c 222 154.117 238.117 138 258 138 c 277.883 138 294 154.117 294 174
 c h
294 174 m f
0.811765 0.231373 0.180392 rg
258 216 m 241.012 216 225.699 205.766 219.195 190.074 c 212.695 174.379
 216.289 156.312 228.301 144.301 c 240.312 132.289 258.379 128.695 274.074
 135.195 c 289.766 141.699 300 157.012 300 174 c 299.973 197.184 281.184
 215.973 258 216 c h
258 144 m 245.867 144 234.926 151.309 230.285 162.52 c 225.641 173.73 228.207
 186.633 236.785 195.215 c 245.367 203.793 258.27 206.359 269.48 201.715
 c 280.691 197.074 288 186.133 288 174 c 287.98 157.441 274.559 144.02 258
 144 c h
258 144 m f
0.878431 0.878431 0.870588 rg
252 114 12 48 re f
0.811765 0.231373 0.180392 rg
258 192 m 250.719 192 244.156 187.613 241.371 180.887 c 238.586 174.164
 240.125 166.422 245.273 161.273 c 250.422 156.125 258.164 154.586 264.887
 157.371 c 271.613 160.156 276 166.719 276 174 c 275.988 183.938 267.938
 191.988 258 192 c h
258 168 m 255.574 168 253.387 169.461 252.457 171.703 c 251.527 173.945
 252.043 176.527 253.758 178.242 c 255.473 179.957 258.055 180.473 260.297
 179.543 c 262.539 178.613 264 176.426 264 174 c 263.996 170.688 261.312
 168.004 258 168 c h
258 168 m f
0.952941 0.321569 0.266667 rg
279.172 90 m 273.254 96.59 269.984 105.141 270 114 c 246 114 l 245.988 
105.738 247.691 97.566 251.004 90 c h
279.172 90 m f
Q Q
showpage
%%Trailer
end
%%EOF
