%!PS-Adobe-3.0 EPSF-3.0
%%Creator: cairo 1.16.0 (https://cairographics.org)
%%CreationDate: Mon Dec 23 07:44:11 2019
%%Pages: 1
%%DocumentData: Clean7Bit
%%LanguageLevel: 2
%%BoundingBox: 18 18 366 366
%%EndComments
%%BeginProlog
50 dict begin
/q { gsave } bind def
/Q { grestore } bind def
/cm { 6 array astore concat } bind def
/w { setlinewidth } bind def
/J { setlinecap } bind def
/j { setlinejoin } bind def
/M { setmiterlimit } bind def
/d { setdash } bind def
/m { moveto } bind def
/l { lineto } bind def
/c { curveto } bind def
/h { closepath } bind def
/re { exch dup neg 3 1 roll 5 3 roll moveto 0 rlineto
      0 exch rlineto 0 rlineto closepath } bind def
/S { stroke } bind def
/f { fill } bind def
/f* { eofill } bind def
/n { newpath } bind def
/W { clip } bind def
/W* { eoclip } bind def
/BT { } bind def
/ET { } bind def
/BDC { mark 3 1 roll /BDC pdfmark } bind def
/EMC { mark /EMC pdfmark } bind def
/cairo_store_point { /cairo_point_y exch def /cairo_point_x exch def } def
/Tj { show currentpoint cairo_store_point } bind def
/TJ {
  {
    dup
    type /stringtype eq
    { show } { -0.001 mul 0 cairo_font_matrix dtransform rmoveto } ifelse
  } forall
  currentpoint cairo_store_point
} bind def
/cairo_selectfont { cairo_font_matrix aload pop pop pop 0 0 6 array astore
    cairo_font exch selectfont cairo_point_x cairo_point_y moveto } bind def
/Tf { pop /cairo_font exch def /cairo_font_matrix where
      { pop cairo_selectfont } if } bind def
/Td { matrix translate cairo_font_matrix matrix concatmatrix dup
      /cairo_font_matrix exch def dup 4 get exch 5 get cairo_store_point
      /cairo_font where { pop cairo_selectfont } if } bind def
/Tm { 2 copy 8 2 roll 6 array astore /cairo_font_matrix exch def
      cairo_store_point /cairo_font where { pop cairo_selectfont } if } bind def
/g { setgray } bind def
/rg { setrgbcolor } bind def
/d1 { setcachedevice } bind def
/cairo_data_source {
  CairoDataIndex CairoData length lt
    { CairoData CairoDataIndex get /CairoDataIndex CairoDataIndex 1 add def }
    { () } ifelse
} def
/cairo_flush_ascii85_file { cairo_ascii85_file status { cairo_ascii85_file flushfile } if } def
/cairo_image { image cairo_flush_ascii85_file } def
/cairo_imagemask { imagemask cairo_flush_ascii85_file } def
%%EndProlog
%%BeginSetup
%%EndSetup
%%Page: 1 1
%%BeginPageSetup
%%PageBoundingBox: 18 18 366 366
%%EndPageSetup
q 18 18 348 348 rectclip
1 0 0 -1 0 384 cm q
0.917647 0.290196 0.231373 rg
336.684 95.316 m 316.738 108.66 l 333.254 133.312 342.047 162.328 342 192
 c 342 274.711 274.711 342 192 342 c 161.539 341.977 131.816 332.656 106.793
 315.289 c 130.73 305.031 l 121.27 282.969 l 72 304.086 l 72 360 l 96 360
 l 96 337.109 l 124.465 355.965 157.855 366.016 192 366 c 287.941 366 366
 287.945 366 192 c 366.055 157.574 355.848 123.914 336.684 95.316 c h
336.684 95.316 m f
192 42 m 222.457 42.023 252.184 51.344 277.203 68.715 c 253.27 78.969 l
 262.73 101.031 l 312 79.914 l 312 24 l 288 24 l 288 46.898 l 259.539 28.039
 226.145 17.984 192 18 c 96.059 18 18 96.055 18 192 c 17.945 226.453 28.168
 260.141 47.363 288.754 c 67.293 275.395 l 50.758 250.73 41.949 221.695 
42 192 c 42 109.289 109.289 42 192 42 c h
192 42 m f
0.203922 0.529412 0.796078 rg
126 180 120 78 re f
0.164706 0.439216 0.670588 rg
114 180 m 258 180 l 186 108 l h
114 180 m f
0.301961 0.717647 0.898039 rg
150 204 24 54 re f
216 138 m 216 114 l 240 114 l 240 162 l h
216 138 m f
198 204 24 24 re f
0.164706 0.439216 0.670588 rg
90 228 60 30 re f
222 228 60 30 re f
Q Q
showpage
%%Trailer
end
%%EOF
