%!PS-Adobe-3.0 EPSF-3.0
%%Creator: cairo 1.16.0 (https://cairographics.org)
%%CreationDate: Mon Dec 23 07:44:11 2019
%%Pages: 1
%%DocumentData: Clean7Bit
%%LanguageLevel: 2
%%BoundingBox: 60 18 330 366
%%EndComments
%%BeginProlog
50 dict begin
/q { gsave } bind def
/Q { grestore } bind def
/cm { 6 array astore concat } bind def
/w { setlinewidth } bind def
/J { setlinecap } bind def
/j { setlinejoin } bind def
/M { setmiterlimit } bind def
/d { setdash } bind def
/m { moveto } bind def
/l { lineto } bind def
/c { curveto } bind def
/h { closepath } bind def
/re { exch dup neg 3 1 roll 5 3 roll moveto 0 rlineto
      0 exch rlineto 0 rlineto closepath } bind def
/S { stroke } bind def
/f { fill } bind def
/f* { eofill } bind def
/n { newpath } bind def
/W { clip } bind def
/W* { eoclip } bind def
/BT { } bind def
/ET { } bind def
/BDC { mark 3 1 roll /BDC pdfmark } bind def
/EMC { mark /EMC pdfmark } bind def
/cairo_store_point { /cairo_point_y exch def /cairo_point_x exch def } def
/Tj { show currentpoint cairo_store_point } bind def
/TJ {
  {
    dup
    type /stringtype eq
    { show } { -0.001 mul 0 cairo_font_matrix dtransform rmoveto } ifelse
  } forall
  currentpoint cairo_store_point
} bind def
/cairo_selectfont { cairo_font_matrix aload pop pop pop 0 0 6 array astore
    cairo_font exch selectfont cairo_point_x cairo_point_y moveto } bind def
/Tf { pop /cairo_font exch def /cairo_font_matrix where
      { pop cairo_selectfont } if } bind def
/Td { matrix translate cairo_font_matrix matrix concatmatrix dup
      /cairo_font_matrix exch def dup 4 get exch 5 get cairo_store_point
      /cairo_font where { pop cairo_selectfont } if } bind def
/Tm { 2 copy 8 2 roll 6 array astore /cairo_font_matrix exch def
      cairo_store_point /cairo_font where { pop cairo_selectfont } if } bind def
/g { setgray } bind def
/rg { setrgbcolor } bind def
/d1 { setcachedevice } bind def
/cairo_data_source {
  CairoDataIndex CairoData length lt
    { CairoData CairoDataIndex get /CairoDataIndex CairoDataIndex 1 add def }
    { () } ifelse
} def
/cairo_flush_ascii85_file { cairo_ascii85_file status { cairo_ascii85_file flushfile } if } def
/cairo_image { image cairo_flush_ascii85_file } def
/cairo_imagemask { imagemask cairo_flush_ascii85_file } def
%%EndProlog
%%BeginSetup
%%EndSetup
%%Page: 1 1
%%BeginPageSetup
%%PageBoundingBox: 60 18 330 366
%%EndPageSetup
q 60 18 270 348 rectclip
1 0 0 -1 0 384 cm q
0.188235 0.52549 0.803922 rg
144 276 m 180 300 l 216 270 l 236.398 288 l 186 330 l 129.32 317.387 l 
h
144 276 m f
0.203922 0.529412 0.796078 rg
152.598 297.496 m 144 276 l 102 258 l 87.309 261.672 75.988 273.383 72.816
 288.191 c 60 348 l 66 366 l 132 366 l 152.871 314.609 l 154.887 309.066
 154.789 302.973 152.598 297.496 c h
152.598 297.496 m f
0.301961 0.717647 0.898039 rg
152.598 297.492 m 144 276 l 120 282 l 114 366 l 132 366 l 152.871 314.609
 l 154.887 309.066 154.789 302.973 152.598 297.492 c h
152.598 297.492 m f
1 0.854902 0.823529 rg
156 228 m 156 216 l 120 216 l 102 258 l 120 282 l 144 276 l 138 270 l 150
 270 l 150 252 l 162 252 l h
156 228 m f
0.419608 0.25098 0.164706 rg
174 222 m 117.43 222 l 117.43 215.371 122.801 210 129.43 210 c 174 210 
l h
174 222 m f
1 0.623529 0.607843 rg
144 276 m 126 258 l 123.656 255.66 119.859 255.664 117.52 258.004 c 115.18
 260.344 115.176 264.141 117.516 266.484 c 130.426 279.395 l h
144 276 m f
0.164706 0.439216 0.670588 rg
101.918 306.988 m 102.465 303.719 100.254 300.625 96.988 300.082 c 93.719
 299.535 90.625 301.746 90.082 305.012 c 84 341.504 l 84 366 l 96 366 l 
96 342.496 l h
101.918 306.988 m f
0.960784 0.694118 0.258824 rg
216 270 m 252 270 l 252 282 l 252 291.941 243.941 300 234 300 c 224.059
 300 216 291.941 216 282 c h
216 270 m f
0.988235 0.654902 0.0745098 rg
198 222 72 48 re f
0.976471 0.521569 0 rg
198 246 72 24 re f
0.301961 0.717647 0.898039 rg
330 114 m 330 87.723 319.227 62.594 300.199 44.473 c 281.168 26.355 255.543
 16.828 229.297 18.113 c 179.746 20.477 139.375 61.762 138.035 111.348 c
 137.078 145.457 154.328 177.5 183.324 195.484 c 192.402 201.055 197.953
 210.926 198 221.574 c 198 222 l 270 222 l 270 221.621 l 270 210.773 275.902
 201.008 285.078 195.23 c 313.043 177.695 330.012 147.004 330 114 c h
330 114 m f
0.976471 0.521569 0 rg
228 222 m 216 222 l 216 171.941 l 216.055 151.789 208.047 132.453 193.758
 118.242 c 202.242 109.758 l 218.789 126.211 228.066 148.605 228 171.941
 c h
228 222 m f
252 222 m 240 222 l 240 171.941 l 239.934 148.605 249.211 126.211 265.758
 109.758 c 274.242 118.242 l 259.953 132.453 251.945 151.789 252 171.941
 c h
252 222 m f
0.992157 0.713726 0.184314 rg
234 120 m 232.41 120 230.883 119.371 229.758 118.242 c 216 104.484 l 202.242
 118.242 l 193.758 109.758 l 211.758 91.758 l 212.883 90.633 214.41 90 216
 90 c 217.59 90 219.117 90.633 220.242 91.758 c 234 105.516 l 247.758 91.758
 l 248.883 90.633 250.41 90 252 90 c 253.59 90 255.117 90.633 256.242 91.758
 c 274.242 109.758 l 265.758 118.242 l 252 104.484 l 238.242 118.242 l 237.117
 119.371 235.59 120 234 120 c h
234 120 m f
0.988235 0.654902 0.0745098 rg
186 132 m 178.719 132 172.156 127.613 169.371 120.887 c 166.586 114.164
 168.125 106.422 173.273 101.273 c 178.422 96.125 186.164 94.586 192.887
 97.371 c 199.613 100.156 204 106.719 204 114 c 203.988 123.938 195.938 
131.988 186 132 c h
186 108 m 183.574 108 181.387 109.461 180.457 111.703 c 179.527 113.945
 180.043 116.527 181.758 118.242 c 183.473 119.957 186.055 120.473 188.297
 119.543 c 190.539 118.613 192 116.426 192 114 c 191.996 110.688 189.312
 108.004 186 108 c h
186 108 m f
282 132 m 274.719 132 268.156 127.613 265.371 120.887 c 262.586 114.164
 264.125 106.422 269.273 101.273 c 274.422 96.125 282.164 94.586 288.887
 97.371 c 295.613 100.156 300 106.719 300 114 c 299.988 123.938 291.938 
131.988 282 132 c h
282 108 m 279.574 108 277.387 109.461 276.457 111.703 c 275.527 113.945
 276.043 116.527 277.758 118.242 c 279.473 119.957 282.055 120.473 284.297
 119.543 c 286.539 118.613 288 116.426 288 114 c 287.996 110.688 285.312
 108.004 282 108 c h
282 108 m f
Q Q
showpage
%%Trailer
end
%%EOF
