%!PS-Adobe-3.0 EPSF-3.0
%%Creator: cairo 1.16.0 (https://cairographics.org)
%%CreationDate: Mon Dec 23 07:44:12 2019
%%Pages: 1
%%DocumentData: Clean7Bit
%%LanguageLevel: 2
%%BoundingBox: 18 18 366 366
%%EndComments
%%BeginProlog
50 dict begin
/q { gsave } bind def
/Q { grestore } bind def
/cm { 6 array astore concat } bind def
/w { setlinewidth } bind def
/J { setlinecap } bind def
/j { setlinejoin } bind def
/M { setmiterlimit } bind def
/d { setdash } bind def
/m { moveto } bind def
/l { lineto } bind def
/c { curveto } bind def
/h { closepath } bind def
/re { exch dup neg 3 1 roll 5 3 roll moveto 0 rlineto
      0 exch rlineto 0 rlineto closepath } bind def
/S { stroke } bind def
/f { fill } bind def
/f* { eofill } bind def
/n { newpath } bind def
/W { clip } bind def
/W* { eoclip } bind def
/BT { } bind def
/ET { } bind def
/BDC { mark 3 1 roll /BDC pdfmark } bind def
/EMC { mark /EMC pdfmark } bind def
/cairo_store_point { /cairo_point_y exch def /cairo_point_x exch def } def
/Tj { show currentpoint cairo_store_point } bind def
/TJ {
  {
    dup
    type /stringtype eq
    { show } { -0.001 mul 0 cairo_font_matrix dtransform rmoveto } ifelse
  } forall
  currentpoint cairo_store_point
} bind def
/cairo_selectfont { cairo_font_matrix aload pop pop pop 0 0 6 array astore
    cairo_font exch selectfont cairo_point_x cairo_point_y moveto } bind def
/Tf { pop /cairo_font exch def /cairo_font_matrix where
      { pop cairo_selectfont } if } bind def
/Td { matrix translate cairo_font_matrix matrix concatmatrix dup
      /cairo_font_matrix exch def dup 4 get exch 5 get cairo_store_point
      /cairo_font where { pop cairo_selectfont } if } bind def
/Tm { 2 copy 8 2 roll 6 array astore /cairo_font_matrix exch def
      cairo_store_point /cairo_font where { pop cairo_selectfont } if } bind def
/g { setgray } bind def
/rg { setrgbcolor } bind def
/d1 { setcachedevice } bind def
/cairo_data_source {
  CairoDataIndex CairoData length lt
    { CairoData CairoDataIndex get /CairoDataIndex CairoDataIndex 1 add def }
    { () } ifelse
} def
/cairo_flush_ascii85_file { cairo_ascii85_file status { cairo_ascii85_file flushfile } if } def
/cairo_image { image cairo_flush_ascii85_file } def
/cairo_imagemask { imagemask cairo_flush_ascii85_file } def
%%EndProlog
%%BeginSetup
%%EndSetup
%%Page: 1 1
%%BeginPageSetup
%%PageBoundingBox: 18 18 366 366
%%EndPageSetup
q 18 18 348 348 rectclip
1 0 0 -1 0 384 cm q
0.960784 0.694118 0.258824 rg
174 342 m 210 342 l 210 348 l 210 357.941 201.941 366 192 366 c 182.059
 366 174 357.941 174 348 c h
174 342 m f
0.988235 0.654902 0.0745098 rg
156 282 72 60 re f
0.976471 0.521569 0 rg
156 318 72 24 re f
0.301961 0.717647 0.898039 rg
330.016 156.016 m 330.016 232.238 268.223 294.027 192 294.027 c 115.777
 294.027 53.984 232.238 53.984 156.016 c 53.984 79.793 115.777 18 192 18
 c 268.223 18 330.016 79.793 330.016 156.016 c h
330.016 156.016 m f
0.917647 0.290196 0.231373 rg
192 270 m 133.023 270 88.793 216.043 100.355 158.215 c 105.879 130.602 
l 114.09 89.551 150.137 60 192 60 c 233.863 60 269.91 89.551 278.121 130.602
 c 283.645 158.215 l 295.207 216.043 250.977 270 192 270 c h
192 270 m f
0.858824 0.254902 0.196078 rg
283.645 158.215 m 278.121 130.602 l 274.082 110.344 263.016 92.16 246.879
 79.262 c 255.637 90.215 261.637 103.105 264.375 116.855 c 269.898 144.469
 l 281.465 202.301 237.23 256.254 178.254 256.254 c 156.84 256.316 136.059
 248.961 119.449 235.445 c 137.148 257.355 163.832 270.062 192 270 c 250.977
 270 295.207 216.043 283.645 158.215 c h
283.645 158.215 m f
0.811765 0.231373 0.180392 rg
150 180 m 150 192 l 140.062 192.012 132.012 200.062 132 210 c 120 210 l
 119.996 204.254 121.652 198.625 124.77 193.801 c 117.18 188.766 107.113
 189.668 100.539 195.969 c 99.59 191.531 98.977 187.031 98.699 182.504 c
 109.707 176.414 123.285 177.445 133.246 185.129 c 138.188 181.777 144.027
 179.992 150 180 c h
150 180 m f
161.699 157.754 m 153.211 166.246 l 148.773 161.816 145.77 156.156 144.586
 150 c 138 150 l 122.203 149.984 109.117 137.73 108.066 121.965 c 110.742
 113.242 114.77 104.996 120 97.523 c 120 120 l 120.012 129.938 128.062 137.988
 138 138 c 144.586 138 l 145.77 131.844 148.773 126.184 153.211 121.754 
c 161.699 130.246 l 154.109 137.844 154.109 150.156 161.699 157.754 c h
161.699 157.754 m f
174 96 m 174 108 l 157.438 107.984 144.016 94.562 144 78 c 144 74.281 l
 156 67.719 l 156 78 l 156.012 87.938 164.062 95.988 174 96 c h
174 96 m f
174 234 m 174 246 l 168.207 246.008 162.539 244.32 157.688 241.156 c 152.254
 246.531 145.078 249.785 137.453 250.328 c 136.695 250.379 135.938 250.41
 135.18 250.41 c 135.023 250.41 134.863 250.41 134.707 250.402 c 124.66 
242.578 116.301 232.797 110.137 221.656 c 121.027 232.547 l 128.762 240.281
 141.273 240.375 149.121 232.754 c 145.777 227.809 143.992 221.973 144 216
 c 156 216 l 156.012 225.938 164.062 233.988 174 234 c h
174 234 m f
275.934 121.965 m 274.883 137.73 261.797 149.984 246 150 c 239.414 150 
l 238.23 156.156 235.227 161.816 230.789 166.246 c 222.301 157.754 l 229.891
 150.156 229.891 137.844 222.301 130.246 c 230.789 121.754 l 235.227 126.184
 238.23 131.844 239.414 138 c 246 138 l 255.938 137.988 263.988 129.938 
264 120 c 264 97.523 l h
275.934 121.965 m f
273.863 221.648 m 267.699 232.793 259.344 242.578 249.293 250.402 c 249.289
 250.406 249.281 250.406 249.277 250.402 c 249.273 250.406 249.266 250.406
 249.262 250.402 c 249.258 250.406 249.25 250.406 249.246 250.402 c 249.105
 250.41 248.961 250.41 248.82 250.41 c 248.062 250.41 247.305 250.379 246.547
 250.328 c 238.922 249.785 231.746 246.531 226.312 241.156 c 221.461 244.32
 215.793 246.008 210 246 c 210 234 l 219.938 233.988 227.988 225.938 228
 216 c 240 216 l 240.008 221.973 238.223 227.809 234.879 232.754 c 242.727
 240.375 255.238 240.281 262.973 232.547 c h
273.863 221.648 m f
285.301 182.504 m 285.023 187.031 284.41 191.531 283.461 195.969 c 276.887
 189.668 266.82 188.766 259.23 193.801 c 262.348 198.625 264.004 204.254
 264 210 c 252 210 l 251.988 200.062 243.938 192.012 234 192 c 234 180 l
 239.973 179.992 245.812 181.777 250.754 185.129 c 260.715 177.445 274.293
 176.414 285.301 182.504 c h
285.301 182.504 m f
240 74.281 m 240 78 l 239.984 94.562 226.562 107.984 210 108 c 210 96 l
 219.938 95.988 227.988 87.938 228 78 c 228 67.719 l 232.168 69.582 236.18
 71.777 240 74.281 c h
240 74.281 m f
198 60.211 m 198 269.812 l 196.02 269.941 194.02 270.004 192 270 c 189.984
 270 187.984 269.938 186 269.812 c 186 60.211 l 187.988 60.066 189.988 59.996
 192 60 c 194.012 60 196.012 60.07 198 60.211 c h
198 60.211 m f
0.188235 0.52549 0.803922 rg
54 90 m 96 132 l 96 90 l 114 90 l 114 18 l 18 18 l 18 90 l h
54 90 m f
0.164706 0.439216 0.670588 rg
48 36 48 12 re f
36 60 42 12 re f
0.188235 0.52549 0.803922 rg
318 294 m 270 246 l 270 294 l 252 294 l 252 366 l 366 366 l 366 294 l h
318 294 m f
0.164706 0.439216 0.670588 rg
270 336 66 12 re f
288 312 60 12 re f
0.188235 0.52549 0.803922 rg
54 294 m 96 246 l 96 294 l 132 294 l 132 366 l 18 366 l 18 294 l h
54 294 m f
0.164706 0.439216 0.670588 rg
36 336 54 12 re f
36 312 78 12 re f
0.188235 0.52549 0.803922 rg
312 114 m 276 150 l 276 114 l 258 114 l 258 18 l 366 18 l 366 114 l h
312 114 m f
0.164706 0.439216 0.670588 rg
288 36 60 12 re f
276 84 60 12 re f
276 60 72 12 re f
Q Q
showpage
%%Trailer
end
%%EOF
