%!PS-Adobe-3.0 EPSF-3.0
%%Creator: cairo 1.16.0 (https://cairographics.org)
%%CreationDate: Mon Dec 23 07:44:12 2019
%%Pages: 1
%%DocumentData: Clean7Bit
%%LanguageLevel: 2
%%BoundingBox: 18 18 366 360
%%EndComments
%%BeginProlog
50 dict begin
/q { gsave } bind def
/Q { grestore } bind def
/cm { 6 array astore concat } bind def
/w { setlinewidth } bind def
/J { setlinecap } bind def
/j { setlinejoin } bind def
/M { setmiterlimit } bind def
/d { setdash } bind def
/m { moveto } bind def
/l { lineto } bind def
/c { curveto } bind def
/h { closepath } bind def
/re { exch dup neg 3 1 roll 5 3 roll moveto 0 rlineto
      0 exch rlineto 0 rlineto closepath } bind def
/S { stroke } bind def
/f { fill } bind def
/f* { eofill } bind def
/n { newpath } bind def
/W { clip } bind def
/W* { eoclip } bind def
/BT { } bind def
/ET { } bind def
/BDC { mark 3 1 roll /BDC pdfmark } bind def
/EMC { mark /EMC pdfmark } bind def
/cairo_store_point { /cairo_point_y exch def /cairo_point_x exch def } def
/Tj { show currentpoint cairo_store_point } bind def
/TJ {
  {
    dup
    type /stringtype eq
    { show } { -0.001 mul 0 cairo_font_matrix dtransform rmoveto } ifelse
  } forall
  currentpoint cairo_store_point
} bind def
/cairo_selectfont { cairo_font_matrix aload pop pop pop 0 0 6 array astore
    cairo_font exch selectfont cairo_point_x cairo_point_y moveto } bind def
/Tf { pop /cairo_font exch def /cairo_font_matrix where
      { pop cairo_selectfont } if } bind def
/Td { matrix translate cairo_font_matrix matrix concatmatrix dup
      /cairo_font_matrix exch def dup 4 get exch 5 get cairo_store_point
      /cairo_font where { pop cairo_selectfont } if } bind def
/Tm { 2 copy 8 2 roll 6 array astore /cairo_font_matrix exch def
      cairo_store_point /cairo_font where { pop cairo_selectfont } if } bind def
/g { setgray } bind def
/rg { setrgbcolor } bind def
/d1 { setcachedevice } bind def
/cairo_data_source {
  CairoDataIndex CairoData length lt
    { CairoData CairoDataIndex get /CairoDataIndex CairoDataIndex 1 add def }
    { () } ifelse
} def
/cairo_flush_ascii85_file { cairo_ascii85_file status { cairo_ascii85_file flushfile } if } def
/cairo_image { image cairo_flush_ascii85_file } def
/cairo_imagemask { imagemask cairo_flush_ascii85_file } def
%%EndProlog
%%BeginSetup
%%EndSetup
%%Page: 1 1
%%BeginPageSetup
%%PageBoundingBox: 18 18 366 360
%%EndPageSetup
q 18 18 348 342 rectclip
1 0 0 -1 0 384 cm q
0.960784 0.666667 0.192157 rg
18 342 96 24 re f
0.956863 0.752941 0.403922 rg
144 342 96 24 re f
0.960784 0.666667 0.192157 rg
144 318 96 24 re f
0.956863 0.752941 0.403922 rg
144 294 96 24 re f
0.960784 0.666667 0.192157 rg
144 270 96 24 re f
0.956863 0.752941 0.403922 rg
144 246 96 24 re f
0.960784 0.666667 0.192157 rg
270 342 96 24 re f
0.956863 0.752941 0.403922 rg
270 318 96 24 re f
0.960784 0.666667 0.192157 rg
270 294 96 24 re f
0.956863 0.752941 0.403922 rg
270 270 96 24 re f
0.960784 0.666667 0.192157 rg
270 246 96 24 re f
0.956863 0.752941 0.403922 rg
270 222 96 24 re f
0.960784 0.666667 0.192157 rg
270 198 96 24 re f
0.956863 0.752941 0.403922 rg
270 174 96 24 re f
0.960784 0.666667 0.192157 rg
270 150 96 24 re f
0.203922 0.529412 0.796078 rg
216 222 m 216 84 l 216 68.086 222.32 52.824 233.574 41.574 c 244.824 30.32
 260.086 24 276 24 c 291.914 24 307.176 30.32 318.426 41.574 c 329.68 52.824
 336 68.086 336 84 c 366 84 l 324 126 l 282 84 l 312 84 l 312 64.117 295.883
 48 276 48 c 256.117 48 240 64.117 240 84 c 240 222 l h
216 222 m f
42 318 m 42 156 l 42 140.086 48.32 124.824 59.574 113.574 c 70.824 102.32
 86.086 96 102 96 c 117.914 96 133.176 102.32 144.426 113.574 c 155.68 124.824
 162 140.086 162 156 c 162 186 l 192 186 l 150 228 l 108 186 l 138 186 l
 138 156 l 138 136.117 121.883 120 102 120 c 82.117 120 66 136.117 66 156
 c 66 318 l h
42 318 m f
0.976471 0.521569 0 rg
90 342 24 24 re f
216 318 24 24 re f
0.960784 0.666667 0.192157 rg
216 342 24 24 re f
0.976471 0.521569 0 rg
216 270 24 24 re f
0.960784 0.666667 0.192157 rg
216 294 24 24 re f
216 246 24 24 re f
0.976471 0.521569 0 rg
342 294 24 24 re f
342 342 24 24 re f
0.960784 0.666667 0.192157 rg
342 318 24 24 re f
342 222 24 24 re f
342 270 24 24 re f
0.976471 0.521569 0 rg
342 246 24 24 re f
342 150 24 24 re f
342 198 24 24 re f
0.960784 0.666667 0.192157 rg
342 174 24 24 re f
Q Q
showpage
%%Trailer
end
%%EOF
