%!PS-Adobe-3.0 EPSF-3.0
%%Creator: cairo 1.16.0 (https://cairographics.org)
%%CreationDate: Mon Dec 23 07:44:13 2019
%%Pages: 1
%%DocumentData: Clean7Bit
%%LanguageLevel: 2
%%BoundingBox: 18 18 366 372
%%EndComments
%%BeginProlog
50 dict begin
/q { gsave } bind def
/Q { grestore } bind def
/cm { 6 array astore concat } bind def
/w { setlinewidth } bind def
/J { setlinecap } bind def
/j { setlinejoin } bind def
/M { setmiterlimit } bind def
/d { setdash } bind def
/m { moveto } bind def
/l { lineto } bind def
/c { curveto } bind def
/h { closepath } bind def
/re { exch dup neg 3 1 roll 5 3 roll moveto 0 rlineto
      0 exch rlineto 0 rlineto closepath } bind def
/S { stroke } bind def
/f { fill } bind def
/f* { eofill } bind def
/n { newpath } bind def
/W { clip } bind def
/W* { eoclip } bind def
/BT { } bind def
/ET { } bind def
/BDC { mark 3 1 roll /BDC pdfmark } bind def
/EMC { mark /EMC pdfmark } bind def
/cairo_store_point { /cairo_point_y exch def /cairo_point_x exch def } def
/Tj { show currentpoint cairo_store_point } bind def
/TJ {
  {
    dup
    type /stringtype eq
    { show } { -0.001 mul 0 cairo_font_matrix dtransform rmoveto } ifelse
  } forall
  currentpoint cairo_store_point
} bind def
/cairo_selectfont { cairo_font_matrix aload pop pop pop 0 0 6 array astore
    cairo_font exch selectfont cairo_point_x cairo_point_y moveto } bind def
/Tf { pop /cairo_font exch def /cairo_font_matrix where
      { pop cairo_selectfont } if } bind def
/Td { matrix translate cairo_font_matrix matrix concatmatrix dup
      /cairo_font_matrix exch def dup 4 get exch 5 get cairo_store_point
      /cairo_font where { pop cairo_selectfont } if } bind def
/Tm { 2 copy 8 2 roll 6 array astore /cairo_font_matrix exch def
      cairo_store_point /cairo_font where { pop cairo_selectfont } if } bind def
/g { setgray } bind def
/rg { setrgbcolor } bind def
/d1 { setcachedevice } bind def
/cairo_data_source {
  CairoDataIndex CairoData length lt
    { CairoData CairoDataIndex get /CairoDataIndex CairoDataIndex 1 add def }
    { () } ifelse
} def
/cairo_flush_ascii85_file { cairo_ascii85_file status { cairo_ascii85_file flushfile } if } def
/cairo_image { image cairo_flush_ascii85_file } def
/cairo_imagemask { imagemask cairo_flush_ascii85_file } def
%%EndProlog
%%BeginSetup
%%EndSetup
%%Page: 1 1
%%BeginPageSetup
%%PageBoundingBox: 18 18 366 372
%%EndPageSetup
q 18 18 348 354 rectclip
1 0 0 -1 0 384 cm q
0.952941 0.321569 0.266667 rg
342 78 m 366 78 l 366 264 l 258 264 l 258 240 l 342 240 l h
342 78 m f
0.188235 0.52549 0.803922 rg
264 96 m 234 132 l 186 156 l 198 180 l 252 156 l 294 114 l h
264 96 m f
0.301961 0.717647 0.898039 rg
306 60 m 318.781 66.391 l 333.012 73.508 342 88.051 342 103.957 c 342 174
 l 276 174 l 255.129 116.609 l 253.113 111.066 253.211 104.973 255.402 99.496
 c 264 78 l h
306 60 m f
1 0.854902 0.823529 rg
288 18 m 252 18 l 252 30 l 246 54 l 258 54 l 258 72 l 270 72 l 264 78 l
 288 84 l 306 60 l h
288 18 m f
0.203922 0.529412 0.796078 rg
342 103.957 m 342 174 l 288 174 l 288 84 l 306 60 l 318.781 66.391 l 333.012
 73.504 342 88.047 342 103.957 c h
342 103.957 m f
0.188235 0.52549 0.803922 rg
342 103.957 m 342 198 l 288 198 l 288 84 l 306 60 l 318.781 66.391 l 333.012
 73.504 342 88.047 342 103.957 c h
342 103.957 m f
0.12549 0.380392 0.6 rg
342 198 m 342 240 l 264 240 l 276 288 l 252 342 l 240 342 l 240 198 l h
342 198 m f
0.321569 0.321569 0.313726 rg
204 366 m 252 366 l 252 342 l 240 342 l h
204 366 m f
0.419608 0.25098 0.164706 rg
290.57 24 m 234 24 l 234 12 l 278.57 12 l 285.199 12 290.57 17.371 290.57
 24 c h
290.57 24 m f
1 0.854902 0.823529 rg
276 150 m 288 174 l 240 174 l 240 163.613 247.508 154.75 257.754 153.039
 c h
276 150 m f
1 0.623529 0.607843 rg
290.484 68.484 m 292.824 66.141 292.82 62.344 290.48 60.004 c 288.141 57.664
 284.344 57.66 282 60 c 264 78 l 277.574 81.395 l h
290.484 68.484 m f
0.164706 0.439216 0.670588 rg
288 186.531 m 342 170.328 l 342 157.801 l 288 174 l h
288 186.531 m f
0.952941 0.321569 0.266667 rg
42 78 m 18 78 l 18 264 l 126 264 l 126 240 l 42 240 l h
42 78 m f
1 0.854902 0.823529 rg
186 90.133 m 174 90.133 l 174 66 l 174 62.688 176.688 60 180 60 c 183.312
 60 186 62.688 186 66 c h
186 90.133 m f
0.188235 0.52549 0.803922 rg
120 78 m 156 102 l 180 84 l 198 102 l 162 132 l 114.043 121.328 l h
120 78 m f
1 0.854902 0.823529 rg
180 84 m 195 69 l 197.387 66.613 200.625 65.273 204 65.273 c 207.375 65.273
 210.613 66.613 213 69 c 215.387 71.387 216.727 74.625 216.727 78 c 216.727
 81.375 215.387 84.613 213 87 c 198 102 l h
180 84 m f
0.301961 0.717647 0.898039 rg
78 60 m 65.219 66.391 l 50.988 73.508 42 88.051 42 103.957 c 42 174 l 108
 174 l 128.871 116.609 l 130.887 111.066 130.789 104.973 128.598 99.496 
c 120 78 l h
78 60 m f
1 0.854902 0.823529 rg
132 30 m 132 18 l 96 18 l 78 60 l 96 84 l 120 78 l 114 72 l 126 72 l 126
 54 l 138 54 l h
132 30 m f
0.419608 0.25098 0.164706 rg
150 24 m 93.43 24 l 93.43 20.816 94.691 17.766 96.941 15.516 c 99.195 13.266
 102.246 12 105.43 12 c 150 12 l h
150 24 m f
0.188235 0.52549 0.803922 rg
96 84 m 96 198 l 42 198 l 42 103.957 l 42 88.047 50.988 73.504 65.219 66.391
 c 78 60 l h
96 84 m f
0.12549 0.380392 0.6 rg
42 198 m 42 240 l 120 240 l 108 288 l 132 342 l 144 342 l 144 198 l h
42 198 m f
0.321569 0.321569 0.313726 rg
180 366 m 132 366 l 132 342 l 144 342 l h
180 366 m f
1 0.623529 0.607843 rg
93.516 60 m 92.391 61.125 91.758 62.652 91.758 64.242 c 91.758 65.832 92.391
 67.359 93.516 68.484 c 106.426 81.395 l 120 78 l 102 60 l 100.875 58.875
 99.348 58.242 97.758 58.242 c 96.168 58.242 94.641 58.875 93.516 60 c h
93.516 60 m f
0.164706 0.439216 0.670588 rg
42 159.23 m 42 172.859 l 55.234 179.988 74.465 190.348 88.656 198 c 96 
198 l 96 188.328 l 79.539 179.449 55.27 166.379 42 159.23 c h
42 159.23 m f
0.415686 0.690196 0.882353 rg
138 126 84 48 re f
0.866667 0.909804 0.976471 rg
186 150 m 186 153.312 183.312 156 180 156 c 176.688 156 174 153.312 174
 150 c 174 146.688 176.688 144 180 144 c 183.312 144 186 146.688 186 150
 c h
186 150 m f
0.839216 0.839216 0.831373 rg
66 174 m 66 366 l 90 366 l 90 198 l 294 198 l 294 366 l 318 366 l 318 174
 l h
66 174 m f
0.541176 0.541176 0.533333 rg
18 264 24 102 re f
342 264 24 102 re f
0.164706 0.439216 0.670588 rg
263.602 139.902 m 267.77 151.371 l 276 150 l 312 132 l 306 108 l 305.195
 104.785 301.938 102.832 298.723 103.633 c 295.508 104.438 293.555 107.695
 294.359 110.91 c 298.023 125.574 l 272.246 138.461 l h
263.602 139.902 m f
0.278431 0.635294 0.831373 rg
288 130.586 m 272.246 138.461 l 263.602 139.902 l 267.773 151.371 l 276
 150 l 288 144 l h
288 130.586 m f
0.188235 0.52549 0.803922 rg
306 108 m 312 132 l 276 150 l 288 174 l 348 156 l 342 96 l 338.23 80.93
 327.457 68.582 313.031 62.812 c 306 60 l h
306 108 m f
72 108 m 66 138 l 117.07 173.691 l 122.051 177.172 123.336 183.996 119.965
 189.051 c 119.816 189.277 l 116.535 194.238 110.012 195.879 104.773 193.059
 c 84.148 181.926 36 156 36 156 c 42 96 l 45.77 80.93 56.543 68.582 70.969
 62.812 c 78 60 l h
72 108 m f
1 0.854902 0.823529 rg
117.07 173.691 m 101.43 162.762 l 86.211 183.051 l 93.285 186.863 99.824
 190.387 104.773 193.059 c 110.012 195.879 116.535 194.238 119.816 189.277
 c 119.965 189.051 l 123.336 183.996 122.051 177.172 117.07 173.691 c h
117.07 173.691 m f
0.164706 0.439216 0.670588 rg
96 158.969 m 66 138 l 72 108 l 72.312 106.441 73.23 105.066 74.555 104.184
 c 75.879 103.301 77.5 102.98 79.062 103.293 c 82.312 103.945 84.418 107.105
 83.766 110.355 c 79.305 132.66 l 96 144.324 l h
96 158.969 m f
0.278431 0.635294 0.831373 rg
96 144.324 m 114.172 157.027 l 109.926 168.703 l 96 158.969 l h
96 144.324 m f
Q Q
showpage
%%Trailer
end
%%EOF
