%!PS-Adobe-3.0 EPSF-3.0
%%Creator: cairo 1.16.0 (https://cairographics.org)
%%CreationDate: Mon Dec 23 07:44:18 2019
%%Pages: 1
%%DocumentData: Clean7Bit
%%LanguageLevel: 2
%%BoundingBox: 12 12 366 366
%%EndComments
%%BeginProlog
50 dict begin
/q { gsave } bind def
/Q { grestore } bind def
/cm { 6 array astore concat } bind def
/w { setlinewidth } bind def
/J { setlinecap } bind def
/j { setlinejoin } bind def
/M { setmiterlimit } bind def
/d { setdash } bind def
/m { moveto } bind def
/l { lineto } bind def
/c { curveto } bind def
/h { closepath } bind def
/re { exch dup neg 3 1 roll 5 3 roll moveto 0 rlineto
      0 exch rlineto 0 rlineto closepath } bind def
/S { stroke } bind def
/f { fill } bind def
/f* { eofill } bind def
/n { newpath } bind def
/W { clip } bind def
/W* { eoclip } bind def
/BT { } bind def
/ET { } bind def
/BDC { mark 3 1 roll /BDC pdfmark } bind def
/EMC { mark /EMC pdfmark } bind def
/cairo_store_point { /cairo_point_y exch def /cairo_point_x exch def } def
/Tj { show currentpoint cairo_store_point } bind def
/TJ {
  {
    dup
    type /stringtype eq
    { show } { -0.001 mul 0 cairo_font_matrix dtransform rmoveto } ifelse
  } forall
  currentpoint cairo_store_point
} bind def
/cairo_selectfont { cairo_font_matrix aload pop pop pop 0 0 6 array astore
    cairo_font exch selectfont cairo_point_x cairo_point_y moveto } bind def
/Tf { pop /cairo_font exch def /cairo_font_matrix where
      { pop cairo_selectfont } if } bind def
/Td { matrix translate cairo_font_matrix matrix concatmatrix dup
      /cairo_font_matrix exch def dup 4 get exch 5 get cairo_store_point
      /cairo_font where { pop cairo_selectfont } if } bind def
/Tm { 2 copy 8 2 roll 6 array astore /cairo_font_matrix exch def
      cairo_store_point /cairo_font where { pop cairo_selectfont } if } bind def
/g { setgray } bind def
/rg { setrgbcolor } bind def
/d1 { setcachedevice } bind def
/cairo_data_source {
  CairoDataIndex CairoData length lt
    { CairoData CairoDataIndex get /CairoDataIndex CairoDataIndex 1 add def }
    { () } ifelse
} def
/cairo_flush_ascii85_file { cairo_ascii85_file status { cairo_ascii85_file flushfile } if } def
/cairo_image { image cairo_flush_ascii85_file } def
/cairo_imagemask { imagemask cairo_flush_ascii85_file } def
%%EndProlog
%%BeginSetup
%%EndSetup
%%Page: 1 1
%%BeginPageSetup
%%PageBoundingBox: 12 12 366 366
%%EndPageSetup
q 12 12 354 354 rectclip
1 0 0 -1 0 384 cm q
1 0.854902 0.823529 rg
282 48 m 285 48 l 293.285 48 300 41.285 300 33 c 300 24.715 293.285 18 
285 18 c 178.781 18 l 168.453 18 158.625 22.434 151.793 30.176 c 144.957
 37.918 141.777 48.219 143.059 58.465 c 156 162 l 156 198 l 176.578 228 
l 234 228 l 234 204 l 294 204 l 294 126 l 324 126 l h
282 48 m f
0.188235 0.52549 0.803922 rg
168 228 m 198 372 l 366 372 l 362.203 334.016 341.59 299.727 309.828 278.551
 c 234 228 l h
168 228 m f
0.301961 0.717647 0.898039 rg
270 252 m 276.078 260.684 l 299.871 294.676 318.078 332.258 330 372 c 198
 372 l 168 228 l 234 228 l h
270 252 m f
0.419608 0.25098 0.164706 rg
234 48 m 285 48 l 293.285 48 300 41.285 300 33 c 300 24.715 293.285 18 
285 18 c 178.781 18 l 168.453 18 158.625 22.434 151.793 30.176 c 144.957
 37.918 141.777 48.219 143.059 58.465 c 156 162 l 186 126 l 174 102 l 204
 90 l 234 126 l h
234 48 m f
0.278431 0.635294 0.831373 rg
234 228 m 171.266 228 l 198 270 l h
234 228 m f
0.164706 0.439216 0.670588 rg
156 198 m 191.613 245.484 217.02 299.828 230.613 357.609 c 234 372 l 12
 372 l 12 276 l 35.344 244.879 68.328 222.355 105.812 211.941 c h
156 198 m f
0.188235 0.52549 0.803922 rg
234 228 m 270 252 l 264 276 l 246 282 l 214.617 250.617 l h
234 228 m f
0.164706 0.439216 0.670588 rg
252 372 m 246 282 l 264 276 l 283.199 372 l h
252 372 m f
0.188235 0.52549 0.803922 rg
144 330 m 144 201.332 l 156 198 l 191.613 245.484 217.02 299.828 230.613
 357.609 c 234 372 l 180 372 l 192 354 l h
144 330 m f
0.419608 0.25098 0.164706 rg
264 84 m 276 84 l 279.324 84 282 86.676 282 90 c 282 93.324 279.324 96 
276 96 c 264 96 l 260.676 96 258 93.324 258 90 c 258 86.676 260.676 84 264
 84 c h
264 84 m f
1 0.623529 0.607843 rg
234 220.969 m 189.516 176.484 l 187.172 174.141 187.172 170.344 189.516
 168 c 191.859 165.656 195.656 165.656 198 168 c 234 204 l h
234 220.969 m f
Q Q
showpage
%%Trailer
end
%%EOF
