%!PS-Adobe-3.0 EPSF-3.0
%%Creator: cairo 1.16.0 (https://cairographics.org)
%%CreationDate: Mon Dec 23 07:44:20 2019
%%Pages: 1
%%DocumentData: Clean7Bit
%%LanguageLevel: 2
%%BoundingBox: 18 18 366 366
%%EndComments
%%BeginProlog
50 dict begin
/q { gsave } bind def
/Q { grestore } bind def
/cm { 6 array astore concat } bind def
/w { setlinewidth } bind def
/J { setlinecap } bind def
/j { setlinejoin } bind def
/M { setmiterlimit } bind def
/d { setdash } bind def
/m { moveto } bind def
/l { lineto } bind def
/c { curveto } bind def
/h { closepath } bind def
/re { exch dup neg 3 1 roll 5 3 roll moveto 0 rlineto
      0 exch rlineto 0 rlineto closepath } bind def
/S { stroke } bind def
/f { fill } bind def
/f* { eofill } bind def
/n { newpath } bind def
/W { clip } bind def
/W* { eoclip } bind def
/BT { } bind def
/ET { } bind def
/BDC { mark 3 1 roll /BDC pdfmark } bind def
/EMC { mark /EMC pdfmark } bind def
/cairo_store_point { /cairo_point_y exch def /cairo_point_x exch def } def
/Tj { show currentpoint cairo_store_point } bind def
/TJ {
  {
    dup
    type /stringtype eq
    { show } { -0.001 mul 0 cairo_font_matrix dtransform rmoveto } ifelse
  } forall
  currentpoint cairo_store_point
} bind def
/cairo_selectfont { cairo_font_matrix aload pop pop pop 0 0 6 array astore
    cairo_font exch selectfont cairo_point_x cairo_point_y moveto } bind def
/Tf { pop /cairo_font exch def /cairo_font_matrix where
      { pop cairo_selectfont } if } bind def
/Td { matrix translate cairo_font_matrix matrix concatmatrix dup
      /cairo_font_matrix exch def dup 4 get exch 5 get cairo_store_point
      /cairo_font where { pop cairo_selectfont } if } bind def
/Tm { 2 copy 8 2 roll 6 array astore /cairo_font_matrix exch def
      cairo_store_point /cairo_font where { pop cairo_selectfont } if } bind def
/g { setgray } bind def
/rg { setrgbcolor } bind def
/d1 { setcachedevice } bind def
/cairo_data_source {
  CairoDataIndex CairoData length lt
    { CairoData CairoDataIndex get /CairoDataIndex CairoDataIndex 1 add def }
    { () } ifelse
} def
/cairo_flush_ascii85_file { cairo_ascii85_file status { cairo_ascii85_file flushfile } if } def
/cairo_image { image cairo_flush_ascii85_file } def
/cairo_imagemask { imagemask cairo_flush_ascii85_file } def
%%EndProlog
%%BeginSetup
%%EndSetup
%%Page: 1 1
%%BeginPageSetup
%%PageBoundingBox: 18 18 366 366
%%EndPageSetup
q 18 18 348 348 rectclip
1 0 0 -1 0 384 cm q
0.203922 0.560784 0.85098 rg
150 18 216 348 re f
0.301961 0.717647 0.898039 rg
174 42 168 276 re f
240 336 36 12 re f
0.811765 0.231373 0.180392 rg
246 120 m 186 120 l 186 90 l 216 90 l 232.57 90 246 103.43 246 120 c h
246 120 m f
0.917647 0.290196 0.231373 rg
78 294 m 78 120 l 78 103.43 91.43 90 108 90 c 216 90 l 199.43 90 186 103.43
 186 120 c 186 264 l 186 280.57 172.57 294 156 294 c h
78 294 m f
0.858824 0.254902 0.196078 rg
156 294 m 48 294 l 31.43 294 18 280.57 18 264 c 126 264 l 126 280.57 139.43
 294 156 294 c h
156 294 m f
0.176471 0.490196 0.74902 rg
186 120 132 138 re f
0.0823529 0.294118 0.478431 rg
186 144 132 30 re f
0.988235 0.654902 0.0745098 rg
294 216 m 294 225.941 285.941 234 276 234 c 266.059 234 258 225.941 258
 216 c 258 206.059 266.059 198 276 198 c 285.941 198 294 206.059 294 216
 c h
294 216 m f
0.858824 0.254902 0.196078 rg
270 216 m 270 225.941 261.941 234 252 234 c 242.059 234 234 225.941 234
 216 c 234 206.059 242.059 198 252 198 c 261.941 198 270 206.059 270 216
 c h
270 216 m f
0.984314 0.407843 0.356863 rg
270 216 m 270 223.406 267.312 229.414 264 229.414 c 260.688 229.414 258
 223.406 258 216 c 258 208.594 260.688 202.586 264 202.586 c 267.312 202.586
 270 208.594 270 216 c h
270 216 m f
0.811765 0.231373 0.180392 rg
102 108 66 12 re f
96 138 48 12 re f
156 138 12 12 re f
96 168 48 12 re f
156 168 12 12 re f
96 198 48 12 re f
156 198 12 12 re f
96 228 48 12 re f
156 228 12 12 re f
Q Q
showpage
%%Trailer
end
%%EOF
