%!PS-Adobe-3.0 EPSF-3.0
%%Creator: cairo 1.16.0 (https://cairographics.org)
%%CreationDate: Mon Dec 23 07:44:23 2019
%%Pages: 1
%%DocumentData: Clean7Bit
%%LanguageLevel: 2
%%BoundingBox: 18 18 366 366
%%EndComments
%%BeginProlog
50 dict begin
/q { gsave } bind def
/Q { grestore } bind def
/cm { 6 array astore concat } bind def
/w { setlinewidth } bind def
/J { setlinecap } bind def
/j { setlinejoin } bind def
/M { setmiterlimit } bind def
/d { setdash } bind def
/m { moveto } bind def
/l { lineto } bind def
/c { curveto } bind def
/h { closepath } bind def
/re { exch dup neg 3 1 roll 5 3 roll moveto 0 rlineto
      0 exch rlineto 0 rlineto closepath } bind def
/S { stroke } bind def
/f { fill } bind def
/f* { eofill } bind def
/n { newpath } bind def
/W { clip } bind def
/W* { eoclip } bind def
/BT { } bind def
/ET { } bind def
/BDC { mark 3 1 roll /BDC pdfmark } bind def
/EMC { mark /EMC pdfmark } bind def
/cairo_store_point { /cairo_point_y exch def /cairo_point_x exch def } def
/Tj { show currentpoint cairo_store_point } bind def
/TJ {
  {
    dup
    type /stringtype eq
    { show } { -0.001 mul 0 cairo_font_matrix dtransform rmoveto } ifelse
  } forall
  currentpoint cairo_store_point
} bind def
/cairo_selectfont { cairo_font_matrix aload pop pop pop 0 0 6 array astore
    cairo_font exch selectfont cairo_point_x cairo_point_y moveto } bind def
/Tf { pop /cairo_font exch def /cairo_font_matrix where
      { pop cairo_selectfont } if } bind def
/Td { matrix translate cairo_font_matrix matrix concatmatrix dup
      /cairo_font_matrix exch def dup 4 get exch 5 get cairo_store_point
      /cairo_font where { pop cairo_selectfont } if } bind def
/Tm { 2 copy 8 2 roll 6 array astore /cairo_font_matrix exch def
      cairo_store_point /cairo_font where { pop cairo_selectfont } if } bind def
/g { setgray } bind def
/rg { setrgbcolor } bind def
/d1 { setcachedevice } bind def
/cairo_data_source {
  CairoDataIndex CairoData length lt
    { CairoData CairoDataIndex get /CairoDataIndex CairoDataIndex 1 add def }
    { () } ifelse
} def
/cairo_flush_ascii85_file { cairo_ascii85_file status { cairo_ascii85_file flushfile } if } def
/cairo_image { image cairo_flush_ascii85_file } def
/cairo_imagemask { imagemask cairo_flush_ascii85_file } def
%%EndProlog
%%BeginSetup
%%EndSetup
%%Page: 1 1
%%BeginPageSetup
%%PageBoundingBox: 18 18 366 366
%%EndPageSetup
q 18 18 348 348 rectclip
1 0 0 -1 0 384 cm q
0.301961 0.717647 0.898039 rg
78 18 222 348 re f
0.278431 0.635294 0.831373 rg
288 18 m 288 108 l 288 226.578 195.027 323.434 78 329.668 c 78 366 l 300
 366 l 300 18 l h
288 18 m f
0.203922 0.560784 0.85098 rg
96 132 180 12 re f
108 108 60 12 re f
198 108 24 12 re f
246 108 24 12 re f
108 192 60 12 re f
198 192 24 12 re f
108 162 60 12 re f
198 162 24 12 re f
198 60 42 12 re f
198 84 18 12 re f
228 84 24 12 re f
96 60 36 12 re f
96 84 12 12 re f
120 84 36 12 re f
102 36 84 12 re f
0.501961 0.764706 0.14902 rg
30 318 150 48 re f
0.411765 0.654902 0.0352941 rg
166.426 318 m 160.969 339.18 141.871 353.988 120 354 c 30 354 l 30 366 
l 180 366 l 180 318 l h
166.426 318 m f
0.988235 0.654902 0.0745098 rg
96 318 24 48 re f
0.501961 0.764706 0.14902 rg
18 270 150 48 re f
0.411765 0.654902 0.0352941 rg
154.426 270 m 148.969 291.18 129.871 305.988 108 306 c 18 306 l 18 318 
l 168 318 l 168 270 l h
154.426 270 m f
0.988235 0.654902 0.0745098 rg
84 270 24 48 re f
0.501961 0.764706 0.14902 rg
30 222 150 48 re f
0.411765 0.654902 0.0352941 rg
166.426 222 m 160.969 243.18 141.871 257.988 120 258 c 30 258 l 30 270 
l 180 270 l 180 222 l h
166.426 222 m f
0.988235 0.654902 0.0745098 rg
96 222 24 48 re f
168 270 54 24 re f
0.956863 0.752941 0.403922 rg
222 270 60 24 re f
0.960784 0.694118 0.258824 rg
264 270 18 24 re f
0.956863 0.752941 0.403922 rg
222 318 60 24 re f
0.960784 0.694118 0.258824 rg
264 318 18 24 re f
0.956863 0.752941 0.403922 rg
168 294 54 24 re f
0.960784 0.694118 0.258824 rg
204 294 18 24 re f
0.956863 0.752941 0.403922 rg
168 342 54 24 re f
0.960784 0.694118 0.258824 rg
204 342 18 24 re f
0.929412 0.521569 0.0823529 rg
204 270 18 24 re f
0.988235 0.654902 0.0745098 rg
168 318 54 24 re f
0.929412 0.521569 0.0823529 rg
204 318 18 24 re f
0.988235 0.654902 0.0745098 rg
222 294 60 24 re f
222 342 60 24 re f
0.929412 0.521569 0.0823529 rg
264 342 18 24 re f
264 294 18 24 re f
0.984314 0.407843 0.356863 rg
258 222 108 144 re f
0.301961 0.717647 0.898039 rg
282 246 60 24 re f
0.878431 0.878431 0.870588 rg
282 294 30 24 re f
0.741176 0.741176 0.729412 rg
282 318 30 24 re f
0.878431 0.878431 0.870588 rg
312 318 30 24 re f
0.741176 0.741176 0.729412 rg
312 294 30 24 re f
Q Q
showpage
%%Trailer
end
%%EOF
