%!PS-Adobe-3.0 EPSF-3.0
%%Creator: cairo 1.16.0 (https://cairographics.org)
%%CreationDate: Mon Dec 23 07:44:23 2019
%%Pages: 1
%%DocumentData: Clean7Bit
%%LanguageLevel: 2
%%BoundingBox: 18 17 372 366
%%EndComments
%%BeginProlog
50 dict begin
/q { gsave } bind def
/Q { grestore } bind def
/cm { 6 array astore concat } bind def
/w { setlinewidth } bind def
/J { setlinecap } bind def
/j { setlinejoin } bind def
/M { setmiterlimit } bind def
/d { setdash } bind def
/m { moveto } bind def
/l { lineto } bind def
/c { curveto } bind def
/h { closepath } bind def
/re { exch dup neg 3 1 roll 5 3 roll moveto 0 rlineto
      0 exch rlineto 0 rlineto closepath } bind def
/S { stroke } bind def
/f { fill } bind def
/f* { eofill } bind def
/n { newpath } bind def
/W { clip } bind def
/W* { eoclip } bind def
/BT { } bind def
/ET { } bind def
/BDC { mark 3 1 roll /BDC pdfmark } bind def
/EMC { mark /EMC pdfmark } bind def
/cairo_store_point { /cairo_point_y exch def /cairo_point_x exch def } def
/Tj { show currentpoint cairo_store_point } bind def
/TJ {
  {
    dup
    type /stringtype eq
    { show } { -0.001 mul 0 cairo_font_matrix dtransform rmoveto } ifelse
  } forall
  currentpoint cairo_store_point
} bind def
/cairo_selectfont { cairo_font_matrix aload pop pop pop 0 0 6 array astore
    cairo_font exch selectfont cairo_point_x cairo_point_y moveto } bind def
/Tf { pop /cairo_font exch def /cairo_font_matrix where
      { pop cairo_selectfont } if } bind def
/Td { matrix translate cairo_font_matrix matrix concatmatrix dup
      /cairo_font_matrix exch def dup 4 get exch 5 get cairo_store_point
      /cairo_font where { pop cairo_selectfont } if } bind def
/Tm { 2 copy 8 2 roll 6 array astore /cairo_font_matrix exch def
      cairo_store_point /cairo_font where { pop cairo_selectfont } if } bind def
/g { setgray } bind def
/rg { setrgbcolor } bind def
/d1 { setcachedevice } bind def
/cairo_data_source {
  CairoDataIndex CairoData length lt
    { CairoData CairoDataIndex get /CairoDataIndex CairoDataIndex 1 add def }
    { () } ifelse
} def
/cairo_flush_ascii85_file { cairo_ascii85_file status { cairo_ascii85_file flushfile } if } def
/cairo_image { image cairo_flush_ascii85_file } def
/cairo_imagemask { imagemask cairo_flush_ascii85_file } def
%%EndProlog
%%BeginSetup
%%EndSetup
%%Page: 1 1
%%BeginPageSetup
%%PageBoundingBox: 18 17 372 366
%%EndPageSetup
q 18 17 354 349 rectclip
1 0 0 -1 0 384 cm q
0.858824 0.254902 0.196078 rg
156 108 72 24.75 re f
0.917647 0.290196 0.231373 rg
162 132 m 222 132 l 268.391 132 306 169.609 306 216 c 306 318 l 306 344.508
 284.508 366 258 366 c 126 366 l 99.492 366 78 344.508 78 318 c 78 216 l
 78 169.609 115.609 132 162 132 c h
162 132 m f
0.811765 0.231373 0.180392 rg
156 84 72 24 re f
0.878431 0.25098 0.219608 rg
228 84 m 156 84 l 141.996 36.406 l 139.406 27.992 149.809 21.73 156.031
 27.953 c 157.613 29.535 159.762 30.426 162 30.426 c 164.238 30.426 166.387
 29.535 167.969 27.953 c 174.344 21.582 182.988 18 192 18 c 201.012 18 209.656
 21.582 216.031 27.953 c 217.613 29.535 219.762 30.426 222 30.426 c 224.238
 30.426 226.387 29.535 227.969 27.953 c 234.191 21.73 244.594 27.992 242.004
 36.406 c h
228 84 m f
0.811765 0.231373 0.180392 rg
210 54 m 208.523 53.41 206.871 53.43 205.406 54.055 c 203.945 54.684 202.789
 55.867 202.199 57.344 c 192 82.844 l 181.801 57.344 l 181.211 55.867 180.055
 54.684 178.594 54.055 c 177.129 53.43 175.477 53.41 174 54 c 170.922 55.23
 169.426 58.723 170.656 61.801 c 179.535 84 l 204.465 84 l 213.344 61.801
 l 214.574 58.723 213.078 55.23 210 54 c h
210 54 m f
0.266667 0.529412 0.0117647 rg
180 294 192 72 re f
0.584314 0.796078 0.215686 rg
180 198 192 96 re f
0.411765 0.654902 0.0352941 rg
216 198 m 215.984 217.875 199.875 233.984 180 234 c 180 198 l h
216 198 m f
0.152941 0.419608 0.00784314 rg
351.641 294 m 343.449 325.77 314.809 347.98 282 348 c 180 348 l 180 366
 l 372 366 l 372 294 l h
351.641 294 m f
0.988235 0.654902 0.0745098 rg
258 198 36 96 re f
0.976471 0.521569 0 rg
258 294 36 72 re f
0.411765 0.654902 0.0352941 rg
336 198 m 336.016 217.875 352.125 233.984 372 234 c 372 198 l h
336 198 m f
336 294 m 372 294 l 372 258 l 352.125 258.016 336.016 274.125 336 294 c
 h
336 294 m f
0.960784 0.666667 0.192157 rg
54 342 84 24 re f
0.956863 0.752941 0.403922 rg
54 318 84 24 re f
0.960784 0.666667 0.192157 rg
54 294 84 24 re f
0.956863 0.752941 0.403922 rg
54 270 84 24 re f
0.960784 0.666667 0.192157 rg
54 246 84 24 re f
0.956863 0.752941 0.403922 rg
138 342 84 24 re f
0.960784 0.666667 0.192157 rg
138 318 84 24 re f
0.956863 0.752941 0.403922 rg
138 294 84 24 re f
0.960784 0.666667 0.192157 rg
138 270 84 24 re f
0.956863 0.752941 0.403922 rg
138 246 84 24 re f
0.960784 0.666667 0.192157 rg
192 246 30 24 re f
0.929412 0.521569 0.0823529 rg
192 270 30 24 re f
0.960784 0.666667 0.192157 rg
192 294 30 24 re f
0.929412 0.521569 0.0823529 rg
192 318 30 24 re f
0.960784 0.666667 0.192157 rg
192 342 30 24 re f
0.929412 0.521569 0.0823529 rg
108 246 30 24 re f
108 342 30 24 re f
0.960784 0.666667 0.192157 rg
108 270 30 24 re f
0.929412 0.521569 0.0823529 rg
108 294 30 24 re f
0.960784 0.666667 0.192157 rg
108 318 30 24 re f
102 324 m 102 347.195 83.195 366 60 366 c 36.805 366 18 347.195 18 324 
c 18 300.805 36.805 282 60 282 c 83.195 282 102 300.805 102 324 c h
102 324 m f
0.929412 0.521569 0.0823529 rg
60 282 m 58.988 282 57.992 282.082 57 282.152 c 70.961 283.312 82.984 292.477
 87.805 305.633 c 92.625 318.793 89.367 333.551 79.461 343.461 c 69.551 
353.367 54.793 356.625 41.633 351.805 c 28.477 346.984 19.312 334.961 18.152
 321 c 18.082 321.992 18 322.988 18 324 c 18 340.988 28.234 356.301 43.926
 362.805 c 59.621 369.305 77.688 365.711 89.699 353.699 c 101.711 341.688
 105.305 323.621 98.805 307.926 c 92.301 292.234 76.988 282 60 282 c h
60 282 m f
Q Q
showpage
%%Trailer
end
%%EOF
