%!PS-Adobe-3.0 EPSF-3.0
%%Creator: cairo 1.16.0 (https://cairographics.org)
%%CreationDate: Mon Dec 23 07:44:24 2019
%%Pages: 1
%%DocumentData: Clean7Bit
%%LanguageLevel: 2
%%BoundingBox: 18 18 366 372
%%EndComments
%%BeginProlog
50 dict begin
/q { gsave } bind def
/Q { grestore } bind def
/cm { 6 array astore concat } bind def
/w { setlinewidth } bind def
/J { setlinecap } bind def
/j { setlinejoin } bind def
/M { setmiterlimit } bind def
/d { setdash } bind def
/m { moveto } bind def
/l { lineto } bind def
/c { curveto } bind def
/h { closepath } bind def
/re { exch dup neg 3 1 roll 5 3 roll moveto 0 rlineto
      0 exch rlineto 0 rlineto closepath } bind def
/S { stroke } bind def
/f { fill } bind def
/f* { eofill } bind def
/n { newpath } bind def
/W { clip } bind def
/W* { eoclip } bind def
/BT { } bind def
/ET { } bind def
/BDC { mark 3 1 roll /BDC pdfmark } bind def
/EMC { mark /EMC pdfmark } bind def
/cairo_store_point { /cairo_point_y exch def /cairo_point_x exch def } def
/Tj { show currentpoint cairo_store_point } bind def
/TJ {
  {
    dup
    type /stringtype eq
    { show } { -0.001 mul 0 cairo_font_matrix dtransform rmoveto } ifelse
  } forall
  currentpoint cairo_store_point
} bind def
/cairo_selectfont { cairo_font_matrix aload pop pop pop 0 0 6 array astore
    cairo_font exch selectfont cairo_point_x cairo_point_y moveto } bind def
/Tf { pop /cairo_font exch def /cairo_font_matrix where
      { pop cairo_selectfont } if } bind def
/Td { matrix translate cairo_font_matrix matrix concatmatrix dup
      /cairo_font_matrix exch def dup 4 get exch 5 get cairo_store_point
      /cairo_font where { pop cairo_selectfont } if } bind def
/Tm { 2 copy 8 2 roll 6 array astore /cairo_font_matrix exch def
      cairo_store_point /cairo_font where { pop cairo_selectfont } if } bind def
/g { setgray } bind def
/rg { setrgbcolor } bind def
/d1 { setcachedevice } bind def
/cairo_data_source {
  CairoDataIndex CairoData length lt
    { CairoData CairoDataIndex get /CairoDataIndex CairoDataIndex 1 add def }
    { () } ifelse
} def
/cairo_flush_ascii85_file { cairo_ascii85_file status { cairo_ascii85_file flushfile } if } def
/cairo_image { image cairo_flush_ascii85_file } def
/cairo_imagemask { imagemask cairo_flush_ascii85_file } def
%%EndProlog
%%BeginSetup
%%EndSetup
%%Page: 1 1
%%BeginPageSetup
%%PageBoundingBox: 18 18 366 372
%%EndPageSetup
q 18 18 348 354 rectclip
1 0 0 -1 0 384 cm q
0.0980392 0.313726 0.501961 rg
312 174 m 328.375 194.469 l 333.168 200.457 334.805 208.375 332.789 215.777
 c 318 270 l 336 288 l 336 342 l 324 342 l 291.754 281.895 l 289.301 278.047
 288 273.574 288 269.012 c 288 222 l h
312 174 m f
1 0.623529 0.607843 rg
252 96 m 222 132 l 162.188 161.906 l 155.457 165.273 152.727 173.457 156.094
 180.188 c 159.387 186.77 167.309 189.551 173.992 186.465 c 240 156 l 282
 114 l h
252 96 m f
0.188235 0.52549 0.803922 rg
282 114 m 252 96 l 222 132 l 174 156 l 186.375 180.75 l 240 156 l h
282 114 m f
0.258824 0.627451 0.882353 rg
294 60 m 311.703 67.082 322.453 85.156 320.227 104.09 c 312 174 l 264 174
 l 243.129 116.609 l 241.113 111.066 241.211 104.973 243.402 99.496 c 252
 78 l h
294 60 m f
1 0.854902 0.823529 rg
276 18 m 240 18 l 240 30 l 234 54 l 246 54 l 246 72 l 258 72 l 252 78 l
 276 84 l 294 60 l h
276 18 m f
0.12549 0.380392 0.6 rg
312 174 m 306.352 219.195 l 306.117 221.059 305.668 222.887 305.008 224.645
 c 288 270 l 295.152 280.727 l 298.281 285.426 299.656 291.078 299.035 296.688
 c 288 342 l 276 342 l 258 270 l 264 174 l h
312 174 m f
0.321569 0.321569 0.313726 rg
288 366 m 342 366 l 336 342 l 324 342 l h
288 366 m f
234 366 m 288 366 l 288 342 l 276 342 l h
234 366 m f
0.203922 0.529412 0.796078 rg
328.691 126.227 m 321.703 122.258 l 320.5 107.895 l 318.91 88.879 309.266
 71.449 294 60 c 276 84 l 272.59 114.789 287.75 144.672 314.605 160.105 
c 315.918 160.859 317.23 161.613 318.598 162.297 c 360 180 l 360 157.75 
348.043 137.211 328.691 126.227 c h
328.691 126.227 m f
300 108 m 306 144 l 312 210 l 336 210 l 336 150 l 328.914 103.934 l 325.867
 84.145 312.59 67.438 294 60 c h
300 108 m f
0.137255 0.380392 0.556863 rg
336 150 m 336 169.738 l 348 174.871 l 348 149.082 l 346.902 141.953 l 342.902
 136.828 338.121 132.367 332.727 128.734 c h
336 150 m f
0.168627 0.45098 0.666667 rg
306.02 144.223 m 306 144 l 300 108 l 299.738 106.43 298.863 105.027 297.57
 104.105 c 296.273 103.18 294.664 102.805 293.094 103.066 c 291.523 103.328
 290.125 104.203 289.199 105.5 c 288.273 106.793 287.902 108.402 288.164
 109.973 c 294.09 145.531 l 296.676 174 l 308.727 174 l h
306.02 144.223 m f
0.137255 0.380392 0.556863 rg
307.012 155.121 m 306.02 144.223 l 306 144 l 300 108 l 299.738 106.43 298.863
 105.027 297.57 104.105 c 296.273 103.18 294.664 102.805 293.094 103.066
 c 291.523 103.328 290.125 104.203 289.199 105.5 c 288.273 106.793 287.902
 108.402 288.164 109.973 c 293.566 142.406 l 297.527 147.164 302.039 151.43
 307.012 155.121 c h
307.012 155.121 m f
1 0.854902 0.823529 rg
312 210 24 36 re f
0.203922 0.529412 0.796078 rg
282 234 84 66 re f
0.137255 0.380392 0.556863 rg
282 252 84 12 re f
318 258 12 24 re f
0.419608 0.25098 0.164706 rg
278.57 24 m 222 24 l 222 12 l 266.57 12 l 273.199 12 278.57 17.371 278.57
 24 c h
278.57 24 m f
1 0.623529 0.607843 rg
278.484 68.484 m 280.824 66.141 280.82 62.344 278.48 60.004 c 276.141 57.664
 272.344 57.66 270 60 c 252 78 l 265.574 81.395 l h
278.484 68.484 m f
1 0.854902 0.823529 rg
186 89.887 m 174 89.887 l 174 66 l 174 62.688 176.688 60 180 60 c 183.312
 60 186 62.688 186 66 c h
186 89.887 m f
0.188235 0.52549 0.803922 rg
194.992 67.883 m 156 102 l 120 78 l 102 60 l 108.016 119.984 l 162 132 
l 211.977 87.023 l 214.586 84.672 216.113 81.355 216.207 77.848 c 216.301
 74.34 214.945 70.945 212.465 68.465 c 207.699 63.699 200.062 63.445 194.992
 67.883 c h
194.992 67.883 m f
1 0.854902 0.823529 rg
194.992 67.883 m 178.398 82.398 l 196.738 100.738 l 211.977 87.023 l 214.586
 84.672 216.113 81.355 216.207 77.848 c 216.301 74.34 214.945 70.945 212.465
 68.465 c 207.699 63.699 200.062 63.445 194.992 67.883 c h
194.992 67.883 m f
0.12549 0.380392 0.6 rg
60 174 m 43.625 194.469 l 38.832 200.457 37.195 208.375 39.211 215.777 
c 54 270 l 36 288 l 30 342 l 42 342 l 72.828 293.555 l 72.805 294.602 72.852
 295.648 72.965 296.688 c 78 342 l 90 342 l 108 270 l 108 174 l h
60 174 m f
0.0980392 0.313726 0.501961 rg
90 216 m 88.41 216 86.883 216.633 85.758 217.758 c 84.633 218.883 84 220.41
 84 222 c 84 276 l 72.828 293.559 l 72.805 294.605 72.852 295.648 72.965
 296.688 c 74.762 312.867 l 96 279.492 l 96 222 l 96 220.41 95.367 218.883
 94.242 217.758 c 93.117 216.633 91.59 216 90 216 c h
90 216 m f
0.321569 0.321569 0.313726 rg
42 342 m 78 366 l 30 366 l 30 342 l h
42 342 m f
90 342 m 132 366 l 78 366 l 78 342 l h
90 342 m f
0.258824 0.627451 0.882353 rg
108 174 m 128.871 116.609 l 130.887 111.066 130.789 104.973 128.598 99.496
 c 120 78 l 78 60 l 56.691 70.656 45.027 94.145 49.418 117.559 c 60 174 
l h
108 174 m f
111.238 165.098 m 108 174 l 101.535 174 l 84.211 166.574 l 83.512 166.273
 82.875 165.84 82.336 165.301 c 52.836 135.801 l 49.418 117.562 l 49.262
 116.707 49.117 115.852 48.996 114.996 c 90 156 l h
111.238 165.098 m f
0.168627 0.45098 0.666667 rg
111.238 165.098 m 108 174 l 101.535 174 l 84.211 166.574 l 83.512 166.273
 82.875 165.84 82.336 165.301 c 52.836 135.801 l 49.418 117.562 l 49.262
 116.707 49.117 115.852 48.996 114.996 c 90 156 l h
111.238 165.098 m f
0.203922 0.529412 0.796078 rg
50.348 122.523 m 47.992 124.09 l 29.262 136.523 18 157.516 18 180 c 53.402
 162.297 l 82.602 147.699 99.605 116.445 96 84 c 78 60 l 72.359 62.82 l 
54.391 71.805 44.555 91.613 48.254 111.363 c h
50.348 122.523 m f
0.137255 0.380392 0.556863 rg
77.535 143.535 m 74.918 146.566 72.074 149.391 69.023 151.988 c 43.996 
126.961 l 45.285 125.953 46.621 125.004 47.992 124.086 c 50.348 122.527 
l 48.922 114.922 l h
77.535 143.535 m f
1 0.854902 0.823529 rg
132 30 m 132 18 l 96 18 l 78 60 l 96 84 l 120 78 l 114 72 l 126 72 l 126
 54 l 138 54 l h
132 30 m f
0.419608 0.25098 0.164706 rg
150 24 m 93.43 24 l 93.43 20.816 94.691 17.766 96.941 15.516 c 99.195 13.266
 102.246 12 105.43 12 c 150 12 l h
150 24 m f
1 0.623529 0.607843 rg
93.516 60 m 92.391 61.125 91.758 62.652 91.758 64.242 c 91.758 65.832 92.391
 67.359 93.516 68.484 c 106.426 81.395 l 120 78 l 102 60 l 100.875 58.875
 99.348 58.242 97.758 58.242 c 96.168 58.242 94.641 58.875 93.516 60 c h
93.516 60 m f
0.168627 0.45098 0.666667 rg
115.484 122.238 m 90.418 92.16 l 89.402 90.934 87.938 90.164 86.352 90.02
 c 84.766 89.875 83.188 90.367 81.965 91.387 c 80.742 92.406 79.973 93.871
 79.832 95.453 c 79.688 97.039 80.18 98.617 81.199 99.84 c 108 132 l 121.078
 138.035 l 125.191 126.719 l h
115.484 122.238 m f
0.137255 0.380392 0.556863 rg
90.418 92.16 m 89.402 90.934 87.938 90.164 86.352 90.02 c 84.766 89.875
 83.188 90.367 81.965 91.387 c 80.742 92.406 79.973 93.871 79.832 95.453
 c 79.688 97.039 80.18 98.617 81.199 99.84 c 93.352 114.422 l 94.812 109.426
 95.77 104.293 96.207 99.105 c h
90.418 92.16 m f
0.203922 0.529412 0.796078 rg
181.172 174.473 m 181.164 179.039 178.863 183.293 175.051 185.805 c 171.242
 188.316 166.422 188.746 162.227 186.953 c 90 156 l 48.922 114.922 l 48.254
 111.359 l 45.68 97.645 49.617 83.512 58.914 73.102 c 108 132 l 173.273 
162.129 l 178.09 164.348 181.176 169.168 181.172 174.473 c h
181.172 174.473 m f
0.137255 0.380392 0.556863 rg
77.535 143.535 m 74.918 146.566 72.074 149.391 69.023 151.988 c 43.996 
126.961 l 45.285 125.953 46.621 125.004 47.992 124.086 c 50.348 122.527 
l 48.922 114.922 l h
77.535 143.535 m f
1 0.854902 0.823529 rg
173.273 162.125 m 156.75 154.5 l 144.352 179.293 l 162.227 186.953 l 168.84
 189.785 176.516 186.977 179.734 180.539 c 181.379 177.25 181.617 173.434
 180.402 169.965 c 179.184 166.496 176.613 163.664 173.273 162.125 c h
173.273 162.125 m f
Q Q
showpage
%%Trailer
end
%%EOF
