%!PS-Adobe-3.0 EPSF-3.0
%%Creator: cairo 1.16.0 (https://cairographics.org)
%%CreationDate: Mon Dec 23 07:44:24 2019
%%Pages: 1
%%DocumentData: Clean7Bit
%%LanguageLevel: 2
%%BoundingBox: 12 12 366 366
%%EndComments
%%BeginProlog
50 dict begin
/q { gsave } bind def
/Q { grestore } bind def
/cm { 6 array astore concat } bind def
/w { setlinewidth } bind def
/J { setlinecap } bind def
/j { setlinejoin } bind def
/M { setmiterlimit } bind def
/d { setdash } bind def
/m { moveto } bind def
/l { lineto } bind def
/c { curveto } bind def
/h { closepath } bind def
/re { exch dup neg 3 1 roll 5 3 roll moveto 0 rlineto
      0 exch rlineto 0 rlineto closepath } bind def
/S { stroke } bind def
/f { fill } bind def
/f* { eofill } bind def
/n { newpath } bind def
/W { clip } bind def
/W* { eoclip } bind def
/BT { } bind def
/ET { } bind def
/BDC { mark 3 1 roll /BDC pdfmark } bind def
/EMC { mark /EMC pdfmark } bind def
/cairo_store_point { /cairo_point_y exch def /cairo_point_x exch def } def
/Tj { show currentpoint cairo_store_point } bind def
/TJ {
  {
    dup
    type /stringtype eq
    { show } { -0.001 mul 0 cairo_font_matrix dtransform rmoveto } ifelse
  } forall
  currentpoint cairo_store_point
} bind def
/cairo_selectfont { cairo_font_matrix aload pop pop pop 0 0 6 array astore
    cairo_font exch selectfont cairo_point_x cairo_point_y moveto } bind def
/Tf { pop /cairo_font exch def /cairo_font_matrix where
      { pop cairo_selectfont } if } bind def
/Td { matrix translate cairo_font_matrix matrix concatmatrix dup
      /cairo_font_matrix exch def dup 4 get exch 5 get cairo_store_point
      /cairo_font where { pop cairo_selectfont } if } bind def
/Tm { 2 copy 8 2 roll 6 array astore /cairo_font_matrix exch def
      cairo_store_point /cairo_font where { pop cairo_selectfont } if } bind def
/g { setgray } bind def
/rg { setrgbcolor } bind def
/d1 { setcachedevice } bind def
/cairo_data_source {
  CairoDataIndex CairoData length lt
    { CairoData CairoDataIndex get /CairoDataIndex CairoDataIndex 1 add def }
    { () } ifelse
} def
/cairo_flush_ascii85_file { cairo_ascii85_file status { cairo_ascii85_file flushfile } if } def
/cairo_image { image cairo_flush_ascii85_file } def
/cairo_imagemask { imagemask cairo_flush_ascii85_file } def
%%EndProlog
%%BeginSetup
%%EndSetup
%%Page: 1 1
%%BeginPageSetup
%%PageBoundingBox: 12 12 366 366
%%EndPageSetup
q 12 12 354 354 rectclip
1 0 0 -1 0 384 cm q
1 0.854902 0.823529 rg
199.219 18 m 93 18 l 84.715 18 78 24.715 78 33 c 78 41.285 84.715 48 93
 48 c 96 48 l 54 126 l 84 126 l 84 204 l 144 204 l 144 228 l 201.422 228
 l 222 198 l 222 162 l 234.941 58.465 l 236.223 48.219 233.043 37.918 226.207
 30.176 c 219.375 22.434 209.547 18 199.219 18 c h
199.219 18 m f
0.188235 0.52549 0.803922 rg
210 228 m 180 372 l 12 372 l 15.797 334.016 36.41 299.727 68.172 278.551
 c 144 228 l h
210 228 m f
0.301961 0.717647 0.898039 rg
108 252 m 101.922 260.684 l 78.129 294.676 59.922 332.258 48 372 c 180 
372 l 210 228 l 144 228 l h
108 252 m f
0.678431 0.807843 0.909804 rg
144 48 m 93 48 l 84.715 48 78 41.285 78 33 c 78 24.715 84.715 18 93 18 
c 199.219 18 l 209.547 18 219.375 22.434 226.207 30.176 c 233.043 37.918
 236.223 48.219 234.941 58.465 c 222 162 l 192 126 l 204 102 l 174 90 l 
144 126 l h
144 48 m f
0.278431 0.635294 0.831373 rg
144 228 m 206.734 228 l 180 270 l h
144 228 m f
0.164706 0.439216 0.670588 rg
222 198 m 186.387 245.484 160.98 299.828 147.387 357.609 c 144 372 l 366
 372 l 366 276 l 342.656 244.879 309.672 222.355 272.188 211.941 c h
222 198 m f
0.188235 0.52549 0.803922 rg
144 228 m 108 252 l 114 276 l 132 282 l 163.383 250.617 l h
144 228 m f
0.164706 0.439216 0.670588 rg
126 372 m 132 282 l 114 276 l 94.801 372 l h
126 372 m f
0.188235 0.52549 0.803922 rg
234 330 m 234 201.332 l 222 198 l 186.387 245.484 160.98 299.828 147.387
 357.609 c 144 372 l 198 372 l 186 354 l h
234 330 m f
0.678431 0.807843 0.909804 rg
116.945 159.762 m 120.48 158.879 123.387 156.375 124.781 153.008 c 126.176
 149.645 125.891 145.816 124.016 142.695 c 117.801 132.336 106.609 126 94.531
 126 c 84 126 l 84 150 l 102 150 l 103.875 153.75 l 106.285 158.57 111.719
 161.07 116.945 159.762 c h
116.945 159.762 m f
84 168 m 96 180 l 168 180 l 144 204 l 84 204 l h
84 168 m f
0.419608 0.25098 0.164706 rg
102 84 m 114 84 l 117.324 84 120 86.676 120 90 c 120 93.324 117.324 96 
114 96 c 102 96 l 98.676 96 96 93.324 96 90 c 96 86.676 98.676 84 102 84
 c h
102 84 m f
1 0.623529 0.607843 rg
144 220.969 m 188.484 176.484 l 190.828 174.141 190.828 170.344 188.484
 168 c 186.141 165.656 182.344 165.656 180 168 c 144 204 l h
144 220.969 m f
0.952941 0.321569 0.266667 rg
258.195 150.586 m 270 186 l 318 186 l 329.805 150.586 l 330.652 148.047
 329.75 145.25 327.578 143.688 c 325.406 142.121 322.469 142.148 320.328
 143.754 c 320.324 143.754 l 315.547 147.34 308.863 146.863 304.641 142.641
 c 298.328 136.328 l 297.18 135.18 295.625 134.535 294 134.535 c 292.375
 134.535 290.82 135.18 289.672 136.328 c 283.359 142.641 l 279.137 146.863
 272.453 147.34 267.676 143.754 c 267.672 143.754 l 265.531 142.148 262.594
 142.121 260.422 143.688 c 258.25 145.25 257.348 148.047 258.195 150.586
 c h
258.195 150.586 m f
0.811765 0.231373 0.180392 rg
300 186 m 288 186 l 288 168 l 288 164.688 290.688 162 294 162 c 297.312
 162 300 164.688 300 168 c h
300 186 m f
0.917647 0.290196 0.231373 rg
270 210 m 318 210 l 344.508 210 366 231.492 366 258 c 366 336 l 366 352.57
 352.57 366 336 366 c 252 366 l 235.43 366 222 352.57 222 336 c 222 258 
l 222 231.492 243.492 210 270 210 c h
270 210 m f
0.858824 0.254902 0.196078 rg
270 186 48 24 re f
0.584314 0.796078 0.215686 rg
210 270 108 60 re f
0.411765 0.654902 0.0352941 rg
210 300 m 226.57 300 240 286.57 240 270 c 210 270 l h
210 300 m f
240 330 m 240 313.43 226.57 300 210 300 c 210 330 l h
240 330 m f
318 300 m 301.43 300 288 286.57 288 270 c 318 270 l h
318 300 m f
288 330 m 288 313.43 301.43 300 318 300 c 318 330 l h
288 330 m f
0.266667 0.529412 0.0117647 rg
210 330 108 36 re f
0.152941 0.419608 0.00784314 rg
303.906 330 m 298.832 344.375 285.246 353.992 270 354 c 210 354 l 210 366
 l 318 366 l 318 330 l h
303.906 330 m f
0.988235 0.654902 0.0745098 rg
252 270 24 96 re f
0.976471 0.521569 0 rg
252 330 24 36 re f
Q Q
showpage
%%Trailer
end
%%EOF
