%!PS-Adobe-3.0 EPSF-3.0
%%Creator: cairo 1.16.0 (https://cairographics.org)
%%CreationDate: Mon Dec 23 07:44:25 2019
%%Pages: 1
%%DocumentData: Clean7Bit
%%LanguageLevel: 2
%%BoundingBox: 18 18 366 372
%%EndComments
%%BeginProlog
50 dict begin
/q { gsave } bind def
/Q { grestore } bind def
/cm { 6 array astore concat } bind def
/w { setlinewidth } bind def
/J { setlinecap } bind def
/j { setlinejoin } bind def
/M { setmiterlimit } bind def
/d { setdash } bind def
/m { moveto } bind def
/l { lineto } bind def
/c { curveto } bind def
/h { closepath } bind def
/re { exch dup neg 3 1 roll 5 3 roll moveto 0 rlineto
      0 exch rlineto 0 rlineto closepath } bind def
/S { stroke } bind def
/f { fill } bind def
/f* { eofill } bind def
/n { newpath } bind def
/W { clip } bind def
/W* { eoclip } bind def
/BT { } bind def
/ET { } bind def
/BDC { mark 3 1 roll /BDC pdfmark } bind def
/EMC { mark /EMC pdfmark } bind def
/cairo_store_point { /cairo_point_y exch def /cairo_point_x exch def } def
/Tj { show currentpoint cairo_store_point } bind def
/TJ {
  {
    dup
    type /stringtype eq
    { show } { -0.001 mul 0 cairo_font_matrix dtransform rmoveto } ifelse
  } forall
  currentpoint cairo_store_point
} bind def
/cairo_selectfont { cairo_font_matrix aload pop pop pop 0 0 6 array astore
    cairo_font exch selectfont cairo_point_x cairo_point_y moveto } bind def
/Tf { pop /cairo_font exch def /cairo_font_matrix where
      { pop cairo_selectfont } if } bind def
/Td { matrix translate cairo_font_matrix matrix concatmatrix dup
      /cairo_font_matrix exch def dup 4 get exch 5 get cairo_store_point
      /cairo_font where { pop cairo_selectfont } if } bind def
/Tm { 2 copy 8 2 roll 6 array astore /cairo_font_matrix exch def
      cairo_store_point /cairo_font where { pop cairo_selectfont } if } bind def
/g { setgray } bind def
/rg { setrgbcolor } bind def
/d1 { setcachedevice } bind def
/cairo_data_source {
  CairoDataIndex CairoData length lt
    { CairoData CairoDataIndex get /CairoDataIndex CairoDataIndex 1 add def }
    { () } ifelse
} def
/cairo_flush_ascii85_file { cairo_ascii85_file status { cairo_ascii85_file flushfile } if } def
/cairo_image { image cairo_flush_ascii85_file } def
/cairo_imagemask { imagemask cairo_flush_ascii85_file } def
%%EndProlog
%%BeginSetup
%%EndSetup
%%Page: 1 1
%%BeginPageSetup
%%PageBoundingBox: 18 18 366 372
%%EndPageSetup
q 18 18 348 354 rectclip
1 0 0 -1 0 384 cm q
0.929412 0.521569 0.0823529 rg
36 285 312 27 re f
0.956863 0.752941 0.403922 rg
18 42 348 246 re f
0.835294 0.447059 0.0313726 rg
180 18 24 24 re f
192 311.992 m 180 324 l 180 366 l 204 366 l 204 324 l h
192 311.992 m f
0.960784 0.666667 0.192157 rg
276 365.961 m 222 312 l 155.926 312 l 102.039 365.961 l 138 365.961 l 192
 312 l 246 365.961 l h
276 365.961 m f
0.419608 0.25098 0.164706 rg
174.16 97.691 m 185.664 94.309 l 215.648 196.27 l 204.145 199.652 l h
174.16 97.691 m f
0.203922 0.529412 0.796078 rg
270 96 m 264 138 l 216 156 l 228 180 l 282 168 l 300 114 l h
270 96 m f
0.258824 0.627451 0.882353 rg
312 60 m 312.801 60.199 l 326.969 63.742 337.824 75.129 340.691 89.449 
c 341.555 93.781 341.656 98.234 340.984 102.605 c 330 174 l 282 174 l 261.129
 116.609 l 259.113 111.066 259.211 104.973 261.402 99.496 c 270 78 l h
312 60 m f
1 0.854902 0.823529 rg
294 18 m 258 18 l 258 30 l 252 54 l 264 54 l 264 72 l 276 72 l 270 78 l
 294 84 l 312 60 l h
294 18 m f
0.203922 0.529412 0.796078 rg
340.984 102.605 m 330 174 l 294 174 l 294 84 l 312 60 l 312.801 60.199 
l 326.969 63.742 337.824 75.129 340.691 89.449 c 341.555 93.781 341.656 
98.234 340.984 102.605 c h
340.984 102.605 m f
0.0980392 0.313726 0.501961 rg
330 174 m 346.375 194.469 l 351.168 200.457 352.805 208.375 350.789 215.777
 c 336 270 l 354 288 l 354 342 l 342 342 l 309.754 281.895 l 307.301 278.047
 306 273.574 306 269.012 c 306 222 l h
330 174 m f
0.12549 0.380392 0.6 rg
330 174 m 324.352 219.195 l 324.117 221.059 323.668 222.887 323.008 224.645
 c 306 270 l 313.152 280.727 l 316.281 285.426 317.656 291.078 317.035 296.688
 c 306 342 l 294 342 l 276 270 l 282 174 l h
330 174 m f
0.321569 0.321569 0.313726 rg
306 366 m 360 366 l 354 342 l 342 342 l h
306 366 m f
252 366 m 306 366 l 306 342 l 294 342 l h
252 366 m f
1 0.854902 0.823529 rg
216 156 m 228 180 l 203.422 184.098 l 196.969 185.172 190.773 181.109 189.188
 174.766 c 188.355 171.438 188.922 167.91 190.758 165.012 c 192.594 162.113
 195.535 160.094 198.898 159.422 c h
216 156 m f
0.419608 0.25098 0.164706 rg
296.57 24 m 240 24 l 240 12 l 284.57 12 l 291.199 12 296.57 17.371 296.57
 24 c h
296.57 24 m f
1 0.623529 0.607843 rg
296.484 68.484 m 298.824 66.141 298.82 62.344 296.48 60.004 c 294.141 57.664
 290.344 57.66 288 60 c 270 78 l 283.574 81.395 l h
296.484 68.484 m f
0.258824 0.627451 0.882353 rg
66 210 m 56.293 210 47.543 215.848 43.828 224.816 c 40.113 233.785 42.164
 244.105 49.031 250.969 c 55.895 257.836 66.215 259.887 75.184 256.172 c
 84.152 252.457 90 243.707 90 234 c 89.988 220.75 79.25 210.012 66 210 c
 h
66 246 m 61.145 246 56.77 243.078 54.914 238.594 c 53.055 234.109 54.082
 228.945 57.516 225.516 c 60.945 222.082 66.109 221.055 70.594 222.914 c
 75.078 224.77 78 229.145 78 234 c 77.992 240.625 72.625 245.992 66 246 
c h
66 246 m f
186 210 m 176.293 210 167.543 215.848 163.828 224.816 c 160.113 233.785
 162.164 244.105 169.031 250.969 c 175.895 257.836 186.215 259.887 195.184
 256.172 c 204.152 252.457 210 243.707 210 234 c 209.988 220.75 199.25 210.012
 186 210 c h
186 246 m 181.145 246 176.77 243.078 174.914 238.594 c 173.055 234.109 
174.082 228.945 177.516 225.516 c 180.945 222.082 186.109 221.055 190.594
 222.914 c 195.078 224.77 198 229.145 198 234 c 197.992 240.625 192.625 
245.992 186 246 c h
186 246 m f
0.862745 0.309804 0.282353 rg
124.242 106.242 m 135 95.484 l 145.758 106.242 l 154.242 97.758 l 143.484
 87 l 154.242 76.242 l 145.758 67.758 l 135 78.516 l 124.242 67.758 l 115.758
 76.242 l 126.516 87 l 115.758 97.758 l h
124.242 106.242 m f
0.929412 0.521569 0.0823529 rg
108 150 m 108 120 l 108 118.41 107.367 116.883 106.242 115.758 c 105.117
 114.633 103.59 114 102 114 c 72 114 l 72 126 l 87.883 126 l 69.914 145.668
 59.965 171.359 60 198 c 72 198 l 71.969 174.727 80.512 152.258 96 134.887
 c 96 150 l h
108 150 m f
144 176.484 m 144 192 l 156 192 l 156 162 l 156 160.41 155.367 158.883 
154.242 157.758 c 153.117 156.633 151.59 156 150 156 c 120 156 l 120 168
 l 135.516 168 l 97.758 205.758 l 106.242 214.242 l h
144 176.484 m f
130.242 211.758 m 121.758 220.242 l 129.516 228 l 102 228 l 102 240 l 129.516
 240 l 121.758 247.758 l 130.242 256.242 l 148.242 238.242 l 149.367 237.117
 150 235.59 150 234 c 150 232.41 149.367 230.883 148.242 229.758 c h
130.242 211.758 m f
0.0980392 0.313726 0.501961 rg
324.602 174 m 312.168 174 l 311.984 174.668 l 309.395 184.137 313.164 194.203
 321.34 199.645 c 325.805 202.387 l 326 202.504 326.203 202.609 326.41 202.703
 c 328.039 189.684 l 327.91 189.605 l 324.09 187.008 322.344 182.27 323.566
 177.816 c h
324.602 174 m f
1 0.854902 0.823529 rg
336 132 m 320.051 190.484 l 318.824 194.973 320.609 199.742 324.48 202.32
 c 327.25 204.168 330.715 204.637 333.875 203.59 c 337.035 202.543 339.535
 200.098 340.656 196.965 c 366 126 l h
336 132 m f
0.203922 0.529412 0.796078 rg
347.062 88.125 m 340.043 74.082 327.234 63.809 312 60 c 318 108 l 336 132
 l 325.383 170.922 l 345.23 184.152 l 366 126 l h
347.062 88.125 m f
0.137255 0.380392 0.556863 rg
324.602 174 m 336 132 l 318 108 l 317.047 106.727 315.625 105.883 314.047
 105.656 c 312.473 105.43 310.871 105.84 309.598 106.793 c 308.32 107.75
 307.48 109.172 307.254 110.75 c 307.031 112.324 307.441 113.926 308.398
 115.199 c 322.883 134.512 l 312.168 174 l h
324.602 174 m f
Q Q
showpage
%%Trailer
end
%%EOF
