%!PS-Adobe-3.0 EPSF-3.0
%%Creator: cairo 1.16.0 (https://cairographics.org)
%%CreationDate: Mon Dec 23 07:44:26 2019
%%Pages: 1
%%DocumentData: Clean7Bit
%%LanguageLevel: 2
%%BoundingBox: 66 18 318 366
%%EndComments
%%BeginProlog
50 dict begin
/q { gsave } bind def
/Q { grestore } bind def
/cm { 6 array astore concat } bind def
/w { setlinewidth } bind def
/J { setlinecap } bind def
/j { setlinejoin } bind def
/M { setmiterlimit } bind def
/d { setdash } bind def
/m { moveto } bind def
/l { lineto } bind def
/c { curveto } bind def
/h { closepath } bind def
/re { exch dup neg 3 1 roll 5 3 roll moveto 0 rlineto
      0 exch rlineto 0 rlineto closepath } bind def
/S { stroke } bind def
/f { fill } bind def
/f* { eofill } bind def
/n { newpath } bind def
/W { clip } bind def
/W* { eoclip } bind def
/BT { } bind def
/ET { } bind def
/BDC { mark 3 1 roll /BDC pdfmark } bind def
/EMC { mark /EMC pdfmark } bind def
/cairo_store_point { /cairo_point_y exch def /cairo_point_x exch def } def
/Tj { show currentpoint cairo_store_point } bind def
/TJ {
  {
    dup
    type /stringtype eq
    { show } { -0.001 mul 0 cairo_font_matrix dtransform rmoveto } ifelse
  } forall
  currentpoint cairo_store_point
} bind def
/cairo_selectfont { cairo_font_matrix aload pop pop pop 0 0 6 array astore
    cairo_font exch selectfont cairo_point_x cairo_point_y moveto } bind def
/Tf { pop /cairo_font exch def /cairo_font_matrix where
      { pop cairo_selectfont } if } bind def
/Td { matrix translate cairo_font_matrix matrix concatmatrix dup
      /cairo_font_matrix exch def dup 4 get exch 5 get cairo_store_point
      /cairo_font where { pop cairo_selectfont } if } bind def
/Tm { 2 copy 8 2 roll 6 array astore /cairo_font_matrix exch def
      cairo_store_point /cairo_font where { pop cairo_selectfont } if } bind def
/g { setgray } bind def
/rg { setrgbcolor } bind def
/d1 { setcachedevice } bind def
/cairo_data_source {
  CairoDataIndex CairoData length lt
    { CairoData CairoDataIndex get /CairoDataIndex CairoDataIndex 1 add def }
    { () } ifelse
} def
/cairo_flush_ascii85_file { cairo_ascii85_file status { cairo_ascii85_file flushfile } if } def
/cairo_image { image cairo_flush_ascii85_file } def
/cairo_imagemask { imagemask cairo_flush_ascii85_file } def
%%EndProlog
%%BeginSetup
%%EndSetup
%%Page: 1 1
%%BeginPageSetup
%%PageBoundingBox: 66 18 318 366
%%EndPageSetup
q 66 18 252 348 rectclip
1 0 0 -1 0 384 cm q
0.301961 0.717647 0.898039 rg
66 18 m 270 18 l 318 66 l 318 366 l 66 366 l h
66 18 m f
0.203922 0.560784 0.85098 rg
270 18 m 270 66 l 318 66 l h
270 18 m f
120 132 48 12 re f
210 132 24 12 re f
258 132 24 12 re f
210 102 24 12 re f
246 102 24 12 re f
84 102 36 12 re f
132 102 36 12 re f
84 72 60 12 re f
210 72 42 12 re f
114 42 84 12 re f
294 156 m 90 156 l 88.41 156 86.883 156.633 85.758 157.758 c 84.633 158.883
 84 160.41 84 162 c 84 222 l 84 223.59 84.633 225.117 85.758 226.242 c 86.883
 227.367 88.41 228 90 228 c 192 228 l 192 282 l 192 283.59 192.633 285.117
 193.758 286.242 c 194.883 287.367 196.41 288 198 288 c 294 288 l 295.59
 288 297.117 287.367 298.242 286.242 c 299.367 285.117 300 283.59 300 282
 c 300 162 l 300 160.41 299.367 158.883 298.242 157.758 c 297.117 156.633
 295.59 156 294 156 c h
252 216 m 252 198 l 288 198 l 288 216 l h
288 228 m 288 246 l 252 246 l 252 228 l h
240 198 m 240 216 l 204 216 l 204 198 l h
204 186 m 204 168 l 240 168 l 240 186 l h
288 186 m 252 186 l 252 168 l 288 168 l h
192 168 m 192 186 l 96 186 l 96 168 l h
96 216 m 96 198 l 192 198 l 192 216 l h
240 228 m 240 246 l 204 246 l 204 228 l h
204 258 m 240 258 l 240 276 l 204 276 l h
252 276 m 252 258 l 288 258 l 288 276 l h
252 276 m f
228 324 54 12 re f
0.952941 0.321569 0.266667 rg
138 288 m 126 288 l 119.371 288 114 282.629 114 276 c 114 269.371 119.371
 264 126 264 c 138 264 l 144.625 264.008 149.992 269.375 150 276 c 162 276
 l 161.984 262.75 151.25 252.016 138 252 c 138 240 l 126 240 l 126 252 l
 112.746 252 102 262.746 102 276 c 102 289.254 112.746 300 126 300 c 138
 300 l 144.629 300 150 305.371 150 312 c 150 318.629 144.629 324 138 324
 c 126 324 l 119.375 323.992 114.008 318.625 114 312 c 102 312 l 102.016
 325.25 112.75 335.984 126 336 c 126 348 l 138 348 l 138 336 l 151.254 336
 162 325.254 162 312 c 162 298.746 151.254 288 138 288 c h
138 288 m f
Q Q
showpage
%%Trailer
end
%%EOF
