%!PS-Adobe-3.0 EPSF-3.0
%%Creator: cairo 1.16.0 (https://cairographics.org)
%%CreationDate: Mon Dec 23 07:44:26 2019
%%Pages: 1
%%DocumentData: Clean7Bit
%%LanguageLevel: 2
%%BoundingBox: 18 18 366 366
%%EndComments
%%BeginProlog
50 dict begin
/q { gsave } bind def
/Q { grestore } bind def
/cm { 6 array astore concat } bind def
/w { setlinewidth } bind def
/J { setlinecap } bind def
/j { setlinejoin } bind def
/M { setmiterlimit } bind def
/d { setdash } bind def
/m { moveto } bind def
/l { lineto } bind def
/c { curveto } bind def
/h { closepath } bind def
/re { exch dup neg 3 1 roll 5 3 roll moveto 0 rlineto
      0 exch rlineto 0 rlineto closepath } bind def
/S { stroke } bind def
/f { fill } bind def
/f* { eofill } bind def
/n { newpath } bind def
/W { clip } bind def
/W* { eoclip } bind def
/BT { } bind def
/ET { } bind def
/BDC { mark 3 1 roll /BDC pdfmark } bind def
/EMC { mark /EMC pdfmark } bind def
/cairo_store_point { /cairo_point_y exch def /cairo_point_x exch def } def
/Tj { show currentpoint cairo_store_point } bind def
/TJ {
  {
    dup
    type /stringtype eq
    { show } { -0.001 mul 0 cairo_font_matrix dtransform rmoveto } ifelse
  } forall
  currentpoint cairo_store_point
} bind def
/cairo_selectfont { cairo_font_matrix aload pop pop pop 0 0 6 array astore
    cairo_font exch selectfont cairo_point_x cairo_point_y moveto } bind def
/Tf { pop /cairo_font exch def /cairo_font_matrix where
      { pop cairo_selectfont } if } bind def
/Td { matrix translate cairo_font_matrix matrix concatmatrix dup
      /cairo_font_matrix exch def dup 4 get exch 5 get cairo_store_point
      /cairo_font where { pop cairo_selectfont } if } bind def
/Tm { 2 copy 8 2 roll 6 array astore /cairo_font_matrix exch def
      cairo_store_point /cairo_font where { pop cairo_selectfont } if } bind def
/g { setgray } bind def
/rg { setrgbcolor } bind def
/d1 { setcachedevice } bind def
/cairo_data_source {
  CairoDataIndex CairoData length lt
    { CairoData CairoDataIndex get /CairoDataIndex CairoDataIndex 1 add def }
    { () } ifelse
} def
/cairo_flush_ascii85_file { cairo_ascii85_file status { cairo_ascii85_file flushfile } if } def
/cairo_image { image cairo_flush_ascii85_file } def
/cairo_imagemask { imagemask cairo_flush_ascii85_file } def
%%EndProlog
%%BeginSetup
%%EndSetup
%%Page: 1 1
%%BeginPageSetup
%%PageBoundingBox: 18 18 366 366
%%EndPageSetup
q 18 18 348 348 rectclip
1 0 0 -1 0 384 cm q
0.203922 0.529412 0.796078 rg
18 342 336 24 re f
0.337255 0.654902 0.882353 rg
36 126 300 216 re f
0.564706 0.807843 0.878431 rg
60 150 252 168 re f
0.917647 0.290196 0.231373 rg
192 276 m 182.562 275.984 173.684 271.543 168.012 264 c 186 264 l 186 252
 l 156 252 l 154.41 252 152.883 252.633 151.758 253.758 c 150.633 254.883
 150 256.41 150 258 c 150 288 l 162 288 l 162 275.277 l 173.012 286.625 
189.473 290.809 204.562 286.098 c 219.656 281.387 230.816 268.586 233.418
 252.988 c 221.582 251.012 l 219.184 265.465 206.652 276.051 192 276 c h
192 276 m f
222 204 m 222 216.723 l 210.988 205.375 194.527 201.191 179.438 205.902
 c 164.344 210.613 153.184 223.414 150.582 239.012 c 162.418 240.988 l 164.418
 229.168 173.266 219.672 184.922 216.844 c 196.574 214.02 208.793 218.406
 215.988 228 c 198 228 l 198 240 l 228 240 l 229.59 240 231.117 239.367 
232.242 238.242 c 233.367 237.117 234 235.59 234 234 c 234 204 l h
222 204 m f
216 186 m 216 126 l 192 126 l 192 18 l 366 18 l 366 126 l 270 126 l h
216 186 m f
0.811765 0.231373 0.180392 rg
342 36 m 312 36 l 312 48 l 327.516 48 l 300 75.516 l 286.242 61.758 l 285.117
 60.633 283.59 60 282 60 c 280.41 60 278.883 60.633 277.758 61.758 c 258
 81.516 l 250.242 73.758 l 248.082 71.594 244.641 71.398 242.254 73.312 
c 212.254 97.312 l 219.746 106.688 l 245.555 86.039 l 253.758 94.242 l 254.883
 95.367 256.41 96 258 96 c 259.59 96 261.117 95.367 262.242 94.242 c 282
 74.484 l 295.758 88.242 l 296.883 89.367 298.41 90 300 90 c 301.59 90 303.117
 89.367 304.242 88.242 c 336 56.484 l 336 72 l 348 72 l 348 42 l 348 40.41
 347.367 38.883 346.242 37.758 c 345.117 36.633 343.59 36 342 36 c h
342 36 m f
Q Q
showpage
%%Trailer
end
%%EOF
