%!PS-Adobe-3.0 EPSF-3.0
%%Creator: cairo 1.16.0 (https://cairographics.org)
%%CreationDate: Mon Dec 23 07:44:26 2019
%%Pages: 1
%%DocumentData: Clean7Bit
%%LanguageLevel: 2
%%BoundingBox: 12 18 365 366
%%EndComments
%%BeginProlog
50 dict begin
/q { gsave } bind def
/Q { grestore } bind def
/cm { 6 array astore concat } bind def
/w { setlinewidth } bind def
/J { setlinecap } bind def
/j { setlinejoin } bind def
/M { setmiterlimit } bind def
/d { setdash } bind def
/m { moveto } bind def
/l { lineto } bind def
/c { curveto } bind def
/h { closepath } bind def
/re { exch dup neg 3 1 roll 5 3 roll moveto 0 rlineto
      0 exch rlineto 0 rlineto closepath } bind def
/S { stroke } bind def
/f { fill } bind def
/f* { eofill } bind def
/n { newpath } bind def
/W { clip } bind def
/W* { eoclip } bind def
/BT { } bind def
/ET { } bind def
/BDC { mark 3 1 roll /BDC pdfmark } bind def
/EMC { mark /EMC pdfmark } bind def
/cairo_store_point { /cairo_point_y exch def /cairo_point_x exch def } def
/Tj { show currentpoint cairo_store_point } bind def
/TJ {
  {
    dup
    type /stringtype eq
    { show } { -0.001 mul 0 cairo_font_matrix dtransform rmoveto } ifelse
  } forall
  currentpoint cairo_store_point
} bind def
/cairo_selectfont { cairo_font_matrix aload pop pop pop 0 0 6 array astore
    cairo_font exch selectfont cairo_point_x cairo_point_y moveto } bind def
/Tf { pop /cairo_font exch def /cairo_font_matrix where
      { pop cairo_selectfont } if } bind def
/Td { matrix translate cairo_font_matrix matrix concatmatrix dup
      /cairo_font_matrix exch def dup 4 get exch 5 get cairo_store_point
      /cairo_font where { pop cairo_selectfont } if } bind def
/Tm { 2 copy 8 2 roll 6 array astore /cairo_font_matrix exch def
      cairo_store_point /cairo_font where { pop cairo_selectfont } if } bind def
/g { setgray } bind def
/rg { setrgbcolor } bind def
/d1 { setcachedevice } bind def
/cairo_data_source {
  CairoDataIndex CairoData length lt
    { CairoData CairoDataIndex get /CairoDataIndex CairoDataIndex 1 add def }
    { () } ifelse
} def
/cairo_flush_ascii85_file { cairo_ascii85_file status { cairo_ascii85_file flushfile } if } def
/cairo_image { image cairo_flush_ascii85_file } def
/cairo_imagemask { imagemask cairo_flush_ascii85_file } def
%%EndProlog
%%BeginSetup
%%EndSetup
%%Page: 1 1
%%BeginPageSetup
%%PageBoundingBox: 12 18 365 366
%%EndPageSetup
q 12 18 353 348 rectclip
1 0 0 -1 0 384 cm q
0.301961 0.717647 0.898039 rg
108 168 24 66 re f
204 174 24 84 re f
180 258 m 180 150 l 156 150 l 156 246 l h
180 258 m f
252 216 m 252 150 l 276 150 l 276 210 l h
252 216 m f
300 114 24 90 re f
0.952941 0.321569 0.266667 rg
90 126 m 108 144 l 162 90 l 216 150 l 306 60 l 306 90 l 330 90 l 330 18
 l 258 18 l 258 42 l 288 42 l 216 114 l 162 54 l h
90 126 m f
0.301961 0.717647 0.898039 rg
60 246 24 102 re f
0.929412 0.564706 0.545098 rg
295.844 237.676 m 300 252 l 246 312 l 240 288 l 243.75 280.32 l 261.555
 240.766 l 264.484 234.258 270.691 229.836 277.797 229.195 c 284.902 228.555
 291.801 231.797 295.844 237.676 c h
295.844 237.676 m f
1 0.623529 0.607843 rg
333.719 236.281 m 288 288 l 246 318 l 246 300 l 246 300 252 296.676 251.984
 296.52 c 251.984 296.512 l 295.844 237.676 l 302.602 228.609 l 306.785 
223.004 313.918 220.449 320.707 222.125 c 327.496 223.797 332.621 229.375
 333.719 236.281 c h
333.719 236.281 m f
1 0.854902 0.823529 rg
360 258 m 294.426 323.574 l 267.262 350.738 230.418 366 192 366 c 153.582
 366 116.738 350.738 89.574 323.574 c 84 318 l 84 264 l 100.57 247.434 127.43
 247.434 144 264 c 156 276 l 231 276 l 235.609 275.996 240.094 277.516 243.75
 280.32 c 244.492 280.883 245.191 281.492 245.852 282.148 c 249.672 285.965
 251.871 291.113 251.984 296.512 c 251.984 296.52 l 252 296.676 252 296.836
 252 297 c 252.008 301.867 250.316 306.582 247.223 310.336 c 247.238 310.336
 l 260.871 304.902 273.258 296.746 283.637 286.363 c 336 234 l 342.629 227.379
 353.367 227.383 359.992 234.008 c 366.617 240.633 366.621 251.371 360 258
 c h
360 258 m f
0.188235 0.52549 0.803922 rg
12 234 48 132 re f
1 0.623529 0.607843 rg
231 330 m 156 330 l 152.688 330 150 327.312 150 324 c 150 320.688 152.688
 318 156 318 c 231 318 l 238.016 317.996 244.562 314.492 248.457 308.66 
c 250.305 305.91 254.027 305.176 256.777 307.02 c 259.531 308.863 260.266
 312.59 258.422 315.34 c 252.305 324.5 242.016 330 231 330 c h
231 330 m f
Q Q
showpage
%%Trailer
end
%%EOF
