%!PS-Adobe-3.0 EPSF-3.0
%%Creator: cairo 1.16.0 (https://cairographics.org)
%%CreationDate: Mon Dec 23 07:44:28 2019
%%Pages: 1
%%DocumentData: Clean7Bit
%%LanguageLevel: 2
%%BoundingBox: 18 18 360 366
%%EndComments
%%BeginProlog
50 dict begin
/q { gsave } bind def
/Q { grestore } bind def
/cm { 6 array astore concat } bind def
/w { setlinewidth } bind def
/J { setlinecap } bind def
/j { setlinejoin } bind def
/M { setmiterlimit } bind def
/d { setdash } bind def
/m { moveto } bind def
/l { lineto } bind def
/c { curveto } bind def
/h { closepath } bind def
/re { exch dup neg 3 1 roll 5 3 roll moveto 0 rlineto
      0 exch rlineto 0 rlineto closepath } bind def
/S { stroke } bind def
/f { fill } bind def
/f* { eofill } bind def
/n { newpath } bind def
/W { clip } bind def
/W* { eoclip } bind def
/BT { } bind def
/ET { } bind def
/BDC { mark 3 1 roll /BDC pdfmark } bind def
/EMC { mark /EMC pdfmark } bind def
/cairo_store_point { /cairo_point_y exch def /cairo_point_x exch def } def
/Tj { show currentpoint cairo_store_point } bind def
/TJ {
  {
    dup
    type /stringtype eq
    { show } { -0.001 mul 0 cairo_font_matrix dtransform rmoveto } ifelse
  } forall
  currentpoint cairo_store_point
} bind def
/cairo_selectfont { cairo_font_matrix aload pop pop pop 0 0 6 array astore
    cairo_font exch selectfont cairo_point_x cairo_point_y moveto } bind def
/Tf { pop /cairo_font exch def /cairo_font_matrix where
      { pop cairo_selectfont } if } bind def
/Td { matrix translate cairo_font_matrix matrix concatmatrix dup
      /cairo_font_matrix exch def dup 4 get exch 5 get cairo_store_point
      /cairo_font where { pop cairo_selectfont } if } bind def
/Tm { 2 copy 8 2 roll 6 array astore /cairo_font_matrix exch def
      cairo_store_point /cairo_font where { pop cairo_selectfont } if } bind def
/g { setgray } bind def
/rg { setrgbcolor } bind def
/d1 { setcachedevice } bind def
/cairo_data_source {
  CairoDataIndex CairoData length lt
    { CairoData CairoDataIndex get /CairoDataIndex CairoDataIndex 1 add def }
    { () } ifelse
} def
/cairo_flush_ascii85_file { cairo_ascii85_file status { cairo_ascii85_file flushfile } if } def
/cairo_image { image cairo_flush_ascii85_file } def
/cairo_imagemask { imagemask cairo_flush_ascii85_file } def
%%EndProlog
%%BeginSetup
%%EndSetup
%%Page: 1 1
%%BeginPageSetup
%%PageBoundingBox: 18 18 360 366
%%EndPageSetup
q 18 18 342 348 rectclip
1 0 0 -1 0 384 cm q
0.952941 0.321569 0.266667 rg
324 84 m 324 18 l 258 18 l 258 42 l 282 42 l 210 114 l 150 54 l 60 144 
l 78 162 l 150 90 l 210 150 l 300 60 l 300 84 l h
324 84 m f
0.988235 0.654902 0.0745098 rg
30 318 60 24 re f
78 342 60 24 re f
78 294 60 24 re f
150 318 60 24 re f
0.956863 0.752941 0.403922 rg
138 342 60 24 re f
138 294 60 24 re f
90 318 60 24 re f
90 270 60 24 re f
18 342 60 24 re f
18 294 60 24 re f
0.501961 0.764706 0.14902 rg
198 318 138 48 re f
0.411765 0.654902 0.0352941 rg
319.926 318 m 300.707 344.387 270.035 359.996 237.395 360 c 198 360 l 198
 366 l 336 366 l 336 318 l h
319.926 318 m f
0.988235 0.654902 0.0745098 rg
252 318 24 48 re f
0.501961 0.764706 0.14902 rg
222 270 138 48 re f
0.411765 0.654902 0.0352941 rg
343.926 270 m 324.707 296.387 294.035 311.996 261.395 312 c 222 312 l 222
 318 l 360 318 l 360 270 l h
343.926 270 m f
0.988235 0.654902 0.0745098 rg
276 270 24 48 re f
0.501961 0.764706 0.14902 rg
198 222 138 48 re f
0.411765 0.654902 0.0352941 rg
319.926 222 m 300.707 248.387 270.035 263.996 237.395 264 c 198 264 l 198
 270 l 336 270 l 336 222 l h
319.926 222 m f
0.988235 0.654902 0.0745098 rg
252 222 24 48 re f
0.960784 0.694118 0.258824 rg
180 294 18 24 re f
0.929412 0.521569 0.0823529 rg
180 318 18 24 re f
0.960784 0.694118 0.258824 rg
180 342 18 24 re f
0.929412 0.521569 0.0823529 rg
120 342 18 24 re f
0.988235 0.654902 0.0745098 rg
132 318 18 24 re f
0.929412 0.521569 0.0823529 rg
120 294 18 24 re f
0.960784 0.694118 0.258824 rg
60 342 18 24 re f
0.929412 0.521569 0.0823529 rg
72 318 18 24 re f
0.960784 0.694118 0.258824 rg
60 294 18 24 re f
138 270 18 24 re f
0.301961 0.717647 0.898039 rg
120 156 24 96 re f
180 174 24 30 re f
240 156 24 48 re f
300 108 24 96 re f
84 186 m 60 186 l 60 276 l 84 252 l h
84 186 m f
Q Q
showpage
%%Trailer
end
%%EOF
