%!PS-Adobe-3.0 EPSF-3.0
%%Creator: cairo 1.16.0 (https://cairographics.org)
%%CreationDate: Mon Dec 23 07:44:29 2019
%%Pages: 1
%%DocumentData: Clean7Bit
%%LanguageLevel: 2
%%BoundingBox: 18 18 366 366
%%EndComments
%%BeginProlog
50 dict begin
/q { gsave } bind def
/Q { grestore } bind def
/cm { 6 array astore concat } bind def
/w { setlinewidth } bind def
/J { setlinecap } bind def
/j { setlinejoin } bind def
/M { setmiterlimit } bind def
/d { setdash } bind def
/m { moveto } bind def
/l { lineto } bind def
/c { curveto } bind def
/h { closepath } bind def
/re { exch dup neg 3 1 roll 5 3 roll moveto 0 rlineto
      0 exch rlineto 0 rlineto closepath } bind def
/S { stroke } bind def
/f { fill } bind def
/f* { eofill } bind def
/n { newpath } bind def
/W { clip } bind def
/W* { eoclip } bind def
/BT { } bind def
/ET { } bind def
/BDC { mark 3 1 roll /BDC pdfmark } bind def
/EMC { mark /EMC pdfmark } bind def
/cairo_store_point { /cairo_point_y exch def /cairo_point_x exch def } def
/Tj { show currentpoint cairo_store_point } bind def
/TJ {
  {
    dup
    type /stringtype eq
    { show } { -0.001 mul 0 cairo_font_matrix dtransform rmoveto } ifelse
  } forall
  currentpoint cairo_store_point
} bind def
/cairo_selectfont { cairo_font_matrix aload pop pop pop 0 0 6 array astore
    cairo_font exch selectfont cairo_point_x cairo_point_y moveto } bind def
/Tf { pop /cairo_font exch def /cairo_font_matrix where
      { pop cairo_selectfont } if } bind def
/Td { matrix translate cairo_font_matrix matrix concatmatrix dup
      /cairo_font_matrix exch def dup 4 get exch 5 get cairo_store_point
      /cairo_font where { pop cairo_selectfont } if } bind def
/Tm { 2 copy 8 2 roll 6 array astore /cairo_font_matrix exch def
      cairo_store_point /cairo_font where { pop cairo_selectfont } if } bind def
/g { setgray } bind def
/rg { setrgbcolor } bind def
/d1 { setcachedevice } bind def
/cairo_data_source {
  CairoDataIndex CairoData length lt
    { CairoData CairoDataIndex get /CairoDataIndex CairoDataIndex 1 add def }
    { () } ifelse
} def
/cairo_flush_ascii85_file { cairo_ascii85_file status { cairo_ascii85_file flushfile } if } def
/cairo_image { image cairo_flush_ascii85_file } def
/cairo_imagemask { imagemask cairo_flush_ascii85_file } def
%%EndProlog
%%BeginSetup
%%EndSetup
%%Page: 1 1
%%BeginPageSetup
%%PageBoundingBox: 18 18 366 366
%%EndPageSetup
q 18 18 348 348 rectclip
1 0 0 -1 0 384 cm q
1 0.854902 0.823529 rg
180 90 m 180 78 l 144 78 l 126 120 l 144 144 l 168 138 l 162 132 l 174 
132 l 174 114 l 186 114 l h
180 90 m f
0.419608 0.25098 0.164706 rg
198 84 m 141.43 84 l 141.43 77.371 146.801 72 153.43 72 c 198 72 l h
198 84 m f
1 0.623529 0.607843 rg
168 138 m 150 120 l 147.656 117.66 143.859 117.664 141.52 120.004 c 139.18
 122.344 139.176 126.141 141.516 128.484 c 154.426 141.395 l h
168 138 m f
1 0.854902 0.823529 rg
288 90 m 288 78 l 252 78 l 234 120 l 252 144 l 276 138 l 270 132 l 282 
132 l 282 114 l 294 114 l h
288 90 m f
0.419608 0.25098 0.164706 rg
306 84 m 249.43 84 l 249.43 77.371 254.801 72 261.43 72 c 306 72 l h
306 84 m f
1 0.623529 0.607843 rg
276 138 m 258 120 l 255.656 117.66 251.859 117.664 249.52 120.004 c 247.18
 122.344 247.176 126.141 249.516 128.484 c 262.426 141.395 l h
276 138 m f
0.952941 0.321569 0.266667 rg
90 366 m 18 366 l 18 294 l 42 294 l 42 342 l 90 342 l h
90 366 m f
18 90 m 18 18 l 90 18 l 90 42 l 42 42 l 42 90 l h
18 90 m f
294 18 m 366 18 l 366 90 l 342 90 l 342 42 l 294 42 l h
294 18 m f
366 294 m 366 366 l 294 366 l 294 342 l 342 342 l 342 294 l h
366 294 m f
180 18 24 36 re f
330 180 36 24 re f
180 330 24 36 re f
0.188235 0.52549 0.803922 rg
176.598 159.496 m 168 138 l 144 144 l 126 120 l 106.191 129.902 l 96.609
 134.695 91.363 145.262 93.336 155.793 c 84 210 l 90 228 l 156 228 l 176.871
 176.609 l 178.887 171.066 178.789 164.973 176.598 159.496 c h
176.598 159.496 m f
0.301961 0.717647 0.898039 rg
176.598 159.496 m 168 138 l 144 144 l 138 228 l 156 228 l 176.871 176.609
 l 178.887 171.066 178.789 164.973 176.598 159.496 c h
176.598 159.496 m f
0.164706 0.439216 0.670588 rg
131.836 169.973 m 132.383 166.703 130.172 163.613 126.906 163.066 c 123.637
 162.523 120.543 164.73 120 168 c 114 204 l 114 228 l 126 228 l 126 204.992
 l h
131.836 169.973 m f
0.188235 0.52549 0.803922 rg
284.602 159.496 m 276.004 138 l 252.004 144 l 234.004 120 l 214.195 129.902
 l 204.609 134.695 199.363 145.262 201.34 155.793 c 192.004 210 l 198.004
 228 l 264.004 228 l 284.871 176.609 l 286.887 171.066 286.793 164.973 284.602
 159.496 c h
284.602 159.496 m f
0.301961 0.717647 0.898039 rg
284.602 159.496 m 276.004 138 l 252.004 144 l 246.004 228 l 264.004 228
 l 284.871 176.609 l 286.887 171.066 286.793 164.973 284.602 159.496 c h
284.602 159.496 m f
0.164706 0.439216 0.670588 rg
239.84 169.973 m 240.102 168.402 239.73 166.793 238.805 165.496 c 237.879
 164.203 236.48 163.324 234.91 163.062 c 233.34 162.801 231.727 163.176 
230.434 164.102 c 229.137 165.027 228.266 166.43 228.004 168 c 222.004 204
 l 222.004 228 l 234.004 228 l 234.004 204.992 l h
239.84 169.973 m f
0.188235 0.52549 0.803922 rg
224.598 237.496 m 216 216 l 192 222 l 174 198 l 154.191 207.902 l 144.609
 212.695 139.363 223.262 141.336 233.793 c 132 288 l 138 306 l 204 306 l
 224.871 254.609 l 226.887 249.066 226.789 242.973 224.598 237.496 c h
224.598 237.496 m f
0.301961 0.717647 0.898039 rg
224.598 237.496 m 216 216 l 192 222 l 186 306 l 204 306 l 224.871 254.609
 l 226.887 249.066 226.789 242.973 224.598 237.496 c h
224.598 237.496 m f
0.164706 0.439216 0.670588 rg
179.836 247.973 m 180.383 244.703 178.172 241.613 174.906 241.066 c 173.336
 240.805 171.727 241.18 170.43 242.105 c 169.137 243.027 168.262 244.43 
168 246 c 162 282 l 162 306 l 174 306 l 174 282.992 l h
179.836 247.973 m f
0.952941 0.321569 0.266667 rg
18 180 36 24 re f
1 0.854902 0.823529 rg
228 168 m 228 156 l 192 156 l 174 198 l 192 222 l 216 216 l 210 210 l 222
 210 l 222 192 l 234 192 l h
228 168 m f
0.419608 0.25098 0.164706 rg
246 162 m 189.43 162 l 189.43 155.371 194.801 150 201.43 150 c 246 150 
l h
246 162 m f
1 0.623529 0.607843 rg
216 216 m 198 198 l 195.656 195.66 191.859 195.66 189.52 198.004 c 187.176
 200.344 187.176 204.141 189.516 206.484 c 202.426 219.395 l h
216 216 m f
Q Q
showpage
%%Trailer
end
%%EOF
