%!PS-Adobe-3.0 EPSF-3.0
%%Creator: cairo 1.16.0 (https://cairographics.org)
%%CreationDate: Mon Dec 23 07:44:30 2019
%%Pages: 1
%%DocumentData: Clean7Bit
%%LanguageLevel: 2
%%BoundingBox: 42 18 354 366
%%EndComments
%%BeginProlog
50 dict begin
/q { gsave } bind def
/Q { grestore } bind def
/cm { 6 array astore concat } bind def
/w { setlinewidth } bind def
/J { setlinecap } bind def
/j { setlinejoin } bind def
/M { setmiterlimit } bind def
/d { setdash } bind def
/m { moveto } bind def
/l { lineto } bind def
/c { curveto } bind def
/h { closepath } bind def
/re { exch dup neg 3 1 roll 5 3 roll moveto 0 rlineto
      0 exch rlineto 0 rlineto closepath } bind def
/S { stroke } bind def
/f { fill } bind def
/f* { eofill } bind def
/n { newpath } bind def
/W { clip } bind def
/W* { eoclip } bind def
/BT { } bind def
/ET { } bind def
/BDC { mark 3 1 roll /BDC pdfmark } bind def
/EMC { mark /EMC pdfmark } bind def
/cairo_store_point { /cairo_point_y exch def /cairo_point_x exch def } def
/Tj { show currentpoint cairo_store_point } bind def
/TJ {
  {
    dup
    type /stringtype eq
    { show } { -0.001 mul 0 cairo_font_matrix dtransform rmoveto } ifelse
  } forall
  currentpoint cairo_store_point
} bind def
/cairo_selectfont { cairo_font_matrix aload pop pop pop 0 0 6 array astore
    cairo_font exch selectfont cairo_point_x cairo_point_y moveto } bind def
/Tf { pop /cairo_font exch def /cairo_font_matrix where
      { pop cairo_selectfont } if } bind def
/Td { matrix translate cairo_font_matrix matrix concatmatrix dup
      /cairo_font_matrix exch def dup 4 get exch 5 get cairo_store_point
      /cairo_font where { pop cairo_selectfont } if } bind def
/Tm { 2 copy 8 2 roll 6 array astore /cairo_font_matrix exch def
      cairo_store_point /cairo_font where { pop cairo_selectfont } if } bind def
/g { setgray } bind def
/rg { setrgbcolor } bind def
/d1 { setcachedevice } bind def
/cairo_data_source {
  CairoDataIndex CairoData length lt
    { CairoData CairoDataIndex get /CairoDataIndex CairoDataIndex 1 add def }
    { () } ifelse
} def
/cairo_flush_ascii85_file { cairo_ascii85_file status { cairo_ascii85_file flushfile } if } def
/cairo_image { image cairo_flush_ascii85_file } def
/cairo_imagemask { imagemask cairo_flush_ascii85_file } def
%%EndProlog
%%BeginSetup
%%EndSetup
%%Page: 1 1
%%BeginPageSetup
%%PageBoundingBox: 42 18 354 366
%%EndPageSetup
q 42 18 312 348 rectclip
1 0 0 -1 0 384 cm q
0.12549 0.380392 0.6 rg
114 366 m 114 324 l 66 324 l 58.801 333.602 l 51.789 342.945 48 354.316
 48 366 c h
114 366 m f
270 366 m 270 324 l 318 324 l 325.199 333.602 l 332.211 342.945 336 354.316
 336 366 c h
270 366 m f
0.188235 0.52549 0.803922 rg
300 210 m 258 228 l 249.402 249.492 l 247.211 254.973 247.113 261.066 249.129
 266.609 c 270 324 l 318 324 l 342 300 l 334.914 253.934 l 331.867 234.145
 318.59 217.438 300 210 c h
300 210 m f
1 0.854902 0.823529 rg
282 168 m 246 168 l 246 180 l 240 204 l 252 204 l 252 222 l 264 222 l 258
 228 l 282 234 l 300 210 l h
282 168 m f
1 0.623529 0.607843 rg
258 246 m 228 282 l 168.188 311.906 l 161.457 315.273 158.727 323.457 162.094
 330.188 c 165.387 336.77 173.309 339.551 179.992 336.465 c 246 306 l 288
 264 l h
258 246 m f
0.188235 0.52549 0.803922 rg
288 264 m 258 246 l 228 282 l 180 306 l 192.375 330.75 l 246 306 l h
288 264 m f
0.301961 0.717647 0.898039 rg
282 234 m 258 228 l 249.402 249.496 l 247.211 254.973 247.113 261.066 249.129
 266.609 c 270 324 l 288 324 l h
282 234 m f
0.419608 0.25098 0.164706 rg
284.57 174 m 228 174 l 228 162 l 272.57 162 l 279.199 162 284.57 167.371
 284.57 174 c h
284.57 174 m f
1 0.854902 0.823529 rg
290 327 m 281.816 339.273 l 278.434 344.348 279.102 351.102 283.414 355.414
 c 286.059 358.059 289.73 359.414 293.461 359.121 c 297.191 358.828 300.605
 356.918 302.805 353.895 c 309.156 345.156 l h
290 327 m f
192 239.887 m 180 239.887 l 180 216 l 180 212.688 182.688 210 186 210 c
 189.312 210 192 212.688 192 216 c h
192 239.887 m f
0.188235 0.52549 0.803922 rg
200.992 217.883 m 162 252 l 126 228 l 108 210 l 114.016 269.984 l 168 282
 l 217.977 237.023 l 220.586 234.672 222.113 231.355 222.207 227.848 c 222.301
 224.34 220.945 220.945 218.465 218.465 c 213.699 213.699 206.062 213.445
 200.992 217.883 c h
200.992 217.883 m f
1 0.854902 0.823529 rg
200.992 217.883 m 184.398 232.398 l 202.738 250.738 l 217.977 237.023 l
 220.586 234.672 222.113 231.355 222.207 227.848 c 222.301 224.34 220.945
 220.945 218.465 218.465 c 213.699 213.699 206.062 213.445 200.992 217.883
 c h
200.992 217.883 m f
0.188235 0.52549 0.803922 rg
134.871 266.609 m 136.887 261.066 136.789 254.973 134.598 249.496 c 126
 228 l 108 210 l 84 210 l 64.191 219.902 l 54.609 224.695 49.363 235.262
 51.336 245.793 c 66 324 l 114 324 l 117.68 313.883 l h
134.871 266.609 m f
0.301961 0.717647 0.898039 rg
134.598 249.496 m 126 228 l 108 210 l 98.801 210 l 114 324 l 117.68 313.883
 l 134.871 266.609 l 136.887 261.066 136.789 254.973 134.598 249.496 c h
134.598 249.496 m f
0.164706 0.439216 0.670588 rg
117.234 315.102 m 96 306 l 54.922 264.922 l 58.84 285.809 l 89.148 316.117
 l 107.539 324 l 114 324 l h
117.234 315.102 m f
127.078 288.035 m 131.191 276.719 l 121.484 272.238 l 98.219 244.316 l 
97.203 243.09 95.738 242.32 94.152 242.172 c 92.562 242.027 90.984 242.52
 89.762 243.539 c 88.535 244.559 87.766 246.023 87.625 247.613 c 87.484 
249.199 87.977 250.777 89 252 c 114 282 l h
127.078 288.035 m f
0.278431 0.635294 0.831373 rg
104.359 251.684 m 107.332 274 l 114 282 l 127.078 288.035 l 131.191 276.719
 l 121.484 272.238 l h
104.359 251.684 m f
1 0.854902 0.823529 rg
138 180 m 138 168 l 102 168 l 84 210 l 102 234 l 126 228 l 120 222 l 132
 222 l 132 204 l 144 204 l h
138 180 m f
0.188235 0.52549 0.803922 rg
114 282 m 62.906 220.688 l 54.121 225.758 49.484 235.82 51.336 245.793 
c 54.922 264.922 l 96 306 l 168.227 336.953 l 174.84 339.785 182.516 336.977
 185.734 330.539 c 187.379 327.25 187.617 323.434 186.402 319.965 c 185.184
 316.496 182.613 313.664 179.273 312.125 c h
114 282 m f
1 0.854902 0.823529 rg
179.273 312.125 m 162.75 304.5 l 150.352 329.293 l 168.227 336.953 l 174.84
 339.785 182.516 336.977 185.734 330.539 c 187.379 327.25 187.617 323.434
 186.402 319.965 c 185.184 316.496 182.613 313.664 179.273 312.125 c h
179.273 312.125 m f
0.419608 0.25098 0.164706 rg
156 174 m 99.43 174 l 99.43 167.371 104.801 162 111.43 162 c 156 162 l 
h
156 174 m f
0.203922 0.560784 0.85098 rg
354 18 m 42 18 l 42 108 l 114 108 l 114 144 l 150 108 l 234 108 l 270 144
 l 270 108 l 354 108 l h
354 18 m f
0.176471 0.490196 0.74902 rg
90 42 24 12 re f
138 42 120 12 re f
270 42 60 12 re f
66 72 144 12 re f
222 72 78 12 re f
1 0.623529 0.607843 rg
284.484 218.484 m 286.824 216.141 286.82 212.344 284.48 210.004 c 282.141
 207.664 278.344 207.66 276 210 c 258 228 l 271.574 231.395 l h
284.484 218.484 m f
99.516 218.484 m 97.176 216.141 97.18 212.344 99.52 210.004 c 101.859 207.664
 105.656 207.66 108 210 c 126 228 l 112.426 231.395 l h
99.516 218.484 m f
0.164706 0.439216 0.670588 rg
286.543 354.688 m 284.953 354.691 283.426 354.059 282.301 352.93 c 273.949
 344.543 272.652 331.438 279.195 321.574 c 299.383 291.293 l 294.164 259.973
 l 293.902 258.402 294.273 256.793 295.199 255.5 c 296.125 254.203 297.527
 253.328 299.094 253.066 c 302.363 252.523 305.457 254.73 306 258 c 312 
294 l 289.18 328.23 l 285.797 333.328 286.469 340.105 290.785 344.445 c 
292.504 346.16 293.016 348.742 292.086 350.984 c 291.16 353.227 288.973 
354.688 286.543 354.688 c h
286.543 354.688 m f
0.0823529 0.294118 0.478431 rg
286.543 354.688 m 288.973 354.688 291.16 353.227 292.086 350.984 c 293.016
 348.742 292.504 346.16 290.785 344.445 c 286.469 340.105 285.797 333.328
 289.18 328.23 c 292 324 l 277.777 324 l 272.863 333.605 274.691 345.281
 282.301 352.93 c 283.426 354.059 284.953 354.691 286.543 354.688 c h
286.543 354.688 m f
0.278431 0.635294 0.831373 rg
279.195 321.574 m 278.676 322.355 278.203 323.164 277.777 324 c 288 324
 l 287.051 309.789 l h
279.195 321.574 m f
1 0.854902 0.823529 rg
312 294 m 281.816 339.273 l 278.434 344.348 279.102 351.102 283.414 355.414
 c 286.059 358.059 289.73 359.414 293.461 359.121 c 297.191 358.828 300.605
 356.918 302.805 353.895 c 342 300 l h
312 294 m f
0.188235 0.52549 0.803922 rg
342 300 m 309.105 345.234 l 290.004 327 l 312 294 l 306 258 l 300 210 l
 318.59 217.438 331.867 234.145 334.914 253.934 c h
342 300 m f
Q Q
showpage
%%Trailer
end
%%EOF
