alabaster==0.7.12
appdirs==1.4.4
asgiref==3.2.10
attrs==19.3.0
Babel==2.8.0
beautifulsoup4==4.9.1
black==19.10b0
bleach==3.1.5
bootstrap4==0.1.0
cairocffi==1.1.0
CairoSVG==2.4.2
certifi==2020.6.20
cffi==1.14.2
chardet==3.0.4
cheroot==8.4.8
CherryPy==18.6.0
click==7.1.2
construct==2.10.56
cssselect==1.1.0
cssselect2==0.3.0
defusedxml==0.6.0
Django==3.0.9
django-auth-ldap==2.2.0
django-bootstrap-datepicker-plus==3.0.5
django-bootstrap-static==4.2.1
django-bootstrap4==2.2.0
django-classy-tags==1.0.0
django-cors-headers==3.4.0
django-crispy-forms==1.9.2
django-excel==0.0.10
django-extensions==3.0.5
django-haystack==2.8.1
django-js-asset==1.2.2
django-mptt==0.11.0
django-nyt==1.1.5
django-phonenumber-field==4.0.0
django-sekizai==1.1.0
django-six==1.0.4
django-todo==2.4.9
docutils==0.16
elementpath==2.0.0
et-xmlfile==1.0.1
flake8==3.8.3
flake8-django==1.1.1
fontawesome==5.10.1.post1
future==0.18.2
gevent==20.9.0
greenlet==0.4.17
html5lib==1.1
httplib2==0.18.1
idna==2.10
imagesize==1.2.0
importlib-metadata==1.7.0
iniconfig==1.0.1
jaraco.classes==3.1.0
jaraco.collections==3.0.0
jaraco.functools==3.0.1
jaraco.text==3.2.0
jdcal==1.4.1
Jinja2==2.11.2
lark-parser==0.9.0
lml==0.0.9
login==0.0.6
lxml==4.6.2
Markdown==3.2.2
MarkupSafe==1.1.1
mccabe==0.6.1
mock==4.0.2
more-itertools==8.4.0
openpyxl==3.0.4
packaging==20.4
pathspec==0.8.0
pefile==2019.4.18
phonenumbers==8.12.7
Pillow==7.2.0
pluggy==0.13.1
portend==2.7.0
preggy==1.4.4
psycopg2==2.8.5
py==1.9.0
pyasn1==0.4.8
pyasn1-modules==0.2.8
pycodestyle==2.6.0
pycparser==2.20
pyexcel==0.6.3
pyexcel-io==0.5.20
pyexcel-webio==0.1.4
pyexcel-xls==0.5.8
pyexcel-xlsx==0.5.8
pyflakes==2.2.0
Pygments==2.6.1
pyparsing==2.4.7
Pyphen==0.9.5
pytest==6.0.1
pytest-django==3.9.0
python-gettext==4.0
python-ldap==3.3.1
python-ptrace==0.9.7
pytz==2020.1
regex==2020.7.14
reportlab==3.5.47
requests==2.24.0
required==0.4.0
selenium==3.141.0
sepaxml==2.3.0
six==1.15.0
snowballstemmer==2.0.0
sorl-thumbnail==12.6.3
soupsieve==2.0.1
Sphinx==3.2.1
sphinx-rtd-theme==0.5.0
sphinxcontrib-applehelp==1.0.2
sphinxcontrib-devhelp==1.0.2
sphinxcontrib-htmlhelp==1.0.3
sphinxcontrib-jsmath==1.0.1
sphinxcontrib-qthelp==1.0.3
sphinxcontrib-serializinghtml==1.1.4
sqlparse==0.3.1
tempora==4.0.1
text-unidecode==1.3
texttable==1.6.2
tinycss2==1.0.2
toml==0.10.1
typed-ast==1.4.1
Unidecode==1.1.1
urllib3==1.25.10
wcwidth==0.2.5
WeasyPrint==51
webencodings==0.5.1
wiki==0.6
xlrd==1.2.0
xlwt==1.3.0
xmlschema==1.2.3
zc.lockfile==2.0
zipp==3.1.0
zope.event==4.5.0
zope.interface==5.2.0
