%!PS-Adobe-3.0 EPSF-3.0
%%Creator: cairo 1.16.0 (https://cairographics.org)
%%CreationDate: Fri Sep 20 08:55:31 2019
%%Pages: 1
%%DocumentData: Clean7Bit
%%LanguageLevel: 2
%%BoundingBox: 18 18 366 366
%%EndComments
%%BeginProlog
50 dict begin
/q { gsave } bind def
/Q { grestore } bind def
/cm { 6 array astore concat } bind def
/w { setlinewidth } bind def
/J { setlinecap } bind def
/j { setlinejoin } bind def
/M { setmiterlimit } bind def
/d { setdash } bind def
/m { moveto } bind def
/l { lineto } bind def
/c { curveto } bind def
/h { closepath } bind def
/re { exch dup neg 3 1 roll 5 3 roll moveto 0 rlineto
      0 exch rlineto 0 rlineto closepath } bind def
/S { stroke } bind def
/f { fill } bind def
/f* { eofill } bind def
/n { newpath } bind def
/W { clip } bind def
/W* { eoclip } bind def
/BT { } bind def
/ET { } bind def
/BDC { mark 3 1 roll /BDC pdfmark } bind def
/EMC { mark /EMC pdfmark } bind def
/cairo_store_point { /cairo_point_y exch def /cairo_point_x exch def } def
/Tj { show currentpoint cairo_store_point } bind def
/TJ {
  {
    dup
    type /stringtype eq
    { show } { -0.001 mul 0 cairo_font_matrix dtransform rmoveto } ifelse
  } forall
  currentpoint cairo_store_point
} bind def
/cairo_selectfont { cairo_font_matrix aload pop pop pop 0 0 6 array astore
    cairo_font exch selectfont cairo_point_x cairo_point_y moveto } bind def
/Tf { pop /cairo_font exch def /cairo_font_matrix where
      { pop cairo_selectfont } if } bind def
/Td { matrix translate cairo_font_matrix matrix concatmatrix dup
      /cairo_font_matrix exch def dup 4 get exch 5 get cairo_store_point
      /cairo_font where { pop cairo_selectfont } if } bind def
/Tm { 2 copy 8 2 roll 6 array astore /cairo_font_matrix exch def
      cairo_store_point /cairo_font where { pop cairo_selectfont } if } bind def
/g { setgray } bind def
/rg { setrgbcolor } bind def
/d1 { setcachedevice } bind def
/cairo_data_source {
  CairoDataIndex CairoData length lt
    { CairoData CairoDataIndex get /CairoDataIndex CairoDataIndex 1 add def }
    { () } ifelse
} def
/cairo_flush_ascii85_file { cairo_ascii85_file status { cairo_ascii85_file flushfile } if } def
/cairo_image { image cairo_flush_ascii85_file } def
/cairo_imagemask { imagemask cairo_flush_ascii85_file } def
%%EndProlog
%%BeginSetup
%%EndSetup
%%Page: 1 1
%%BeginPageSetup
%%PageBoundingBox: 18 18 366 366
%%EndPageSetup
q 18 18 348 348 rectclip
1 0 0 -1 0 384 cm q
0.329412 0.541176 1 rg
366 99.938 m 366 342 l 366 355.254 355.254 366 342 366 c 144 366 l 130.746
 366 120 355.254 120 342 c 120 42 l 120 28.746 130.746 18 144 18 c 284.062
 18 l 290.426 18.008 296.523 20.531 301.027 25.027 c 358.973 82.973 l 363.469
 87.477 365.992 93.574 366 99.938 c h
366 99.938 m f
0.282353 0.419608 0.878431 rg
324 78 m 162 78 l 160.41 78 158.883 78.633 157.758 79.758 c 156.633 80.883
 156 82.41 156 84 c 156 306 l 156 307.59 156.633 309.117 157.758 310.242
 c 158.883 311.367 160.41 312 162 312 c 324 312 l 325.59 312 327.117 311.367
 328.242 310.242 c 329.367 309.117 330 307.59 330 306 c 330 84 l 330 82.41
 329.367 80.883 328.242 79.758 c 327.117 78.633 325.59 78 324 78 c h
318 114 m 252 114 l 252 90 l 318 90 l h
252 162 m 318 162 l 318 264 l 252 264 l h
240 264 m 168 264 l 168 162 l 240 162 l h
252 150 m 252 126 l 318 126 l 318 150 l h
240 90 m 240 150 l 168 150 l 168 90 l h
168 276 m 240 276 l 240 300 l 168 300 l h
252 300 m 252 276 l 318 276 l 318 300 l h
252 300 m f
264 330 24 12 re f
300 330 24 12 re f
216 48 18 12 re f
246 48 30 12 re f
0.490196 0.686275 1 rg
363.84 90 m 318 90 l 304.746 90 294 79.254 294 66 c 294 20.16 l 296.617
 21.348 298.996 22.996 301.027 25.027 c 358.973 82.973 l 361.004 85.004 
362.652 87.383 363.84 90 c h
363.84 90 m f
0.494118 0.341176 0.87451 rg
42 132 m 162 132 l 175.297 132 186 142.703 186 156 c 186 342 l 186 355.297
 175.297 366 162 366 c 42 366 l 28.703 366 18 355.297 18 342 c 18 156 l 
18 142.703 28.703 132 42 132 c h
42 132 m f
0.964706 0.733333 0 rg
48 270 36 72 re f
0.301961 0.388235 0.470588 rg
48 234 m 48 270 l 84 270 l 84 342 l 156 342 l 156 234 l h
48 234 m f
0.258824 0.337255 0.419608 rg
126 264 m 126 234 l 114 234 l 114 264 l 90 264 l 90 234 l 78 234 l 78 264
 l 48 264 l 48 276 l 78 276 l 78 342 l 90 342 l 90 312 l 114 312 l 114 342
 l 126 342 l 126 276 l 156 276 l 156 264 l h
90 300 m 90 276 l 114 276 l 114 300 l h
90 300 m f
0.517647 0.847059 0.909804 rg
42 198 m 42 156 l 162 156 l 162 198 l 125.641 207.09 l 117.91 209.023 109.969
 210 102 210 c 94.031 210 86.09 209.023 78.359 207.09 c h
42 198 m f
0.427451 0.756863 0.839216 rg
132 174 12 12 re f
108 174 12 12 re f
0.870588 0.580392 0 rg
48 300 30 12 re f
Q Q
showpage
%%Trailer
end
%%EOF
