%!PS-Adobe-3.0 EPSF-3.0
%%Creator: cairo 1.16.0 (https://cairographics.org)
%%CreationDate: Fri Sep 20 08:55:31 2019
%%Pages: 1
%%DocumentData: Clean7Bit
%%LanguageLevel: 2
%%BoundingBox: 30 24 354 366
%%EndComments
%%BeginProlog
50 dict begin
/q { gsave } bind def
/Q { grestore } bind def
/cm { 6 array astore concat } bind def
/w { setlinewidth } bind def
/J { setlinecap } bind def
/j { setlinejoin } bind def
/M { setmiterlimit } bind def
/d { setdash } bind def
/m { moveto } bind def
/l { lineto } bind def
/c { curveto } bind def
/h { closepath } bind def
/re { exch dup neg 3 1 roll 5 3 roll moveto 0 rlineto
      0 exch rlineto 0 rlineto closepath } bind def
/S { stroke } bind def
/f { fill } bind def
/f* { eofill } bind def
/n { newpath } bind def
/W { clip } bind def
/W* { eoclip } bind def
/BT { } bind def
/ET { } bind def
/BDC { mark 3 1 roll /BDC pdfmark } bind def
/EMC { mark /EMC pdfmark } bind def
/cairo_store_point { /cairo_point_y exch def /cairo_point_x exch def } def
/Tj { show currentpoint cairo_store_point } bind def
/TJ {
  {
    dup
    type /stringtype eq
    { show } { -0.001 mul 0 cairo_font_matrix dtransform rmoveto } ifelse
  } forall
  currentpoint cairo_store_point
} bind def
/cairo_selectfont { cairo_font_matrix aload pop pop pop 0 0 6 array astore
    cairo_font exch selectfont cairo_point_x cairo_point_y moveto } bind def
/Tf { pop /cairo_font exch def /cairo_font_matrix where
      { pop cairo_selectfont } if } bind def
/Td { matrix translate cairo_font_matrix matrix concatmatrix dup
      /cairo_font_matrix exch def dup 4 get exch 5 get cairo_store_point
      /cairo_font where { pop cairo_selectfont } if } bind def
/Tm { 2 copy 8 2 roll 6 array astore /cairo_font_matrix exch def
      cairo_store_point /cairo_font where { pop cairo_selectfont } if } bind def
/g { setgray } bind def
/rg { setrgbcolor } bind def
/d1 { setcachedevice } bind def
/cairo_data_source {
  CairoDataIndex CairoData length lt
    { CairoData CairoDataIndex get /CairoDataIndex CairoDataIndex 1 add def }
    { () } ifelse
} def
/cairo_flush_ascii85_file { cairo_ascii85_file status { cairo_ascii85_file flushfile } if } def
/cairo_image { image cairo_flush_ascii85_file } def
/cairo_imagemask { imagemask cairo_flush_ascii85_file } def
%%EndProlog
%%BeginSetup
%%EndSetup
%%Page: 1 1
%%BeginPageSetup
%%PageBoundingBox: 30 24 354 366
%%EndPageSetup
q 30 24 324 342 rectclip
1 0 0 -1 0 384 cm q
0.329412 0.541176 1 rg
258 30 96 102 re f
0.301961 0.388235 0.470588 rg
138 360 m 72 360 l 62.062 359.988 54.012 351.938 54 342 c 54 312 l 66 312
 l 66 342 l 66.004 345.312 68.688 347.996 72 348 c 138 348 l 141.312 347.996
 143.996 345.312 144 342 c 144 318 l 156 318 l 156 342 l 155.988 351.938
 147.938 359.988 138 360 c h
138 360 m f
168 294 42 12 re f
258 294 42 12 re f
78 294 54 12 re f
318 246 12 48 re f
66 282 m 54 282 l 54 234 l 54.012 224.062 62.062 216.012 72 216 c 126 216
 l 126 228 l 72 228 l 68.688 228.004 66.004 230.688 66 234 c h
66 282 m f
0.329412 0.541176 1 rg
138 204 m 162 204 l 171.973 204 180 212.027 180 222 c 180 231.973 171.973
 240 162 240 c 138 240 l 128.027 240 120 231.973 120 222 c 120 212.027 128.027
 204 138 204 c h
138 204 m f
0.960784 0.788235 0.615686 rg
132 156 m 115.496 135.371 l 110.645 129.305 108 121.77 108 114 c 108 106.23
 110.645 98.695 115.496 92.629 c 132 72 l 168 48 l 258 48 l 258 114 l 234
 114 l 222.668 129.109 204.887 138 186 138 c 182.121 157.398 l 180.887 163.562
 175.477 168 169.188 168 c 156 168 l h
132 156 m f
0.964706 0.733333 0 rg
168 66 m 168 186 l 150 210 l 132 186 l 132 66 l h
168 66 m f
0.929412 0.65098 0 rg
132 42 36 24 re f
0.870588 0.580392 0 rg
138 18 24 24 re f
0.329412 0.541176 1 rg
312 210 m 336 210 l 345.973 210 354 218.027 354 228 c 354 237.973 345.973
 246 336 246 c 312 246 l 302.027 246 294 237.973 294 228 c 294 218.027 302.027
 210 312 210 c h
312 210 m f
150 324 m 186 300 l 150 276 l 114 300 l h
150 324 m f
0.964706 0.733333 0 rg
300 282 m 307.555 278.223 316.445 278.223 324 282 c 326.059 283.031 l 332.426
 286.211 339.793 286.734 346.543 284.484 c 354 282 l 354 318 l 300 318 l
 h
300 282 m f
90 282 m 42 282 l 30 312 l 78 312 l h
90 282 m f
0.00784314 0.760784 0.415686 rg
210 282 48 36 re f
0.960784 0.788235 0.615686 rg
192 78 m 164.637 100.805 l 159.164 105.363 156 112.117 156 119.242 c 156
 154.812 l 156 162.094 161.906 168 169.188 168 c 175.477 168 180.887 163.562
 182.121 157.398 c 186 138 l 204.887 138 222.668 129.109 234 114 c 234 78
 l h
192 78 m f
0.870588 0.682353 0.494118 rg
169.188 174 m 158.598 173.988 150.012 165.402 150 154.812 c 150 119.242
 l 149.988 110.336 153.945 101.887 160.793 96.195 c 188.16 73.391 l 195.84
 82.609 l 168.477 105.414 l 164.367 108.828 161.992 113.898 162 119.242 
c 162 154.812 l 162 158.508 164.801 161.602 168.48 161.965 c 172.156 162.328
 175.512 159.844 176.238 156.223 c 181.082 132 l 186 132 l 202.988 131.961
 218.977 123.965 229.199 110.398 c 231 108 l 258 108 l 258 120 l 236.91 
120 l 225.441 133.824 208.863 142.414 190.957 143.812 c 188.004 158.574 
l 186.191 167.531 178.328 173.98 169.188 174 c h
169.188 174 m f
Q Q
showpage
%%Trailer
end
%%EOF
