%!PS-Adobe-3.0 EPSF-3.0
%%Creator: cairo 1.16.0 (https://cairographics.org)
%%CreationDate: Fri Sep 20 08:55:32 2019
%%Pages: 1
%%DocumentData: Clean7Bit
%%LanguageLevel: 2
%%BoundingBox: 18 18 366 372
%%EndComments
%%BeginProlog
50 dict begin
/q { gsave } bind def
/Q { grestore } bind def
/cm { 6 array astore concat } bind def
/w { setlinewidth } bind def
/J { setlinecap } bind def
/j { setlinejoin } bind def
/M { setmiterlimit } bind def
/d { setdash } bind def
/m { moveto } bind def
/l { lineto } bind def
/c { curveto } bind def
/h { closepath } bind def
/re { exch dup neg 3 1 roll 5 3 roll moveto 0 rlineto
      0 exch rlineto 0 rlineto closepath } bind def
/S { stroke } bind def
/f { fill } bind def
/f* { eofill } bind def
/n { newpath } bind def
/W { clip } bind def
/W* { eoclip } bind def
/BT { } bind def
/ET { } bind def
/BDC { mark 3 1 roll /BDC pdfmark } bind def
/EMC { mark /EMC pdfmark } bind def
/cairo_store_point { /cairo_point_y exch def /cairo_point_x exch def } def
/Tj { show currentpoint cairo_store_point } bind def
/TJ {
  {
    dup
    type /stringtype eq
    { show } { -0.001 mul 0 cairo_font_matrix dtransform rmoveto } ifelse
  } forall
  currentpoint cairo_store_point
} bind def
/cairo_selectfont { cairo_font_matrix aload pop pop pop 0 0 6 array astore
    cairo_font exch selectfont cairo_point_x cairo_point_y moveto } bind def
/Tf { pop /cairo_font exch def /cairo_font_matrix where
      { pop cairo_selectfont } if } bind def
/Td { matrix translate cairo_font_matrix matrix concatmatrix dup
      /cairo_font_matrix exch def dup 4 get exch 5 get cairo_store_point
      /cairo_font where { pop cairo_selectfont } if } bind def
/Tm { 2 copy 8 2 roll 6 array astore /cairo_font_matrix exch def
      cairo_store_point /cairo_font where { pop cairo_selectfont } if } bind def
/g { setgray } bind def
/rg { setrgbcolor } bind def
/d1 { setcachedevice } bind def
/cairo_data_source {
  CairoDataIndex CairoData length lt
    { CairoData CairoDataIndex get /CairoDataIndex CairoDataIndex 1 add def }
    { () } ifelse
} def
/cairo_flush_ascii85_file { cairo_ascii85_file status { cairo_ascii85_file flushfile } if } def
/cairo_image { image cairo_flush_ascii85_file } def
/cairo_imagemask { imagemask cairo_flush_ascii85_file } def
%%EndProlog
%%BeginSetup
%%EndSetup
%%Page: 1 1
%%BeginPageSetup
%%PageBoundingBox: 18 18 366 372
%%EndPageSetup
q 18 18 348 354 rectclip
1 0 0 -1 0 384 cm q
0.870588 0.580392 0 rg
108 48 m 96 48 l 96 42 l 96 40.703 96.422 39.438 97.199 38.398 c 112.801
 17.602 l 116.414 12.777 122.711 10.812 128.426 12.719 c 134.145 14.625 
138 19.973 138 26 c 138 36 l 126 36 l 126 26 l 126 24.078 123.555 23.262
 122.398 24.801 c 108 44 l h
108 48 m f
150 48 m 138 48 l 138 42 l 138 40.703 138.422 39.438 139.199 38.398 c 154.801
 17.602 l 158.414 12.777 164.711 10.812 170.426 12.719 c 176.145 14.625 
180 19.973 180 26 c 180 36 l 168 36 l 168 26 l 168 24.078 165.555 23.262
 164.398 24.801 c 150 44 l h
150 48 m f
192 48 m 180 48 l 180 42 l 180 40.703 180.422 39.438 181.199 38.398 c 196.801
 17.602 l 200.414 12.777 206.711 10.812 212.426 12.719 c 218.145 14.625 
222 19.973 222 26 c 222 36 l 210 36 l 210 26 l 210 24.078 207.555 23.262
 206.398 24.801 c 192 44 l h
192 48 m f
234 48 m 222 48 l 222 42 l 222 40.703 222.422 39.438 223.199 38.398 c 238.801
 17.602 l 242.414 12.777 248.711 10.812 254.426 12.719 c 260.145 14.625 
264 19.973 264 26 c 264 36 l 252 36 l 252 26 l 252 24.078 249.555 23.262
 248.398 24.801 c 234 44 l h
234 48 m f
0.329412 0.541176 1 rg
60 42 264 174 re f
0.964706 0.733333 0 rg
252 258 m 240 276 l 240 366 l 144 366 l 144 276 l 132 258 l h
252 258 m f
0.870588 0.580392 0 rg
174 288 m 162 288 l 162 277.816 l 151.008 261.328 l 160.992 254.672 l 172.992
 272.672 l 173.648 273.656 174 274.816 174 276 c h
174 288 m f
222 288 m 210 288 l 210 276 l 210 274.816 210.352 273.656 211.008 272.672
 c 223.008 254.672 l 232.992 261.328 l 222 277.816 l h
222 288 m f
186 258 12 30 re f
126 36 12 30 re f
0.964706 0.733333 0 rg
120 60 24 12 re f
0.870588 0.580392 0 rg
168 36 12 30 re f
0.964706 0.733333 0 rg
162 60 24 12 re f
0.870588 0.580392 0 rg
210 36 12 30 re f
0.964706 0.733333 0 rg
204 60 24 12 re f
0.870588 0.580392 0 rg
252 36 12 30 re f
0.964706 0.733333 0 rg
246 60 24 12 re f
0.870588 0.580392 0 rg
270 258 m 270 294 l 240 294 l 240 306 l 258 306 l 258 318 l 240 318 l 240
 330 l 258 330 l 258 342 l 240 342 l 240 354 l 258 354 l 258 366 l 270 366
 l 270 306 l 276 306 l 277.59 306 279.117 305.367 280.242 304.242 c 281.367
 303.117 282 301.59 282 300 c 282 258 l h
270 258 m f
0.964706 0.733333 0 rg
24 216 336 42 re f
0.870588 0.580392 0 rg
360 210 m 24 210 l 22.41 210 20.883 210.633 19.758 211.758 c 18.633 212.883
 18 214.41 18 216 c 18 258 l 18 259.59 18.633 261.117 19.758 262.242 c 20.883
 263.367 22.41 264 24 264 c 360 264 l 361.59 264 363.117 263.367 364.242
 262.242 c 365.367 261.117 366 259.59 366 258 c 366 216 l 366 214.41 365.367
 212.883 364.242 211.758 c 363.117 210.633 361.59 210 360 210 c h
354 244.777 m 327.969 222 l 354 222 l h
78 229.223 m 104.031 252 l 78 252 l h
66 244.777 m 39.969 222 l 66 222 l h
87.969 222 m 114 222 l 114 244.777 l h
126 229.223 m 152.031 252 l 126 252 l h
135.969 222 m 162 222 l 162 244.777 l h
174 229.223 m 200.031 252 l 174 252 l h
183.969 222 m 210 222 l 210 244.777 l h
222 229.223 m 248.031 252 l 222 252 l h
231.969 222 m 258 222 l 258 244.777 l h
270 229.223 m 296.031 252 l 270 252 l h
279.969 222 m 306 222 l 306 244.777 l h
318 229.223 m 344.031 252 l 318 252 l h
30 229.223 m 56.031 252 l 30 252 l h
30 229.223 m f
Q Q
showpage
%%Trailer
end
%%EOF
