%!PS-Adobe-3.0 EPSF-3.0
%%Creator: cairo 1.16.0 (https://cairographics.org)
%%CreationDate: Fri Sep 20 08:55:32 2019
%%Pages: 1
%%DocumentData: Clean7Bit
%%LanguageLevel: 2
%%BoundingBox: 18 18 366 372
%%EndComments
%%BeginProlog
50 dict begin
/q { gsave } bind def
/Q { grestore } bind def
/cm { 6 array astore concat } bind def
/w { setlinewidth } bind def
/J { setlinecap } bind def
/j { setlinejoin } bind def
/M { setmiterlimit } bind def
/d { setdash } bind def
/m { moveto } bind def
/l { lineto } bind def
/c { curveto } bind def
/h { closepath } bind def
/re { exch dup neg 3 1 roll 5 3 roll moveto 0 rlineto
      0 exch rlineto 0 rlineto closepath } bind def
/S { stroke } bind def
/f { fill } bind def
/f* { eofill } bind def
/n { newpath } bind def
/W { clip } bind def
/W* { eoclip } bind def
/BT { } bind def
/ET { } bind def
/BDC { mark 3 1 roll /BDC pdfmark } bind def
/EMC { mark /EMC pdfmark } bind def
/cairo_store_point { /cairo_point_y exch def /cairo_point_x exch def } def
/Tj { show currentpoint cairo_store_point } bind def
/TJ {
  {
    dup
    type /stringtype eq
    { show } { -0.001 mul 0 cairo_font_matrix dtransform rmoveto } ifelse
  } forall
  currentpoint cairo_store_point
} bind def
/cairo_selectfont { cairo_font_matrix aload pop pop pop 0 0 6 array astore
    cairo_font exch selectfont cairo_point_x cairo_point_y moveto } bind def
/Tf { pop /cairo_font exch def /cairo_font_matrix where
      { pop cairo_selectfont } if } bind def
/Td { matrix translate cairo_font_matrix matrix concatmatrix dup
      /cairo_font_matrix exch def dup 4 get exch 5 get cairo_store_point
      /cairo_font where { pop cairo_selectfont } if } bind def
/Tm { 2 copy 8 2 roll 6 array astore /cairo_font_matrix exch def
      cairo_store_point /cairo_font where { pop cairo_selectfont } if } bind def
/g { setgray } bind def
/rg { setrgbcolor } bind def
/d1 { setcachedevice } bind def
/cairo_data_source {
  CairoDataIndex CairoData length lt
    { CairoData CairoDataIndex get /CairoDataIndex CairoDataIndex 1 add def }
    { () } ifelse
} def
/cairo_flush_ascii85_file { cairo_ascii85_file status { cairo_ascii85_file flushfile } if } def
/cairo_image { image cairo_flush_ascii85_file } def
/cairo_imagemask { imagemask cairo_flush_ascii85_file } def
%%EndProlog
%%BeginSetup
%%EndSetup
%%Page: 1 1
%%BeginPageSetup
%%PageBoundingBox: 18 18 366 372
%%EndPageSetup
q 18 18 348 354 rectclip
1 0 0 -1 0 384 cm q
0.282353 0.419608 0.878431 rg
258 180 84 78 re f
0.317647 0.494118 0.968627 rg
180 180 78 78 re f
0.282353 0.419608 0.878431 rg
150 258 216 108 re f
0.329412 0.541176 1 rg
198 132 60 48 re f
0.317647 0.494118 0.968627 rg
258 132 60 48 re f
0.329412 0.541176 1 rg
216 84 84 48 re f
0.388235 0.603922 1 rg
282 84 m 270 66 l 270 48 l 270 44.688 267.312 42 264 42 c 252 42 l 248.688
 42 246 44.688 246 48 c 246 66 l 234 84 l h
282 84 m f
0.490196 0.686275 1 rg
252 12 12 30 re f
0.568627 0.752941 1 rg
198 198 12 12 re f
222 198 12 12 re f
198 222 12 12 re f
282 198 12 12 re f
306 198 12 12 re f
306 222 12 12 re f
282 222 12 12 re f
222 222 12 12 re f
222 150 12 12 re f
282 150 12 12 re f
240 102 12 12 re f
264 102 12 12 re f
264 282 12 12 re f
294 282 12 12 re f
324 282 12 12 re f
264 306 12 12 re f
294 306 12 12 re f
324 306 12 12 re f
264 330 12 12 re f
234 282 12 12 re f
234 306 12 12 re f
234 330 12 12 re f
294 330 12 12 re f
324 330 12 12 re f
0.00784314 0.760784 0.415686 rg
18 270 192 96 re f
0 0.65098 0.309804 rg
48 288 42 12 re f
48 312 42 12 re f
48 336 42 12 re f
138 288 72 12 re f
138 312 72 12 re f
138 336 72 12 re f
0.964706 0.733333 0 rg
90 270 48 96 re f
0 0.709804 0.356863 rg
120 270 m 103.43 270 90 256.57 90 240 c 90 222 l 30 222 l 30 240 l 30 256.57
 43.43 270 60 270 c h
120 270 m f
Q Q
showpage
%%Trailer
end
%%EOF
