%!PS-Adobe-3.0 EPSF-3.0
%%Creator: cairo 1.16.0 (https://cairographics.org)
%%CreationDate: Fri Sep 20 08:55:33 2019
%%Pages: 1
%%DocumentData: Clean7Bit
%%LanguageLevel: 2
%%BoundingBox: 102 18 282 366
%%EndComments
%%BeginProlog
50 dict begin
/q { gsave } bind def
/Q { grestore } bind def
/cm { 6 array astore concat } bind def
/w { setlinewidth } bind def
/J { setlinecap } bind def
/j { setlinejoin } bind def
/M { setmiterlimit } bind def
/d { setdash } bind def
/m { moveto } bind def
/l { lineto } bind def
/c { curveto } bind def
/h { closepath } bind def
/re { exch dup neg 3 1 roll 5 3 roll moveto 0 rlineto
      0 exch rlineto 0 rlineto closepath } bind def
/S { stroke } bind def
/f { fill } bind def
/f* { eofill } bind def
/n { newpath } bind def
/W { clip } bind def
/W* { eoclip } bind def
/BT { } bind def
/ET { } bind def
/BDC { mark 3 1 roll /BDC pdfmark } bind def
/EMC { mark /EMC pdfmark } bind def
/cairo_store_point { /cairo_point_y exch def /cairo_point_x exch def } def
/Tj { show currentpoint cairo_store_point } bind def
/TJ {
  {
    dup
    type /stringtype eq
    { show } { -0.001 mul 0 cairo_font_matrix dtransform rmoveto } ifelse
  } forall
  currentpoint cairo_store_point
} bind def
/cairo_selectfont { cairo_font_matrix aload pop pop pop 0 0 6 array astore
    cairo_font exch selectfont cairo_point_x cairo_point_y moveto } bind def
/Tf { pop /cairo_font exch def /cairo_font_matrix where
      { pop cairo_selectfont } if } bind def
/Td { matrix translate cairo_font_matrix matrix concatmatrix dup
      /cairo_font_matrix exch def dup 4 get exch 5 get cairo_store_point
      /cairo_font where { pop cairo_selectfont } if } bind def
/Tm { 2 copy 8 2 roll 6 array astore /cairo_font_matrix exch def
      cairo_store_point /cairo_font where { pop cairo_selectfont } if } bind def
/g { setgray } bind def
/rg { setrgbcolor } bind def
/d1 { setcachedevice } bind def
/cairo_data_source {
  CairoDataIndex CairoData length lt
    { CairoData CairoDataIndex get /CairoDataIndex CairoDataIndex 1 add def }
    { () } ifelse
} def
/cairo_flush_ascii85_file { cairo_ascii85_file status { cairo_ascii85_file flushfile } if } def
/cairo_image { image cairo_flush_ascii85_file } def
/cairo_imagemask { imagemask cairo_flush_ascii85_file } def
%%EndProlog
%%BeginSetup
%%EndSetup
%%Page: 1 1
%%BeginPageSetup
%%PageBoundingBox: 102 18 282 366
%%EndPageSetup
q 102 18 180 348 rectclip
1 0 0 -1 0 384 cm q
0.329412 0.541176 1 rg
282 173.023 m 282 204 l 264 204 l 261.719 185.766 l 261.48 183.832 261.191
 181.91 260.852 180 c 257.75 162.59 250.609 146.148 240 132 c 234 192 l 
150 192 l 144 132 l 133.387 146.148 126.246 162.59 123.148 180 c 122.812
 181.914 122.523 183.836 122.281 185.766 c 120 204 l 102 204 l 102 173.023
 l 101.996 149.992 107.363 127.273 117.668 106.672 c 123.004 95.996 132.363
 87.879 143.684 84.105 c 157.199 79.598 l 180 72 l 204 72 l 226.801 79.598
 l 240.316 84.105 l 251.637 87.883 260.992 96 266.332 106.672 c 276.637 
127.273 282 149.992 282 173.023 c h
282 173.023 m f
0.898039 0.905882 0.913725 rg
226.801 79.598 m 198 117.996 l 192 126 l 186 117.996 l 157.199 79.598 l
 180 72 l 204 72 l h
226.801 79.598 m f
0.796078 0.811765 0.823529 rg
198 72 m 198 117.996 l 192 126 l 186 117.996 l 186 72 l h
198 72 m f
0.301961 0.388235 0.470588 rg
234 192 m 240 366 l 222 366 l 192 252 l 162 366 l 144 366 l 150 192 l h
234 192 m f
0.960784 0.788235 0.615686 rg
282 180 m 282 204 l 264 204 l 261.719 185.766 l 261.48 183.832 261.191 
181.91 260.852 180 c h
282 180 m f
123.148 180 m 122.812 181.914 122.523 183.836 122.281 185.766 c 120 204
 l 102 204 l 102 180 l h
123.148 180 m f
210 42 m 210 60 l 210 69.941 201.941 78 192 78 c 182.059 78 174 69.941 
174 60 c 174 42 l h
210 42 m f
0.694118 0.47451 0.172549 rg
174 42 m 174 31.816 l 174 28.152 175.457 24.637 178.047 22.047 c 180.637
 19.457 184.152 18 187.816 18 c 190.543 18 193.211 18.809 195.48 20.32 c
 210 30 l 210 42 l h
174 42 m f
Q Q
showpage
%%Trailer
end
%%EOF
