%!PS-Adobe-3.0 EPSF-3.0
%%Creator: cairo 1.16.0 (https://cairographics.org)
%%CreationDate: Fri Sep 20 08:55:33 2019
%%Pages: 1
%%DocumentData: Clean7Bit
%%LanguageLevel: 2
%%BoundingBox: 42 18 342 366
%%EndComments
%%BeginProlog
50 dict begin
/q { gsave } bind def
/Q { grestore } bind def
/cm { 6 array astore concat } bind def
/w { setlinewidth } bind def
/J { setlinecap } bind def
/j { setlinejoin } bind def
/M { setmiterlimit } bind def
/d { setdash } bind def
/m { moveto } bind def
/l { lineto } bind def
/c { curveto } bind def
/h { closepath } bind def
/re { exch dup neg 3 1 roll 5 3 roll moveto 0 rlineto
      0 exch rlineto 0 rlineto closepath } bind def
/S { stroke } bind def
/f { fill } bind def
/f* { eofill } bind def
/n { newpath } bind def
/W { clip } bind def
/W* { eoclip } bind def
/BT { } bind def
/ET { } bind def
/BDC { mark 3 1 roll /BDC pdfmark } bind def
/EMC { mark /EMC pdfmark } bind def
/cairo_store_point { /cairo_point_y exch def /cairo_point_x exch def } def
/Tj { show currentpoint cairo_store_point } bind def
/TJ {
  {
    dup
    type /stringtype eq
    { show } { -0.001 mul 0 cairo_font_matrix dtransform rmoveto } ifelse
  } forall
  currentpoint cairo_store_point
} bind def
/cairo_selectfont { cairo_font_matrix aload pop pop pop 0 0 6 array astore
    cairo_font exch selectfont cairo_point_x cairo_point_y moveto } bind def
/Tf { pop /cairo_font exch def /cairo_font_matrix where
      { pop cairo_selectfont } if } bind def
/Td { matrix translate cairo_font_matrix matrix concatmatrix dup
      /cairo_font_matrix exch def dup 4 get exch 5 get cairo_store_point
      /cairo_font where { pop cairo_selectfont } if } bind def
/Tm { 2 copy 8 2 roll 6 array astore /cairo_font_matrix exch def
      cairo_store_point /cairo_font where { pop cairo_selectfont } if } bind def
/g { setgray } bind def
/rg { setrgbcolor } bind def
/d1 { setcachedevice } bind def
/cairo_data_source {
  CairoDataIndex CairoData length lt
    { CairoData CairoDataIndex get /CairoDataIndex CairoDataIndex 1 add def }
    { () } ifelse
} def
/cairo_flush_ascii85_file { cairo_ascii85_file status { cairo_ascii85_file flushfile } if } def
/cairo_image { image cairo_flush_ascii85_file } def
/cairo_imagemask { imagemask cairo_flush_ascii85_file } def
%%EndProlog
%%BeginSetup
%%EndSetup
%%Page: 1 1
%%BeginPageSetup
%%PageBoundingBox: 42 18 342 366
%%EndPageSetup
q 42 18 300 348 rectclip
1 0 0 -1 0 384 cm q
0.811765 0.513726 0 rg
116.957 224.48 m 105.422 221.184 l 111.68 199.273 l 113.004 194.641 106.152
 192.523 104.629 197.094 c 97.793 217.59 l 86.41 213.793 l 93.242 193.297
 l 95.941 185.203 104.613 180.746 112.77 183.27 c 120.922 185.789 125.562
 194.367 123.219 202.57 c h
116.957 224.48 m f
267.043 218.48 m 260.781 196.57 l 258.438 188.367 263.078 179.789 271.23
 177.27 c 279.387 174.746 288.059 179.203 290.758 187.297 c 297.59 207.793
 l 286.207 211.59 l 279.371 191.094 l 277.848 186.523 270.996 188.645 272.32
 193.277 c 278.578 215.184 l h
267.043 218.48 m f
0.694118 0.47451 0.172549 rg
156 114 m 156 60 l 156 36.805 174.805 18 198 18 c 221.195 18 240 36.805
 240 60 c 240 114 l h
156 114 m f
0.960784 0.788235 0.615686 rg
198 264 m 192 294 l 162 366 l 144 366 l 162 288 l 162 264 l 174 234 l 198
 234 l h
198 264 m f
234 264 m 240 366 l 222 366 l 210 294 l 198 264 l 198 234 l 222 234 l h
234 264 m f
0.329412 0.541176 1 rg
276 180 m 264 192 l 240 180 l 226.156 156.922 l 222 150 l 222 186 l 168
 186 l 168 156 l 162 138 l 155.004 155.496 l 150 168 l 120 198 l 108 186
 l 126 162 l 139.738 120.781 l 142.449 112.648 148.504 106.066 156.383 102.691
 c 186 90 l 210 90 l 240 108 l 258 162 l h
276 180 m f
0.960784 0.788235 0.615686 rg
180 60 m 185.293 60 l 189.703 60 194.055 58.973 198 57 c 201.945 55.027
 206.297 54 210.707 54 c 216 54 l 216 78 l 216 87.941 207.941 96 198 96 
c 188.059 96 180 87.941 180 78 c h
180 60 m f
155.004 155.496 m 150 168 l 120 198 l 108 186 l 126 162 l 132 144 l h
155.004 155.496 m f
276 180 m 264 192 l 240 180 l 226.156 156.922 l 252 144 l 258 162 l h
276 180 m f
0.301961 0.388235 0.470588 rg
168 186 m 162 264 l 180 264 l 186 246 l 192 264 l 234 264 l 222 186 l h
168 186 m f
0.964706 0.733333 0 rg
78 204 m 126 222 l 114 300 l 42 276 l h
78 204 m f
306 198 m 258 216 l 270 294 l 342 270 l h
306 198 m f
0.282353 0.419608 0.878431 rg
222 186 m 210 186 l 210 150 l 210 149.07 210.219 148.148 210.633 147.316
 c 215.523 137.539 l 210.309 121.898 l 221.691 118.102 l 227.691 136.102
 l 228.195 137.613 228.078 139.262 227.367 140.684 c 222 151.418 l h
222 186 m f
Q Q
showpage
%%Trailer
end
%%EOF
