%!PS-Adobe-3.0 EPSF-3.0
%%Creator: cairo 1.16.0 (https://cairographics.org)
%%CreationDate: Fri Sep 20 08:55:35 2019
%%Pages: 1
%%DocumentData: Clean7Bit
%%LanguageLevel: 2
%%BoundingBox: 12 36 372 348
%%EndComments
%%BeginProlog
50 dict begin
/q { gsave } bind def
/Q { grestore } bind def
/cm { 6 array astore concat } bind def
/w { setlinewidth } bind def
/J { setlinecap } bind def
/j { setlinejoin } bind def
/M { setmiterlimit } bind def
/d { setdash } bind def
/m { moveto } bind def
/l { lineto } bind def
/c { curveto } bind def
/h { closepath } bind def
/re { exch dup neg 3 1 roll 5 3 roll moveto 0 rlineto
      0 exch rlineto 0 rlineto closepath } bind def
/S { stroke } bind def
/f { fill } bind def
/f* { eofill } bind def
/n { newpath } bind def
/W { clip } bind def
/W* { eoclip } bind def
/BT { } bind def
/ET { } bind def
/BDC { mark 3 1 roll /BDC pdfmark } bind def
/EMC { mark /EMC pdfmark } bind def
/cairo_store_point { /cairo_point_y exch def /cairo_point_x exch def } def
/Tj { show currentpoint cairo_store_point } bind def
/TJ {
  {
    dup
    type /stringtype eq
    { show } { -0.001 mul 0 cairo_font_matrix dtransform rmoveto } ifelse
  } forall
  currentpoint cairo_store_point
} bind def
/cairo_selectfont { cairo_font_matrix aload pop pop pop 0 0 6 array astore
    cairo_font exch selectfont cairo_point_x cairo_point_y moveto } bind def
/Tf { pop /cairo_font exch def /cairo_font_matrix where
      { pop cairo_selectfont } if } bind def
/Td { matrix translate cairo_font_matrix matrix concatmatrix dup
      /cairo_font_matrix exch def dup 4 get exch 5 get cairo_store_point
      /cairo_font where { pop cairo_selectfont } if } bind def
/Tm { 2 copy 8 2 roll 6 array astore /cairo_font_matrix exch def
      cairo_store_point /cairo_font where { pop cairo_selectfont } if } bind def
/g { setgray } bind def
/rg { setrgbcolor } bind def
/d1 { setcachedevice } bind def
/cairo_data_source {
  CairoDataIndex CairoData length lt
    { CairoData CairoDataIndex get /CairoDataIndex CairoDataIndex 1 add def }
    { () } ifelse
} def
/cairo_flush_ascii85_file { cairo_ascii85_file status { cairo_ascii85_file flushfile } if } def
/cairo_image { image cairo_flush_ascii85_file } def
/cairo_imagemask { imagemask cairo_flush_ascii85_file } def
%%EndProlog
%%BeginSetup
%%EndSetup
%%Page: 1 1
%%BeginPageSetup
%%PageBoundingBox: 12 36 372 348
%%EndPageSetup
q 12 36 360 312 rectclip
1 0 0 -1 0 384 cm q
0.282353 0.419608 0.878431 rg
210 174 72 126 re f
0.329412 0.541176 1 rg
102 174 108 126 re f
18 240 54 72 re f
0.960784 0.788235 0.615686 rg
72 252 m 88.539 252 l 104.84 252 120.477 258.477 132 270.004 c 155.996 
270 l 159.18 270 162.234 271.262 164.484 273.516 c 166.734 275.766 168 278.816
 168 282 c 168 288.625 162.629 294 156.004 294 c 155.996 294 l 156 294.004
 l 192 294 l 195.184 294 198.234 295.266 200.484 297.516 c 202.734 299.766
 204 302.816 204 306 c 204 312.629 198.629 318 192 318 c 138 318 l 118.527
 318 99.578 311.684 84 300 c 72 300 l h
72 252 m f
0.870588 0.682353 0.494118 rg
156.004 300 m 156 294 l 151.758 298.242 l 150.043 296.527 149.527 293.945
 150.457 291.703 c 151.383 289.461 153.57 288 156 288 c 159.312 288 162 
285.312 162 282 c 162 278.684 159.312 276 156 276 c 132.004 276.004 l 132
 276.004 l 130.41 276.004 128.883 275.371 127.758 274.246 c 117.379 263.809
 103.258 257.957 88.539 258 c 72 258 l 72 246 l 88.539 246 l 105.566 245.949
 121.973 252.387 134.422 264.004 c 155.996 264 l 156 264 l 165.941 263.996
 174 272.055 174 281.996 c 174.004 291.938 165.945 299.996 156.004 300 c
 h
156.004 300 m f
192 324 m 138 324 l 117.93 323.957 98.371 317.668 82.035 306 c 72 306 l
 72 294 l 84 294 l 85.297 294 86.562 294.422 87.602 295.199 c 102.156 306.07
 119.832 311.961 138 312 c 192 312 l 193.594 312 195.121 311.371 196.246
 310.246 c 197.375 309.121 198.008 307.594 198.008 306 c 198.008 304.406
 197.375 302.879 196.246 301.754 c 195.121 300.629 193.594 300 192 300 c
 138 300 l 138 288 l 192 288 l 196.777 287.996 201.355 289.891 204.734 293.27
 c 208.113 296.645 210.012 301.223 210.012 306 c 210.012 310.777 208.113
 315.355 204.734 318.73 c 201.359 322.109 196.777 324.004 192 324 c h
192 324 m f
0.960784 0.788235 0.615686 rg
300 258 m 281.402 265.973 l 265.941 272.598 251.891 282.109 240 294.004
 c 216.004 294 l 212.82 294 209.766 295.262 207.516 297.516 c 205.266 299.766
 204 302.816 204 306 c 204 312.625 209.371 318 215.996 318 c 216.004 318
 l 216 318.004 l 180 318 l 176.816 318 173.766 319.266 171.516 321.516 c
 169.266 323.766 168 326.816 168 330 c 168 336.629 173.371 342 180 342 c
 240.68 342 l 262.746 342 283.352 330.973 295.594 312.609 c 300 306 l h
300 258 m f
0.870588 0.682353 0.494118 rg
240.68 348 m 180 348 l 175.223 348.004 170.641 346.109 167.266 342.73 c
 163.887 339.355 161.988 334.777 161.988 330 c 161.988 325.223 163.887 320.645
 167.266 317.27 c 170.645 313.891 175.223 311.996 180 312 c 216 312.004 
l 216 324.004 l 180 324 l 178.406 324 176.879 324.629 175.754 325.754 c 
174.625 326.879 173.992 328.406 173.992 330 c 173.992 331.594 174.625 333.121
 175.754 334.246 c 176.879 335.371 178.406 336 180 336 c 240.68 336 l 260.746
 336.023 279.488 325.992 290.602 309.281 c 295.008 302.672 l 296.121 301.004
 297.992 300 300 300 c 312 300 l 312 312 l 303.211 312 l 300.586 315.938
 l 287.25 335.988 264.758 348.027 240.68 348 c h
240.68 348 m f
0.964706 0.733333 0 rg
132 174 m 132 216 l 144 204 l 156 216 l 168 204 l 180 216 l 180 174 l h
132 174 m f
0.329412 0.541176 1 rg
102 90 m 102 78 l 78 78 l 76.41 78 74.883 78.633 73.758 79.758 c 72.633
 80.883 72 82.41 72 84 c 72 108 l 84 108 l 84 98.484 l 115.758 130.242 l
 124.242 121.758 l 92.484 90 l h
102 90 m f
40.242 160.242 m 31.758 151.758 l 13.758 169.758 l 12.633 170.883 12 172.41
 12 174 c 12 175.59 12.633 177.117 13.758 178.242 c 31.758 196.242 l 40.242
 187.758 l 32.484 180 l 72 180 l 72 168 l 32.484 168 l h
40.242 160.242 m f
187.758 37.758 m 169.758 55.758 l 178.242 64.242 l 186 56.484 l 186 114
 l 198 114 l 198 56.484 l 205.758 64.242 l 214.242 55.758 l 196.242 37.758
 l 193.898 35.414 190.102 35.414 187.758 37.758 c h
187.758 37.758 m f
312 108 m 312 84 l 312 82.41 311.367 80.883 310.242 79.758 c 309.117 78.633
 307.59 78 306 78 c 282 78 l 282 90 l 291.516 90 l 259.758 121.758 l 268.242
 130.242 l 300 98.484 l 300 108 l h
312 108 m f
370.242 169.758 m 352.242 151.758 l 343.758 160.242 l 351.516 168 l 312
 168 l 312 180 l 351.516 180 l 343.758 187.758 l 352.242 196.242 l 370.242
 178.242 l 371.367 177.117 372 175.59 372 174 c 372 172.41 371.367 170.883
 370.242 169.758 c h
370.242 169.758 m f
0.870588 0.682353 0.494118 rg
228 324 m 216 324 l 206.059 324 198 315.941 198 306 c 198 296.059 206.059
 288 216 288 c 216.004 288 l 237.547 288.004 l 249.586 276.371 263.645 267.035
 279.039 260.457 c 297.637 252.484 l 298.383 252.164 299.188 252 300 252
 c 312 252 l 312 264 l 301.23 264 l 283.766 271.484 l 269 277.797 255.586
 286.883 244.242 298.246 c 243.117 299.371 241.59 300.004 240 300.004 c 
239.996 300.004 l 216 300 l 212.688 300 210 302.688 210 306 c 210 309.312
 212.688 312 216 312 c 228 312 l h
228 324 m f
0.329412 0.541176 1 rg
300 246 66 72 re f
Q Q
showpage
%%Trailer
end
%%EOF
