%!PS-Adobe-3.0 EPSF-3.0
%%Creator: cairo 1.16.0 (https://cairographics.org)
%%CreationDate: Fri Sep 20 08:55:37 2019
%%Pages: 1
%%DocumentData: Clean7Bit
%%LanguageLevel: 2
%%BoundingBox: 18 18 366 366
%%EndComments
%%BeginProlog
50 dict begin
/q { gsave } bind def
/Q { grestore } bind def
/cm { 6 array astore concat } bind def
/w { setlinewidth } bind def
/J { setlinecap } bind def
/j { setlinejoin } bind def
/M { setmiterlimit } bind def
/d { setdash } bind def
/m { moveto } bind def
/l { lineto } bind def
/c { curveto } bind def
/h { closepath } bind def
/re { exch dup neg 3 1 roll 5 3 roll moveto 0 rlineto
      0 exch rlineto 0 rlineto closepath } bind def
/S { stroke } bind def
/f { fill } bind def
/f* { eofill } bind def
/n { newpath } bind def
/W { clip } bind def
/W* { eoclip } bind def
/BT { } bind def
/ET { } bind def
/BDC { mark 3 1 roll /BDC pdfmark } bind def
/EMC { mark /EMC pdfmark } bind def
/cairo_store_point { /cairo_point_y exch def /cairo_point_x exch def } def
/Tj { show currentpoint cairo_store_point } bind def
/TJ {
  {
    dup
    type /stringtype eq
    { show } { -0.001 mul 0 cairo_font_matrix dtransform rmoveto } ifelse
  } forall
  currentpoint cairo_store_point
} bind def
/cairo_selectfont { cairo_font_matrix aload pop pop pop 0 0 6 array astore
    cairo_font exch selectfont cairo_point_x cairo_point_y moveto } bind def
/Tf { pop /cairo_font exch def /cairo_font_matrix where
      { pop cairo_selectfont } if } bind def
/Td { matrix translate cairo_font_matrix matrix concatmatrix dup
      /cairo_font_matrix exch def dup 4 get exch 5 get cairo_store_point
      /cairo_font where { pop cairo_selectfont } if } bind def
/Tm { 2 copy 8 2 roll 6 array astore /cairo_font_matrix exch def
      cairo_store_point /cairo_font where { pop cairo_selectfont } if } bind def
/g { setgray } bind def
/rg { setrgbcolor } bind def
/d1 { setcachedevice } bind def
/cairo_data_source {
  CairoDataIndex CairoData length lt
    { CairoData CairoDataIndex get /CairoDataIndex CairoDataIndex 1 add def }
    { () } ifelse
} def
/cairo_flush_ascii85_file { cairo_ascii85_file status { cairo_ascii85_file flushfile } if } def
/cairo_image { image cairo_flush_ascii85_file } def
/cairo_imagemask { imagemask cairo_flush_ascii85_file } def
%%EndProlog
%%BeginSetup
%%EndSetup
%%Page: 1 1
%%BeginPageSetup
%%PageBoundingBox: 18 18 366 366
%%EndPageSetup
q 18 18 348 348 rectclip
1 0 0 -1 0 384 cm q
0 0.709804 0.356863 rg
48 132 288 186 re f
0.00784314 0.760784 0.415686 rg
72 18 m 312 18 l 325.297 18 336 28.703 336 42 c 336 138 l 336 151.297 325.297
 162 312 162 c 72 162 l 58.703 162 48 151.297 48 138 c 48 42 l 48 28.703
 58.703 18 72 18 c h
72 18 m f
0.898039 0.905882 0.913725 rg
90 18 m 90 36 l 90 49.254 79.254 60 66 60 c 48 60 l 48 42 l 48 28.746 58.746
 18 72 18 c h
90 18 m f
0.964706 0.733333 0 rg
150 18 84 144 re f
0.929412 0.65098 0 rg
150 162 84 156 re f
0 0.65098 0.309804 rg
108 84 24 12 re f
252 84 24 12 re f
0 0.588235 0.266667 rg
48 186 102 12 re f
234 186 102 12 re f
234 216 102 12 re f
48 246 102 12 re f
48 276 102 12 re f
48 306 102 12 re f
48 216 102 12 re f
0.870588 0.580392 0 rg
198 84 m 186 84 l 182.688 84 180 81.312 180 78 c 180 74.688 182.688 72 
186 72 c 210 72 l 210 60 l 198 60 l 198 48 l 186 48 l 186 60 l 176.059 60
 168 68.059 168 78 c 168 87.941 176.059 96 186 96 c 198 96 l 201.312 96 
204 98.688 204 102 c 204 105.312 201.312 108 198 108 c 174 108 l 174 120
 l 186 120 l 186 132 l 198 132 l 198 120 l 207.941 120 216 111.941 216 102
 c 216 92.059 207.941 84 198 84 c h
198 84 m f
0.898039 0.905882 0.913725 rg
294 18 m 294 36 l 294 49.254 304.746 60 318 60 c 336 60 l 336 42 l 336 
28.746 325.254 18 312 18 c h
294 18 m f
90 162 m 90 144 l 90 130.746 79.254 120 66 120 c 48 120 l 48 138 l 48 151.254
 58.746 162 72 162 c h
90 162 m f
294 162 m 294 144 l 294 130.746 304.746 120 318 120 c 336 120 l 336 138
 l 336 151.254 325.254 162 312 162 c h
294 162 m f
0.960784 0.788235 0.615686 rg
288 234 m 205.418 234 l 196.594 234 187.891 236.055 180 240 c 172.109 243.945
 163.406 246 154.582 246 c 98.078 246 l 90.305 246 84 252.305 84 260.078
 c 84 266.027 87.742 271.336 93.344 273.336 c 168 300 l 122.289 313.715 
l 113.012 316.496 103.082 316.211 93.98 312.902 c 50.457 297.074 l 44.863
 295.039 38.953 294 33 294 c 24.715 294 18 300.715 18 309 c 18 314.539 21.055
 319.629 25.941 322.234 c 88.148 355.41 l 101.184 362.363 115.727 366 130.5
 366 c 176.219 366 l 217.336 366 257.055 351.074 288 324 c h
288 234 m f
0.329412 0.541176 1 rg
288 222 78 114 re f
0.282353 0.419608 0.878431 rg
318 312 m 318 315.312 315.312 318 312 318 c 308.688 318 306 315.312 306
 312 c 306 308.688 308.688 306 312 306 c 315.312 306 318 308.688 318 312
 c h
318 312 m f
Q Q
showpage
%%Trailer
end
%%EOF
