%!PS-Adobe-3.0 EPSF-3.0
%%Creator: cairo 1.16.0 (https://cairographics.org)
%%CreationDate: Fri Sep 20 08:55:38 2019
%%Pages: 1
%%DocumentData: Clean7Bit
%%LanguageLevel: 2
%%BoundingBox: 18 30 366 354
%%EndComments
%%BeginProlog
50 dict begin
/q { gsave } bind def
/Q { grestore } bind def
/cm { 6 array astore concat } bind def
/w { setlinewidth } bind def
/J { setlinecap } bind def
/j { setlinejoin } bind def
/M { setmiterlimit } bind def
/d { setdash } bind def
/m { moveto } bind def
/l { lineto } bind def
/c { curveto } bind def
/h { closepath } bind def
/re { exch dup neg 3 1 roll 5 3 roll moveto 0 rlineto
      0 exch rlineto 0 rlineto closepath } bind def
/S { stroke } bind def
/f { fill } bind def
/f* { eofill } bind def
/n { newpath } bind def
/W { clip } bind def
/W* { eoclip } bind def
/BT { } bind def
/ET { } bind def
/BDC { mark 3 1 roll /BDC pdfmark } bind def
/EMC { mark /EMC pdfmark } bind def
/cairo_store_point { /cairo_point_y exch def /cairo_point_x exch def } def
/Tj { show currentpoint cairo_store_point } bind def
/TJ {
  {
    dup
    type /stringtype eq
    { show } { -0.001 mul 0 cairo_font_matrix dtransform rmoveto } ifelse
  } forall
  currentpoint cairo_store_point
} bind def
/cairo_selectfont { cairo_font_matrix aload pop pop pop 0 0 6 array astore
    cairo_font exch selectfont cairo_point_x cairo_point_y moveto } bind def
/Tf { pop /cairo_font exch def /cairo_font_matrix where
      { pop cairo_selectfont } if } bind def
/Td { matrix translate cairo_font_matrix matrix concatmatrix dup
      /cairo_font_matrix exch def dup 4 get exch 5 get cairo_store_point
      /cairo_font where { pop cairo_selectfont } if } bind def
/Tm { 2 copy 8 2 roll 6 array astore /cairo_font_matrix exch def
      cairo_store_point /cairo_font where { pop cairo_selectfont } if } bind def
/g { setgray } bind def
/rg { setrgbcolor } bind def
/d1 { setcachedevice } bind def
/cairo_data_source {
  CairoDataIndex CairoData length lt
    { CairoData CairoDataIndex get /CairoDataIndex CairoDataIndex 1 add def }
    { () } ifelse
} def
/cairo_flush_ascii85_file { cairo_ascii85_file status { cairo_ascii85_file flushfile } if } def
/cairo_image { image cairo_flush_ascii85_file } def
/cairo_imagemask { imagemask cairo_flush_ascii85_file } def
%%EndProlog
%%BeginSetup
%%EndSetup
%%Page: 1 1
%%BeginPageSetup
%%PageBoundingBox: 18 30 366 354
%%EndPageSetup
q 18 30 348 324 rectclip
1 0 0 -1 0 384 cm q
0.388235 0.239216 0.8 rg
96 330 96 24 re f
0.494118 0.341176 0.87451 rg
222 270 m 162 270 l 162 312 l 162 321.941 153.941 330 144 330 c 222 330
 l h
222 270 m f
0.6 0.466667 0.929412 rg
222 270 m 222 312 l 222 321.941 213.941 330 204 330 c 192 330 l 192 354
 l 204 354 l 227.195 354 246 335.195 246 312 c 246 270 l h
222 270 m f
0.388235 0.239216 0.8 rg
192 306 m 190.41 306 188.883 305.367 187.758 304.242 c 186.633 303.117 
186 301.59 186 300 c 186 270 l 186 266.688 188.688 264 192 264 c 195.312
 264 198 266.688 198 270 c 198 300 l 198 301.59 197.367 303.117 196.242 
304.242 c 195.117 305.367 193.59 306 192 306 c h
192 306 m f
0.301961 0.388235 0.470588 rg
18 30 324 240 re f
0.6 0.466667 0.929412 rg
342 30 24 240 re f
0.329412 0.541176 1 rg
48 270 m 48 72 l 48 65.371 53.371 60 60 60 c 300 60 l 306.629 60 312 65.371
 312 72 c 312 270 l h
48 270 m f
0.282353 0.419608 0.878431 rg
78 84 m 78 87.312 75.312 90 72 90 c 68.688 90 66 87.312 66 84 c 66 80.688
 68.688 78 72 78 c 75.312 78 78 80.688 78 84 c h
78 84 m f
96 84 m 96 87.312 93.312 90 90 90 c 86.688 90 84 87.312 84 84 c 84 80.688
 86.688 78 90 78 c 93.312 78 96 80.688 96 84 c h
96 84 m f
114 84 m 114 87.312 111.312 90 108 90 c 104.688 90 102 87.312 102 84 c 
102 80.688 104.688 78 108 78 c 111.312 78 114 80.688 114 84 c h
114 84 m f
0.964706 0.733333 0 rg
246 114 24 96 re f
198 138 24 72 re f
150 156 24 54 re f
102 174 24 36 re f
0.231373 0.341176 0.768627 rg
108 156 m 78 156 l 78 144 l 106.844 144 l 235.863 92.395 l 221.012 89.918
 l 222.988 78.082 l 258.988 84.082 l 261.641 84.523 263.676 86.68 263.965
 89.355 c 264.254 92.031 262.727 94.57 260.227 95.57 c 110.227 155.57 l 
109.52 155.855 108.762 156 108 156 c h
108 156 m f
0.282353 0.419608 0.878431 rg
132 234 12 12 re f
156 234 42 12 re f
210 234 12 12 re f
288 216 m 90 216 l 80.062 215.988 72.012 207.938 72 198 c 72 108 l 84 108
 l 84 198 l 84.004 201.312 86.688 203.996 90 204 c 288 204 l h
288 216 m f
Q Q
showpage
%%Trailer
end
%%EOF
