%!PS-Adobe-3.0 EPSF-3.0
%%Creator: cairo 1.16.0 (https://cairographics.org)
%%CreationDate: Fri Sep 20 08:55:39 2019
%%Pages: 1
%%DocumentData: Clean7Bit
%%LanguageLevel: 2
%%BoundingBox: 18 18 366 366
%%EndComments
%%BeginProlog
50 dict begin
/q { gsave } bind def
/Q { grestore } bind def
/cm { 6 array astore concat } bind def
/w { setlinewidth } bind def
/J { setlinecap } bind def
/j { setlinejoin } bind def
/M { setmiterlimit } bind def
/d { setdash } bind def
/m { moveto } bind def
/l { lineto } bind def
/c { curveto } bind def
/h { closepath } bind def
/re { exch dup neg 3 1 roll 5 3 roll moveto 0 rlineto
      0 exch rlineto 0 rlineto closepath } bind def
/S { stroke } bind def
/f { fill } bind def
/f* { eofill } bind def
/n { newpath } bind def
/W { clip } bind def
/W* { eoclip } bind def
/BT { } bind def
/ET { } bind def
/BDC { mark 3 1 roll /BDC pdfmark } bind def
/EMC { mark /EMC pdfmark } bind def
/cairo_store_point { /cairo_point_y exch def /cairo_point_x exch def } def
/Tj { show currentpoint cairo_store_point } bind def
/TJ {
  {
    dup
    type /stringtype eq
    { show } { -0.001 mul 0 cairo_font_matrix dtransform rmoveto } ifelse
  } forall
  currentpoint cairo_store_point
} bind def
/cairo_selectfont { cairo_font_matrix aload pop pop pop 0 0 6 array astore
    cairo_font exch selectfont cairo_point_x cairo_point_y moveto } bind def
/Tf { pop /cairo_font exch def /cairo_font_matrix where
      { pop cairo_selectfont } if } bind def
/Td { matrix translate cairo_font_matrix matrix concatmatrix dup
      /cairo_font_matrix exch def dup 4 get exch 5 get cairo_store_point
      /cairo_font where { pop cairo_selectfont } if } bind def
/Tm { 2 copy 8 2 roll 6 array astore /cairo_font_matrix exch def
      cairo_store_point /cairo_font where { pop cairo_selectfont } if } bind def
/g { setgray } bind def
/rg { setrgbcolor } bind def
/d1 { setcachedevice } bind def
/cairo_data_source {
  CairoDataIndex CairoData length lt
    { CairoData CairoDataIndex get /CairoDataIndex CairoDataIndex 1 add def }
    { () } ifelse
} def
/cairo_flush_ascii85_file { cairo_ascii85_file status { cairo_ascii85_file flushfile } if } def
/cairo_image { image cairo_flush_ascii85_file } def
/cairo_imagemask { imagemask cairo_flush_ascii85_file } def
%%EndProlog
%%BeginSetup
%%EndSetup
%%Page: 1 1
%%BeginPageSetup
%%PageBoundingBox: 18 18 366 366
%%EndPageSetup
q 18 18 348 348 rectclip
1 0 0 -1 0 384 cm q
0.329412 0.541176 1 rg
294 99.938 m 294 342 l 294 355.254 283.254 366 270 366 c 42 366 l 28.746
 366 18 355.254 18 342 c 18 42 l 18 28.746 28.746 18 42 18 c 212.062 18 
l 218.426 18.008 224.523 20.531 229.027 25.027 c 286.973 82.973 l 291.469
 87.477 293.992 93.574 294 99.938 c h
294 99.938 m f
0.282353 0.419608 0.878431 rg
54 60 18 12 re f
84 60 42 12 re f
0.490196 0.686275 1 rg
291.84 90 m 246 90 l 232.746 90 222 79.254 222 66 c 222 20.16 l 224.617
 21.348 226.996 22.996 229.027 25.027 c 286.973 82.973 l 289.004 85.004 
290.652 87.383 291.84 90 c h
291.84 90 m f
0.282353 0.419608 0.878431 rg
258 90 m 54 90 l 50.688 90 48 92.688 48 96 c 48 306 l 48 309.312 50.688
 312 54 312 c 258 312 l 261.312 312 264 309.312 264 306 c 264 96 l 264 92.688
 261.312 90 258 90 c h
252 126 m 108 126 l 108 102 l 252 102 l h
108 264 m 108 174 l 156 174 l 156 264 l h
156 276 m 156 300 l 108 300 l 108 276 l h
60 174 m 96 174 l 96 264 l 60 264 l h
108 138 m 156 138 l 156 162 l 108 162 l h
168 174 m 252 174 l 252 264 l 168 264 l h
168 162 m 168 138 l 252 138 l 252 162 l h
96 102 m 96 162 l 60 162 l 60 102 l h
60 276 m 96 276 l 96 300 l 60 300 l h
168 300 m 168 276 l 252 276 l 252 300 l h
168 300 m f
54 330 24 12 re f
90 330 24 12 re f
0.964706 0.733333 0 rg
366 366 m 174 366 l 174 350.484 l 174 345.051 176.16 339.84 180 336 c 183.84
 332.16 186 326.949 186 321.516 c 186 252 l 186 222.176 210.176 198 240 
198 c 300 198 l 329.824 198 354 222.176 354 252 c 354 330 l 360 336 l 363.84
 339.84 366 345.051 366 350.484 c h
366 366 m f
0.870588 0.580392 0 rg
294 198 m 299.316 184.711 l 303.73 173.672 306 161.891 306 150 c 234 150
 l 234 161.891 236.27 173.672 240.684 184.711 c 246 198 l h
294 198 m f
0.929412 0.65098 0 rg
354 330 m 324 330 l 324 240 l 324 233.371 318.629 228 312 228 c 295.43 
228 282 214.57 282 198 c 300 198 l 329.824 198 354 222.176 354 252 c h
354 330 m f
0.811765 0.513726 0 rg
276 270 m 264 270 l 259.031 270 255 265.969 255 261 c 255 256.031 259.031
 252 264 252 c 294 252 l 294 240 l 276 240 l 276 228 l 264 228 l 264 240
 l 252.402 240 243 249.402 243 261 c 243 272.598 252.402 282 264 282 c 276
 282 l 280.969 282 285 286.031 285 291 c 285 295.969 280.969 300 276 300
 c 246 300 l 246 312 l 264 312 l 264 321.562 l 276 321.562 l 276 312 l 287.598
 312 297 302.598 297 291 c 297 279.402 287.598 270 276 270 c h
276 270 m f
Q Q
showpage
%%Trailer
end
%%EOF
