%!PS-Adobe-3.0 EPSF-3.0
%%Creator: cairo 1.16.0 (https://cairographics.org)
%%CreationDate: Fri Sep 20 08:55:40 2019
%%Pages: 1
%%DocumentData: Clean7Bit
%%LanguageLevel: 2
%%BoundingBox: 18 18 366 366
%%EndComments
%%BeginProlog
50 dict begin
/q { gsave } bind def
/Q { grestore } bind def
/cm { 6 array astore concat } bind def
/w { setlinewidth } bind def
/J { setlinecap } bind def
/j { setlinejoin } bind def
/M { setmiterlimit } bind def
/d { setdash } bind def
/m { moveto } bind def
/l { lineto } bind def
/c { curveto } bind def
/h { closepath } bind def
/re { exch dup neg 3 1 roll 5 3 roll moveto 0 rlineto
      0 exch rlineto 0 rlineto closepath } bind def
/S { stroke } bind def
/f { fill } bind def
/f* { eofill } bind def
/n { newpath } bind def
/W { clip } bind def
/W* { eoclip } bind def
/BT { } bind def
/ET { } bind def
/BDC { mark 3 1 roll /BDC pdfmark } bind def
/EMC { mark /EMC pdfmark } bind def
/cairo_store_point { /cairo_point_y exch def /cairo_point_x exch def } def
/Tj { show currentpoint cairo_store_point } bind def
/TJ {
  {
    dup
    type /stringtype eq
    { show } { -0.001 mul 0 cairo_font_matrix dtransform rmoveto } ifelse
  } forall
  currentpoint cairo_store_point
} bind def
/cairo_selectfont { cairo_font_matrix aload pop pop pop 0 0 6 array astore
    cairo_font exch selectfont cairo_point_x cairo_point_y moveto } bind def
/Tf { pop /cairo_font exch def /cairo_font_matrix where
      { pop cairo_selectfont } if } bind def
/Td { matrix translate cairo_font_matrix matrix concatmatrix dup
      /cairo_font_matrix exch def dup 4 get exch 5 get cairo_store_point
      /cairo_font where { pop cairo_selectfont } if } bind def
/Tm { 2 copy 8 2 roll 6 array astore /cairo_font_matrix exch def
      cairo_store_point /cairo_font where { pop cairo_selectfont } if } bind def
/g { setgray } bind def
/rg { setrgbcolor } bind def
/d1 { setcachedevice } bind def
/cairo_data_source {
  CairoDataIndex CairoData length lt
    { CairoData CairoDataIndex get /CairoDataIndex CairoDataIndex 1 add def }
    { () } ifelse
} def
/cairo_flush_ascii85_file { cairo_ascii85_file status { cairo_ascii85_file flushfile } if } def
/cairo_image { image cairo_flush_ascii85_file } def
/cairo_imagemask { imagemask cairo_flush_ascii85_file } def
%%EndProlog
%%BeginSetup
%%EndSetup
%%Page: 1 1
%%BeginPageSetup
%%PageBoundingBox: 18 18 366 366
%%EndPageSetup
q 18 18 348 348 rectclip
1 0 0 -1 0 384 cm q
0.964706 0.733333 0 rg
126 18 132 132 re f
18 234 132 132 re f
234 234 132 132 re f
0.694118 0.47451 0.172549 rg
210 60 m 174 60 l 174 49.816 l 174 46.152 175.457 42.637 178.047 40.047
 c 180.637 37.457 184.152 36 187.816 36 c 190.543 36 193.211 36.809 195.48
 38.32 c 210 48 l h
210 60 m f
318 276 m 282 276 l 282 270 l 282 260.059 290.059 252 300 252 c 312 252
 l 315.312 252 318 254.688 318 258 c h
318 276 m f
48 342 m 48 288 l 48 268.117 64.117 252 84 252 c 103.883 252 120 268.117
 120 288 c 120 342 l h
48 342 m f
0.329412 0.541176 1 rg
180 84 m 168 93 l 160.445 98.664 156 107.559 156 117 c 156 126 l 228 126
 l 228 117 l 228 107.559 223.555 98.664 216 93 c 204 84 l h
180 84 m f
0.282353 0.419608 0.878431 rg
186 84 12 42 re f
0.329412 0.541176 1 rg
72 306 m 60 315 l 52.445 320.664 48 329.559 48 339 c 48 342 l 120 342 l
 120 339 l 120 329.559 115.555 320.664 108 315 c 96 306 l h
72 306 m f
0.282353 0.419608 0.878431 rg
78 306 12 36 re f
0.329412 0.541176 1 rg
288 300 m 276 309 l 268.445 314.664 264 323.559 264 333 c 264 342 l 336
 342 l 336 333 l 336 323.559 331.555 314.664 324 309 c 312 300 l h
288 300 m f
0.282353 0.419608 0.878431 rg
294 300 12 42 re f
0.301961 0.388235 0.470588 rg
300 186 m 198 186 l 198 150 l 186 150 l 186 186 l 84 186 l 80.688 186 78
 188.688 78 192 c 78 234 l 90 234 l 90 198 l 294 198 l 294 234 l 306 234
 l 306 192 l 306 188.688 303.312 186 300 186 c h
300 186 m f
0.960784 0.788235 0.615686 rg
174 60 m 174 72 l 174 81.941 182.059 90 192 90 c 201.941 90 210 81.941 
210 72 c 210 60 l h
174 60 m f
282 276 m 282 288 l 282 297.941 290.059 306 300 306 c 309.941 306 318 297.941
 318 288 c 318 276 l h
282 276 m f
66 288 m 72 288 l 78.629 288 84 282.629 84 276 c 90 276 l 96.629 276 102
 281.371 102 288 c 102 294 l 102 303.941 93.941 312 84 312 c 74.059 312 
66 303.941 66 294 c h
66 288 m f
Q Q
showpage
%%Trailer
end
%%EOF
