%!PS-Adobe-3.0 EPSF-3.0
%%Creator: cairo 1.16.0 (https://cairographics.org)
%%CreationDate: Fri Sep 20 08:55:40 2019
%%Pages: 1
%%DocumentData: Clean7Bit
%%LanguageLevel: 2
%%BoundingBox: 18 18 366 366
%%EndComments
%%BeginProlog
50 dict begin
/q { gsave } bind def
/Q { grestore } bind def
/cm { 6 array astore concat } bind def
/w { setlinewidth } bind def
/J { setlinecap } bind def
/j { setlinejoin } bind def
/M { setmiterlimit } bind def
/d { setdash } bind def
/m { moveto } bind def
/l { lineto } bind def
/c { curveto } bind def
/h { closepath } bind def
/re { exch dup neg 3 1 roll 5 3 roll moveto 0 rlineto
      0 exch rlineto 0 rlineto closepath } bind def
/S { stroke } bind def
/f { fill } bind def
/f* { eofill } bind def
/n { newpath } bind def
/W { clip } bind def
/W* { eoclip } bind def
/BT { } bind def
/ET { } bind def
/BDC { mark 3 1 roll /BDC pdfmark } bind def
/EMC { mark /EMC pdfmark } bind def
/cairo_store_point { /cairo_point_y exch def /cairo_point_x exch def } def
/Tj { show currentpoint cairo_store_point } bind def
/TJ {
  {
    dup
    type /stringtype eq
    { show } { -0.001 mul 0 cairo_font_matrix dtransform rmoveto } ifelse
  } forall
  currentpoint cairo_store_point
} bind def
/cairo_selectfont { cairo_font_matrix aload pop pop pop 0 0 6 array astore
    cairo_font exch selectfont cairo_point_x cairo_point_y moveto } bind def
/Tf { pop /cairo_font exch def /cairo_font_matrix where
      { pop cairo_selectfont } if } bind def
/Td { matrix translate cairo_font_matrix matrix concatmatrix dup
      /cairo_font_matrix exch def dup 4 get exch 5 get cairo_store_point
      /cairo_font where { pop cairo_selectfont } if } bind def
/Tm { 2 copy 8 2 roll 6 array astore /cairo_font_matrix exch def
      cairo_store_point /cairo_font where { pop cairo_selectfont } if } bind def
/g { setgray } bind def
/rg { setrgbcolor } bind def
/d1 { setcachedevice } bind def
/cairo_data_source {
  CairoDataIndex CairoData length lt
    { CairoData CairoDataIndex get /CairoDataIndex CairoDataIndex 1 add def }
    { () } ifelse
} def
/cairo_flush_ascii85_file { cairo_ascii85_file status { cairo_ascii85_file flushfile } if } def
/cairo_image { image cairo_flush_ascii85_file } def
/cairo_imagemask { imagemask cairo_flush_ascii85_file } def
%%EndProlog
%%BeginSetup
%%EndSetup
%%Page: 1 1
%%BeginPageSetup
%%PageBoundingBox: 18 18 366 366
%%EndPageSetup
q 18 18 348 348 rectclip
1 0 0 -1 0 384 cm q
0.317647 0.494118 0.968627 rg
264 264 m 277.289 269.316 l 287.961 273.582 296.418 282.039 300.684 292.711
 c 306 306 l 306 366 l 198 366 l 198 306 l 203.316 292.711 l 207.582 282.039
 216.039 273.582 226.711 269.316 c 240 264 l h
264 264 m f
0.282353 0.419608 0.878431 rg
246 264 12 42 re f
0.960784 0.788235 0.615686 rg
270 240 m 270 258 l 270 267.941 261.941 276 252 276 c 242.059 276 234 267.941
 234 258 c 234 240 l h
270 240 m f
0.694118 0.47451 0.172549 rg
234 240 m 270 240 l 270 229.816 l 270 226.152 268.543 222.637 265.953 220.047
 c 263.363 217.457 259.848 216 256.184 216 c 253.457 216 250.789 216.809
 248.52 218.32 c 234 228 l h
234 240 m f
0.960784 0.788235 0.615686 rg
144 330 18 36 re f
222 330 18 36 re f
0.329412 0.541176 1 rg
204 288 m 217.289 293.316 l 227.961 297.582 236.418 306.039 240.684 316.711
 c 246 330 l 222 342 l 222 366 l 162 366 l 162 342 l 138 330 l 143.316 316.711
 l 147.582 306.039 156.039 297.582 166.711 293.316 c 180 288 l h
204 288 m f
0.282353 0.419608 0.878431 rg
186 288 12 48 re f
0.960784 0.788235 0.615686 rg
210 264 m 210 282 l 210 291.941 201.941 300 192 300 c 182.059 300 174 291.941
 174 282 c 174 264 l h
210 264 m f
0.694118 0.47451 0.172549 rg
174 264 m 210 264 l 210 253.816 l 210 250.152 208.543 246.637 205.953 244.047
 c 203.363 241.457 199.848 240 196.184 240 c 193.457 240 190.789 240.809
 188.52 242.32 c 174 252 l h
174 264 m f
0.960784 0.788235 0.615686 rg
264 330 18 36 re f
342 330 18 36 re f
0.329412 0.541176 1 rg
324 288 m 337.289 293.316 l 347.961 297.582 356.418 306.039 360.684 316.711
 c 366 330 l 342 342 l 342 366 l 282 366 l 282 342 l 258 330 l 263.316 316.711
 l 267.582 306.039 276.039 297.582 286.711 293.316 c 300 288 l h
324 288 m f
0.964706 0.733333 0 rg
175.883 150 m 193.883 168 l 193.883 192 l 157.883 222 l 163.883 240 l 223.883
 204 l 223.883 156 l 193.883 132 l 175.883 132 l h
175.883 150 m f
0.960784 0.788235 0.615686 rg
191.949 235.934 m 166.492 261.391 l 164.242 263.641 161.191 264.906 158.008
 264.906 c 154.824 264.906 151.773 263.641 149.523 261.391 c 145.277 257.148
 l 179.219 223.207 l h
191.949 235.934 m f
124.066 168.051 m 98.609 193.508 l 96.359 195.758 95.094 198.809 95.094
 201.992 c 95.094 205.176 96.359 208.227 98.609 210.477 c 102.852 214.723
 l 136.793 180.781 l h
124.066 168.051 m f
0.317647 0.494118 0.968627 rg
196.191 180.781 m 201.828 193.934 l 206.355 204.5 206.355 216.457 201.828
 227.023 c 196.191 240.176 l 170.734 231.691 l 158.008 244.418 l 115.582
 201.992 l 128.309 189.266 l 119.824 163.809 l 132.977 158.172 l 143.543
 153.645 155.5 153.645 166.066 158.172 c 179.219 163.809 l h
196.191 180.781 m f
0.282353 0.419608 0.878431 rg
149.484 201.988 m 183.422 168.051 l 191.906 176.535 l 157.969 210.473 l
 h
149.484 201.988 m f
0.964706 0.733333 0 rg
18 274.117 m 30.727 261.391 l 31.852 260.266 33.379 259.633 34.969 259.633
 c 36.562 259.633 38.09 260.266 39.215 261.391 c 98.609 320.785 l 99.734
 321.91 100.367 323.438 100.367 325.031 c 100.367 326.621 99.734 328.148
 98.609 329.273 c 85.883 342 l h
18 274.117 m f
0.301961 0.388235 0.470588 rg
158.008 244.418 m 90.125 312.301 l 77.398 299.574 l 115.582 244.418 l 60.426
 282.602 l 47.699 269.875 l 115.582 201.992 l h
158.008 244.418 m f
0.960784 0.788235 0.615686 rg
217.402 168.051 m 204.676 180.781 l 197.648 187.809 186.25 187.809 179.219
 180.781 c 172.191 173.75 172.191 162.352 179.219 155.324 c 191.949 142.598
 l h
217.402 168.051 m f
0.694118 0.47451 0.172549 rg
191.949 142.598 m 217.402 168.051 l 224.605 160.852 l 227.195 158.262 228.652
 154.746 228.652 151.082 c 228.652 147.418 227.195 143.902 224.605 141.312
 c 222.676 139.383 220.219 138.066 217.543 137.531 c 200.434 134.109 l h
191.949 142.598 m f
0.964706 0.733333 0 rg
115.883 108 m 127.883 84 l 163.883 84 l 175.883 108 l h
115.883 108 m f
0.929412 0.65098 0 rg
133.883 18 24 66 re f
0.282353 0.419608 0.878431 rg
306 288 12 48 re f
0.964706 0.733333 0 rg
115.883 150 m 91.883 168 l 91.883 192 l 133.883 222 l 127.883 240 l 67.883
 204 l 67.883 156 l 97.883 132 l 115.883 132 l h
115.883 150 m f
0.988235 0.831373 0.32549 rg
199.883 108 m 199.883 138 l 175.883 162 l 115.883 162 l 91.883 138 l 91.883
 108 l h
199.883 108 m f
0.960784 0.788235 0.615686 rg
330 264 m 330 282 l 330 291.941 321.941 300 312 300 c 302.059 300 294 291.941
 294 282 c 294 264 l h
330 264 m f
0.694118 0.47451 0.172549 rg
294 264 m 330 264 l 330 253.816 l 330 250.152 328.543 246.637 325.953 244.047
 c 323.363 241.457 319.848 240 316.184 240 c 313.457 240 310.789 240.809
 308.52 242.32 c 294 252 l h
294 264 m f
Q Q
showpage
%%Trailer
end
%%EOF
