%!PS-Adobe-3.0 EPSF-3.0
%%Creator: cairo 1.16.0 (https://cairographics.org)
%%CreationDate: Fri Sep 20 08:55:41 2019
%%Pages: 1
%%DocumentData: Clean7Bit
%%LanguageLevel: 2
%%BoundingBox: 18 18 366 366
%%EndComments
%%BeginProlog
50 dict begin
/q { gsave } bind def
/Q { grestore } bind def
/cm { 6 array astore concat } bind def
/w { setlinewidth } bind def
/J { setlinecap } bind def
/j { setlinejoin } bind def
/M { setmiterlimit } bind def
/d { setdash } bind def
/m { moveto } bind def
/l { lineto } bind def
/c { curveto } bind def
/h { closepath } bind def
/re { exch dup neg 3 1 roll 5 3 roll moveto 0 rlineto
      0 exch rlineto 0 rlineto closepath } bind def
/S { stroke } bind def
/f { fill } bind def
/f* { eofill } bind def
/n { newpath } bind def
/W { clip } bind def
/W* { eoclip } bind def
/BT { } bind def
/ET { } bind def
/BDC { mark 3 1 roll /BDC pdfmark } bind def
/EMC { mark /EMC pdfmark } bind def
/cairo_store_point { /cairo_point_y exch def /cairo_point_x exch def } def
/Tj { show currentpoint cairo_store_point } bind def
/TJ {
  {
    dup
    type /stringtype eq
    { show } { -0.001 mul 0 cairo_font_matrix dtransform rmoveto } ifelse
  } forall
  currentpoint cairo_store_point
} bind def
/cairo_selectfont { cairo_font_matrix aload pop pop pop 0 0 6 array astore
    cairo_font exch selectfont cairo_point_x cairo_point_y moveto } bind def
/Tf { pop /cairo_font exch def /cairo_font_matrix where
      { pop cairo_selectfont } if } bind def
/Td { matrix translate cairo_font_matrix matrix concatmatrix dup
      /cairo_font_matrix exch def dup 4 get exch 5 get cairo_store_point
      /cairo_font where { pop cairo_selectfont } if } bind def
/Tm { 2 copy 8 2 roll 6 array astore /cairo_font_matrix exch def
      cairo_store_point /cairo_font where { pop cairo_selectfont } if } bind def
/g { setgray } bind def
/rg { setrgbcolor } bind def
/d1 { setcachedevice } bind def
/cairo_data_source {
  CairoDataIndex CairoData length lt
    { CairoData CairoDataIndex get /CairoDataIndex CairoDataIndex 1 add def }
    { () } ifelse
} def
/cairo_flush_ascii85_file { cairo_ascii85_file status { cairo_ascii85_file flushfile } if } def
/cairo_image { image cairo_flush_ascii85_file } def
/cairo_imagemask { imagemask cairo_flush_ascii85_file } def
%%EndProlog
%%BeginSetup
%%EndSetup
%%Page: 1 1
%%BeginPageSetup
%%PageBoundingBox: 18 18 366 366
%%EndPageSetup
q 18 18 348 348 rectclip
1 0 0 -1 0 384 cm q
0.694118 0.47451 0.172549 rg
60 210 m 40.117 210 24 193.883 24 174 c 24 96 l 24 52.922 58.922 18 102
 18 c 145.078 18 180 52.922 180 96 c 180 174 l 180 193.883 163.883 210 144
 210 c h
60 210 m f
0.329412 0.541176 1 rg
186 236.672 m 186 366 l 30 366 l 30 325.746 l 22.25 316.988 17.98 305.695
 18 294 c 18 236.672 l 18 227.414 22.273 218.676 29.578 212.992 c 51.051
 196.289 l 72 180 l 132 180 l 155.656 198.398 l 174.422 212.992 l 181.727
 218.676 186 227.414 186 236.672 c h
186 236.672 m f
0.282353 0.419608 0.878431 rg
30 366 m 186 366 l 186 342 l 66 342 l 52.223 342.016 39.102 336.094 30 
325.75 c h
30 366 m f
0.964706 0.733333 0 rg
150 102 m 168 102 l 177.941 102 186 110.059 186 120 c 186 132 l 186 141.941
 177.941 150 168 150 c 150 150 l h
150 102 m f
54 150 m 36 150 l 26.059 150 18 141.941 18 132 c 18 120 l 18 110.059 26.059
 102 36 102 c 54 102 l h
54 150 m f
0.282353 0.419608 0.878431 rg
102 318 m 84 318 l 82.703 318 81.438 317.578 80.398 316.801 c 61.199 302.398
 l 56.68 298.992 54.012 293.664 54 288 c 54 264 l 66 264 l 66 288 l 66.004
 289.887 66.895 291.664 68.398 292.801 c 86 306 l 102 306 l h
102 318 m f
0.321569 0.184314 0.741176 rg
258 240 m 356.691 240 l 361.832 240 366 244.168 366 249.309 c 366 251.066
 365.5 252.789 364.562 254.277 c 301.062 354.816 l 296.668 361.777 289.008
 366 280.773 366 c 192 366 l h
258 240 m f
0.443137 0.282353 0.858824 rg
204 366 m 84 366 l 74.059 366 66 357.941 66 348 c 66 342 l 204 342 l h
204 366 m f
0.6 0.466667 0.929412 rg
186 366 m 249.016 245.699 l 250.852 242.195 254.477 240 258.434 240 c 262.152
 240 265.602 241.945 267.527 245.129 c 269.453 248.309 269.574 252.266 267.848
 255.562 c 216.738 353.137 l 212.594 361.043 204.406 366 195.477 366 c h
186 366 m f
0.898039 0.905882 0.913725 rg
155.656 198.398 m 131.555 226.52 l 124.098 235.219 120 246.297 120 257.754
 c 120 318 l 90 318 l 90 258.281 l 90 246.508 85.672 235.141 77.836 226.352
 c 51.051 196.289 l 72 180 l 132 180 l h
155.656 198.398 m f
0.301961 0.388235 0.470588 rg
121.363 216 m 102 216 l 102 204 l 121.363 204 l 140.484 203.977 155.977
 188.484 156 169.363 c 156 150 l 168 150 l 168 169.363 l 167.973 195.109
 147.109 215.973 121.363 216 c h
121.363 216 m f
0.960784 0.788235 0.615686 rg
156 90 m 156 86.816 154.734 83.766 152.484 81.516 c 150.234 79.266 147.184
 78 144 78 c 143.949 78 l 134.035 78 126 69.965 126 60.051 c 126 48 l 126
 55.957 122.84 63.586 117.215 69.215 c 111.586 74.84 103.957 78 96 78 c 
60 78 l 53.371 78 48 83.371 48 90 c 48 138 l 48 167.824 72.176 192 102 192
 c 116.32 192 130.059 186.312 140.184 176.184 c 150.312 166.059 156 152.32
 156 138 c h
156 90 m f
0.584314 0.4 0.145098 rg
132 126 m 132 129.312 129.312 132 126 132 c 122.688 132 120 129.312 120
 126 c 120 122.688 122.688 120 126 120 c 129.312 120 132 122.688 132 126
 c h
132 126 m f
84 126 m 84 129.312 81.312 132 78 132 c 74.688 132 72 129.312 72 126 c 
72 122.688 74.688 120 78 120 c 81.312 120 84 122.688 84 126 c h
84 126 m f
0.694118 0.47451 0.172549 rg
66 102 24 12 re f
114 102 24 12 re f
0.780392 0.576471 0.411765 rg
96 168 m 90 168 l 90 156 l 96 156 l 99.312 155.996 101.996 153.312 102 
150 c 102 138 l 114 138 l 114 150 l 113.988 159.938 105.938 167.988 96 168
 c h
96 168 m f
0.960784 0.788235 0.615686 rg
144 329.125 m 144 321.398 140.93 313.992 135.469 308.531 c 130.008 303.07
 122.602 300 114.875 300 c 110.355 300 105.895 301.051 101.852 303.074 c
 84 312 l 84 342 l 144 342 l h
144 329.125 m f
Q Q
showpage
%%Trailer
end
%%EOF
