%!PS-Adobe-3.0 EPSF-3.0
%%Creator: cairo 1.16.0 (https://cairographics.org)
%%CreationDate: Fri Sep 20 08:55:44 2019
%%Pages: 1
%%DocumentData: Clean7Bit
%%LanguageLevel: 2
%%BoundingBox: 18 18 366 366
%%EndComments
%%BeginProlog
50 dict begin
/q { gsave } bind def
/Q { grestore } bind def
/cm { 6 array astore concat } bind def
/w { setlinewidth } bind def
/J { setlinecap } bind def
/j { setlinejoin } bind def
/M { setmiterlimit } bind def
/d { setdash } bind def
/m { moveto } bind def
/l { lineto } bind def
/c { curveto } bind def
/h { closepath } bind def
/re { exch dup neg 3 1 roll 5 3 roll moveto 0 rlineto
      0 exch rlineto 0 rlineto closepath } bind def
/S { stroke } bind def
/f { fill } bind def
/f* { eofill } bind def
/n { newpath } bind def
/W { clip } bind def
/W* { eoclip } bind def
/BT { } bind def
/ET { } bind def
/BDC { mark 3 1 roll /BDC pdfmark } bind def
/EMC { mark /EMC pdfmark } bind def
/cairo_store_point { /cairo_point_y exch def /cairo_point_x exch def } def
/Tj { show currentpoint cairo_store_point } bind def
/TJ {
  {
    dup
    type /stringtype eq
    { show } { -0.001 mul 0 cairo_font_matrix dtransform rmoveto } ifelse
  } forall
  currentpoint cairo_store_point
} bind def
/cairo_selectfont { cairo_font_matrix aload pop pop pop 0 0 6 array astore
    cairo_font exch selectfont cairo_point_x cairo_point_y moveto } bind def
/Tf { pop /cairo_font exch def /cairo_font_matrix where
      { pop cairo_selectfont } if } bind def
/Td { matrix translate cairo_font_matrix matrix concatmatrix dup
      /cairo_font_matrix exch def dup 4 get exch 5 get cairo_store_point
      /cairo_font where { pop cairo_selectfont } if } bind def
/Tm { 2 copy 8 2 roll 6 array astore /cairo_font_matrix exch def
      cairo_store_point /cairo_font where { pop cairo_selectfont } if } bind def
/g { setgray } bind def
/rg { setrgbcolor } bind def
/d1 { setcachedevice } bind def
/cairo_data_source {
  CairoDataIndex CairoData length lt
    { CairoData CairoDataIndex get /CairoDataIndex CairoDataIndex 1 add def }
    { () } ifelse
} def
/cairo_flush_ascii85_file { cairo_ascii85_file status { cairo_ascii85_file flushfile } if } def
/cairo_image { image cairo_flush_ascii85_file } def
/cairo_imagemask { imagemask cairo_flush_ascii85_file } def
%%EndProlog
%%BeginSetup
%%EndSetup
%%Page: 1 1
%%BeginPageSetup
%%PageBoundingBox: 18 18 366 366
%%EndPageSetup
q 18 18 348 348 rectclip
1 0 0 -1 0 384 cm q
0.329412 0.541176 1 rg
366 66 m 366 342 l 366 355.254 355.254 366 342 366 c 42 366 l 28.746 366
 18 355.254 18 342 c 18 66 l h
366 66 m f
0.964706 0.733333 0 rg
18 66 m 18 42 l 18 28.746 28.746 18 42 18 c 342 18 l 355.254 18 366 28.746
 366 42 c 366 66 l h
18 66 m f
0.870588 0.580392 0 rg
48 42 m 48 45.312 45.312 48 42 48 c 38.688 48 36 45.312 36 42 c 36 38.688
 38.688 36 42 36 c 45.312 36 48 38.688 48 42 c h
48 42 m f
66 42 m 66 45.312 63.312 48 60 48 c 56.688 48 54 45.312 54 42 c 54 38.688
 56.688 36 60 36 c 63.312 36 66 38.688 66 42 c h
66 42 m f
84 42 m 84 45.312 81.312 48 78 48 c 74.688 48 72 45.312 72 42 c 72 38.688
 74.688 36 78 36 c 81.312 36 84 38.688 84 42 c h
84 42 m f
0.494118 0.341176 0.87451 rg
66 120 96 144 re f
0.443137 0.282353 0.858824 rg
42 138 24 12 re f
42 162 24 12 re f
42 186 24 12 re f
42 210 24 12 re f
42 234 24 12 re f
162 234 24 12 re f
162 138 24 12 re f
162 162 24 12 re f
162 186 24 12 re f
162 210 24 12 re f
84 96 12 24 re f
108 96 12 24 re f
132 96 12 24 re f
84 264 12 24 re f
108 264 12 24 re f
132 264 12 24 re f
0.388235 0.239216 0.8 rg
90 162 m 99.941 162 108 153.941 108 144 c 138 144 l 138 240 l 90 240 l 
h
90 162 m f
0.282353 0.419608 0.878431 rg
240 174 18 12 re f
270 174 66 12 re f
216 204 54 12 re f
282 204 54 12 re f
216 264 78 12 re f
306 264 30 12 re f
246 234 54 12 re f
216 234 18 12 re f
312 234 24 12 re f
144 330 12 12 re f
168 330 12 12 re f
192 330 12 12 re f
216 330 12 12 re f
216 120 18 12 re f
246 120 36 12 re f
0.321569 0.184314 0.741176 rg
108 180 12 12 re f
108 204 12 12 re f
Q Q
showpage
%%Trailer
end
%%EOF
