%!PS-Adobe-3.0 EPSF-3.0
%%Creator: cairo 1.16.0 (https://cairographics.org)
%%CreationDate: Fri Sep 20 08:55:44 2019
%%Pages: 1
%%DocumentData: Clean7Bit
%%LanguageLevel: 2
%%BoundingBox: 90 18 294 366
%%EndComments
%%BeginProlog
50 dict begin
/q { gsave } bind def
/Q { grestore } bind def
/cm { 6 array astore concat } bind def
/w { setlinewidth } bind def
/J { setlinecap } bind def
/j { setlinejoin } bind def
/M { setmiterlimit } bind def
/d { setdash } bind def
/m { moveto } bind def
/l { lineto } bind def
/c { curveto } bind def
/h { closepath } bind def
/re { exch dup neg 3 1 roll 5 3 roll moveto 0 rlineto
      0 exch rlineto 0 rlineto closepath } bind def
/S { stroke } bind def
/f { fill } bind def
/f* { eofill } bind def
/n { newpath } bind def
/W { clip } bind def
/W* { eoclip } bind def
/BT { } bind def
/ET { } bind def
/BDC { mark 3 1 roll /BDC pdfmark } bind def
/EMC { mark /EMC pdfmark } bind def
/cairo_store_point { /cairo_point_y exch def /cairo_point_x exch def } def
/Tj { show currentpoint cairo_store_point } bind def
/TJ {
  {
    dup
    type /stringtype eq
    { show } { -0.001 mul 0 cairo_font_matrix dtransform rmoveto } ifelse
  } forall
  currentpoint cairo_store_point
} bind def
/cairo_selectfont { cairo_font_matrix aload pop pop pop 0 0 6 array astore
    cairo_font exch selectfont cairo_point_x cairo_point_y moveto } bind def
/Tf { pop /cairo_font exch def /cairo_font_matrix where
      { pop cairo_selectfont } if } bind def
/Td { matrix translate cairo_font_matrix matrix concatmatrix dup
      /cairo_font_matrix exch def dup 4 get exch 5 get cairo_store_point
      /cairo_font where { pop cairo_selectfont } if } bind def
/Tm { 2 copy 8 2 roll 6 array astore /cairo_font_matrix exch def
      cairo_store_point /cairo_font where { pop cairo_selectfont } if } bind def
/g { setgray } bind def
/rg { setrgbcolor } bind def
/d1 { setcachedevice } bind def
/cairo_data_source {
  CairoDataIndex CairoData length lt
    { CairoData CairoDataIndex get /CairoDataIndex CairoDataIndex 1 add def }
    { () } ifelse
} def
/cairo_flush_ascii85_file { cairo_ascii85_file status { cairo_ascii85_file flushfile } if } def
/cairo_image { image cairo_flush_ascii85_file } def
/cairo_imagemask { imagemask cairo_flush_ascii85_file } def
%%EndProlog
%%BeginSetup
%%EndSetup
%%Page: 1 1
%%BeginPageSetup
%%PageBoundingBox: 90 18 294 366
%%EndPageSetup
q 90 18 204 348 rectclip
1 0 0 -1 0 384 cm q
0.694118 0.47451 0.172549 rg
186 144 12 96 re f
0.964706 0.733333 0 rg
258 84 m 258 120.449 228.449 150 192 150 c 155.551 150 126 120.449 126 
84 c 126 47.551 155.551 18 192 18 c 209.504 18 226.293 24.953 238.668 37.332
 c 251.047 49.707 258 66.496 258 84 c h
258 84 m f
0.00784314 0.760784 0.415686 rg
186 216 m 171.941 216 l 165.574 216 159.473 213.473 154.969 208.969 c 151.031
 205.031 l 146.527 200.527 144 194.426 144 188.059 c 144 174 l 158.059 174
 l 164.426 174 170.527 176.527 175.031 181.031 c 178.969 184.969 l 183.473
 189.473 186 195.574 186 201.941 c h
186 216 m f
0.694118 0.47451 0.172549 rg
120 168 12 72 re f
0.00784314 0.760784 0.415686 rg
132 180 m 117.941 180 l 111.574 180 105.473 177.473 100.969 172.969 c 97.031
 169.031 l 92.527 164.527 90 158.426 90 152.059 c 90 138 l 104.059 138 l
 110.426 138 116.527 140.527 121.031 145.031 c 124.969 148.969 l 129.473
 153.473 132 159.574 132 165.941 c h
132 180 m f
0.694118 0.47451 0.172549 rg
252 168 12 72 re f
0.00784314 0.760784 0.415686 rg
252 180 m 266.059 180 l 272.426 180 278.527 177.473 283.031 172.969 c 286.969
 169.031 l 291.473 164.527 294 158.426 294 152.059 c 294 138 l 279.941 138
 l 273.574 138 267.473 140.527 262.969 145.031 c 259.031 148.969 l 254.527
 153.473 252 159.574 252 165.941 c h
252 180 m f
198 216 m 198 201.941 l 198 195.574 200.527 189.473 205.031 184.969 c 208.969
 181.031 l 213.473 176.527 219.574 174 225.941 174 c 240 174 l 240 188.059
 l 240 194.426 237.473 200.527 232.969 205.031 c 229.031 208.969 l 224.527
 213.473 218.426 216 212.059 216 c h
198 216 m f
0.490196 0.686275 1 rg
96 240 192 36 re f
0.329412 0.541176 1 rg
258 366 m 126 366 l 108 276 l 276 276 l h
258 366 m f
0.811765 0.513726 0 rg
201 78 m 198 78 l 198 60 l 216 60 l 216 48 l 198 48 l 198 36 l 186 36 l
 186 48 l 183 48 l 171.402 48 162 57.402 162 69 c 162 80.598 171.402 90 
183 90 c 186 90 l 186 108 l 168 108 l 168 120 l 186 120 l 186 132 l 198 
132 l 198 120 l 201 120 l 212.598 120 222 110.598 222 99 c 222 87.402 212.598
 78 201 78 c h
183 78 m 178.031 78 174 73.969 174 69 c 174 64.031 178.031 60 183 60 c 
186 60 l 186 78 l h
201 108 m 198 108 l 198 90 l 201 90 l 205.969 90 210 94.031 210 99 c 210
 103.969 205.969 108 201 108 c h
201 108 m f
Q Q
showpage
%%Trailer
end
%%EOF
