%!PS-Adobe-3.0 EPSF-3.0
%%Creator: cairo 1.16.0 (https://cairographics.org)
%%CreationDate: Fri Sep 20 08:55:45 2019
%%Pages: 1
%%DocumentData: Clean7Bit
%%LanguageLevel: 2
%%BoundingBox: 78 18 306 366
%%EndComments
%%BeginProlog
50 dict begin
/q { gsave } bind def
/Q { grestore } bind def
/cm { 6 array astore concat } bind def
/w { setlinewidth } bind def
/J { setlinecap } bind def
/j { setlinejoin } bind def
/M { setmiterlimit } bind def
/d { setdash } bind def
/m { moveto } bind def
/l { lineto } bind def
/c { curveto } bind def
/h { closepath } bind def
/re { exch dup neg 3 1 roll 5 3 roll moveto 0 rlineto
      0 exch rlineto 0 rlineto closepath } bind def
/S { stroke } bind def
/f { fill } bind def
/f* { eofill } bind def
/n { newpath } bind def
/W { clip } bind def
/W* { eoclip } bind def
/BT { } bind def
/ET { } bind def
/BDC { mark 3 1 roll /BDC pdfmark } bind def
/EMC { mark /EMC pdfmark } bind def
/cairo_store_point { /cairo_point_y exch def /cairo_point_x exch def } def
/Tj { show currentpoint cairo_store_point } bind def
/TJ {
  {
    dup
    type /stringtype eq
    { show } { -0.001 mul 0 cairo_font_matrix dtransform rmoveto } ifelse
  } forall
  currentpoint cairo_store_point
} bind def
/cairo_selectfont { cairo_font_matrix aload pop pop pop 0 0 6 array astore
    cairo_font exch selectfont cairo_point_x cairo_point_y moveto } bind def
/Tf { pop /cairo_font exch def /cairo_font_matrix where
      { pop cairo_selectfont } if } bind def
/Td { matrix translate cairo_font_matrix matrix concatmatrix dup
      /cairo_font_matrix exch def dup 4 get exch 5 get cairo_store_point
      /cairo_font where { pop cairo_selectfont } if } bind def
/Tm { 2 copy 8 2 roll 6 array astore /cairo_font_matrix exch def
      cairo_store_point /cairo_font where { pop cairo_selectfont } if } bind def
/g { setgray } bind def
/rg { setrgbcolor } bind def
/d1 { setcachedevice } bind def
/cairo_data_source {
  CairoDataIndex CairoData length lt
    { CairoData CairoDataIndex get /CairoDataIndex CairoDataIndex 1 add def }
    { () } ifelse
} def
/cairo_flush_ascii85_file { cairo_ascii85_file status { cairo_ascii85_file flushfile } if } def
/cairo_image { image cairo_flush_ascii85_file } def
/cairo_imagemask { imagemask cairo_flush_ascii85_file } def
%%EndProlog
%%BeginSetup
%%EndSetup
%%Page: 1 1
%%BeginPageSetup
%%PageBoundingBox: 78 18 306 366
%%EndPageSetup
q 78 18 228 348 rectclip
1 0 0 -1 0 384 cm q
0.329412 0.541176 1 rg
306 339.18 m 306 366 l 78 366 l 78 339.18 l 78 322.32 86.848 306.695 101.301
 298.02 c 126.512 282.891 l 138 276 l 246 276 l 257.488 282.891 l 282.699
 298.02 l 297.152 306.695 306 322.32 306 339.18 c h
306 339.18 m f
0.898039 0.905882 0.913725 rg
257.488 282.891 m 210 366 l 174 366 l 126.512 282.891 l 138 276 l 246 276
 l h
257.488 282.891 m f
0.964706 0.733333 0 rg
209.32 366 m 204 330 l 210 318 l 210 300 l 174 300 l 174 318 l 180 330 
l 174 366 l h
209.32 366 m f
0.870588 0.580392 0 rg
204 336 m 180 336 l 176.688 336 174 333.312 174 330 c 174 326.688 176.688
 324 180 324 c 204 324 l 207.312 324 210 326.688 210 330 c 210 333.312 207.312
 336 204 336 c h
204 336 m f
0.870588 0.682353 0.494118 rg
264 162 m 264 175.254 231.766 186 192 186 c 152.234 186 120 175.254 120
 162 c 120 148.746 152.234 138 192 138 c 211.094 138 229.41 140.527 242.91
 145.031 c 256.414 149.531 264 155.637 264 162 c h
264 162 m f
0.780392 0.576471 0.411765 rg
156 156 72 36 re f
0.964706 0.733333 0 rg
264 64.859 m 264 96 l 264 102.32 262.336 108.527 259.172 114 c 258.457 
115.25 257.664 116.449 256.801 117.602 c 250.5 126 l 228 156 l 156 156 l
 129 120 l 127.199 117.602 l 122.531 111.367 120.004 103.789 120 96 c 120
 64.859 l 120.004 54.176 124.746 44.047 132.953 37.207 c 145.988 26.348 
l 152.457 20.953 160.613 18 169.035 18 c 214.965 18 l 222.719 18 230.262
 20.504 236.477 25.141 c 237 25.523 237.512 25.926 238.012 26.348 c 246.141
 33.121 l 251.047 37.207 l 259.254 44.047 264 54.176 264 64.859 c h
264 64.859 m f
0.870588 0.580392 0 rg
172.246 121.754 m 163.754 130.246 l 153.516 120 l 129 120 l 127.199 117.602
 l 125.008 114.68 123.273 111.445 122.062 108 c 156 108 l 157.59 108 159.117
 108.629 160.246 109.754 c h
172.246 121.754 m f
150 72 m 150 84 l 138 84 l 136.816 84 135.656 83.648 134.672 82.996 c 120
 73.215 l 120 64.859 l 120 62.93 120.156 61.004 120.465 59.102 c 139.816
 72 l h
150 72 m f
246.141 33.121 m 225.328 46.996 l 224.344 47.648 223.184 48 222 48 c 210
 48 l 210 36 l 220.184 36 l 236.477 25.141 l 237 25.523 237.512 25.926 238.012
 26.348 c h
246.141 33.121 m f
217.758 82.242 m 226.242 73.758 l 214.242 61.758 l 213.117 60.633 211.59
 60 210 60 c 198 60 l 198 18 l 186 18 l 186 36 l 168 36 l 166.41 36 164.883
 36.633 163.758 37.758 c 151.758 49.758 l 160.242 58.242 l 170.484 48 l 
186 48 l 186 78 l 174 78 l 172.41 78 170.883 78.633 169.758 79.758 c 157.758
 91.758 l 166.242 100.242 l 176.484 90 l 186 90 l 186 156 l 198 156 l 198
 72 l 207.516 72 l h
217.758 82.242 m f
241.758 79.758 m 229.758 91.758 l 238.242 100.242 l 248.484 90 l 264 90
 l 264 78 l 246 78 l 244.41 78 242.883 78.633 241.758 79.758 c h
241.758 79.758 m f
259.172 114 m 258.457 115.25 257.664 116.449 256.801 117.602 c 250.5 126
 l 230.484 126 l 220.246 136.246 l 211.754 127.754 l 223.754 115.754 l 224.883
 114.629 226.41 114 228 114 c h
259.172 114 m f
0.960784 0.788235 0.615686 rg
120 162 m 120 175.254 152.234 186 192 186 c 231.766 186 264 175.254 264
 162 c 264 234 l 264 253.094 256.414 271.41 242.91 284.91 c 229.41 298.414
 211.094 306 192 306 c 172.906 306 154.59 298.414 141.09 284.91 c 127.586
 271.41 120 253.094 120 234 c h
120 162 m f
0.694118 0.47451 0.172549 rg
150 210 24 12 re f
0.780392 0.576471 0.411765 rg
186 276 m 180 276 l 180 264 l 186 264 l 189.312 263.996 191.996 261.312
 192 258 c 192 240 l 204 240 l 204 258 l 203.988 267.938 195.938 275.988
 186 276 c h
186 276 m f
0.584314 0.4 0.145098 rg
168 234 m 168 237.312 165.312 240 162 240 c 158.688 240 156 237.312 156
 234 c 156 230.688 158.688 228 162 228 c 165.312 228 168 230.688 168 234
 c h
168 234 m f
0.694118 0.47451 0.172549 rg
210 210 24 12 re f
0.584314 0.4 0.145098 rg
228 234 m 228 237.312 225.312 240 222 240 c 218.688 240 216 237.312 216
 234 c 216 230.688 218.688 228 222 228 c 225.312 228 228 230.688 228 234
 c h
228 234 m f
Q Q
showpage
%%Trailer
end
%%EOF
