%!PS-Adobe-3.0 EPSF-3.0
%%Creator: cairo 1.16.0 (https://cairographics.org)
%%CreationDate: Fri Sep 20 08:55:47 2019
%%Pages: 1
%%DocumentData: Clean7Bit
%%LanguageLevel: 2
%%BoundingBox: 18 60 366 324
%%EndComments
%%BeginProlog
50 dict begin
/q { gsave } bind def
/Q { grestore } bind def
/cm { 6 array astore concat } bind def
/w { setlinewidth } bind def
/J { setlinecap } bind def
/j { setlinejoin } bind def
/M { setmiterlimit } bind def
/d { setdash } bind def
/m { moveto } bind def
/l { lineto } bind def
/c { curveto } bind def
/h { closepath } bind def
/re { exch dup neg 3 1 roll 5 3 roll moveto 0 rlineto
      0 exch rlineto 0 rlineto closepath } bind def
/S { stroke } bind def
/f { fill } bind def
/f* { eofill } bind def
/n { newpath } bind def
/W { clip } bind def
/W* { eoclip } bind def
/BT { } bind def
/ET { } bind def
/BDC { mark 3 1 roll /BDC pdfmark } bind def
/EMC { mark /EMC pdfmark } bind def
/cairo_store_point { /cairo_point_y exch def /cairo_point_x exch def } def
/Tj { show currentpoint cairo_store_point } bind def
/TJ {
  {
    dup
    type /stringtype eq
    { show } { -0.001 mul 0 cairo_font_matrix dtransform rmoveto } ifelse
  } forall
  currentpoint cairo_store_point
} bind def
/cairo_selectfont { cairo_font_matrix aload pop pop pop 0 0 6 array astore
    cairo_font exch selectfont cairo_point_x cairo_point_y moveto } bind def
/Tf { pop /cairo_font exch def /cairo_font_matrix where
      { pop cairo_selectfont } if } bind def
/Td { matrix translate cairo_font_matrix matrix concatmatrix dup
      /cairo_font_matrix exch def dup 4 get exch 5 get cairo_store_point
      /cairo_font where { pop cairo_selectfont } if } bind def
/Tm { 2 copy 8 2 roll 6 array astore /cairo_font_matrix exch def
      cairo_store_point /cairo_font where { pop cairo_selectfont } if } bind def
/g { setgray } bind def
/rg { setrgbcolor } bind def
/d1 { setcachedevice } bind def
/cairo_data_source {
  CairoDataIndex CairoData length lt
    { CairoData CairoDataIndex get /CairoDataIndex CairoDataIndex 1 add def }
    { () } ifelse
} def
/cairo_flush_ascii85_file { cairo_ascii85_file status { cairo_ascii85_file flushfile } if } def
/cairo_image { image cairo_flush_ascii85_file } def
/cairo_imagemask { imagemask cairo_flush_ascii85_file } def
%%EndProlog
%%BeginSetup
%%EndSetup
%%Page: 1 1
%%BeginPageSetup
%%PageBoundingBox: 18 60 366 324
%%EndPageSetup
q 18 60 348 264 rectclip
1 0 0 -1 0 384 cm q
0.811765 0.513726 0 rg
92.367 193.668 m 66 119.84 l 39.633 193.668 l 28.332 189.633 l 60.348 99.98
 l 61.203 97.594 63.465 96 66 96 c 68.535 96 70.797 97.594 71.652 99.98 
c 103.668 189.633 l h
92.367 193.668 m f
344.367 193.668 m 318 119.84 l 291.633 193.668 l 280.332 189.633 l 312.348
 99.98 l 313.203 97.594 315.465 96 318 96 c 320.535 96 322.797 97.594 323.652
 99.98 c 355.668 189.633 l h
344.367 193.668 m f
0.929412 0.65098 0 rg
222 96 m 210 120 l 174 120 l 162 96 l 162 78 l 222 78 l h
222 96 m f
0.329412 0.541176 1 rg
18 186 m 114 186 l 114 199.254 103.254 210 90 210 c 42 210 l 28.746 210
 18 199.254 18 186 c h
18 186 m f
270 186 m 366 186 l 366 199.254 355.254 210 342 210 c 294 210 l 280.746
 210 270 199.254 270 186 c h
270 186 m f
0.964706 0.733333 0 rg
342 78 m 235.457 78 l 230.684 78 226.105 76.105 222.727 72.727 c 214.578
 64.578 203.523 60 192 60 c 180.477 60 169.422 64.578 161.273 72.727 c 157.895
 76.105 153.316 78 148.543 78 c 42 78 l 42 102 l 148.543 102 l 157.16 102
 165.422 98.578 171.516 92.484 c 176.949 87.051 184.316 84 192 84 c 199.684
 84 207.051 87.051 212.484 92.484 c 218.578 98.578 226.84 102 235.457 102
 c 342 102 l h
342 78 m f
174 120 36 132 re f
174 276 36 24 re f
0.870588 0.580392 0 rg
210 276 m 205.777 268.559 205.777 259.441 210 252 c 174 252 l 177.777 259.555
 177.777 268.445 174 276 c h
210 276 m f
0.980392 0.776471 0.137255 rg
144 300 m 240 300 l 253.254 300 264 310.746 264 324 c 120 324 l 120 310.746
 130.746 300 144 300 c h
144 300 m f
Q Q
showpage
%%Trailer
end
%%EOF
