%!PS-Adobe-3.0 EPSF-3.0
%%Creator: cairo 1.16.0 (https://cairographics.org)
%%CreationDate: Fri Sep 20 08:55:47 2019
%%Pages: 1
%%DocumentData: Clean7Bit
%%LanguageLevel: 2
%%BoundingBox: 96 18 288 366
%%EndComments
%%BeginProlog
50 dict begin
/q { gsave } bind def
/Q { grestore } bind def
/cm { 6 array astore concat } bind def
/w { setlinewidth } bind def
/J { setlinecap } bind def
/j { setlinejoin } bind def
/M { setmiterlimit } bind def
/d { setdash } bind def
/m { moveto } bind def
/l { lineto } bind def
/c { curveto } bind def
/h { closepath } bind def
/re { exch dup neg 3 1 roll 5 3 roll moveto 0 rlineto
      0 exch rlineto 0 rlineto closepath } bind def
/S { stroke } bind def
/f { fill } bind def
/f* { eofill } bind def
/n { newpath } bind def
/W { clip } bind def
/W* { eoclip } bind def
/BT { } bind def
/ET { } bind def
/BDC { mark 3 1 roll /BDC pdfmark } bind def
/EMC { mark /EMC pdfmark } bind def
/cairo_store_point { /cairo_point_y exch def /cairo_point_x exch def } def
/Tj { show currentpoint cairo_store_point } bind def
/TJ {
  {
    dup
    type /stringtype eq
    { show } { -0.001 mul 0 cairo_font_matrix dtransform rmoveto } ifelse
  } forall
  currentpoint cairo_store_point
} bind def
/cairo_selectfont { cairo_font_matrix aload pop pop pop 0 0 6 array astore
    cairo_font exch selectfont cairo_point_x cairo_point_y moveto } bind def
/Tf { pop /cairo_font exch def /cairo_font_matrix where
      { pop cairo_selectfont } if } bind def
/Td { matrix translate cairo_font_matrix matrix concatmatrix dup
      /cairo_font_matrix exch def dup 4 get exch 5 get cairo_store_point
      /cairo_font where { pop cairo_selectfont } if } bind def
/Tm { 2 copy 8 2 roll 6 array astore /cairo_font_matrix exch def
      cairo_store_point /cairo_font where { pop cairo_selectfont } if } bind def
/g { setgray } bind def
/rg { setrgbcolor } bind def
/d1 { setcachedevice } bind def
/cairo_data_source {
  CairoDataIndex CairoData length lt
    { CairoData CairoDataIndex get /CairoDataIndex CairoDataIndex 1 add def }
    { () } ifelse
} def
/cairo_flush_ascii85_file { cairo_ascii85_file status { cairo_ascii85_file flushfile } if } def
/cairo_image { image cairo_flush_ascii85_file } def
/cairo_imagemask { imagemask cairo_flush_ascii85_file } def
%%EndProlog
%%BeginSetup
%%EndSetup
%%Page: 1 1
%%BeginPageSetup
%%PageBoundingBox: 96 18 288 366
%%EndPageSetup
q 96 18 192 348 rectclip
1 0 0 -1 0 384 cm q
0.929412 0.65098 0 rg
96 330 m 111.91 278.289 120 224.492 120 170.391 c 120 98.879 l 156 138 
l 252 138 l 267.742 234 l 271.582 266.547 278.363 298.676 288 330 c h
96 330 m f
0.329412 0.541176 1 rg
282 203.023 m 282 234 l 264 234 l 262.344 220.719 l 261.891 217.125 261.328
 213.551 260.648 210 c 256.98 190.93 249.992 172.652 240 156 c 234 204 l
 150 204 l 144 168 l 122.879 108.871 l 117.098 92.68 116.422 75.105 120.953
 58.523 c 125.461 42 l 132 18 l 150 18 l 150 59.461 l 150.004 70.82 156.422
 81.207 166.582 86.297 c 174 90 l 204 102 l 226.801 109.598 l 240.316 114.105
 l 251.637 117.879 260.996 125.996 266.332 136.672 c 276.637 157.273 282.004
 179.992 282 203.023 c h
282 203.023 m f
0.898039 0.905882 0.913725 rg
226.801 109.598 m 198 147.996 l 192 156 l 186 147.602 l 179.438 138.414
 l 168.098 122.535 162 103.512 162 84 c 162 83.461 l 163.438 84.539 164.973
 85.488 166.582 86.297 c 174 90 l 204 102 l h
226.801 109.598 m f
0.796078 0.811765 0.823529 rg
198 102 m 198 147.996 l 192 156 l 186 147.602 l 186 102 l h
198 102 m f
0.301961 0.388235 0.470588 rg
234 204 m 240 366 l 222 366 l 192 252 l 162 366 l 144 366 l 150 204 l h
234 204 m f
0.960784 0.788235 0.615686 rg
282 210 m 282 234 l 264 234 l 262.344 220.719 l 261.891 217.125 261.328
 213.551 260.648 210 c h
282 210 m f
150 18 m 150 42 l 125.461 42 l 132 18 l h
150 18 m f
210 72 m 210 90 l 210 99.941 201.941 108 192 108 c 182.059 108 174 99.941
 174 90 c 174 72 l h
210 72 m f
0.694118 0.47451 0.172549 rg
174 72 m 174 61.816 l 174 58.152 175.457 54.637 178.047 52.047 c 180.637
 49.457 184.152 48 187.816 48 c 190.543 48 193.211 48.809 195.48 50.32 c
 210 60 l 210 72 l h
174 72 m f
Q Q
showpage
%%Trailer
end
%%EOF
