%!PS-Adobe-3.0 EPSF-3.0
%%Creator: cairo 1.16.0 (https://cairographics.org)
%%CreationDate: Fri Sep 20 08:55:48 2019
%%Pages: 1
%%DocumentData: Clean7Bit
%%LanguageLevel: 2
%%BoundingBox: 36 18 348 372
%%EndComments
%%BeginProlog
50 dict begin
/q { gsave } bind def
/Q { grestore } bind def
/cm { 6 array astore concat } bind def
/w { setlinewidth } bind def
/J { setlinecap } bind def
/j { setlinejoin } bind def
/M { setmiterlimit } bind def
/d { setdash } bind def
/m { moveto } bind def
/l { lineto } bind def
/c { curveto } bind def
/h { closepath } bind def
/re { exch dup neg 3 1 roll 5 3 roll moveto 0 rlineto
      0 exch rlineto 0 rlineto closepath } bind def
/S { stroke } bind def
/f { fill } bind def
/f* { eofill } bind def
/n { newpath } bind def
/W { clip } bind def
/W* { eoclip } bind def
/BT { } bind def
/ET { } bind def
/BDC { mark 3 1 roll /BDC pdfmark } bind def
/EMC { mark /EMC pdfmark } bind def
/cairo_store_point { /cairo_point_y exch def /cairo_point_x exch def } def
/Tj { show currentpoint cairo_store_point } bind def
/TJ {
  {
    dup
    type /stringtype eq
    { show } { -0.001 mul 0 cairo_font_matrix dtransform rmoveto } ifelse
  } forall
  currentpoint cairo_store_point
} bind def
/cairo_selectfont { cairo_font_matrix aload pop pop pop 0 0 6 array astore
    cairo_font exch selectfont cairo_point_x cairo_point_y moveto } bind def
/Tf { pop /cairo_font exch def /cairo_font_matrix where
      { pop cairo_selectfont } if } bind def
/Td { matrix translate cairo_font_matrix matrix concatmatrix dup
      /cairo_font_matrix exch def dup 4 get exch 5 get cairo_store_point
      /cairo_font where { pop cairo_selectfont } if } bind def
/Tm { 2 copy 8 2 roll 6 array astore /cairo_font_matrix exch def
      cairo_store_point /cairo_font where { pop cairo_selectfont } if } bind def
/g { setgray } bind def
/rg { setrgbcolor } bind def
/d1 { setcachedevice } bind def
/cairo_data_source {
  CairoDataIndex CairoData length lt
    { CairoData CairoDataIndex get /CairoDataIndex CairoDataIndex 1 add def }
    { () } ifelse
} def
/cairo_flush_ascii85_file { cairo_ascii85_file status { cairo_ascii85_file flushfile } if } def
/cairo_image { image cairo_flush_ascii85_file } def
/cairo_imagemask { imagemask cairo_flush_ascii85_file } def
%%EndProlog
%%BeginSetup
%%EndSetup
%%Page: 1 1
%%BeginPageSetup
%%PageBoundingBox: 36 18 348 372
%%EndPageSetup
q 36 18 312 354 rectclip
1 0 0 -1 0 384 cm q
0.301961 0.388235 0.470588 rg
228 294 m 228 342 l 228 355.254 217.254 366 204 366 c 180 366 l 166.746
 366 156 355.254 156 342 c 156 294 l h
228 294 m f
0.203922 0.278431 0.360784 rg
156 342 m 228 342 l 228 355.254 217.254 366 204 366 c 180 366 l 166.746
 366 156 355.254 156 342 c h
156 342 m f
0.964706 0.733333 0 rg
186 12 12 24 re f
77.434 61.938 m 85.918 53.457 l 102.887 70.422 l 94.402 78.906 l h
77.434 61.938 m f
36 162 24 12 re f
77.418 274.035 m 94.387 257.066 l 102.871 265.551 l 85.902 282.52 l h
77.418 274.035 m f
281.035 265.59 m 289.52 257.105 l 306.488 274.074 l 298.004 282.559 l h
281.035 265.59 m f
324 162 24 12 re f
281.051 70.43 m 298.02 53.465 l 306.504 61.945 l 289.535 78.914 l h
281.051 70.43 m f
0.203922 0.278431 0.360784 rg
156 312 18 12 re f
192 312 36 12 re f
0.329412 0.541176 1 rg
180 66.699 m 216 66.699 l 216 96 l 231.941 102.602 l 253.152 81.391 l 278.609
 106.848 l 257.398 128.059 l 264 144 l 294 144 l 294 180 l 264 180 l 257.398
 195.941 l 278.609 217.152 l 253.152 242.609 l 231.941 221.398 l 216 228
 l 216 258 l 196.117 258 180 241.883 180 222 c 180 186 l 189.09 192.816 
201.254 193.914 211.418 188.832 c 221.578 183.75 228 173.363 228 162 c 228
 150.637 221.578 140.25 211.418 135.168 c 201.254 130.086 189.09 131.184
 180 138 c h
180 66.699 m f
0.964706 0.733333 0 rg
156 294 m 156 263.457 l 112.004 246.855 85.059 202.332 90.75 155.656 c 
96.445 108.977 133.305 72.238 180 66.699 c 180 222 l 180 241.883 196.117
 258 216 258 c 228 258 l 228 294 l h
156 294 m f
Q Q
showpage
%%Trailer
end
%%EOF
