%!PS-Adobe-3.0 EPSF-3.0
%%Creator: cairo 1.16.0 (https://cairographics.org)
%%CreationDate: Fri Sep 20 08:55:48 2019
%%Pages: 1
%%DocumentData: Clean7Bit
%%LanguageLevel: 2
%%BoundingBox: 18 42 366 342
%%EndComments
%%BeginProlog
50 dict begin
/q { gsave } bind def
/Q { grestore } bind def
/cm { 6 array astore concat } bind def
/w { setlinewidth } bind def
/J { setlinecap } bind def
/j { setlinejoin } bind def
/M { setmiterlimit } bind def
/d { setdash } bind def
/m { moveto } bind def
/l { lineto } bind def
/c { curveto } bind def
/h { closepath } bind def
/re { exch dup neg 3 1 roll 5 3 roll moveto 0 rlineto
      0 exch rlineto 0 rlineto closepath } bind def
/S { stroke } bind def
/f { fill } bind def
/f* { eofill } bind def
/n { newpath } bind def
/W { clip } bind def
/W* { eoclip } bind def
/BT { } bind def
/ET { } bind def
/BDC { mark 3 1 roll /BDC pdfmark } bind def
/EMC { mark /EMC pdfmark } bind def
/cairo_store_point { /cairo_point_y exch def /cairo_point_x exch def } def
/Tj { show currentpoint cairo_store_point } bind def
/TJ {
  {
    dup
    type /stringtype eq
    { show } { -0.001 mul 0 cairo_font_matrix dtransform rmoveto } ifelse
  } forall
  currentpoint cairo_store_point
} bind def
/cairo_selectfont { cairo_font_matrix aload pop pop pop 0 0 6 array astore
    cairo_font exch selectfont cairo_point_x cairo_point_y moveto } bind def
/Tf { pop /cairo_font exch def /cairo_font_matrix where
      { pop cairo_selectfont } if } bind def
/Td { matrix translate cairo_font_matrix matrix concatmatrix dup
      /cairo_font_matrix exch def dup 4 get exch 5 get cairo_store_point
      /cairo_font where { pop cairo_selectfont } if } bind def
/Tm { 2 copy 8 2 roll 6 array astore /cairo_font_matrix exch def
      cairo_store_point /cairo_font where { pop cairo_selectfont } if } bind def
/g { setgray } bind def
/rg { setrgbcolor } bind def
/d1 { setcachedevice } bind def
/cairo_data_source {
  CairoDataIndex CairoData length lt
    { CairoData CairoDataIndex get /CairoDataIndex CairoDataIndex 1 add def }
    { () } ifelse
} def
/cairo_flush_ascii85_file { cairo_ascii85_file status { cairo_ascii85_file flushfile } if } def
/cairo_image { image cairo_flush_ascii85_file } def
/cairo_imagemask { imagemask cairo_flush_ascii85_file } def
%%EndProlog
%%BeginSetup
%%EndSetup
%%Page: 1 1
%%BeginPageSetup
%%PageBoundingBox: 18 42 366 342
%%EndPageSetup
q 18 42 348 300 rectclip
1 0 0 -1 0 384 cm q
0.282353 0.419608 0.878431 rg
216 186 m 216 210 l 204 222 l 168 243.777 l 136.891 243.777 l 123.074 216.148
 l 121.191 212.379 117.34 210 113.125 210 c 110.176 210 107.344 208.828 
105.258 206.742 c 103.172 204.656 102 201.824 102 198.875 c 102 186 l f
54 114 m 84 102 l 84 174 l 54 162 l h
54 114 m f
0.329412 0.541176 1 rg
96 90 m 186 90 l 186 186 l 96 186 l 89.371 186 84 180.629 84 174 c 84 102
 l 84 95.371 89.371 90 96 90 c h
96 90 m f
0.282353 0.419608 0.878431 rg
108 90 12 96 re f
0.960784 0.788235 0.615686 rg
108 252 m 168 222 l 204 222 l 204 240 l 192 246 l 192 276 l 180 300 l 120
 306 l h
108 252 m f
0.329412 0.541176 1 rg
108 252 m 18 252 l 18 342 l 108 342 l 126 318 l h
108 252 m f
0.282353 0.419608 0.878431 rg
102 318 m 102 321.312 99.312 324 96 324 c 92.688 324 90 321.312 90 318 
c 90 314.688 92.688 312 96 312 c 99.312 312 102 314.688 102 318 c h
102 318 m f
0.964706 0.733333 0 rg
336 216 m 304.633 196.395 268.387 186 231.395 186 c 186 186 l 186 90 l 
231.395 90 l 268.387 90 304.633 79.605 336 60 c h
336 216 m f
0.329412 0.541176 1 rg
348 42 m 354 42 l 360.648 42 366 47.352 366 54 c 366 222 l 366 228.648 
360.648 234 354 234 c 348 234 l 341.352 234 336 228.648 336 222 c 336 54
 l 336 47.352 341.352 42 348 42 c h
348 42 m f
Q Q
showpage
%%Trailer
end
%%EOF
