%!PS-Adobe-3.0 EPSF-3.0
%%Creator: cairo 1.16.0 (https://cairographics.org)
%%CreationDate: Fri Sep 20 08:55:49 2019
%%Pages: 1
%%DocumentData: Clean7Bit
%%LanguageLevel: 2
%%BoundingBox: 18 24 366 360
%%EndComments
%%BeginProlog
50 dict begin
/q { gsave } bind def
/Q { grestore } bind def
/cm { 6 array astore concat } bind def
/w { setlinewidth } bind def
/J { setlinecap } bind def
/j { setlinejoin } bind def
/M { setmiterlimit } bind def
/d { setdash } bind def
/m { moveto } bind def
/l { lineto } bind def
/c { curveto } bind def
/h { closepath } bind def
/re { exch dup neg 3 1 roll 5 3 roll moveto 0 rlineto
      0 exch rlineto 0 rlineto closepath } bind def
/S { stroke } bind def
/f { fill } bind def
/f* { eofill } bind def
/n { newpath } bind def
/W { clip } bind def
/W* { eoclip } bind def
/BT { } bind def
/ET { } bind def
/BDC { mark 3 1 roll /BDC pdfmark } bind def
/EMC { mark /EMC pdfmark } bind def
/cairo_store_point { /cairo_point_y exch def /cairo_point_x exch def } def
/Tj { show currentpoint cairo_store_point } bind def
/TJ {
  {
    dup
    type /stringtype eq
    { show } { -0.001 mul 0 cairo_font_matrix dtransform rmoveto } ifelse
  } forall
  currentpoint cairo_store_point
} bind def
/cairo_selectfont { cairo_font_matrix aload pop pop pop 0 0 6 array astore
    cairo_font exch selectfont cairo_point_x cairo_point_y moveto } bind def
/Tf { pop /cairo_font exch def /cairo_font_matrix where
      { pop cairo_selectfont } if } bind def
/Td { matrix translate cairo_font_matrix matrix concatmatrix dup
      /cairo_font_matrix exch def dup 4 get exch 5 get cairo_store_point
      /cairo_font where { pop cairo_selectfont } if } bind def
/Tm { 2 copy 8 2 roll 6 array astore /cairo_font_matrix exch def
      cairo_store_point /cairo_font where { pop cairo_selectfont } if } bind def
/g { setgray } bind def
/rg { setrgbcolor } bind def
/d1 { setcachedevice } bind def
/cairo_data_source {
  CairoDataIndex CairoData length lt
    { CairoData CairoDataIndex get /CairoDataIndex CairoDataIndex 1 add def }
    { () } ifelse
} def
/cairo_flush_ascii85_file { cairo_ascii85_file status { cairo_ascii85_file flushfile } if } def
/cairo_image { image cairo_flush_ascii85_file } def
/cairo_imagemask { imagemask cairo_flush_ascii85_file } def
%%EndProlog
%%BeginSetup
%%EndSetup
%%Page: 1 1
%%BeginPageSetup
%%PageBoundingBox: 18 24 366 360
%%EndPageSetup
q 18 24 348 336 rectclip
1 0 0 -1 0 384 cm q
0.301961 0.388235 0.470588 rg
146.461 219.871 m 160.262 183.48 l 162.445 177.789 167.902 174.023 174 
174 c 177.312 174 180 176.688 180 180 c 180 183.312 177.312 186 174 186 
c 172.883 186.004 171.883 186.695 171.48 187.738 c 157.68 224.129 l h
146.461 219.871 m f
230.484 240 m 227.992 240 225.758 238.461 224.871 236.129 c 205.543 185.168
 l 204.367 182.07 205.926 178.605 209.027 177.434 c 212.125 176.258 215.59
 177.816 216.762 180.914 c 236.094 231.871 l 236.789 233.715 236.539 235.785
 235.418 237.406 c 234.301 239.031 232.457 240 230.484 240 c h
230.484 240 m f
0.490196 0.686275 1 rg
306 330 m 270 330 l 270 354 l 366 354 l 366 330 l 330 330 l 330 258 l 366
 258 l 366 234 l 270 234 l 270 258 l 306 258 l h
306 330 m f
0.388235 0.603922 1 rg
18 234 252 24 re f
18 330 252 24 re f
0.317647 0.494118 0.968627 rg
54 258 252 72 re f
0.929412 0.65098 0 rg
156 66 36 30 re f
0.811765 0.513726 0 rg
168 24 12 42 re f
0.964706 0.733333 0 rg
186 96 m 186 114 l 202.57 114 216 127.43 216 144 c 216 162 l 216 188.508
 194.508 210 168 210 c 155.27 210 143.062 204.941 134.059 195.941 c 125.059
 186.938 120 174.73 120 162 c 120 150 l 132 150 l 138.629 150 144 155.371
 144 162 c 144 168.367 146.531 174.473 151.031 178.973 c 155.535 183.473
 161.641 186 168.004 186 c 181.258 185.996 192 175.254 192 162 c 192 153
 l 192 144.715 185.285 138 177 138 c 168.715 138 162 131.285 162 123 c 162
 96 l h
186 96 m f
0.301961 0.388235 0.470588 rg
132 360 m 123.223 360 115.008 355.688 110.02 348.465 c 105.035 341.242 
103.918 332.027 107.031 323.824 c 146.461 219.871 l 157.68 224.129 l 118.25
 328.078 l 116.535 332.598 117.152 337.668 119.898 341.648 c 122.641 345.625
 127.168 348 132 348 c 135.312 348 138 350.688 138 354 c 138 357.312 135.312
 360 132 360 c h
132 360 m f
276 348 m 260.453 347.945 246.535 338.34 240.969 323.824 c 187.738 183.48
 l 185.555 177.789 180.098 174.023 174 174 c 170.688 174 168 176.688 168
 180 c 168 186 l 174 186 l 175.117 186.004 176.117 186.695 176.52 187.738
 c 229.75 328.078 l 237.102 347.246 255.473 359.926 276 360 c 279.312 360
 282 357.312 282 354 c 282 350.688 279.312 348 276 348 c h
276 348 m f
Q Q
showpage
%%Trailer
end
%%EOF
