%!PS-Adobe-3.0 EPSF-3.0
%%Creator: cairo 1.16.0 (https://cairographics.org)
%%CreationDate: Fri Sep 20 08:55:49 2019
%%Pages: 1
%%DocumentData: Clean7Bit
%%LanguageLevel: 2
%%BoundingBox: 72 18 312 366
%%EndComments
%%BeginProlog
50 dict begin
/q { gsave } bind def
/Q { grestore } bind def
/cm { 6 array astore concat } bind def
/w { setlinewidth } bind def
/J { setlinecap } bind def
/j { setlinejoin } bind def
/M { setmiterlimit } bind def
/d { setdash } bind def
/m { moveto } bind def
/l { lineto } bind def
/c { curveto } bind def
/h { closepath } bind def
/re { exch dup neg 3 1 roll 5 3 roll moveto 0 rlineto
      0 exch rlineto 0 rlineto closepath } bind def
/S { stroke } bind def
/f { fill } bind def
/f* { eofill } bind def
/n { newpath } bind def
/W { clip } bind def
/W* { eoclip } bind def
/BT { } bind def
/ET { } bind def
/BDC { mark 3 1 roll /BDC pdfmark } bind def
/EMC { mark /EMC pdfmark } bind def
/cairo_store_point { /cairo_point_y exch def /cairo_point_x exch def } def
/Tj { show currentpoint cairo_store_point } bind def
/TJ {
  {
    dup
    type /stringtype eq
    { show } { -0.001 mul 0 cairo_font_matrix dtransform rmoveto } ifelse
  } forall
  currentpoint cairo_store_point
} bind def
/cairo_selectfont { cairo_font_matrix aload pop pop pop 0 0 6 array astore
    cairo_font exch selectfont cairo_point_x cairo_point_y moveto } bind def
/Tf { pop /cairo_font exch def /cairo_font_matrix where
      { pop cairo_selectfont } if } bind def
/Td { matrix translate cairo_font_matrix matrix concatmatrix dup
      /cairo_font_matrix exch def dup 4 get exch 5 get cairo_store_point
      /cairo_font where { pop cairo_selectfont } if } bind def
/Tm { 2 copy 8 2 roll 6 array astore /cairo_font_matrix exch def
      cairo_store_point /cairo_font where { pop cairo_selectfont } if } bind def
/g { setgray } bind def
/rg { setrgbcolor } bind def
/d1 { setcachedevice } bind def
/cairo_data_source {
  CairoDataIndex CairoData length lt
    { CairoData CairoDataIndex get /CairoDataIndex CairoDataIndex 1 add def }
    { () } ifelse
} def
/cairo_flush_ascii85_file { cairo_ascii85_file status { cairo_ascii85_file flushfile } if } def
/cairo_image { image cairo_flush_ascii85_file } def
/cairo_imagemask { imagemask cairo_flush_ascii85_file } def
%%EndProlog
%%BeginSetup
%%EndSetup
%%Page: 1 1
%%BeginPageSetup
%%PageBoundingBox: 72 18 312 366
%%EndPageSetup
q 72 18 240 348 rectclip
1 0 0 -1 0 384 cm q
0.301961 0.388235 0.470588 rg
278.227 197.23 m 198 165.137 l 198 132 l 186 132 l 186 165.137 l 105.773
 197.23 l 103.492 198.141 102 200.348 102 202.801 c 102 246 l 114 246 l 
114 206.863 l 192 175.66 l 270 206.863 l 270 246 l 282 246 l 282 202.801
 l 282 200.348 280.508 198.141 278.227 197.23 c h
278.227 197.23 m f
0.694118 0.47451 0.172549 rg
72 342 m 72 276 l 72 256.117 88.117 240 108 240 c 127.883 240 144 256.117
 144 276 c 144 342 l h
72 342 m f
0.329412 0.541176 1 rg
180 72 m 168 81 l 160.445 86.664 156 95.559 156 105 c 156 132 l 228 132
 l 228 105 l 228 95.559 223.555 86.664 216 81 c 204 72 l h
180 72 m f
0.282353 0.419608 0.878431 rg
186 72 12 60 re f
0.329412 0.541176 1 rg
264 294 m 252 303 l 244.445 308.664 240 317.559 240 327 c 240 366 l 312
 366 l 312 327 l 312 317.559 307.555 308.664 300 303 c 288 294 l h
264 294 m f
0.282353 0.419608 0.878431 rg
270 294 12 72 re f
0.329412 0.541176 1 rg
96 306 m 84 315 l 76.445 320.664 72 329.559 72 339 c 72 366 l 144 366 l
 144 339 l 144 329.559 139.555 320.664 132 315 c 120 306 l h
96 306 m f
0.282353 0.419608 0.878431 rg
102 306 12 60 re f
0.964706 0.733333 0 rg
204 174 m 204 180.629 198.629 186 192 186 c 185.371 186 180 180.629 180
 174 c 180 167.371 185.371 162 192 162 c 198.629 162 204 167.371 204 174
 c h
204 174 m f
0.870588 0.580392 0 rg
192 192 m 184.719 192 178.156 187.613 175.371 180.887 c 172.586 174.164
 174.125 166.422 179.273 161.273 c 184.422 156.125 192.164 154.586 198.887
 157.371 c 205.613 160.156 210 166.719 210 174 c 209.988 183.938 201.938
 191.988 192 192 c h
192 168 m 189.574 168 187.387 169.461 186.457 171.703 c 185.527 173.945
 186.043 176.527 187.758 178.242 c 189.473 179.957 192.055 180.473 194.297
 179.543 c 196.539 178.613 198 176.426 198 174 c 197.996 170.688 195.312
 168.004 192 168 c h
192 168 m f
0.964706 0.733333 0 rg
120 198 m 120 204.629 114.629 210 108 210 c 101.371 210 96 204.629 96 198
 c 96 191.371 101.371 186 108 186 c 114.629 186 120 191.371 120 198 c h
120 198 m f
0.870588 0.580392 0 rg
108 216 m 100.719 216 94.156 211.613 91.371 204.887 c 88.586 198.164 90.125
 190.422 95.273 185.273 c 100.422 180.125 108.164 178.586 114.887 181.371
 c 121.613 184.156 126 190.719 126 198 c 125.988 207.938 117.938 215.988
 108 216 c h
108 192 m 105.574 192 103.387 193.461 102.457 195.703 c 101.527 197.945
 102.043 200.527 103.758 202.242 c 105.473 203.957 108.055 204.473 110.297
 203.543 c 112.539 202.613 114 200.426 114 198 c 113.996 194.688 111.312
 192.004 108 192 c h
108 192 m f
0.964706 0.733333 0 rg
288 198 m 288 204.629 282.629 210 276 210 c 269.371 210 264 204.629 264
 198 c 264 191.371 269.371 186 276 186 c 282.629 186 288 191.371 288 198
 c h
288 198 m f
0.870588 0.580392 0 rg
276 216 m 268.719 216 262.156 211.613 259.371 204.887 c 256.586 198.164
 258.125 190.422 263.273 185.273 c 268.422 180.125 276.164 178.586 282.887
 181.371 c 289.613 184.156 294 190.719 294 198 c 293.988 207.938 285.938
 215.988 276 216 c h
276 192 m 273.574 192 271.387 193.461 270.457 195.703 c 269.527 197.945
 270.043 200.527 271.758 202.242 c 273.473 203.957 276.055 204.473 278.297
 203.543 c 280.539 202.613 282 200.426 282 198 c 281.996 194.688 279.312
 192.004 276 192 c h
276 192 m f
0.960784 0.788235 0.615686 rg
90 276 m 95.293 276 l 99.703 276 104.055 274.973 108 273 c 111.945 271.027
 116.297 270 120.707 270 c 126 270 l 126 294 l 126 303.941 117.941 312 108
 312 c 98.059 312 90 303.941 90 294 c h
90 276 m f
258 264 m 258 282 l 258 291.941 266.059 300 276 300 c 285.941 300 294 291.941
 294 282 c 294 264 l h
258 264 m f
0.694118 0.47451 0.172549 rg
294 264 m 258 264 l 258 258 l 258 248.059 266.059 240 276 240 c 288 240
 l 291.312 240 294 242.688 294 246 c h
294 264 m f
0.960784 0.788235 0.615686 rg
174 42 m 174 60 l 174 69.941 182.059 78 192 78 c 201.941 78 210 69.941 
210 60 c 210 42 l h
174 42 m f
0.694118 0.47451 0.172549 rg
210 42 m 174 42 l 174 31.816 l 174 28.152 175.457 24.637 178.047 22.047
 c 180.637 19.457 184.152 18 187.816 18 c 190.543 18 193.211 18.809 195.48
 20.32 c 210 30 l h
210 42 m f
Q Q
showpage
%%Trailer
end
%%EOF
