%!PS-Adobe-3.0 EPSF-3.0
%%Creator: cairo 1.16.0 (https://cairographics.org)
%%CreationDate: Fri Sep 20 08:55:51 2019
%%Pages: 1
%%DocumentData: Clean7Bit
%%LanguageLevel: 2
%%BoundingBox: 90 18 294 372
%%EndComments
%%BeginProlog
50 dict begin
/q { gsave } bind def
/Q { grestore } bind def
/cm { 6 array astore concat } bind def
/w { setlinewidth } bind def
/J { setlinecap } bind def
/j { setlinejoin } bind def
/M { setmiterlimit } bind def
/d { setdash } bind def
/m { moveto } bind def
/l { lineto } bind def
/c { curveto } bind def
/h { closepath } bind def
/re { exch dup neg 3 1 roll 5 3 roll moveto 0 rlineto
      0 exch rlineto 0 rlineto closepath } bind def
/S { stroke } bind def
/f { fill } bind def
/f* { eofill } bind def
/n { newpath } bind def
/W { clip } bind def
/W* { eoclip } bind def
/BT { } bind def
/ET { } bind def
/BDC { mark 3 1 roll /BDC pdfmark } bind def
/EMC { mark /EMC pdfmark } bind def
/cairo_store_point { /cairo_point_y exch def /cairo_point_x exch def } def
/Tj { show currentpoint cairo_store_point } bind def
/TJ {
  {
    dup
    type /stringtype eq
    { show } { -0.001 mul 0 cairo_font_matrix dtransform rmoveto } ifelse
  } forall
  currentpoint cairo_store_point
} bind def
/cairo_selectfont { cairo_font_matrix aload pop pop pop 0 0 6 array astore
    cairo_font exch selectfont cairo_point_x cairo_point_y moveto } bind def
/Tf { pop /cairo_font exch def /cairo_font_matrix where
      { pop cairo_selectfont } if } bind def
/Td { matrix translate cairo_font_matrix matrix concatmatrix dup
      /cairo_font_matrix exch def dup 4 get exch 5 get cairo_store_point
      /cairo_font where { pop cairo_selectfont } if } bind def
/Tm { 2 copy 8 2 roll 6 array astore /cairo_font_matrix exch def
      cairo_store_point /cairo_font where { pop cairo_selectfont } if } bind def
/g { setgray } bind def
/rg { setrgbcolor } bind def
/d1 { setcachedevice } bind def
/cairo_data_source {
  CairoDataIndex CairoData length lt
    { CairoData CairoDataIndex get /CairoDataIndex CairoDataIndex 1 add def }
    { () } ifelse
} def
/cairo_flush_ascii85_file { cairo_ascii85_file status { cairo_ascii85_file flushfile } if } def
/cairo_image { image cairo_flush_ascii85_file } def
/cairo_imagemask { imagemask cairo_flush_ascii85_file } def
%%EndProlog
%%BeginSetup
%%EndSetup
%%Page: 1 1
%%BeginPageSetup
%%PageBoundingBox: 90 18 294 372
%%EndPageSetup
q 90 18 204 354 rectclip
1 0 0 -1 0 384 cm q
0.388235 0.603922 1 rg
108 300 m 108 180 l 108 176.688 110.688 174 114 174 c 192 174 l 192 300
 l h
108 300 m f
0.282353 0.419608 0.878431 rg
192 276 m 192 174 l 270 174 l 273.312 174 276 176.688 276 180 c 276 276
 l h
192 276 m f
0.329412 0.541176 1 rg
132 174 m 132 132 l 132 128.688 134.688 126 138 126 c 192 126 l 192 174
 l h
132 174 m f
0.317647 0.494118 0.968627 rg
252 174 m 252 132 l 252 128.688 249.312 126 246 126 c 192 126 l 192 174
 l h
252 174 m f
0.388235 0.603922 1 rg
156 78 m 228 78 l 231.312 78 234 80.688 234 84 c 234 126 l 150 126 l 150
 84 l 150 80.688 152.688 78 156 78 c h
156 78 m f
0.490196 0.686275 1 rg
216 78 m 204 60 l 204 42 l 204 38.688 201.312 36 198 36 c 186 36 l 182.688
 36 180 38.688 180 42 c 180 60 l 168 78 l h
216 78 m f
0.282353 0.419608 0.878431 rg
186 12 12 24 re f
0.517647 0.847059 0.909804 rg
108 198 54 114 re f
216 192 12 12 re f
240 192 12 12 re f
240 216 12 12 re f
216 216 12 12 re f
240 240 12 12 re f
216 240 12 12 re f
156 144 12 12 re f
216 144 12 12 re f
174 96 12 12 re f
198 96 12 12 re f
0.427451 0.756863 0.839216 rg
108 228 54 12 re f
108 264 54 12 re f
0.317647 0.494118 0.968627 rg
90 366 m 90 300 l 120.57 300 l 135.707 300 150.371 294.691 162 285 c 173.629
 275.309 188.293 270 203.43 270 c 294 270 l 294 366 l h
90 366 m f
0.231373 0.341176 0.768627 rg
198 288 24 12 re f
198 312 24 12 re f
156 312 24 12 re f
240 288 54 12 re f
240 312 54 12 re f
198 336 24 12 re f
156 336 24 12 re f
114 336 24 12 re f
240 336 54 12 re f
Q Q
showpage
%%Trailer
end
%%EOF
