%!PS-Adobe-3.0 EPSF-3.0
%%Creator: cairo 1.16.0 (https://cairographics.org)
%%CreationDate: Fri Sep 20 08:55:52 2019
%%Pages: 1
%%DocumentData: Clean7Bit
%%LanguageLevel: 2
%%BoundingBox: 24 18 360 372
%%EndComments
%%BeginProlog
50 dict begin
/q { gsave } bind def
/Q { grestore } bind def
/cm { 6 array astore concat } bind def
/w { setlinewidth } bind def
/J { setlinecap } bind def
/j { setlinejoin } bind def
/M { setmiterlimit } bind def
/d { setdash } bind def
/m { moveto } bind def
/l { lineto } bind def
/c { curveto } bind def
/h { closepath } bind def
/re { exch dup neg 3 1 roll 5 3 roll moveto 0 rlineto
      0 exch rlineto 0 rlineto closepath } bind def
/S { stroke } bind def
/f { fill } bind def
/f* { eofill } bind def
/n { newpath } bind def
/W { clip } bind def
/W* { eoclip } bind def
/BT { } bind def
/ET { } bind def
/BDC { mark 3 1 roll /BDC pdfmark } bind def
/EMC { mark /EMC pdfmark } bind def
/cairo_store_point { /cairo_point_y exch def /cairo_point_x exch def } def
/Tj { show currentpoint cairo_store_point } bind def
/TJ {
  {
    dup
    type /stringtype eq
    { show } { -0.001 mul 0 cairo_font_matrix dtransform rmoveto } ifelse
  } forall
  currentpoint cairo_store_point
} bind def
/cairo_selectfont { cairo_font_matrix aload pop pop pop 0 0 6 array astore
    cairo_font exch selectfont cairo_point_x cairo_point_y moveto } bind def
/Tf { pop /cairo_font exch def /cairo_font_matrix where
      { pop cairo_selectfont } if } bind def
/Td { matrix translate cairo_font_matrix matrix concatmatrix dup
      /cairo_font_matrix exch def dup 4 get exch 5 get cairo_store_point
      /cairo_font where { pop cairo_selectfont } if } bind def
/Tm { 2 copy 8 2 roll 6 array astore /cairo_font_matrix exch def
      cairo_store_point /cairo_font where { pop cairo_selectfont } if } bind def
/g { setgray } bind def
/rg { setrgbcolor } bind def
/d1 { setcachedevice } bind def
/cairo_data_source {
  CairoDataIndex CairoData length lt
    { CairoData CairoDataIndex get /CairoDataIndex CairoDataIndex 1 add def }
    { () } ifelse
} def
/cairo_flush_ascii85_file { cairo_ascii85_file status { cairo_ascii85_file flushfile } if } def
/cairo_image { image cairo_flush_ascii85_file } def
/cairo_imagemask { imagemask cairo_flush_ascii85_file } def
%%EndProlog
%%BeginSetup
%%EndSetup
%%Page: 1 1
%%BeginPageSetup
%%PageBoundingBox: 24 18 360 372
%%EndPageSetup
q 24 18 336 354 rectclip
1 0 0 -1 0 384 cm q
0.929412 0.65098 0 rg
66 12 12 24 re f
33.809 30.305 m 42.293 21.82 l 59.262 38.789 l 50.777 47.273 l h
33.809 30.305 m f
24 54 24 12 re f
33.805 89.691 m 50.773 72.727 l 59.258 81.211 l 42.289 98.176 l h
33.805 89.691 m f
66 84 12 24 re f
84.711 81.215 m 93.195 72.73 l 110.164 89.699 l 101.68 98.184 l h
84.711 81.215 m f
96 54 24 12 re f
84.715 38.793 m 101.684 21.824 l 110.168 30.309 l 93.199 47.277 l h
84.715 38.793 m f
0.329412 0.541176 1 rg
330 126 m 330 144 l 306 149.332 l 288.48 153.227 l 280.41 155.02 271.965
 153.98 264.57 150.285 c 240 138 l 234 186 l 150 186 l 144 138 l 119.43 
150.285 l 112.035 153.98 103.59 155.02 95.52 153.227 c 78 149.332 l 54 144
 l 54 126 l 90.758 126 l 97.883 126 104.637 122.836 109.199 117.367 c 124.379
 99.141 l 129.375 93.148 135.84 88.559 143.145 85.824 c 149.551 83.422 l
 180 72 l 204 72 l 234.449 83.422 l 240.855 85.824 l 248.16 88.559 254.625
 93.148 259.621 99.141 c 274.801 117.367 l 279.363 122.836 286.121 126 293.242
 126 c h
330 126 m f
0.898039 0.905882 0.913725 rg
234.449 83.422 m 198 130.281 l 192 138 l 186 130.281 l 149.551 83.422 l
 180 72 l 204 72 l h
234.449 83.422 m f
0.796078 0.811765 0.823529 rg
198 72 m 198 130.281 l 192 138 l 186 130.281 l 186 72 l h
198 72 m f
0.301961 0.388235 0.470588 rg
234 186 m 240 366 l 222 366 l 192 234 l 162 366 l 144 366 l 150 186 l h
234 186 m f
0.960784 0.788235 0.615686 rg
78 126 m 78 149.332 l 54 144 l 54 126 l h
78 126 m f
330 126 m 330 144 l 306 149.332 l 306 126 l h
330 126 m f
0.964706 0.733333 0 rg
102 60 m 102 76.57 88.57 90 72 90 c 55.43 90 42 76.57 42 60 c 42 43.43 
55.43 30 72 30 c 79.957 30 87.586 33.16 93.215 38.785 c 98.84 44.414 102
 52.043 102 60 c h
102 60 m f
0.870588 0.580392 0 rg
84 60 m 84 66.629 78.629 72 72 72 c 65.371 72 60 66.629 60 60 c 60 53.371
 65.371 48 72 48 c 78.629 48 84 53.371 84 60 c h
84 60 m f
0.960784 0.788235 0.615686 rg
210 42 m 210 60 l 210 69.941 201.941 78 192 78 c 182.059 78 174 69.941 
174 60 c 174 42 l h
210 42 m f
0.694118 0.47451 0.172549 rg
174 42 m 174 31.816 l 174 28.152 175.457 24.637 178.047 22.047 c 180.637
 19.457 184.152 18 187.816 18 c 190.543 18 193.211 18.809 195.48 20.32 c
 210 30 l 210 42 l h
174 42 m f
0.929412 0.65098 0 rg
306 12 12 24 re f
273.785 30.328 m 282.27 21.844 l 299.238 38.812 l 290.754 47.297 l h
273.785 30.328 m f
264 54 24 12 re f
273.777 89.719 m 290.746 72.75 l 299.23 81.234 l 282.262 98.203 l h
273.777 89.719 m f
306 84 12 24 re f
324.684 81.242 m 333.168 72.758 l 350.137 89.727 l 341.652 98.211 l h
324.684 81.242 m f
336 54 24 12 re f
324.691 38.82 m 341.66 21.852 l 350.145 30.336 l 333.176 47.305 l h
324.691 38.82 m f
0.964706 0.733333 0 rg
342 60 m 342 76.57 328.57 90 312 90 c 295.43 90 282 76.57 282 60 c 282 
43.43 295.43 30 312 30 c 328.57 30 342 43.43 342 60 c h
342 60 m f
0.870588 0.580392 0 rg
324 60 m 324 66.629 318.629 72 312 72 c 305.371 72 300 66.629 300 60 c 
300 53.371 305.371 48 312 48 c 318.629 48 324 53.371 324 60 c h
324 60 m f
Q Q
showpage
%%Trailer
end
%%EOF
