%!PS-Adobe-3.0 EPSF-3.0
%%Creator: cairo 1.16.0 (https://cairographics.org)
%%CreationDate: Fri Sep 20 08:55:52 2019
%%Pages: 1
%%DocumentData: Clean7Bit
%%LanguageLevel: 2
%%BoundingBox: 18 18 366 366
%%EndComments
%%BeginProlog
50 dict begin
/q { gsave } bind def
/Q { grestore } bind def
/cm { 6 array astore concat } bind def
/w { setlinewidth } bind def
/J { setlinecap } bind def
/j { setlinejoin } bind def
/M { setmiterlimit } bind def
/d { setdash } bind def
/m { moveto } bind def
/l { lineto } bind def
/c { curveto } bind def
/h { closepath } bind def
/re { exch dup neg 3 1 roll 5 3 roll moveto 0 rlineto
      0 exch rlineto 0 rlineto closepath } bind def
/S { stroke } bind def
/f { fill } bind def
/f* { eofill } bind def
/n { newpath } bind def
/W { clip } bind def
/W* { eoclip } bind def
/BT { } bind def
/ET { } bind def
/BDC { mark 3 1 roll /BDC pdfmark } bind def
/EMC { mark /EMC pdfmark } bind def
/cairo_store_point { /cairo_point_y exch def /cairo_point_x exch def } def
/Tj { show currentpoint cairo_store_point } bind def
/TJ {
  {
    dup
    type /stringtype eq
    { show } { -0.001 mul 0 cairo_font_matrix dtransform rmoveto } ifelse
  } forall
  currentpoint cairo_store_point
} bind def
/cairo_selectfont { cairo_font_matrix aload pop pop pop 0 0 6 array astore
    cairo_font exch selectfont cairo_point_x cairo_point_y moveto } bind def
/Tf { pop /cairo_font exch def /cairo_font_matrix where
      { pop cairo_selectfont } if } bind def
/Td { matrix translate cairo_font_matrix matrix concatmatrix dup
      /cairo_font_matrix exch def dup 4 get exch 5 get cairo_store_point
      /cairo_font where { pop cairo_selectfont } if } bind def
/Tm { 2 copy 8 2 roll 6 array astore /cairo_font_matrix exch def
      cairo_store_point /cairo_font where { pop cairo_selectfont } if } bind def
/g { setgray } bind def
/rg { setrgbcolor } bind def
/d1 { setcachedevice } bind def
/cairo_data_source {
  CairoDataIndex CairoData length lt
    { CairoData CairoDataIndex get /CairoDataIndex CairoDataIndex 1 add def }
    { () } ifelse
} def
/cairo_flush_ascii85_file { cairo_ascii85_file status { cairo_ascii85_file flushfile } if } def
/cairo_image { image cairo_flush_ascii85_file } def
/cairo_imagemask { imagemask cairo_flush_ascii85_file } def
%%EndProlog
%%BeginSetup
%%EndSetup
%%Page: 1 1
%%BeginPageSetup
%%PageBoundingBox: 18 18 366 366
%%EndPageSetup
q 18 18 348 348 rectclip
1 0 0 -1 0 384 cm q
0.282353 0.419608 0.878431 rg
270 195 m 270 366 l 114 366 l 114 195 l 114 185.559 118.445 176.664 126
 171 c 144.547 157.086 l 162 144 l 222 144 l 239.453 157.086 l 258 171 l
 265.555 176.664 270 185.559 270 195 c h
270 195 m f
0.898039 0.905882 0.913725 rg
239.453 157.086 m 192 252 l 144.547 157.086 l 162 144 l 222 144 l h
239.453 157.086 m f
0.329412 0.541176 1 rg
258 264 m 222 291 l 214.445 296.664 210 305.559 210 315 c 210 366 l 366
 366 l 366 315 l 366 305.559 361.555 296.664 354 291 c 318 264 l h
258 264 m f
0.282353 0.419608 0.878431 rg
300 324 48 12 re f
0.329412 0.541176 1 rg
66 264 m 30 291 l 22.445 296.664 18 305.559 18 315 c 18 366 l 174 366 l
 174 315 l 174 305.559 169.555 296.664 162 291 c 126 264 l h
66 264 m f
0.282353 0.419608 0.878431 rg
108 330 42 12 re f
0.964706 0.733333 0 rg
305.816 276 m 300 306 l 306 366 l 270 366 l 276 306 l 270 276 l 270 264
 l 306 264 l h
305.816 276 m f
0.870588 0.580392 0 rg
300 312 m 276 312 l 272.688 312 270 309.312 270 306 c 270 302.688 272.688
 300 276 300 c 300 300 l 303.312 300 306 302.688 306 306 c 306 309.312 303.312
 312 300 312 c h
300 312 m f
0.960784 0.788235 0.615686 rg
330 180 m 330 240 l 330 263.195 311.195 282 288 282 c 264.805 282 246 263.195
 246 240 c 246 180 l 270 150 l 300 150 l h
330 180 m f
0.964706 0.733333 0 rg
209.816 156 m 204 186 l 210 216 l 192 252 l 174 216 l 180 186 l 174 156
 l 174 144 l 210 144 l h
209.816 156 m f
0.870588 0.580392 0 rg
204 192 m 180 192 l 176.688 192 174 189.312 174 186 c 174 182.688 176.688
 180 180 180 c 204 180 l 207.312 180 210 182.688 210 186 c 210 189.312 207.312
 192 204 192 c h
204 192 m f
0.964706 0.733333 0 rg
113.816 276 m 108 306 l 114 366 l 78 366 l 84 306 l 78 276 l 78 264 l 114
 264 l h
113.816 276 m f
0.870588 0.580392 0 rg
108 312 m 84 312 l 80.688 312 78 309.312 78 306 c 78 302.688 80.688 300
 84 300 c 108 300 l 111.312 300 114 302.688 114 306 c 114 309.312 111.312
 312 108 312 c h
108 312 m f
0.584314 0.4 0.145098 rg
276 222 m 276 225.312 273.312 228 270 228 c 266.688 228 264 225.312 264
 222 c 264 218.688 266.688 216 270 216 c 273.312 216 276 218.688 276 222
 c h
276 222 m f
0.694118 0.47451 0.172549 rg
258 198 18 12 re f
0.584314 0.4 0.145098 rg
312 222 m 312 225.312 309.312 228 306 228 c 302.688 228 300 225.312 300
 222 c 300 218.688 302.688 216 306 216 c 309.312 216 312 218.688 312 222
 c h
312 222 m f
0.694118 0.47451 0.172549 rg
300 198 18 12 re f
0.780392 0.576471 0.411765 rg
282 258 m 276 258 l 276 246 l 282 246 l 285.312 245.996 287.996 243.312
 288 240 c 288 234 l 300 234 l 300 240 l 299.988 249.938 291.938 257.988
 282 258 c h
282 258 m f
0.694118 0.47451 0.172549 rg
270 156 m 270 169.254 280.746 180 294 180 c 330 180 l 330 156.805 311.195
 138 288 138 c 264.805 138 246 156.805 246 180 c 246 192 l 259.254 192 270
 181.254 270 168 c h
270 156 m f
0.960784 0.788235 0.615686 rg
138 168 m 138 240 l 138 251.141 133.574 261.82 125.699 269.699 c 117.82
 277.574 107.141 282 96 282 c 72.805 282 54 263.195 54 240 c 54 168 l 66
 156 l 126 156 l h
138 168 m f
0.584314 0.4 0.145098 rg
84 222 m 84 225.312 81.312 228 78 228 c 74.688 228 72 225.312 72 222 c 
72 218.688 74.688 216 78 216 c 81.312 216 84 218.688 84 222 c h
84 222 m f
0.694118 0.47451 0.172549 rg
66 198 18 12 re f
0.584314 0.4 0.145098 rg
120 222 m 120 225.312 117.312 228 114 228 c 110.688 228 108 225.312 108
 222 c 108 218.688 110.688 216 114 216 c 117.312 216 120 218.688 120 222
 c h
120 222 m f
0.694118 0.47451 0.172549 rg
108 198 18 12 re f
0.780392 0.576471 0.411765 rg
90 258 m 84 258 l 84 246 l 90 246 l 93.312 245.996 95.996 243.312 96 240
 c 96 234 l 108 234 l 108 240 l 107.988 249.938 99.938 257.988 90 258 c 
h
90 258 m f
0.584314 0.4 0.145098 rg
66 150 m 59.371 150 54 155.371 54 162 c 54 180 l 64.75 180 74.293 173.121
 77.691 162.922 c 77.875 162.371 78.391 162 78.973 162 c 84 162 l 84 150
 l h
66 150 m f
0.694118 0.47451 0.172549 rg
138 180 m 102 180 l 88.746 180 78 169.254 78 156 c 78 149.371 83.371 144
 90 144 c 120 144 l 129.941 144 138 152.059 138 162 c h
138 180 m f
0.960784 0.788235 0.615686 rg
234 54 m 234 120 l 234 143.195 215.195 162 192 162 c 168.805 162 150 143.195
 150 120 c 150 48 l 180 36 l 210 36 l h
234 54 m f
0.584314 0.4 0.145098 rg
162 30 m 155.371 30 150 35.371 150 42 c 150 60 l 157.758 52.242 l 160.473
 49.527 164.16 48 168 48 c 180 48 l 180 30 l h
162 30 m f
180 102 m 180 105.312 177.312 108 174 108 c 170.688 108 168 105.312 168
 102 c 168 98.688 170.688 96 174 96 c 177.312 96 180 98.688 180 102 c h
180 102 m f
0.694118 0.47451 0.172549 rg
162 78 18 12 re f
0.584314 0.4 0.145098 rg
216 102 m 216 105.312 213.312 108 210 108 c 206.688 108 204 105.312 204
 102 c 204 98.688 206.688 96 210 96 c 213.312 96 216 98.688 216 102 c h
216 102 m f
0.694118 0.47451 0.172549 rg
204 78 18 12 re f
0.780392 0.576471 0.411765 rg
186 138 m 180 138 l 180 126 l 186 126 l 189.312 125.996 191.996 123.312
 192 120 c 192 114 l 204 114 l 204 120 l 203.988 129.938 195.938 137.988
 186 138 c h
186 138 m f
0.694118 0.47451 0.172549 rg
168 36 m 168 26.059 176.059 18 186 18 c 198 18 l 217.883 18 234 34.117 
234 54 c 234 60 l 226.242 52.242 l 223.527 49.527 219.84 48 216 48 c 212.16
 48 208.473 49.527 205.758 52.242 c 202.117 55.883 l 199.48 58.52 195.906
 60 192.18 60 c 192.031 60 l 188.18 60.008 184.484 58.48 181.758 55.758 
c 180.617 54.617 179.383 53.383 178.242 52.242 c 175.527 49.527 171.84 48
 168 48 c h
168 36 m f
Q Q
showpage
%%Trailer
end
%%EOF
