%!PS-Adobe-3.0 EPSF-3.0
%%Creator: cairo 1.16.0 (https://cairographics.org)
%%CreationDate: Fri Sep 20 08:55:55 2019
%%Pages: 1
%%DocumentData: Clean7Bit
%%LanguageLevel: 2
%%BoundingBox: 78 18 306 366
%%EndComments
%%BeginProlog
50 dict begin
/q { gsave } bind def
/Q { grestore } bind def
/cm { 6 array astore concat } bind def
/w { setlinewidth } bind def
/J { setlinecap } bind def
/j { setlinejoin } bind def
/M { setmiterlimit } bind def
/d { setdash } bind def
/m { moveto } bind def
/l { lineto } bind def
/c { curveto } bind def
/h { closepath } bind def
/re { exch dup neg 3 1 roll 5 3 roll moveto 0 rlineto
      0 exch rlineto 0 rlineto closepath } bind def
/S { stroke } bind def
/f { fill } bind def
/f* { eofill } bind def
/n { newpath } bind def
/W { clip } bind def
/W* { eoclip } bind def
/BT { } bind def
/ET { } bind def
/BDC { mark 3 1 roll /BDC pdfmark } bind def
/EMC { mark /EMC pdfmark } bind def
/cairo_store_point { /cairo_point_y exch def /cairo_point_x exch def } def
/Tj { show currentpoint cairo_store_point } bind def
/TJ {
  {
    dup
    type /stringtype eq
    { show } { -0.001 mul 0 cairo_font_matrix dtransform rmoveto } ifelse
  } forall
  currentpoint cairo_store_point
} bind def
/cairo_selectfont { cairo_font_matrix aload pop pop pop 0 0 6 array astore
    cairo_font exch selectfont cairo_point_x cairo_point_y moveto } bind def
/Tf { pop /cairo_font exch def /cairo_font_matrix where
      { pop cairo_selectfont } if } bind def
/Td { matrix translate cairo_font_matrix matrix concatmatrix dup
      /cairo_font_matrix exch def dup 4 get exch 5 get cairo_store_point
      /cairo_font where { pop cairo_selectfont } if } bind def
/Tm { 2 copy 8 2 roll 6 array astore /cairo_font_matrix exch def
      cairo_store_point /cairo_font where { pop cairo_selectfont } if } bind def
/g { setgray } bind def
/rg { setrgbcolor } bind def
/d1 { setcachedevice } bind def
/cairo_data_source {
  CairoDataIndex CairoData length lt
    { CairoData CairoDataIndex get /CairoDataIndex CairoDataIndex 1 add def }
    { () } ifelse
} def
/cairo_flush_ascii85_file { cairo_ascii85_file status { cairo_ascii85_file flushfile } if } def
/cairo_image { image cairo_flush_ascii85_file } def
/cairo_imagemask { imagemask cairo_flush_ascii85_file } def
%%EndProlog
%%BeginSetup
%%EndSetup
%%Page: 1 1
%%BeginPageSetup
%%PageBoundingBox: 78 18 306 366
%%EndPageSetup
q 78 18 228 348 rectclip
1 0 0 -1 0 384 cm q
0.301961 0.388235 0.470588 rg
186 156 m 120 156 l 110.062 155.988 102.012 147.938 102 138 c 102 114 l
 114 114 l 114 138 l 114.004 141.312 116.688 143.996 120 144 c 186 144 l
 189.312 143.996 191.996 141.312 192 138 c 192 120 l 204 120 l 204 138 l
 203.988 147.938 195.938 155.988 186 156 c h
186 156 m f
282 120 12 66 re f
216 96 42 12 re f
114 78 m 102 78 l 102 48 l 102.012 38.062 110.062 30.012 120 30 c 180 30
 l 180 42 l 120 42 l 116.688 42.004 114.004 44.688 114 48 c h
114 78 m f
126 96 54 12 re f
210 186 42 12 re f
0.329412 0.541176 1 rg
186 18 m 210 18 l 219.973 18 228 26.027 228 36 c 228 45.973 219.973 54 
210 54 c 186 54 l 176.027 54 168 45.973 168 36 c 168 26.027 176.027 18 186
 18 c h
186 18 m f
174 174 m 198 174 l 207.973 174 216 182.027 216 192 c 216 201.973 207.973
 210 198 210 c 174 210 l 164.027 210 156 201.973 156 192 c 156 182.027 164.027
 174 174 174 c h
174 174 m f
198 126 m 234 102 l 198 78 l 162 102 l h
198 126 m f
0.964706 0.733333 0 rg
252 174 m 259.555 170.223 268.445 170.223 276 174 c 278.059 175.031 l 284.426
 178.211 291.793 178.734 298.543 176.484 c 306 174 l 306 210 l 252 210 l
 h
252 174 m f
132 78 m 84 78 l 78 114 l 126 114 l h
132 78 m f
0.890196 0.239216 0.239216 rg
258 84 48 36 re f
0.960784 0.788235 0.615686 rg
174 252 m 157.031 268.969 l 152.527 273.473 150 279.574 150 285.941 c 150
 303 l 150 312.738 153.156 322.211 159 330 c 164.844 337.789 168 347.262
 168 357 c 168 366 l 240 366 l 240 355.418 l 240 346.594 242.055 337.891
 246 330 c 249.945 322.109 252 313.406 252 304.582 c 252 282.102 l 252 271.387
 244.898 261.969 234.594 259.027 c 210 252 l 200.316 208.43 l 198.965 202.336
 193.559 198 187.316 198 c 183.785 198 180.398 199.402 177.902 201.902 c
 175.402 204.398 174 207.785 174 211.316 c h
174 252 m f
0.870588 0.682353 0.494118 rg
174 294 m 170.688 294 168 291.312 168 288 c 168 211.316 l 168 201.465 175.414
 193.191 185.211 192.117 c 195.004 191.039 204.039 197.508 206.176 207.125
 c 215.855 250.699 l 216.203 252.25 215.918 253.879 215.062 255.223 c 214.207
 256.562 212.855 257.512 211.301 257.855 c 209.75 258.203 208.121 257.918
 206.777 257.062 c 205.438 256.207 204.488 254.855 204.145 253.301 c 194.461
 209.73 l 193.652 206.086 190.23 203.637 186.52 204.043 c 182.809 204.449
 180 207.586 180 211.316 c 180 288 l 180 291.312 177.312 294 174 294 c h
174 294 m f
Q Q
showpage
%%Trailer
end
%%EOF
