%!PS-Adobe-3.0 EPSF-3.0
%%Creator: cairo 1.16.0 (https://cairographics.org)
%%CreationDate: Fri Sep 20 08:55:55 2019
%%Pages: 1
%%DocumentData: Clean7Bit
%%LanguageLevel: 2
%%BoundingBox: 42 18 342 366
%%EndComments
%%BeginProlog
50 dict begin
/q { gsave } bind def
/Q { grestore } bind def
/cm { 6 array astore concat } bind def
/w { setlinewidth } bind def
/J { setlinecap } bind def
/j { setlinejoin } bind def
/M { setmiterlimit } bind def
/d { setdash } bind def
/m { moveto } bind def
/l { lineto } bind def
/c { curveto } bind def
/h { closepath } bind def
/re { exch dup neg 3 1 roll 5 3 roll moveto 0 rlineto
      0 exch rlineto 0 rlineto closepath } bind def
/S { stroke } bind def
/f { fill } bind def
/f* { eofill } bind def
/n { newpath } bind def
/W { clip } bind def
/W* { eoclip } bind def
/BT { } bind def
/ET { } bind def
/BDC { mark 3 1 roll /BDC pdfmark } bind def
/EMC { mark /EMC pdfmark } bind def
/cairo_store_point { /cairo_point_y exch def /cairo_point_x exch def } def
/Tj { show currentpoint cairo_store_point } bind def
/TJ {
  {
    dup
    type /stringtype eq
    { show } { -0.001 mul 0 cairo_font_matrix dtransform rmoveto } ifelse
  } forall
  currentpoint cairo_store_point
} bind def
/cairo_selectfont { cairo_font_matrix aload pop pop pop 0 0 6 array astore
    cairo_font exch selectfont cairo_point_x cairo_point_y moveto } bind def
/Tf { pop /cairo_font exch def /cairo_font_matrix where
      { pop cairo_selectfont } if } bind def
/Td { matrix translate cairo_font_matrix matrix concatmatrix dup
      /cairo_font_matrix exch def dup 4 get exch 5 get cairo_store_point
      /cairo_font where { pop cairo_selectfont } if } bind def
/Tm { 2 copy 8 2 roll 6 array astore /cairo_font_matrix exch def
      cairo_store_point /cairo_font where { pop cairo_selectfont } if } bind def
/g { setgray } bind def
/rg { setrgbcolor } bind def
/d1 { setcachedevice } bind def
/cairo_data_source {
  CairoDataIndex CairoData length lt
    { CairoData CairoDataIndex get /CairoDataIndex CairoDataIndex 1 add def }
    { () } ifelse
} def
/cairo_flush_ascii85_file { cairo_ascii85_file status { cairo_ascii85_file flushfile } if } def
/cairo_image { image cairo_flush_ascii85_file } def
/cairo_imagemask { imagemask cairo_flush_ascii85_file } def
%%EndProlog
%%BeginSetup
%%EndSetup
%%Page: 1 1
%%BeginPageSetup
%%PageBoundingBox: 42 18 342 366
%%EndPageSetup
q 42 18 300 348 rectclip
1 0 0 -1 0 384 cm q
0.694118 0.47451 0.172549 rg
210 90 m 210 72 l 210 42.176 185.824 18 156 18 c 126.176 18 102 42.176 
102 72 c 102 90 l h
210 90 m f
0.329412 0.541176 1 rg
252 217.59 m 252 366 l 42 366 l 42 223.785 l 42 215.25 46.535 207.355 53.91
 203.055 c 97.973 177.352 l 114 168 l 192 168 l 212.348 180.211 l 240.344
 197.012 l 247.574 201.348 252 209.16 252 217.59 c h
252 217.59 m f
0.898039 0.905882 0.913725 rg
212.348 180.211 m 173.859 245.641 l 156 276 l 138.141 245.641 l 97.973 
177.352 l 114 168 l 192 168 l h
212.348 180.211 m f
0.964706 0.733333 0 rg
174 192 m 162 216 l 173.859 245.641 l 156 276 l 138.141 245.641 l 150 216
 l 138 192 l 138 168 l 174 168 l h
174 192 m f
0.282353 0.419608 0.878431 rg
42 366 m 108 366 l 71.551 366 42 336.449 42 300 c h
42 366 m f
0.870588 0.580392 0 rg
162 222 m 150 222 l 146.688 222 144 219.312 144 216 c 144 212.688 146.688
 210 150 210 c 162 210 l 165.312 210 168 212.688 168 216 c 168 219.312 165.312
 222 162 222 c h
162 222 m f
0.960784 0.788235 0.615686 rg
132 42 m 132 58.57 145.43 72 162 72 c 210 72 l 210 132 l 210 161.824 185.824
 186 156 186 c 126.176 186 102 161.824 102 132 c 102 84 l 111.422 78.348
 l 124.188 70.688 132 56.891 132 42 c h
132 42 m f
0.890196 0.239216 0.239216 rg
324 222 m 342 174 l 342 150 l 342 123.492 320.508 102 294 102 c 267.492
 102 246 123.492 246 150 c 246 174 l 276 174 l 276 150 l 276 140.059 284.059
 132 294 132 c 303.941 132 312 140.059 312 150 c 312 174 l 294 216 l 294
 264 l 324 264 l h
324 222 m f
294 288 30 30 re f
0.694118 0.47451 0.172549 rg
120 90 24 12 re f
0.780392 0.576471 0.411765 rg
150 156 m 144 156 l 144 144 l 150 144 l 153.312 143.996 155.996 141.312
 156 138 c 156 126 l 168 126 l 168 138 l 167.988 147.938 159.938 155.988
 150 156 c h
150 156 m f
0.584314 0.4 0.145098 rg
138 114 m 138 117.312 135.312 120 132 120 c 128.688 120 126 117.312 126
 114 c 126 110.688 128.688 108 132 108 c 135.312 108 138 110.688 138 114
 c h
138 114 m f
0.694118 0.47451 0.172549 rg
168 90 24 12 re f
0.584314 0.4 0.145098 rg
186 114 m 186 117.312 183.312 120 180 120 c 176.688 120 174 117.312 174
 114 c 174 110.688 176.688 108 180 108 c 183.312 108 186 110.688 186 114
 c h
186 114 m f
0.282353 0.419608 0.878431 rg
216 330 m 204 330 l 203.652 330 203.301 329.969 202.957 329.91 c 110.871
 313.656 l 102.266 312.148 95.988 304.672 96 295.934 c 96 270 l 108 270 
l 108 295.934 l 107.996 298.844 110.09 301.34 112.957 301.84 c 204.527 318
 l 216 318 l h
216 330 m f
0.960784 0.788235 0.615686 rg
204 324 m 241.188 297.438 l 244.148 295.324 248.035 295.02 251.289 296.645
 c 255.25 298.625 257.398 303.012 256.527 307.355 c 252 330 l 265.016 330
 l 268.277 330 271.477 329.113 274.273 327.434 c 293.621 315.828 l 297.371
 313.578 302.168 314.168 305.262 317.262 c 307.047 319.047 308.051 321.473
 308.051 324 c 308.051 326.527 307.047 328.953 305.262 330.738 c 282.301
 353.699 l 274.426 361.574 263.742 366 252.602 366 c 204 366 l h
204 324 m f
Q Q
showpage
%%Trailer
end
%%EOF
