%!PS-Adobe-3.0 EPSF-3.0
%%Creator: cairo 1.16.0 (https://cairographics.org)
%%CreationDate: Fri Sep 20 08:55:56 2019
%%Pages: 1
%%DocumentData: Clean7Bit
%%LanguageLevel: 2
%%BoundingBox: 18 66 366 318
%%EndComments
%%BeginProlog
50 dict begin
/q { gsave } bind def
/Q { grestore } bind def
/cm { 6 array astore concat } bind def
/w { setlinewidth } bind def
/J { setlinecap } bind def
/j { setlinejoin } bind def
/M { setmiterlimit } bind def
/d { setdash } bind def
/m { moveto } bind def
/l { lineto } bind def
/c { curveto } bind def
/h { closepath } bind def
/re { exch dup neg 3 1 roll 5 3 roll moveto 0 rlineto
      0 exch rlineto 0 rlineto closepath } bind def
/S { stroke } bind def
/f { fill } bind def
/f* { eofill } bind def
/n { newpath } bind def
/W { clip } bind def
/W* { eoclip } bind def
/BT { } bind def
/ET { } bind def
/BDC { mark 3 1 roll /BDC pdfmark } bind def
/EMC { mark /EMC pdfmark } bind def
/cairo_store_point { /cairo_point_y exch def /cairo_point_x exch def } def
/Tj { show currentpoint cairo_store_point } bind def
/TJ {
  {
    dup
    type /stringtype eq
    { show } { -0.001 mul 0 cairo_font_matrix dtransform rmoveto } ifelse
  } forall
  currentpoint cairo_store_point
} bind def
/cairo_selectfont { cairo_font_matrix aload pop pop pop 0 0 6 array astore
    cairo_font exch selectfont cairo_point_x cairo_point_y moveto } bind def
/Tf { pop /cairo_font exch def /cairo_font_matrix where
      { pop cairo_selectfont } if } bind def
/Td { matrix translate cairo_font_matrix matrix concatmatrix dup
      /cairo_font_matrix exch def dup 4 get exch 5 get cairo_store_point
      /cairo_font where { pop cairo_selectfont } if } bind def
/Tm { 2 copy 8 2 roll 6 array astore /cairo_font_matrix exch def
      cairo_store_point /cairo_font where { pop cairo_selectfont } if } bind def
/g { setgray } bind def
/rg { setrgbcolor } bind def
/d1 { setcachedevice } bind def
/cairo_data_source {
  CairoDataIndex CairoData length lt
    { CairoData CairoDataIndex get /CairoDataIndex CairoDataIndex 1 add def }
    { () } ifelse
} def
/cairo_flush_ascii85_file { cairo_ascii85_file status { cairo_ascii85_file flushfile } if } def
/cairo_image { image cairo_flush_ascii85_file } def
/cairo_imagemask { imagemask cairo_flush_ascii85_file } def
%%EndProlog
%%BeginSetup
%%EndSetup
%%Page: 1 1
%%BeginPageSetup
%%PageBoundingBox: 18 66 366 318
%%EndPageSetup
q 18 66 348 252 rectclip
1 0 0 -1 0 384 cm q
0.301961 0.388235 0.470588 rg
186 252 m 72 252 l 62.062 251.988 54.012 243.938 54 234 c 54 204 l 66 204
 l 66 234 l 66.004 237.312 68.688 239.996 72 240 c 186 240 l 189.312 239.996
 191.996 237.312 192 234 c 192 204 l 204 204 l 204 234 l 203.988 243.938
 195.938 251.988 186 252 c h
186 252 m f
330 198 12 90 re f
0.980392 0.776471 0.137255 rg
294 276 m 304.207 270.898 l 312.891 266.555 323.109 266.555 331.793 270.898
 c 338.379 274.191 345.926 275.02 353.07 273.234 c 366 270 l 366 318 l 294
 318 l h
294 276 m f
0.00784314 0.760784 0.415686 rg
300 156 66 48 re f
0.329412 0.541176 1 rg
174 270 m 210 270 l 223.297 270 234 280.703 234 294 c 234 307.297 223.297
 318 210 318 c 174 318 l 160.703 318 150 307.297 150 294 c 150 280.703 160.703
 270 174 270 c h
174 270 m f
0.301961 0.388235 0.470588 rg
234 174 66 12 re f
66 156 m 54 156 l 54 102 l 54.012 92.062 62.062 84.012 72 84 c 162 84 l
 162 96 l 72 96 l 68.688 96.004 66.004 98.688 66 102 c h
66 156 m f
90 174 72 12 re f
228 288 66 12 re f
0.329412 0.541176 1 rg
180 66 m 216 66 l 229.297 66 240 76.703 240 90 c 240 103.297 229.297 114
 216 114 c 180 114 l 166.703 114 156 103.297 156 90 c 156 76.703 166.703
 66 180 66 c h
180 66 m f
0.980392 0.776471 0.137255 rg
102 156 m 30 156 l 18 204 l 90 204 l h
102 156 m f
0.329412 0.541176 1 rg
198 216 m 252 180 l 198 144 l 144 180 l h
198 216 m f
Q Q
showpage
%%Trailer
end
%%EOF
