%!PS-Adobe-3.0 EPSF-3.0
%%Creator: cairo 1.16.0 (https://cairographics.org)
%%CreationDate: Fri Sep 20 08:55:57 2019
%%Pages: 1
%%DocumentData: Clean7Bit
%%LanguageLevel: 2
%%BoundingBox: 18 18 366 366
%%EndComments
%%BeginProlog
50 dict begin
/q { gsave } bind def
/Q { grestore } bind def
/cm { 6 array astore concat } bind def
/w { setlinewidth } bind def
/J { setlinecap } bind def
/j { setlinejoin } bind def
/M { setmiterlimit } bind def
/d { setdash } bind def
/m { moveto } bind def
/l { lineto } bind def
/c { curveto } bind def
/h { closepath } bind def
/re { exch dup neg 3 1 roll 5 3 roll moveto 0 rlineto
      0 exch rlineto 0 rlineto closepath } bind def
/S { stroke } bind def
/f { fill } bind def
/f* { eofill } bind def
/n { newpath } bind def
/W { clip } bind def
/W* { eoclip } bind def
/BT { } bind def
/ET { } bind def
/BDC { mark 3 1 roll /BDC pdfmark } bind def
/EMC { mark /EMC pdfmark } bind def
/cairo_store_point { /cairo_point_y exch def /cairo_point_x exch def } def
/Tj { show currentpoint cairo_store_point } bind def
/TJ {
  {
    dup
    type /stringtype eq
    { show } { -0.001 mul 0 cairo_font_matrix dtransform rmoveto } ifelse
  } forall
  currentpoint cairo_store_point
} bind def
/cairo_selectfont { cairo_font_matrix aload pop pop pop 0 0 6 array astore
    cairo_font exch selectfont cairo_point_x cairo_point_y moveto } bind def
/Tf { pop /cairo_font exch def /cairo_font_matrix where
      { pop cairo_selectfont } if } bind def
/Td { matrix translate cairo_font_matrix matrix concatmatrix dup
      /cairo_font_matrix exch def dup 4 get exch 5 get cairo_store_point
      /cairo_font where { pop cairo_selectfont } if } bind def
/Tm { 2 copy 8 2 roll 6 array astore /cairo_font_matrix exch def
      cairo_store_point /cairo_font where { pop cairo_selectfont } if } bind def
/g { setgray } bind def
/rg { setrgbcolor } bind def
/d1 { setcachedevice } bind def
/cairo_data_source {
  CairoDataIndex CairoData length lt
    { CairoData CairoDataIndex get /CairoDataIndex CairoDataIndex 1 add def }
    { () } ifelse
} def
/cairo_flush_ascii85_file { cairo_ascii85_file status { cairo_ascii85_file flushfile } if } def
/cairo_image { image cairo_flush_ascii85_file } def
/cairo_imagemask { imagemask cairo_flush_ascii85_file } def
%%EndProlog
%%BeginSetup
%%EndSetup
%%Page: 1 1
%%BeginPageSetup
%%PageBoundingBox: 18 18 366 366
%%EndPageSetup
q 18 18 348 348 rectclip
1 0 0 -1 0 384 cm q
0.180392 0.270588 0.670588 rg
366 294 m 366 66 l 18 66 l 18 294 l 163.031 294 l 166.211 294 169.266 292.734
 171.516 290.484 c 176.949 285.051 184.316 282 192 282 c 199.684 282 207.051
 285.051 212.484 290.484 c 214.734 292.734 217.789 294 220.969 294 c h
366 294 m f
0.329412 0.541176 1 rg
192 234 m 180.047 226.031 l 176.105 223.402 171.473 222 166.734 222 c 48
 222 l 48 30 l 166.734 30 l 171.473 30 176.105 31.402 180.047 34.031 c 192
 42 l h
192 234 m f
0.317647 0.494118 0.968627 rg
48 264 m 48 222 l 166.734 222 l 171.473 222 176.105 223.402 180.047 226.031
 c 192 234 l 192 252 l 183.941 252 l 177.574 252 171.473 254.527 166.969
 259.031 c 163.758 262.242 l 162.633 263.367 161.105 264 159.516 264 c h
48 264 m f
0.282353 0.419608 0.878431 rg
336 264 m 336 222 l 217.266 222 l 212.527 222 207.895 223.402 203.953 226.031
 c 192 234 l 192 252 l 200.059 252 l 206.426 252 212.527 254.527 217.031
 259.031 c 220.242 262.242 l 221.367 263.367 222.895 264 224.484 264 c h
336 264 m f
114 84 18 12 re f
72 84 30 12 re f
126 180 42 12 re f
96 180 18 12 re f
72 180 12 12 re f
138 108 30 12 re f
108 108 18 12 re f
72 108 24 12 re f
138 156 30 12 re f
114 156 12 12 re f
72 156 30 12 re f
150 132 18 12 re f
108 132 30 12 re f
72 132 24 12 re f
0.317647 0.494118 0.968627 rg
336 180 m 336 222 l 217.266 222 l 212.527 222 207.895 223.402 203.953 226.031
 c 192 234 l 192 180 l 234 204 l 294 204 l h
336 180 m f
0.964706 0.733333 0 rg
132 246 m 96 246 l 96 318 l 114 306 l 132 318 l h
132 246 m f
0.282353 0.419608 0.878431 rg
72 54 18 12 re f
0.811765 0.513726 0 rg
246 216 36 60 re f
0.964706 0.733333 0 rg
366 120 m 366 176.332 320.332 222 264 222 c 207.668 222 162 176.332 162
 120 c 162 63.668 207.668 18 264 18 c 320.332 18 366 63.668 366 120 c h
366 120 m f
0.517647 0.847059 0.909804 rg
342 120 m 342 163.078 307.078 198 264 198 c 220.922 198 186 163.078 186
 120 c 186 76.922 220.922 42 264 42 c 307.078 42 342 76.922 342 120 c h
342 120 m f
0.427451 0.756863 0.839216 rg
258 78 18 12 re f
216 78 30 12 re f
270 102 42 12 re f
240 102 18 12 re f
216 102 12 12 re f
282 126 30 12 re f
258 126 12 12 re f
216 126 30 12 re f
294 150 18 12 re f
252 150 30 12 re f
216 150 24 12 re f
0.929412 0.65098 0 rg
300 312 m 282 276 l 246 276 l 228 312 l h
300 312 m f
0.964706 0.733333 0 rg
228 312 72 54 re f
Q Q
showpage
%%Trailer
end
%%EOF
