%!PS-Adobe-3.0 EPSF-3.0
%%Creator: cairo 1.16.0 (https://cairographics.org)
%%CreationDate: Fri Sep 20 08:55:58 2019
%%Pages: 1
%%DocumentData: Clean7Bit
%%LanguageLevel: 2
%%BoundingBox: 89 18 295 372
%%EndComments
%%BeginProlog
50 dict begin
/q { gsave } bind def
/Q { grestore } bind def
/cm { 6 array astore concat } bind def
/w { setlinewidth } bind def
/J { setlinecap } bind def
/j { setlinejoin } bind def
/M { setmiterlimit } bind def
/d { setdash } bind def
/m { moveto } bind def
/l { lineto } bind def
/c { curveto } bind def
/h { closepath } bind def
/re { exch dup neg 3 1 roll 5 3 roll moveto 0 rlineto
      0 exch rlineto 0 rlineto closepath } bind def
/S { stroke } bind def
/f { fill } bind def
/f* { eofill } bind def
/n { newpath } bind def
/W { clip } bind def
/W* { eoclip } bind def
/BT { } bind def
/ET { } bind def
/BDC { mark 3 1 roll /BDC pdfmark } bind def
/EMC { mark /EMC pdfmark } bind def
/cairo_store_point { /cairo_point_y exch def /cairo_point_x exch def } def
/Tj { show currentpoint cairo_store_point } bind def
/TJ {
  {
    dup
    type /stringtype eq
    { show } { -0.001 mul 0 cairo_font_matrix dtransform rmoveto } ifelse
  } forall
  currentpoint cairo_store_point
} bind def
/cairo_selectfont { cairo_font_matrix aload pop pop pop 0 0 6 array astore
    cairo_font exch selectfont cairo_point_x cairo_point_y moveto } bind def
/Tf { pop /cairo_font exch def /cairo_font_matrix where
      { pop cairo_selectfont } if } bind def
/Td { matrix translate cairo_font_matrix matrix concatmatrix dup
      /cairo_font_matrix exch def dup 4 get exch 5 get cairo_store_point
      /cairo_font where { pop cairo_selectfont } if } bind def
/Tm { 2 copy 8 2 roll 6 array astore /cairo_font_matrix exch def
      cairo_store_point /cairo_font where { pop cairo_selectfont } if } bind def
/g { setgray } bind def
/rg { setrgbcolor } bind def
/d1 { setcachedevice } bind def
/cairo_data_source {
  CairoDataIndex CairoData length lt
    { CairoData CairoDataIndex get /CairoDataIndex CairoDataIndex 1 add def }
    { () } ifelse
} def
/cairo_flush_ascii85_file { cairo_ascii85_file status { cairo_ascii85_file flushfile } if } def
/cairo_image { image cairo_flush_ascii85_file } def
/cairo_imagemask { imagemask cairo_flush_ascii85_file } def
%%EndProlog
%%BeginSetup
%%EndSetup
%%Page: 1 1
%%BeginPageSetup
%%PageBoundingBox: 89 18 295 372
%%EndPageSetup
q 89 18 206 354 rectclip
1 0 0 -1 0 384 cm q
0.964706 0.733333 0 rg
180 60 24 72 re f
0.870588 0.580392 0 rg
204 95.297 m 204 108.703 l 180 120.703 l 180 107.297 l h
204 95.297 m f
204 71.297 m 204 84.703 l 180 96.703 l 180 83.297 l h
204 71.297 m f
0.964706 0.733333 0 rg
132 66 18 12 re f
145.312 33.828 m 153.793 25.344 l 166.52 38.07 l 158.035 46.555 l h
145.312 33.828 m f
186 12 12 18 re f
217.422 38.07 m 230.148 25.344 l 238.633 33.828 l 225.906 46.555 l h
217.422 38.07 m f
234 66 18 12 re f
0.329412 0.541176 1 rg
222 166.488 m 222 132 l 162 132 l 162 166.488 l 113.758 181.332 83.629 
229.23 91.133 279.145 c 98.641 329.059 141.523 365.977 192 365.977 c 242.477
 365.977 285.359 329.059 292.867 279.145 c 300.371 229.23 270.242 181.332
 222 166.488 c h
222 166.488 m f
0.282353 0.419608 0.878431 rg
192 162 m 202.168 161.992 212.281 163.5 222 166.484 c 222 132 l 192 132
 l h
192 162 m f
0.890196 0.239216 0.239216 rg
192 192 m 132 300 l 258 300 l h
192 192 m f
0.898039 0.905882 0.913725 rg
186 270 12 12 re f
186 234 12 24 re f
Q Q
showpage
%%Trailer
end
%%EOF
