%!PS-Adobe-3.0 EPSF-3.0
%%Creator: cairo 1.16.0 (https://cairographics.org)
%%CreationDate: Fri Sep 20 08:55:58 2019
%%Pages: 1
%%DocumentData: Clean7Bit
%%LanguageLevel: 2
%%BoundingBox: 18 18 366 366
%%EndComments
%%BeginProlog
50 dict begin
/q { gsave } bind def
/Q { grestore } bind def
/cm { 6 array astore concat } bind def
/w { setlinewidth } bind def
/J { setlinecap } bind def
/j { setlinejoin } bind def
/M { setmiterlimit } bind def
/d { setdash } bind def
/m { moveto } bind def
/l { lineto } bind def
/c { curveto } bind def
/h { closepath } bind def
/re { exch dup neg 3 1 roll 5 3 roll moveto 0 rlineto
      0 exch rlineto 0 rlineto closepath } bind def
/S { stroke } bind def
/f { fill } bind def
/f* { eofill } bind def
/n { newpath } bind def
/W { clip } bind def
/W* { eoclip } bind def
/BT { } bind def
/ET { } bind def
/BDC { mark 3 1 roll /BDC pdfmark } bind def
/EMC { mark /EMC pdfmark } bind def
/cairo_store_point { /cairo_point_y exch def /cairo_point_x exch def } def
/Tj { show currentpoint cairo_store_point } bind def
/TJ {
  {
    dup
    type /stringtype eq
    { show } { -0.001 mul 0 cairo_font_matrix dtransform rmoveto } ifelse
  } forall
  currentpoint cairo_store_point
} bind def
/cairo_selectfont { cairo_font_matrix aload pop pop pop 0 0 6 array astore
    cairo_font exch selectfont cairo_point_x cairo_point_y moveto } bind def
/Tf { pop /cairo_font exch def /cairo_font_matrix where
      { pop cairo_selectfont } if } bind def
/Td { matrix translate cairo_font_matrix matrix concatmatrix dup
      /cairo_font_matrix exch def dup 4 get exch 5 get cairo_store_point
      /cairo_font where { pop cairo_selectfont } if } bind def
/Tm { 2 copy 8 2 roll 6 array astore /cairo_font_matrix exch def
      cairo_store_point /cairo_font where { pop cairo_selectfont } if } bind def
/g { setgray } bind def
/rg { setrgbcolor } bind def
/d1 { setcachedevice } bind def
/cairo_data_source {
  CairoDataIndex CairoData length lt
    { CairoData CairoDataIndex get /CairoDataIndex CairoDataIndex 1 add def }
    { () } ifelse
} def
/cairo_flush_ascii85_file { cairo_ascii85_file status { cairo_ascii85_file flushfile } if } def
/cairo_image { image cairo_flush_ascii85_file } def
/cairo_imagemask { imagemask cairo_flush_ascii85_file } def
%%EndProlog
%%BeginSetup
%%EndSetup
%%Page: 1 1
%%BeginPageSetup
%%PageBoundingBox: 18 18 366 366
%%EndPageSetup
q 18 18 348 348 rectclip
1 0 0 -1 0 384 cm q
1 0.882353 0.501961 rg
246 312 m 366 366 l 366 222 l 246 276 l h
246 312 m f
0.317647 0.494118 0.968627 rg
222 209.25 m 222 366 l 18 366 l 18 209.25 l 18 198.758 23.48 189.031 32.453
 183.594 c 36.691 181.027 l 78 156 l 162 156 l 203.316 181.027 l 207.547
 183.594 l 216.52 189.031 222 198.758 222 209.25 c h
222 209.25 m f
0.282353 0.419608 0.878431 rg
126 312 m 78 312 l 44.863 312 18 285.137 18 252 c 18 366 l 222 366 l 222
 300 l 138 300 l h
126 312 m f
138 288 m 126 288 l 125.605 288 125.211 287.961 124.824 287.883 c 94.242
 281.766 l 74.355 277.746 60.043 260.289 60 240 c 72 240 l 72.031 254.57
 82.312 267.109 96.594 270 c 126.594 276 l 138 276 l h
138 288 m f
0.964706 0.733333 0 rg
138 276 m 132 210 l 138 192 l 138 168 l 102 168 l 102 192 l 108 210 l 102
 276 l h
138 276 m f
100.5 156 m 100.5 168 l 48 198 l 36.691 181.027 l 78 156 l h
100.5 156 m f
0.960784 0.788235 0.615686 rg
207.75 308.25 m 197.664 318.336 183.988 324 169.727 324 c 156 324 l 126
 312 l 126 282 l 149.816 267.711 l 153.863 265.281 158.492 264 163.215 264
 c 170.121 264 176.742 266.742 181.629 271.629 c 192 282 l h
207.75 308.25 m f
0.964706 0.733333 0 rg
203.316 181.027 m 192 198 l 139.5 168 l 139.5 156 l 162 156 l h
203.316 181.027 m f
0.494118 0.341176 0.87451 rg
246 312 m 174 306 l 174 282 l 246 276 l h
246 312 m f
0.964706 0.733333 0 rg
264 294 m 264 303.941 255.941 312 246 312 c 236.059 312 228 303.941 228
 294 c 228 284.059 236.059 276 246 276 c 255.941 276 264 284.059 264 294
 c h
264 294 m f
0.960784 0.788235 0.615686 rg
66 72 m 66 126 l 66 140.32 71.688 154.059 81.816 164.184 c 91.941 174.312
 105.68 180 120 180 c 134.32 180 148.059 174.312 158.184 164.184 c 168.312
 154.059 174 140.32 174 126 c 174 72 l h
66 72 m f
0.780392 0.576471 0.411765 rg
114 156 m 108 156 l 108 144 l 114 144 l 117.312 143.996 119.996 141.312
 120 138 c 120 126 l 132 126 l 132 138 l 131.988 147.938 123.938 155.988
 114 156 c h
114 156 m f
0.584314 0.4 0.145098 rg
102 114 m 102 117.312 99.312 120 96 120 c 92.688 120 90 117.312 90 114 
c 90 110.688 92.688 108 96 108 c 99.312 108 102 110.688 102 114 c h
102 114 m f
150 114 m 150 117.312 147.312 120 144 120 c 140.688 120 138 117.312 138
 114 c 138 110.688 140.688 108 144 108 c 147.312 108 150 110.688 150 114
 c h
150 114 m f
0.964706 0.733333 0 rg
174 72 m 162.301 83.699 l 154.426 91.574 143.742 96 132.602 96 c 107.398
 96 l 96.258 96 85.574 91.574 77.699 83.699 c 66 72 l 66 60 l 174 60 l h
174 72 m f
0.317647 0.494118 0.968627 rg
174 60 m 186 36 l 162 18 l 78 18 l 54 36 l 66 60 l h
174 60 m f
0.870588 0.580392 0 rg
132 216 m 108 216 l 104.688 216 102 213.312 102 210 c 102 206.688 104.688
 204 108 204 c 132 204 l 135.312 204 138 206.688 138 210 c 138 213.312 135.312
 216 132 216 c h
132 216 m f
Q Q
showpage
%%Trailer
end
%%EOF
