%!PS-Adobe-3.0 EPSF-3.0
%%Creator: cairo 1.16.0 (https://cairographics.org)
%%CreationDate: Fri Sep 20 08:55:59 2019
%%Pages: 1
%%DocumentData: Clean7Bit
%%LanguageLevel: 2
%%BoundingBox: 18 18 366 372
%%EndComments
%%BeginProlog
50 dict begin
/q { gsave } bind def
/Q { grestore } bind def
/cm { 6 array astore concat } bind def
/w { setlinewidth } bind def
/J { setlinecap } bind def
/j { setlinejoin } bind def
/M { setmiterlimit } bind def
/d { setdash } bind def
/m { moveto } bind def
/l { lineto } bind def
/c { curveto } bind def
/h { closepath } bind def
/re { exch dup neg 3 1 roll 5 3 roll moveto 0 rlineto
      0 exch rlineto 0 rlineto closepath } bind def
/S { stroke } bind def
/f { fill } bind def
/f* { eofill } bind def
/n { newpath } bind def
/W { clip } bind def
/W* { eoclip } bind def
/BT { } bind def
/ET { } bind def
/BDC { mark 3 1 roll /BDC pdfmark } bind def
/EMC { mark /EMC pdfmark } bind def
/cairo_store_point { /cairo_point_y exch def /cairo_point_x exch def } def
/Tj { show currentpoint cairo_store_point } bind def
/TJ {
  {
    dup
    type /stringtype eq
    { show } { -0.001 mul 0 cairo_font_matrix dtransform rmoveto } ifelse
  } forall
  currentpoint cairo_store_point
} bind def
/cairo_selectfont { cairo_font_matrix aload pop pop pop 0 0 6 array astore
    cairo_font exch selectfont cairo_point_x cairo_point_y moveto } bind def
/Tf { pop /cairo_font exch def /cairo_font_matrix where
      { pop cairo_selectfont } if } bind def
/Td { matrix translate cairo_font_matrix matrix concatmatrix dup
      /cairo_font_matrix exch def dup 4 get exch 5 get cairo_store_point
      /cairo_font where { pop cairo_selectfont } if } bind def
/Tm { 2 copy 8 2 roll 6 array astore /cairo_font_matrix exch def
      cairo_store_point /cairo_font where { pop cairo_selectfont } if } bind def
/g { setgray } bind def
/rg { setrgbcolor } bind def
/d1 { setcachedevice } bind def
/cairo_data_source {
  CairoDataIndex CairoData length lt
    { CairoData CairoDataIndex get /CairoDataIndex CairoDataIndex 1 add def }
    { () } ifelse
} def
/cairo_flush_ascii85_file { cairo_ascii85_file status { cairo_ascii85_file flushfile } if } def
/cairo_image { image cairo_flush_ascii85_file } def
/cairo_imagemask { imagemask cairo_flush_ascii85_file } def
%%EndProlog
%%BeginSetup
%%EndSetup
%%Page: 1 1
%%BeginPageSetup
%%PageBoundingBox: 18 18 366 372
%%EndPageSetup
q 18 18 348 354 rectclip
1 0 0 -1 0 384 cm q
0.282353 0.419608 0.878431 rg
348 312 m 348 319.184 l 348 325.941 351.379 332.25 357 336 c 362.621 339.75
 366 346.059 366 352.816 c 366 366 l 258 366 l 258 352.816 l 258 346.059
 261.379 339.75 267 336 c 272.621 332.25 276 325.941 276 319.184 c 276 312
 l h
348 312 m f
0.329412 0.541176 1 rg
282 312 m 264 282 l 264 210 l 264 193.43 277.43 180 294 180 c 300 162 l
 324 156 l 324 180 l 360 210 l 360 228 l 342 228 l 306 216 l 306 222 l 342
 264 l 342 312 l h
282 312 m f
0.870588 0.580392 0 rg
252 312 m 252 319.184 l 252 325.941 255.379 332.25 261 336 c 266.621 339.75
 270 346.059 270 352.816 c 270 366 l 162 366 l 162 352.816 l 162 346.059
 165.379 339.75 171 336 c 176.621 332.25 180 325.941 180 319.184 c 180 312
 l h
252 312 m f
0.929412 0.65098 0 rg
234 204 m 234 272.367 l 234 286.473 238.176 300.262 246 312 c 186 312 l
 193.824 300.262 198 286.473 198 272.367 c 198 204 l h
234 204 m f
0.964706 0.733333 0 rg
174 204 m 258 204 l 258 192 l 240 180 l 192 180 l 174 192 l h
174 204 m f
0.929412 0.65098 0 rg
192 180 m 180 120 l 192 120 l 204 132 l 210 120 l 222 120 l 228 132 l 240
 120 l 252 120 l 240 180 l h
192 180 m f
0.329412 0.541176 1 rg
102 120 m 102 229.016 l 102 251.906 108.223 274.371 120 294 c 36 294 l 
47.777 274.371 54 251.906 54 229.016 c 54 120 l h
102 120 m f
0.490196 0.686275 1 rg
54 120 m 36 84 l 60 60 l 96 60 l 120 84 l 102 120 l h
54 120 m f
0.329412 0.541176 1 rg
96 24 m 84 24 l 84 12 l 72 12 l 72 24 l 60 24 l 60 36 l 72 36 l 72 60 l
 84 60 l 84 36 l 96 36 l h
96 24 m f
0.282353 0.419608 0.878431 rg
120 294 m 120 305.273 l 120 313.422 123.238 321.238 129 327 c 134.762 332.762
 138 340.578 138 348.727 c 138 366 l 18 366 l 18 348.727 l 18 340.578 21.238
 332.762 27 327 c 32.762 321.238 36 313.422 36 305.273 c 36 294 l h
120 294 m f
0.929412 0.65098 0 rg
186 312 m 186 319.184 l 186 325.941 189.379 332.25 195 336 c 200.621 339.75
 204 346.059 204 352.816 c 204 366 l 96 366 l 96 352.816 l 96 346.059 99.379
 339.75 105 336 c 110.621 332.25 114 325.941 114 319.184 c 114 312 l h
186 312 m f
0.964706 0.733333 0 rg
168 258 m 168 272.367 l 168 286.473 172.176 300.262 180 312 c 120 312 l
 127.824 300.262 132 286.473 132 272.367 c 132 258 l h
168 258 m f
0.988235 0.831373 0.32549 rg
120 258 m 180 258 l 180 246 l 162 234 l 138 234 l 120 246 l h
120 258 m f
0.964706 0.733333 0 rg
174 210 m 174 223.254 163.254 234 150 234 c 136.746 234 126 223.254 126
 210 c 126 196.746 136.746 186 150 186 c 163.254 186 174 196.746 174 210
 c h
174 210 m f
Q Q
showpage
%%Trailer
end
%%EOF
