%!PS-Adobe-3.0 EPSF-3.0
%%Creator: cairo 1.16.0 (https://cairographics.org)
%%CreationDate: Fri Sep 20 08:56:00 2019
%%Pages: 1
%%DocumentData: Clean7Bit
%%LanguageLevel: 2
%%BoundingBox: 18 42 366 342
%%EndComments
%%BeginProlog
50 dict begin
/q { gsave } bind def
/Q { grestore } bind def
/cm { 6 array astore concat } bind def
/w { setlinewidth } bind def
/J { setlinecap } bind def
/j { setlinejoin } bind def
/M { setmiterlimit } bind def
/d { setdash } bind def
/m { moveto } bind def
/l { lineto } bind def
/c { curveto } bind def
/h { closepath } bind def
/re { exch dup neg 3 1 roll 5 3 roll moveto 0 rlineto
      0 exch rlineto 0 rlineto closepath } bind def
/S { stroke } bind def
/f { fill } bind def
/f* { eofill } bind def
/n { newpath } bind def
/W { clip } bind def
/W* { eoclip } bind def
/BT { } bind def
/ET { } bind def
/BDC { mark 3 1 roll /BDC pdfmark } bind def
/EMC { mark /EMC pdfmark } bind def
/cairo_store_point { /cairo_point_y exch def /cairo_point_x exch def } def
/Tj { show currentpoint cairo_store_point } bind def
/TJ {
  {
    dup
    type /stringtype eq
    { show } { -0.001 mul 0 cairo_font_matrix dtransform rmoveto } ifelse
  } forall
  currentpoint cairo_store_point
} bind def
/cairo_selectfont { cairo_font_matrix aload pop pop pop 0 0 6 array astore
    cairo_font exch selectfont cairo_point_x cairo_point_y moveto } bind def
/Tf { pop /cairo_font exch def /cairo_font_matrix where
      { pop cairo_selectfont } if } bind def
/Td { matrix translate cairo_font_matrix matrix concatmatrix dup
      /cairo_font_matrix exch def dup 4 get exch 5 get cairo_store_point
      /cairo_font where { pop cairo_selectfont } if } bind def
/Tm { 2 copy 8 2 roll 6 array astore /cairo_font_matrix exch def
      cairo_store_point /cairo_font where { pop cairo_selectfont } if } bind def
/g { setgray } bind def
/rg { setrgbcolor } bind def
/d1 { setcachedevice } bind def
/cairo_data_source {
  CairoDataIndex CairoData length lt
    { CairoData CairoDataIndex get /CairoDataIndex CairoDataIndex 1 add def }
    { () } ifelse
} def
/cairo_flush_ascii85_file { cairo_ascii85_file status { cairo_ascii85_file flushfile } if } def
/cairo_image { image cairo_flush_ascii85_file } def
/cairo_imagemask { imagemask cairo_flush_ascii85_file } def
%%EndProlog
%%BeginSetup
%%EndSetup
%%Page: 1 1
%%BeginPageSetup
%%PageBoundingBox: 18 42 366 342
%%EndPageSetup
q 18 42 348 300 rectclip
1 0 0 -1 0 384 cm q
0 0.65098 0.309804 rg
198 222 m 276 222 l 285.941 222 294 230.059 294 240 c 294 324 l 294 333.941
 285.941 342 276 342 c 198 342 l h
198 222 m f
0.00784314 0.760784 0.415686 rg
36 222 m 204 222 l 213.973 222 222 230.027 222 240 c 222 324 l 222 333.973
 213.973 342 204 342 c 36 342 l 26.027 342 18 333.973 18 324 c 18 240 l 
18 230.027 26.027 222 36 222 c h
36 222 m f
0.847059 0.858824 0.866667 rg
54 342 m 54 324 l 54 314.059 45.941 306 36 306 c 18 306 l 18 324 l 18 333.941
 26.059 342 36 342 c h
54 342 m f
54 222 m 54 240 l 54 249.941 45.941 258 36 258 c 18 258 l 18 240 l 18 230.059
 26.059 222 36 222 c h
54 222 m f
186 342 m 186 324 l 186 314.059 194.059 306 204 306 c 222 306 l 222 324
 l 222 333.941 213.941 342 204 342 c h
186 342 m f
186 222 m 186 240 l 186 249.941 194.059 258 204 258 c 222 258 l 222 240
 l 222 230.059 213.941 222 204 222 c h
186 222 m f
156 282 m 156 301.883 139.883 318 120 318 c 100.117 318 84 301.883 84 282
 c 84 262.117 100.117 246 120 246 c 139.883 246 156 262.117 156 282 c h
156 282 m f
0 0.65098 0.309804 rg
48 276 18 12 re f
174 276 18 12 re f
0 0.588235 0.266667 rg
240 240 12 102 re f
264 240 12 102 re f
0.329412 0.541176 1 rg
126 42 156 156 re f
0.282353 0.419608 0.878431 rg
282 42 84 156 re f
0.301961 0.388235 0.470588 rg
72 138 m 72 183.516 l 64.242 175.758 l 55.758 184.242 l 73.758 202.242 
l 76.102 204.586 79.898 204.586 82.242 202.242 c 100.242 184.242 l 91.758
 175.758 l 84 183.516 l 84 138 l 84.012 128.062 92.062 120.012 102 120 c
 108 120 l 108 108 l 102 108 l 85.438 108.02 72.02 121.438 72 138 c h
72 138 m f
364.242 235.758 m 346.242 217.758 l 343.898 215.414 340.102 215.414 337.758
 217.758 c 319.758 235.758 l 328.242 244.242 l 336 236.484 l 336 282 l 335.988
 291.938 327.938 299.988 318 300 c 312 300 l 312 312 l 318 312 l 334.562
 311.98 347.98 298.562 348 282 c 348 236.484 l 355.758 244.242 l h
364.242 235.758 m f
0.282353 0.419608 0.878431 rg
162 162 48 12 re f
222 162 24 12 re f
0.870588 0.580392 0 rg
240 90 m 240 120 l 216 138 l 192 138 l 168 120 l 168 90 l h
240 90 m f
0.964706 0.733333 0 rg
204 114 m 240 90 l 204 66 l 168 90 l h
204 114 m f
336 90 m 324 84 l 312 90 l 312 42 l 336 42 l h
336 90 m f
Q Q
showpage
%%Trailer
end
%%EOF
