%!PS-Adobe-3.0 EPSF-3.0
%%Creator: cairo 1.16.0 (https://cairographics.org)
%%CreationDate: Fri Sep 20 08:56:00 2019
%%Pages: 1
%%DocumentData: Clean7Bit
%%LanguageLevel: 2
%%BoundingBox: 18 18 366 366
%%EndComments
%%BeginProlog
50 dict begin
/q { gsave } bind def
/Q { grestore } bind def
/cm { 6 array astore concat } bind def
/w { setlinewidth } bind def
/J { setlinecap } bind def
/j { setlinejoin } bind def
/M { setmiterlimit } bind def
/d { setdash } bind def
/m { moveto } bind def
/l { lineto } bind def
/c { curveto } bind def
/h { closepath } bind def
/re { exch dup neg 3 1 roll 5 3 roll moveto 0 rlineto
      0 exch rlineto 0 rlineto closepath } bind def
/S { stroke } bind def
/f { fill } bind def
/f* { eofill } bind def
/n { newpath } bind def
/W { clip } bind def
/W* { eoclip } bind def
/BT { } bind def
/ET { } bind def
/BDC { mark 3 1 roll /BDC pdfmark } bind def
/EMC { mark /EMC pdfmark } bind def
/cairo_store_point { /cairo_point_y exch def /cairo_point_x exch def } def
/Tj { show currentpoint cairo_store_point } bind def
/TJ {
  {
    dup
    type /stringtype eq
    { show } { -0.001 mul 0 cairo_font_matrix dtransform rmoveto } ifelse
  } forall
  currentpoint cairo_store_point
} bind def
/cairo_selectfont { cairo_font_matrix aload pop pop pop 0 0 6 array astore
    cairo_font exch selectfont cairo_point_x cairo_point_y moveto } bind def
/Tf { pop /cairo_font exch def /cairo_font_matrix where
      { pop cairo_selectfont } if } bind def
/Td { matrix translate cairo_font_matrix matrix concatmatrix dup
      /cairo_font_matrix exch def dup 4 get exch 5 get cairo_store_point
      /cairo_font where { pop cairo_selectfont } if } bind def
/Tm { 2 copy 8 2 roll 6 array astore /cairo_font_matrix exch def
      cairo_store_point /cairo_font where { pop cairo_selectfont } if } bind def
/g { setgray } bind def
/rg { setrgbcolor } bind def
/d1 { setcachedevice } bind def
/cairo_data_source {
  CairoDataIndex CairoData length lt
    { CairoData CairoDataIndex get /CairoDataIndex CairoDataIndex 1 add def }
    { () } ifelse
} def
/cairo_flush_ascii85_file { cairo_ascii85_file status { cairo_ascii85_file flushfile } if } def
/cairo_image { image cairo_flush_ascii85_file } def
/cairo_imagemask { imagemask cairo_flush_ascii85_file } def
%%EndProlog
%%BeginSetup
%%EndSetup
%%Page: 1 1
%%BeginPageSetup
%%PageBoundingBox: 18 18 366 366
%%EndPageSetup
q 18 18 348 348 rectclip
1 0 0 -1 0 384 cm q
0.964706 0.733333 0 rg
108 324 m 108 210 l 108 180.176 132.176 156 162 156 c 222 156 l 251.824
 156 276 180.176 276 210 c 276 324 l h
108 324 m f
0.929412 0.65098 0 rg
216 156 m 221.316 142.711 l 225.73 131.672 228 119.891 228 108 c 156 108
 l 156 119.891 158.27 131.672 162.684 142.711 c 168 156 l h
216 156 m f
0.870588 0.580392 0 rg
198 234 m 186 234 l 181.031 234 177 229.969 177 225 c 177 220.031 181.031
 216 186 216 c 216 216 l 216 204 l 198 204 l 198 192 l 186 192 l 186 204
 l 174.402 204 165 213.402 165 225 c 165 236.598 174.402 246 186 246 c 198
 246 l 202.969 246 207 250.031 207 255 c 207 259.969 202.969 264 198 264
 c 168 264 l 168 276 l 186 276 l 186 285.562 l 198 285.562 l 198 276 l 209.598
 276 219 266.598 219 255 c 219 243.402 209.598 234 198 234 c h
198 234 m f
0.980392 0.776471 0.137255 rg
365.609 180.293 m 359.586 89.656 284.16 18 192 18 c 95.902 18 18.008 95.895
 18 191.992 c 18 192 l 18 288.098 95.902 366 192 366 c 288.098 366 366 288.098
 366 192 c 366 188.062 365.871 184.16 365.609 180.293 c h
192 318 m 142.172 318 97.023 288.633 76.824 243.086 c 56.621 197.535 65.16
 144.359 98.605 107.426 c 132.051 70.492 184.121 56.734 231.445 72.332 c
 278.77 87.93 312.457 129.953 317.387 179.535 c 317.797 183.676 318.004 
187.836 318 192 c 317.996 261.586 261.586 317.996 192 318 c h
192 318 m f
0.329412 0.541176 1 rg
366 192 m 366 288.098 288.098 366 192 366 c 95.902 366 18 288.098 18 192
 c 18 191.992 l 42 174 l 66 192 l 66 261.586 122.414 318 192 318 c 261.586
 318 318 261.586 318 192 c 318.004 187.836 317.797 183.676 317.387 179.535
 c 342 198 l 365.609 180.293 l 365.871 184.164 366.004 188.066 366 192 c
 h
366 192 m f
Q Q
showpage
%%Trailer
end
%%EOF
