%!PS-Adobe-3.0 EPSF-3.0
%%Creator: cairo 1.16.0 (https://cairographics.org)
%%CreationDate: Fri Sep 20 08:56:00 2019
%%Pages: 1
%%DocumentData: Clean7Bit
%%LanguageLevel: 2
%%BoundingBox: 42 18 342 366
%%EndComments
%%BeginProlog
50 dict begin
/q { gsave } bind def
/Q { grestore } bind def
/cm { 6 array astore concat } bind def
/w { setlinewidth } bind def
/J { setlinecap } bind def
/j { setlinejoin } bind def
/M { setmiterlimit } bind def
/d { setdash } bind def
/m { moveto } bind def
/l { lineto } bind def
/c { curveto } bind def
/h { closepath } bind def
/re { exch dup neg 3 1 roll 5 3 roll moveto 0 rlineto
      0 exch rlineto 0 rlineto closepath } bind def
/S { stroke } bind def
/f { fill } bind def
/f* { eofill } bind def
/n { newpath } bind def
/W { clip } bind def
/W* { eoclip } bind def
/BT { } bind def
/ET { } bind def
/BDC { mark 3 1 roll /BDC pdfmark } bind def
/EMC { mark /EMC pdfmark } bind def
/cairo_store_point { /cairo_point_y exch def /cairo_point_x exch def } def
/Tj { show currentpoint cairo_store_point } bind def
/TJ {
  {
    dup
    type /stringtype eq
    { show } { -0.001 mul 0 cairo_font_matrix dtransform rmoveto } ifelse
  } forall
  currentpoint cairo_store_point
} bind def
/cairo_selectfont { cairo_font_matrix aload pop pop pop 0 0 6 array astore
    cairo_font exch selectfont cairo_point_x cairo_point_y moveto } bind def
/Tf { pop /cairo_font exch def /cairo_font_matrix where
      { pop cairo_selectfont } if } bind def
/Td { matrix translate cairo_font_matrix matrix concatmatrix dup
      /cairo_font_matrix exch def dup 4 get exch 5 get cairo_store_point
      /cairo_font where { pop cairo_selectfont } if } bind def
/Tm { 2 copy 8 2 roll 6 array astore /cairo_font_matrix exch def
      cairo_store_point /cairo_font where { pop cairo_selectfont } if } bind def
/g { setgray } bind def
/rg { setrgbcolor } bind def
/d1 { setcachedevice } bind def
/cairo_data_source {
  CairoDataIndex CairoData length lt
    { CairoData CairoDataIndex get /CairoDataIndex CairoDataIndex 1 add def }
    { () } ifelse
} def
/cairo_flush_ascii85_file { cairo_ascii85_file status { cairo_ascii85_file flushfile } if } def
/cairo_image { image cairo_flush_ascii85_file } def
/cairo_imagemask { imagemask cairo_flush_ascii85_file } def
%%EndProlog
%%BeginSetup
%%EndSetup
%%Page: 1 1
%%BeginPageSetup
%%PageBoundingBox: 42 18 342 366
%%EndPageSetup
q 42 18 300 348 rectclip
1 0 0 -1 0 384 cm q
0.329412 0.541176 1 rg
156 180 72 36 re f
0.282353 0.419608 0.878431 rg
174 216 m 180 234 l 204 234 l 210 216 l h
174 216 m f
0.980392 0.776471 0.137255 rg
162 306 m 162 254.953 l 162 189.234 153.941 123.758 138 60 c 66 60 l 50.059
 123.758 42 189.234 42 254.953 c 42 306 l h
162 306 m f
0.964706 0.733333 0 rg
42 306 m 42 222 l 42 206.086 48.32 190.824 59.574 179.574 c 70.824 168.32
 86.086 162 102 162 c 117.914 162 133.176 168.32 144.426 179.574 c 155.68
 190.824 162 206.086 162 222 c 162 306 l h
42 306 m f
0.980392 0.776471 0.137255 rg
342 306 m 342 254.953 l 342 189.234 333.941 123.758 318 60 c 246 60 l 230.059
 123.758 222 189.234 222 254.953 c 222 306 l h
342 306 m f
0.964706 0.733333 0 rg
222 306 m 222 222 l 222 206.086 228.32 190.824 239.574 179.574 c 250.824
 168.32 266.086 162 282 162 c 297.914 162 313.176 168.32 324.426 179.574
 c 335.68 190.824 342 206.086 342 222 c 342 306 l h
222 306 m f
0.517647 0.847059 0.909804 rg
162 306 m 162 339.137 135.137 366 102 366 c 68.863 366 42 339.137 42 306
 c 42 272.863 68.863 246 102 246 c 117.914 246 133.176 252.32 144.426 263.574
 c 155.68 274.824 162 290.086 162 306 c h
162 306 m f
0.317647 0.494118 0.968627 rg
66 18 72 42 re f
0.282353 0.419608 0.878431 rg
84 18 12 24 re f
108 18 12 24 re f
0.517647 0.847059 0.909804 rg
342 306 m 342 339.137 315.137 366 282 366 c 248.863 366 222 339.137 222
 306 c 222 272.863 248.863 246 282 246 c 315.137 246 342 272.863 342 306
 c h
342 306 m f
0.317647 0.494118 0.968627 rg
246 18 72 42 re f
0.282353 0.419608 0.878431 rg
264 18 12 24 re f
288 18 12 24 re f
0.317647 0.494118 0.968627 rg
168 54 48 42 re f
0.282353 0.419608 0.878431 rg
186 54 12 24 re f
0.870588 0.580392 0 rg
186 96 m 186 114 l 198 126 l 198 144 l 264 144 l 264 96 l h
186 96 m f
0.352941 0.678431 0.768627 rg
108 300 m 96 300 l 92.688 300 90 297.312 90 294 c 90 290.688 92.688 288
 96 288 c 120 288 l 120 276 l 108 276 l 108 264 l 96 264 l 96 276 l 86.059
 276 78 284.059 78 294 c 78 303.941 86.059 312 96 312 c 108 312 l 111.312
 312 114 314.688 114 318 c 114 321.312 111.312 324 108 324 c 84 324 l 84
 336 l 96 336 l 96 348 l 108 348 l 108 336 l 117.941 336 126 327.941 126
 318 c 126 308.059 117.941 300 108 300 c h
108 300 m f
288 300 m 276 300 l 272.688 300 270 297.312 270 294 c 270 290.688 272.688
 288 276 288 c 300 288 l 300 276 l 288 276 l 288 264 l 276 264 l 276 276
 l 266.059 276 258 284.059 258 294 c 258 303.941 266.059 312 276 312 c 288
 312 l 291.312 312 294 314.688 294 318 c 294 321.312 291.312 324 288 324
 c 264 324 l 264 336 l 276 336 l 276 348 l 288 348 l 288 336 l 297.941 336
 306 327.941 306 318 c 306 308.059 297.941 300 288 300 c h
288 300 m f
0.929412 0.65098 0 rg
186 96 m 186 114 l 198 126 l 198 144 l 120 144 l 120 96 l h
186 96 m f
Q Q
showpage
%%Trailer
end
%%EOF
