%!PS-Adobe-3.0 EPSF-3.0
%%Creator: cairo 1.16.0 (https://cairographics.org)
%%CreationDate: Fri Jan 10 07:38:36 2020
%%Pages: 1
%%DocumentData: Clean7Bit
%%LanguageLevel: 2
%%BoundingBox: 12 3 372 381
%%EndComments
%%BeginProlog
50 dict begin
/q { gsave } bind def
/Q { grestore } bind def
/cm { 6 array astore concat } bind def
/w { setlinewidth } bind def
/J { setlinecap } bind def
/j { setlinejoin } bind def
/M { setmiterlimit } bind def
/d { setdash } bind def
/m { moveto } bind def
/l { lineto } bind def
/c { curveto } bind def
/h { closepath } bind def
/re { exch dup neg 3 1 roll 5 3 roll moveto 0 rlineto
      0 exch rlineto 0 rlineto closepath } bind def
/S { stroke } bind def
/f { fill } bind def
/f* { eofill } bind def
/n { newpath } bind def
/W { clip } bind def
/W* { eoclip } bind def
/BT { } bind def
/ET { } bind def
/BDC { mark 3 1 roll /BDC pdfmark } bind def
/EMC { mark /EMC pdfmark } bind def
/cairo_store_point { /cairo_point_y exch def /cairo_point_x exch def } def
/Tj { show currentpoint cairo_store_point } bind def
/TJ {
  {
    dup
    type /stringtype eq
    { show } { -0.001 mul 0 cairo_font_matrix dtransform rmoveto } ifelse
  } forall
  currentpoint cairo_store_point
} bind def
/cairo_selectfont { cairo_font_matrix aload pop pop pop 0 0 6 array astore
    cairo_font exch selectfont cairo_point_x cairo_point_y moveto } bind def
/Tf { pop /cairo_font exch def /cairo_font_matrix where
      { pop cairo_selectfont } if } bind def
/Td { matrix translate cairo_font_matrix matrix concatmatrix dup
      /cairo_font_matrix exch def dup 4 get exch 5 get cairo_store_point
      /cairo_font where { pop cairo_selectfont } if } bind def
/Tm { 2 copy 8 2 roll 6 array astore /cairo_font_matrix exch def
      cairo_store_point /cairo_font where { pop cairo_selectfont } if } bind def
/g { setgray } bind def
/rg { setrgbcolor } bind def
/d1 { setcachedevice } bind def
/cairo_data_source {
  CairoDataIndex CairoData length lt
    { CairoData CairoDataIndex get /CairoDataIndex CairoDataIndex 1 add def }
    { () } ifelse
} def
/cairo_flush_ascii85_file { cairo_ascii85_file status { cairo_ascii85_file flushfile } if } def
/cairo_image { image cairo_flush_ascii85_file } def
/cairo_imagemask { imagemask cairo_flush_ascii85_file } def
%%EndProlog
%%BeginSetup
%%EndSetup
%%Page: 1 1
%%BeginPageSetup
%%PageBoundingBox: 12 3 372 381
%%EndPageSetup
q 12 3 360 378 rectclip
1 0 0 -1 0 384 cm q
0.956863 0.937255 0.929412 rg
46.609 378 m 29.426 378 15.496 364.07 15.496 346.887 c 15.496 6 l 306.273
 6 l 306.273 269.383 l 337.387 269.383 l 337.387 378 l h
46.609 378 m f
0.533333 0.321569 0.658824 rg
44.477 195.043 114.309 123.988 re f
0.988235 0.760784 0.298039 rg
44.477 42.254 228.621 61.781 re f
0.411765 0.0196078 0.537255 rg
273.098 107.035 m 44.477 107.035 l 42.82 107.035 41.477 105.691 41.477 
104.035 c 41.477 42.254 l 41.477 40.598 42.82 39.254 44.477 39.254 c 273.098
 39.254 l 274.754 39.254 276.098 40.598 276.098 42.254 c 276.098 104.035
 l 276.098 105.691 274.754 107.035 273.098 107.035 c h
47.477 101.035 m 270.098 101.035 l 270.098 45.254 l 47.477 45.254 l h
47.477 101.035 m f
158.785 322.031 m 44.477 322.031 l 42.82 322.031 41.477 320.688 41.477 
319.031 c 41.477 195.043 l 41.477 193.387 42.82 192.043 44.477 192.043 c
 158.785 192.043 l 160.441 192.043 161.785 193.387 161.785 195.043 c 161.785
 319.031 l 161.785 320.688 160.445 322.031 158.785 322.031 c h
47.477 316.031 m 155.785 316.031 l 155.785 198.043 l 47.477 198.043 l h
47.477 316.031 m f
273.098 132.188 m 44.477 132.188 l 42.82 132.188 41.477 130.844 41.477 
129.188 c 41.477 127.531 42.82 126.188 44.477 126.188 c 273.098 126.188 
l 274.754 126.188 276.098 127.531 276.098 129.188 c 276.098 130.844 274.754
 132.188 273.098 132.188 c h
273.098 132.188 m f
273.098 165.117 m 44.477 165.117 l 42.82 165.117 41.477 163.773 41.477 
162.117 c 41.477 160.461 42.82 159.117 44.477 159.117 c 273.098 159.117 
l 274.754 159.117 276.098 160.461 276.098 162.117 c 276.098 163.773 274.754
 165.117 273.098 165.117 c h
273.098 165.117 m f
273.098 198.043 m 187.105 198.043 l 185.449 198.043 184.105 196.699 184.105
 195.043 c 184.105 193.387 185.449 192.043 187.105 192.043 c 273.098 192.043
 l 274.754 192.043 276.098 193.387 276.098 195.043 c 276.098 196.699 274.754
 198.043 273.098 198.043 c h
273.098 198.043 m f
273.098 230.969 m 187.105 230.969 l 185.449 230.969 184.105 229.625 184.105
 227.969 c 184.105 226.312 185.449 224.969 187.105 224.969 c 273.098 224.969
 l 274.754 224.969 276.098 226.312 276.098 227.969 c 276.098 229.625 274.754
 230.969 273.098 230.969 c h
273.098 230.969 m f
273.098 263.898 m 187.105 263.898 l 185.449 263.898 184.105 262.551 184.105
 260.898 c 184.105 259.242 185.449 257.898 187.105 257.898 c 273.098 257.898
 l 274.754 257.898 276.098 259.242 276.098 260.898 c 276.098 262.551 274.754
 263.898 273.098 263.898 c h
273.098 263.898 m f
273.098 296.824 m 187.105 296.824 l 185.449 296.824 184.105 295.48 184.105
 293.824 c 184.105 292.168 185.449 290.824 187.105 290.824 c 273.098 290.824
 l 274.754 290.824 276.098 292.168 276.098 293.824 c 276.098 295.48 274.754
 296.824 273.098 296.824 c h
273.098 296.824 m f
273.098 329.75 m 187.105 329.75 l 185.449 329.75 184.105 328.406 184.105
 326.75 c 184.105 325.094 185.449 323.75 187.105 323.75 c 273.098 323.75
 l 274.754 323.75 276.098 325.094 276.098 326.75 c 276.098 328.406 274.754
 329.75 273.098 329.75 c h
273.098 329.75 m f
337.391 381 m 46.609 381 l 27.801 381 12.496 365.695 12.496 346.887 c 12.496
 6 l 12.496 4.344 13.84 3 15.496 3 c 306.273 3 l 307.93 3 309.273 4.344 
309.273 6 c 309.273 266.383 l 337.391 266.383 l 339.047 266.383 340.391 
267.727 340.391 269.383 c 340.391 378 l 340.391 379.656 339.047 381 337.391
 381 c h
18.496 9 m 18.496 346.887 l 18.496 362.387 31.109 375 46.609 375 c 334.391
 375 l 334.391 272.383 l 306.273 272.383 l 304.617 272.383 303.273 271.039
 303.273 269.383 c 303.273 9 l h
18.496 9 m f
27.496 156.09 m 25.84 156.09 24.496 154.746 24.496 153.09 c 24.496 135.09
 l 24.496 133.434 25.84 132.09 27.496 132.09 c 29.152 132.09 30.496 133.434
 30.496 135.09 c 30.496 153.09 l 30.496 154.746 29.152 156.09 27.496 156.09
 c h
27.496 156.09 m f
0.321569 0.435294 0.666667 rg
337.391 378 m 354.574 378 368.504 364.07 368.504 346.887 c 368.504 269.383
 l 306.273 269.383 l 306.273 346.887 l 306.273 364.07 320.203 378 337.391
 378 c h
337.391 378 m f
0.411765 0.0196078 0.537255 rg
337.391 381 m 318.578 381 303.273 365.695 303.273 346.887 c 303.273 269.383
 l 303.273 267.727 304.617 266.383 306.273 266.383 c 368.504 266.383 l 370.16
 266.383 371.504 267.727 371.504 269.383 c 371.504 346.887 l 371.504 365.695
 356.199 381 337.391 381 c h
309.273 272.383 m 309.273 346.887 l 309.273 362.387 321.887 375 337.391
 375 c 352.891 375 365.504 362.387 365.504 346.887 c 365.504 272.383 l h
309.273 272.383 m f
0.956863 0.937255 0.929412 rg
74.16 267.469 m 61.16 267.469 l 58.539 274.422 l 58.059 275.598 56.934 
276.293 55.758 276.293 c 55.383 276.293 55.062 276.238 54.742 276.133 c 
53.191 275.547 52.441 273.836 52.977 272.281 c 64.797 240.773 l 65.277 239.598
 66.453 238.848 67.633 238.902 c 68.863 238.848 69.984 239.598 70.469 240.773
 c 82.289 272.281 l 82.824 273.832 82.074 275.543 80.523 276.133 c 80.258
 276.242 79.883 276.293 79.508 276.293 c 78.328 276.293 77.207 275.598 76.777
 274.422 c h
71.969 261.582 m 67.633 250.082 l 63.301 261.582 l h
71.969 261.582 m f
89.625 273.352 m 89.625 241.793 l 89.625 240.133 90.906 238.848 92.566 
238.848 c 98.879 238.848 l 109.203 238.848 117.547 247.246 117.547 257.52
 c 117.547 267.898 109.203 276.293 98.879 276.293 c 92.566 276.293 l 90.906
 276.293 89.625 274.957 89.625 273.352 c h
95.559 270.355 m 98.879 270.355 l 105.938 270.305 111.609 264.633 111.609
 257.52 c 111.609 250.512 105.938 244.785 98.879 244.785 c 95.559 244.785
 l h
95.559 270.355 m f
121.84 266.988 m 122.805 265.809 124.57 265.648 125.746 266.613 c 128.098
 268.539 132.164 270.785 135.961 270.73 c 138.637 270.73 141.043 269.93 
142.648 268.75 c 144.254 267.574 144.949 266.238 144.949 264.898 c 144.949
 264.203 144.789 263.723 144.469 263.188 c 144.148 262.652 143.664 262.117
 142.863 261.582 c 141.309 260.566 138.691 259.656 135.535 259.066 c 135.426
 259.066 l 132.914 258.586 130.559 257.945 128.527 256.98 c 126.492 256.02
 124.727 254.684 123.551 252.809 c 122.75 251.527 122.32 250.027 122.32 
248.422 c 122.32 245.215 124.141 242.43 126.602 240.613 c 129.117 238.793
 132.379 237.777 135.855 237.777 c 140.992 237.777 144.789 240.293 147.516
 242.055 c 148.75 242.914 149.121 244.625 148.266 245.855 c 147.465 247.137
 145.754 247.512 144.469 246.656 c 141.738 244.84 139.117 243.234 135.855
 243.234 c 133.449 243.234 131.309 243.984 129.867 245.055 c 128.422 246.121
 127.832 247.301 127.832 248.422 c 127.832 249.066 127.941 249.492 128.207
 249.922 c 128.477 250.352 128.957 250.828 129.652 251.312 c 131.043 252.277
 133.449 253.133 136.34 253.668 c 136.445 253.668 l 139.176 254.203 141.688
 254.898 143.828 255.914 c 146.02 256.984 147.945 258.375 149.176 260.352
 c 149.98 261.637 150.461 263.242 150.461 264.898 c 150.461 268.324 148.535
 271.266 145.859 273.191 c 143.238 275.117 139.762 276.242 135.965 276.242
 c 130.188 276.188 125.32 273.297 122.27 270.891 c 121.094 269.93 120.93
 268.164 121.84 266.988 c h
121.84 266.988 m f
Q Q
showpage
%%Trailer
end
%%EOF
