%!PS-Adobe-3.0 EPSF-3.0
%%Creator: cairo 1.16.0 (https://cairographics.org)
%%CreationDate: Fri Jan 10 07:38:36 2020
%%Pages: 1
%%DocumentData: Clean7Bit
%%LanguageLevel: 2
%%BoundingBox: 3 4 381 380
%%EndComments
%%BeginProlog
50 dict begin
/q { gsave } bind def
/Q { grestore } bind def
/cm { 6 array astore concat } bind def
/w { setlinewidth } bind def
/J { setlinecap } bind def
/j { setlinejoin } bind def
/M { setmiterlimit } bind def
/d { setdash } bind def
/m { moveto } bind def
/l { lineto } bind def
/c { curveto } bind def
/h { closepath } bind def
/re { exch dup neg 3 1 roll 5 3 roll moveto 0 rlineto
      0 exch rlineto 0 rlineto closepath } bind def
/S { stroke } bind def
/f { fill } bind def
/f* { eofill } bind def
/n { newpath } bind def
/W { clip } bind def
/W* { eoclip } bind def
/BT { } bind def
/ET { } bind def
/BDC { mark 3 1 roll /BDC pdfmark } bind def
/EMC { mark /EMC pdfmark } bind def
/cairo_store_point { /cairo_point_y exch def /cairo_point_x exch def } def
/Tj { show currentpoint cairo_store_point } bind def
/TJ {
  {
    dup
    type /stringtype eq
    { show } { -0.001 mul 0 cairo_font_matrix dtransform rmoveto } ifelse
  } forall
  currentpoint cairo_store_point
} bind def
/cairo_selectfont { cairo_font_matrix aload pop pop pop 0 0 6 array astore
    cairo_font exch selectfont cairo_point_x cairo_point_y moveto } bind def
/Tf { pop /cairo_font exch def /cairo_font_matrix where
      { pop cairo_selectfont } if } bind def
/Td { matrix translate cairo_font_matrix matrix concatmatrix dup
      /cairo_font_matrix exch def dup 4 get exch 5 get cairo_store_point
      /cairo_font where { pop cairo_selectfont } if } bind def
/Tm { 2 copy 8 2 roll 6 array astore /cairo_font_matrix exch def
      cairo_store_point /cairo_font where { pop cairo_selectfont } if } bind def
/g { setgray } bind def
/rg { setrgbcolor } bind def
/d1 { setcachedevice } bind def
/cairo_data_source {
  CairoDataIndex CairoData length lt
    { CairoData CairoDataIndex get /CairoDataIndex CairoDataIndex 1 add def }
    { () } ifelse
} def
/cairo_flush_ascii85_file { cairo_ascii85_file status { cairo_ascii85_file flushfile } if } def
/cairo_image { image cairo_flush_ascii85_file } def
/cairo_imagemask { imagemask cairo_flush_ascii85_file } def
%%EndProlog
%%BeginSetup
%%EndSetup
%%Page: 1 1
%%BeginPageSetup
%%PageBoundingBox: 3 4 381 380
%%EndPageSetup
q 3 4 378 376 rectclip
1 0 0 -1 0 384 cm q
0.956863 0.937255 0.929412 rg
363 287.672 m 21 287.672 l 12.715 287.672 6 280.957 6 272.672 c 6 74.125
 l 6 65.84 12.715 59.125 21 59.125 c 363 59.125 l 371.285 59.125 378 65.84
 378 74.125 c 378 272.672 l 378 280.957 371.285 287.672 363 287.672 c h
363 287.672 m f
0.533333 0.321569 0.658824 rg
128.406 197.547 m 98.316 197.547 l 92.25 213.641 l 91.137 216.367 88.535
 217.977 85.812 217.977 c 84.945 217.977 84.203 217.852 83.457 217.602 c
 79.867 216.242 78.133 212.277 79.371 208.688 c 106.738 135.754 l 107.852
 133.031 110.578 131.297 113.301 131.422 c 116.148 131.297 118.75 133.031
 119.863 135.754 c 147.23 208.688 l 148.469 212.281 146.734 216.242 143.145
 217.602 c 142.523 217.852 141.66 217.977 140.793 217.977 c 138.066 217.977
 135.465 216.363 134.477 213.641 c h
123.328 183.926 m 113.301 157.301 l 103.27 183.926 l h
123.328 183.926 m f
164.199 211.164 m 164.199 138.109 l 164.199 134.27 167.172 131.297 171.012
 131.297 c 185.621 131.297 l 209.52 131.297 228.84 150.738 228.84 174.512
 c 228.84 198.535 209.523 217.977 185.621 217.977 c 171.012 217.977 l 167.172
 217.977 164.199 214.879 164.199 211.164 c h
177.945 204.23 m 185.621 204.23 l 201.965 204.109 215.09 190.98 215.09 
174.512 c 215.09 158.289 201.965 145.039 185.621 145.039 c 177.945 145.039
 l h
177.945 204.23 m f
238.777 196.43 m 241.008 193.707 245.094 193.332 247.816 195.562 c 253.266
 200.02 262.676 205.223 271.469 205.098 c 277.656 205.098 283.23 203.242
 286.945 200.516 c 290.66 197.793 292.273 194.695 292.273 191.602 c 292.273
 189.992 291.898 188.879 291.156 187.637 c 290.414 186.398 289.301 185.16
 287.445 183.926 c 283.852 181.57 277.785 179.465 270.477 178.102 c 270.234
 178.102 l 264.41 176.988 258.965 175.504 254.258 173.273 c 249.555 171.047
 245.465 167.949 242.742 163.617 c 240.887 160.645 239.895 157.176 239.895
 153.461 c 239.895 146.035 244.105 139.594 249.801 135.383 c 255.621 131.176
 263.172 128.82 271.223 128.82 c 283.113 128.82 291.902 134.645 298.219 
138.73 c 301.066 140.711 301.934 144.672 299.953 147.52 c 298.094 150.492
 294.133 151.359 291.16 149.379 c 284.844 145.168 278.777 141.453 271.227
 141.453 c 265.652 141.453 260.699 143.188 257.355 145.664 c 254.016 148.137
 252.652 150.863 252.652 153.465 c 252.652 154.949 252.898 155.941 253.52
 156.93 c 254.137 157.922 255.254 159.039 256.863 160.152 c 260.082 162.383
 265.652 164.359 272.34 165.602 c 272.59 165.602 l 278.902 166.84 284.723
 168.445 289.676 170.801 c 294.754 173.277 299.211 176.496 302.059 181.078
 c 303.918 184.047 305.031 187.766 305.031 191.602 c 305.031 199.527 300.57
 206.34 294.383 210.797 c 288.316 215.254 280.266 217.855 271.473 217.855
 c 258.102 217.73 246.832 211.043 239.773 205.473 c 237.043 203.242 236.672
 199.152 238.777 196.43 c h
238.777 196.43 m f
0.321569 0.435294 0.666667 rg
70.871 7.355 m 56.34 7.355 44.559 19.137 44.559 33.672 c 44.559 44.125 
l 97.188 44.125 l 97.188 33.672 l 97.188 19.137 85.402 7.355 70.871 7.355
 c h
70.871 7.355 m f
313.129 7.355 m 298.594 7.355 286.812 19.137 286.812 33.672 c 286.812 44.125
 l 339.441 44.125 l 339.441 33.672 l 339.441 19.137 327.66 7.355 313.129
 7.355 c h
313.129 7.355 m f
0.988235 0.760784 0.298039 rg
102.477 376.645 m 39.266 376.645 l 39.266 366.387 l 39.266 358.102 45.98
 351.387 54.266 351.387 c 87.477 351.387 l 95.762 351.387 102.477 358.102
 102.477 366.387 c h
102.477 376.645 m f
344.734 376.645 m 281.523 376.645 l 281.523 366.387 l 281.523 358.102 288.238
 351.387 296.523 351.387 c 329.734 351.387 l 338.02 351.387 344.734 358.102
 344.734 366.387 c h
344.734 376.645 m f
0.533333 0.321569 0.658824 rg
295.488 287.672 35.281 63.715 re f
0.870588 0.643137 0.180392 rg
329.734 351.387 m 316.234 351.387 l 324.52 351.387 331.234 358.102 331.234
 366.387 c 331.234 376.645 l 344.734 376.645 l 344.734 366.387 l 344.734
 358.105 338.02 351.387 329.734 351.387 c h
329.734 351.387 m f
0.988235 0.878431 0.415686 rg
54.266 351.387 m 67.766 351.387 l 59.48 351.387 52.766 358.102 52.766 366.387
 c 52.766 376.645 l 39.266 376.645 l 39.266 366.387 l 39.266 358.105 45.98
 351.387 54.266 351.387 c h
54.266 351.387 m f
0.533333 0.321569 0.658824 rg
53.23 287.672 35.281 63.715 re f
0.415686 0.203922 0.541176 rg
320.27 287.672 10.5 63.715 re f
0.65098 0.439216 0.776471 rg
53.23 287.672 10.5 63.715 re f
0.988235 0.760784 0.298039 rg
303.207 44.125 19.844 15 re f
60.949 44.125 19.844 15 re f
0.203922 0.317647 0.54902 rg
313.129 7.355 m 311.062 7.355 309.059 7.617 307.129 8.07 c 318.766 10.789
 327.441 21.207 327.441 33.672 c 327.441 44.125 l 339.441 44.125 l 339.441
 33.672 l 339.441 19.137 327.66 7.355 313.129 7.355 c h
313.129 7.355 m f
0.439216 0.552941 0.784314 rg
70.871 7.355 m 72.938 7.355 74.941 7.617 76.871 8.07 c 65.234 10.789 56.559
 21.207 56.559 33.672 c 56.559 44.125 l 44.559 44.125 l 44.559 33.672 l 
44.559 19.137 56.34 7.355 70.871 7.355 c h
70.871 7.355 m f
0.839216 0.819608 0.811765 rg
363 59.125 m 348 59.125 l 356.285 59.125 363 65.84 363 74.125 c 363 272.672
 l 363 280.957 356.285 287.672 348 287.672 c 363 287.672 l 371.285 287.672
 378 280.957 378 272.672 c 378 74.125 l 378 65.84 371.285 59.125 363 59.125
 c h
363 59.125 m f
1 g
21 287.672 m 36 287.672 l 27.715 287.672 21 280.957 21 272.672 c 21 74.125
 l 21 65.84 27.715 59.125 36 59.125 c 21 59.125 l 12.715 59.125 6 65.84 
6 74.125 c 6 272.672 l 6 280.957 12.715 287.672 21 287.672 c h
21 287.672 m f
0.411765 0.0196078 0.537255 rg
363 290.672 m 21 290.672 l 11.074 290.672 3 282.598 3 272.672 c 3 74.125
 l 3 64.199 11.074 56.125 21 56.125 c 363 56.125 l 372.926 56.125 381 64.199
 381 74.125 c 381 272.672 l 381 282.598 372.926 290.672 363 290.672 c h
21 62.125 m 14.383 62.125 9 67.508 9 74.125 c 9 272.672 l 9 279.289 14.383
 284.672 21 284.672 c 363 284.672 l 369.617 284.672 375 279.289 375 272.672
 c 375 74.125 l 375 67.508 369.617 62.125 363 62.125 c h
21 62.125 m f
339.441 47.125 m 286.812 47.125 l 285.156 47.125 283.812 45.781 283.812
 44.125 c 283.812 33.672 l 283.812 17.508 296.965 4.355 313.129 4.355 c 
329.293 4.355 342.441 17.508 342.441 33.672 c 342.441 44.125 l 342.441 45.781
 341.098 47.125 339.441 47.125 c h
289.812 41.125 m 336.441 41.125 l 336.441 33.672 l 336.441 20.812 325.984
 10.355 313.129 10.355 c 300.273 10.355 289.812 20.812 289.812 33.672 c 
h
289.812 41.125 m f
323.051 62.125 m 303.207 62.125 l 301.551 62.125 300.207 60.781 300.207
 59.125 c 300.207 44.125 l 300.207 42.469 301.551 41.125 303.207 41.125 
c 323.051 41.125 l 324.707 41.125 326.051 42.469 326.051 44.125 c 326.051
 59.125 l 326.051 60.781 324.711 62.125 323.051 62.125 c h
306.207 56.125 m 320.051 56.125 l 320.051 47.125 l 306.207 47.125 l h
306.207 56.125 m f
344.734 379.645 m 281.523 379.645 l 279.867 379.645 278.523 378.301 278.523
 376.645 c 278.523 366.387 l 278.523 356.465 286.598 348.387 296.523 348.387
 c 329.734 348.387 l 339.66 348.387 347.734 356.465 347.734 366.387 c 347.734
 376.645 l 347.734 378.301 346.391 379.645 344.734 379.645 c h
284.523 373.645 m 341.734 373.645 l 341.734 366.387 l 341.734 359.773 336.352
 354.387 329.734 354.387 c 296.523 354.387 l 289.906 354.387 284.523 359.773
 284.523 366.387 c h
284.523 373.645 m f
97.188 47.125 m 44.559 47.125 l 42.902 47.125 41.559 45.781 41.559 44.125
 c 41.559 33.672 l 41.559 17.508 54.707 4.355 70.871 4.355 c 87.035 4.355
 100.188 17.508 100.188 33.672 c 100.188 44.125 l 100.188 45.781 98.844 
47.125 97.188 47.125 c h
47.559 41.125 m 94.188 41.125 l 94.188 33.672 l 94.188 20.812 83.727 10.355
 70.871 10.355 c 58.016 10.355 47.559 20.812 47.559 33.672 c h
47.559 41.125 m f
80.793 62.125 m 60.949 62.125 l 59.293 62.125 57.949 60.781 57.949 59.125
 c 57.949 44.125 l 57.949 42.469 59.293 41.125 60.949 41.125 c 80.793 41.125
 l 82.449 41.125 83.793 42.469 83.793 44.125 c 83.793 59.125 l 83.793 60.781
 82.453 62.125 80.793 62.125 c h
63.949 56.125 m 77.793 56.125 l 77.793 47.125 l 63.949 47.125 l h
63.949 56.125 m f
88.512 354.387 m 53.23 354.387 l 51.574 354.387 50.23 353.043 50.23 351.387
 c 50.23 287.672 l 50.23 286.016 51.574 284.672 53.23 284.672 c 88.512 284.672
 l 90.168 284.672 91.512 286.016 91.512 287.672 c 91.512 351.387 l 91.512
 353.043 90.168 354.387 88.512 354.387 c h
56.23 348.387 m 85.512 348.387 l 85.512 290.672 l 56.23 290.672 l h
56.23 348.387 m f
330.77 354.387 m 295.488 354.387 l 293.832 354.387 292.488 353.043 292.488
 351.387 c 292.488 287.672 l 292.488 286.016 293.832 284.672 295.488 284.672
 c 330.77 284.672 l 332.426 284.672 333.77 286.016 333.77 287.672 c 333.77
 351.387 l 333.77 353.043 332.426 354.387 330.77 354.387 c h
298.488 348.387 m 327.77 348.387 l 327.77 290.672 l 298.488 290.672 l h
298.488 348.387 m f
102.477 379.645 m 39.266 379.645 l 37.609 379.645 36.266 378.301 36.266
 376.645 c 36.266 366.387 l 36.266 356.465 44.34 348.387 54.266 348.387 
c 87.477 348.387 l 97.402 348.387 105.477 356.465 105.477 366.387 c 105.477
 376.645 l 105.477 378.301 104.133 379.645 102.477 379.645 c h
42.266 373.645 m 99.477 373.645 l 99.477 366.387 l 99.477 359.773 94.094
 354.387 87.477 354.387 c 54.266 354.387 l 47.648 354.387 42.266 359.773
 42.266 366.387 c h
42.266 373.645 m f
21 131.82 m 19.344 131.82 18 130.477 18 128.82 c 18 110.82 l 18 109.164
 19.344 107.82 21 107.82 c 22.656 107.82 24 109.164 24 110.82 c 24 128.82
 l 24 130.477 22.656 131.82 21 131.82 c h
21 131.82 m f
140.789 220.977 m 136.699 220.977 133.027 218.441 131.656 214.668 c 126.332
 200.543 l 100.391 200.543 l 95.055 214.699 l 93.484 218.543 89.867 220.977
 85.809 220.977 c 84.652 220.977 83.57 220.805 82.508 220.449 c 77.316 218.484
 74.742 212.906 76.535 207.711 c 103.93 134.703 l 105.512 130.832 109.324
 128.285 113.305 128.418 c 117.371 128.301 121.07 130.781 122.641 134.621
 c 150.039 207.637 l 151.855 212.91 149.285 218.484 144.207 220.41 c 143.043
 220.875 141.703 220.977 140.789 220.977 c h
98.316 194.543 m 128.406 194.543 l 129.656 194.543 130.773 195.316 131.215
 196.488 c 137.281 212.582 l 137.809 214.027 139.215 214.977 140.793 214.977
 c 141.41 214.977 141.871 214.883 142.027 214.816 c 144.105 214.031 145.121
 211.777 144.395 209.668 c 117.055 136.809 l 116.445 135.32 115.004 134.375
 113.43 134.418 c 113.34 134.418 113.254 134.418 113.164 134.418 c 111.684
 134.32 110.129 135.387 109.512 136.891 c 82.18 209.742 l 81.48 211.773 
82.496 214.027 84.523 214.797 c 84.867 214.906 85.285 214.973 85.809 214.973
 c 87.422 214.973 88.859 214.004 89.473 212.504 c 95.508 196.484 l 95.949
 195.316 97.066 194.543 98.316 194.543 c h
123.328 186.926 m 103.27 186.926 l 102.285 186.926 101.363 186.441 100.805
 185.633 c 100.242 184.82 100.117 183.789 100.461 182.867 c 110.492 156.242
 l 110.934 155.074 112.051 154.301 113.301 154.301 c 114.551 154.301 115.668
 155.074 116.109 156.242 c 126.137 182.867 l 126.484 183.789 126.355 184.82
 125.797 185.633 c 125.238 186.441 124.312 186.926 123.328 186.926 c h
107.605 180.926 m 118.992 180.926 l 113.301 165.809 l h
107.605 180.926 m f
185.625 220.977 m 171.012 220.977 l 165.602 220.977 161.203 216.574 161.203
 211.164 c 161.203 138.109 l 161.203 132.605 165.512 128.297 171.012 128.297
 c 185.625 128.297 l 211.109 128.297 231.84 149.027 231.84 174.512 c 231.84
 200.133 211.105 220.977 185.625 220.977 c h
171.012 134.297 m 168.84 134.297 167.199 135.938 167.199 138.109 c 167.199
 211.164 l 167.199 213.305 168.875 214.977 171.012 214.977 c 185.621 214.977
 l 207.797 214.977 225.84 196.824 225.84 174.512 c 225.84 152.336 207.797
 134.297 185.621 134.297 c h
177.945 207.23 m 176.289 207.23 174.945 205.887 174.945 204.23 c 174.945
 145.039 l 174.945 143.387 176.289 142.039 177.945 142.039 c 185.621 142.039
 l 203.527 142.039 218.094 156.609 218.094 174.512 c 218.094 192.723 203.84
 207.094 185.645 207.23 c h
180.945 201.23 m 185.621 201.23 l 200.457 201.121 212.094 189.383 212.094
 174.512 c 212.094 159.918 200.219 148.043 185.621 148.043 c 180.945 148.043
 l h
180.945 201.23 m f
271.469 220.852 m 257.195 220.719 245.344 213.695 237.91 207.82 c 233.93
 204.566 233.27 198.648 236.406 194.594 c 236.422 194.57 236.438 194.551
 236.457 194.531 c 239.734 190.523 245.684 189.941 249.719 193.238 c 254.742
 197.348 263.332 202.098 271.156 202.098 c 276.504 202.105 281.699 200.645
 285.172 198.098 c 287.891 196.102 289.273 193.918 289.273 191.598 c 289.273
 190.637 289.105 190.047 288.582 189.18 c 287.973 188.164 287.082 187.289
 285.781 186.422 c 282.562 184.312 276.887 182.375 270.195 181.102 c 270.02
 181.102 269.844 181.082 269.664 181.051 c 262.887 179.754 257.426 178.094
 252.969 175.984 c 247.301 173.301 243.004 169.676 240.199 165.215 c 238.035
 161.746 236.891 157.688 236.891 153.461 c 236.891 145.664 240.945 138.195
 248.012 132.969 c 254.398 128.352 262.629 125.82 271.219 125.82 c 283.797
 125.82 293.262 131.945 299.523 136 c 299.844 136.207 l 304.203 139.238 
305.316 145.055 302.41 149.23 c 301.16 151.242 299.07 152.703 296.613 153.234
 c 294.141 153.766 291.609 153.285 289.492 151.871 c 283.184 147.668 277.836
 144.453 271.219 144.453 c 266.645 144.453 262.242 145.773 259.137 148.074
 c 256.82 149.789 255.648 151.602 255.648 153.461 c 255.648 154.59 255.832
 154.977 256.055 155.336 c 256.262 155.664 256.902 156.535 258.562 157.684
 c 261.418 159.66 266.531 161.445 272.613 162.598 c 272.797 162.598 272.977
 162.617 273.156 162.652 c 280.547 164.102 286.203 165.828 290.957 168.086
 c 297.293 171.18 301.746 174.902 304.598 179.488 c 306.809 183.02 308.023
 187.324 308.023 191.598 c 308.023 199.902 303.684 207.785 296.125 213.227
 c 289.449 218.141 280.68 220.852 271.469 220.852 c h
241.125 198.297 m 240.008 199.777 240.254 201.988 241.668 203.148 c 248.328
 208.402 258.949 214.734 271.496 214.852 c 279.41 214.852 286.914 212.551
 292.598 208.379 c 298.598 204.059 302.023 197.949 302.023 191.598 c 302.023
 188.434 301.133 185.262 299.508 182.664 c 297.266 179.059 293.617 176.062
 288.355 173.496 c 284.207 171.523 278.941 169.918 272.285 168.598 c 272.117
 168.594 271.949 168.578 271.785 168.547 c 264.68 167.23 258.77 165.125 
255.148 162.617 c 253.246 161.301 251.844 159.922 250.965 158.516 c 250.043
 157.043 249.645 155.527 249.645 153.461 c 249.645 150.805 250.672 146.875
 255.562 143.25 c 259.68 140.199 265.387 138.453 271.219 138.453 c 279.5
 138.453 285.902 142.27 292.816 146.879 c 293.574 147.387 294.473 147.555
 295.348 147.371 c 296.207 147.184 296.938 146.672 297.402 145.93 c 298.484
 144.367 298.031 142.254 296.496 141.188 c 296.262 141.039 l 290.25 137.148
 282.02 131.82 271.219 131.82 c 263.883 131.82 256.898 133.945 251.555 137.812
 c 246.059 141.875 242.891 147.586 242.891 153.461 c 242.891 156.559 243.719
 159.523 245.285 162.027 c 247.469 165.496 250.918 168.371 255.539 170.559
 c 259.473 172.422 264.375 173.91 270.516 175.102 c 270.688 175.105 270.859
 175.121 271.027 175.152 c 278.695 176.582 285.109 178.809 289.086 181.414
 c 291.145 182.781 292.656 184.309 293.727 186.09 c 294.809 187.895 295.27
 189.543 295.27 191.598 c 295.27 194.578 294.133 198.965 288.719 202.934
 c 284.168 206.273 277.762 208.105 271.121 208.098 c 261.766 208.098 251.984
 202.848 245.918 197.883 c 244.48 196.707 242.293 196.902 241.125 198.297
 c h
241.125 198.297 m f
Q Q
showpage
%%Trailer
end
%%EOF
