%!PS-Adobe-3.0 EPSF-3.0
%%Creator: cairo 1.16.0 (https://cairographics.org)
%%CreationDate: Fri Jan 10 07:38:37 2020
%%Pages: 1
%%DocumentData: Clean7Bit
%%LanguageLevel: 2
%%BoundingBox: 3 3 381 381
%%EndComments
%%BeginProlog
50 dict begin
/q { gsave } bind def
/Q { grestore } bind def
/cm { 6 array astore concat } bind def
/w { setlinewidth } bind def
/J { setlinecap } bind def
/j { setlinejoin } bind def
/M { setmiterlimit } bind def
/d { setdash } bind def
/m { moveto } bind def
/l { lineto } bind def
/c { curveto } bind def
/h { closepath } bind def
/re { exch dup neg 3 1 roll 5 3 roll moveto 0 rlineto
      0 exch rlineto 0 rlineto closepath } bind def
/S { stroke } bind def
/f { fill } bind def
/f* { eofill } bind def
/n { newpath } bind def
/W { clip } bind def
/W* { eoclip } bind def
/BT { } bind def
/ET { } bind def
/BDC { mark 3 1 roll /BDC pdfmark } bind def
/EMC { mark /EMC pdfmark } bind def
/cairo_store_point { /cairo_point_y exch def /cairo_point_x exch def } def
/Tj { show currentpoint cairo_store_point } bind def
/TJ {
  {
    dup
    type /stringtype eq
    { show } { -0.001 mul 0 cairo_font_matrix dtransform rmoveto } ifelse
  } forall
  currentpoint cairo_store_point
} bind def
/cairo_selectfont { cairo_font_matrix aload pop pop pop 0 0 6 array astore
    cairo_font exch selectfont cairo_point_x cairo_point_y moveto } bind def
/Tf { pop /cairo_font exch def /cairo_font_matrix where
      { pop cairo_selectfont } if } bind def
/Td { matrix translate cairo_font_matrix matrix concatmatrix dup
      /cairo_font_matrix exch def dup 4 get exch 5 get cairo_store_point
      /cairo_font where { pop cairo_selectfont } if } bind def
/Tm { 2 copy 8 2 roll 6 array astore /cairo_font_matrix exch def
      cairo_store_point /cairo_font where { pop cairo_selectfont } if } bind def
/g { setgray } bind def
/rg { setrgbcolor } bind def
/d1 { setcachedevice } bind def
/cairo_data_source {
  CairoDataIndex CairoData length lt
    { CairoData CairoDataIndex get /CairoDataIndex CairoDataIndex 1 add def }
    { () } ifelse
} def
/cairo_flush_ascii85_file { cairo_ascii85_file status { cairo_ascii85_file flushfile } if } def
/cairo_image { image cairo_flush_ascii85_file } def
/cairo_imagemask { imagemask cairo_flush_ascii85_file } def
%%EndProlog
%%BeginSetup
%%EndSetup
%%Page: 1 1
%%BeginPageSetup
%%PageBoundingBox: 3 3 381 381
%%EndPageSetup
q 3 3 378 378 rectclip
1 0 0 -1 0 384 cm q
0.956863 0.937255 0.929412 rg
371.523 192 m 371.523 291.148 291.148 371.523 192 371.523 c 92.852 371.523
 12.477 291.148 12.477 192 c 12.477 92.852 92.852 12.477 192 12.477 c 291.148
 12.477 371.523 92.852 371.523 192 c h
371.523 192 m f
0.839216 0.819608 0.811765 rg
192 12.477 m 189.383 12.477 186.781 12.543 184.195 12.656 c 279.719 16.742
 355.914 95.469 355.914 192 c 355.914 288.531 279.719 367.258 184.195 371.344
 c 186.781 371.457 189.383 371.523 192 371.523 c 291.148 371.523 371.523
 291.148 371.523 192 c 371.523 92.852 291.148 12.477 192 12.477 c h
192 12.477 m f
1 g
192 371.523 m 194.617 371.523 197.215 371.453 199.805 371.344 c 104.281
 367.258 28.086 288.531 28.086 192 c 28.086 95.469 104.281 16.742 199.805
 12.656 c 197.219 12.543 194.617 12.477 192 12.477 c 92.852 12.477 12.477
 92.852 12.477 192 c 12.477 291.148 92.852 371.523 192 371.523 c h
192 371.523 m f
0.411765 0.0196078 0.537255 rg
192 374.523 m 91.355 374.523 9.477 292.645 9.477 192 c 9.477 91.355 91.355
 9.477 192 9.477 c 292.645 9.477 374.523 91.355 374.523 192 c 374.523 292.645
 292.645 374.523 192 374.523 c h
192 15.477 m 94.664 15.477 15.477 94.664 15.477 192 c 15.477 289.336 94.664
 368.523 192 368.523 c 289.336 368.523 368.523 289.336 368.523 192 c 368.523
 94.664 289.336 15.477 192 15.477 c h
192 15.477 m f
26.684 190.418 m 25.027 190.418 23.684 189.074 23.684 187.418 c 23.684 
181.254 24.129 175.051 25 168.992 c 25.234 167.352 26.754 166.211 28.398
 166.449 c 30.039 166.688 31.176 168.207 30.938 169.848 c 30.105 175.625
 29.684 181.539 29.684 187.422 c 29.684 189.074 28.34 190.418 26.684 190.418
 c h
26.684 190.418 m f
0.988235 0.760784 0.298039 rg
367.512 67.133 m 381.824 52.816 381.488 29.402 366.504 15.516 c 352.883
 2.898 331.508 2.898 317.887 15.512 c 306.707 25.863 303.68 41.512 308.797
 54.738 c 309.816 57.375 309.211 60.363 307.211 62.359 c 294.609 74.965 
l 290.727 78.848 290.367 85.176 294.066 89.238 c 298.012 93.574 304.734 
93.695 308.832 89.594 c 321.641 76.789 l 323.633 74.793 326.613 74.18 329.238
 75.195 c 342.062 80.164 357.164 77.477 367.512 67.133 c h
367.512 67.133 m f
0.411765 0.0196078 0.537255 rg
301.629 95.582 m 301.523 95.582 301.414 95.582 301.305 95.578 c 297.664
 95.496 294.305 93.957 291.844 91.258 c 287.098 86.039 287.379 77.949 292.488
 72.844 c 305.09 60.242 l 306.238 59.098 306.594 57.363 305.996 55.824 c
 300.219 40.887 304.086 24.199 315.848 13.312 c 330.625 -0.375 353.77 -0.367
 368.539 13.32 c 376.367 20.57 380.789 30.426 380.992 41.07 c 381.195 51.719
 377.16 61.727 369.633 69.254 c 358.77 80.121 342.492 83.551 328.156 77.996
 c 326.633 77.406 324.906 77.766 323.758 78.914 c 310.953 91.719 l 308.453
 94.215 305.152 95.582 301.629 95.582 c h
342.191 9.039 m 334.18 9.039 326.168 11.93 319.926 17.711 c 309.98 26.918
 306.711 41.031 311.594 53.656 c 313.047 57.41 312.156 61.66 309.332 64.484
 c 296.73 77.086 l 293.941 79.875 293.738 84.422 296.281 87.219 c 297.629
 88.695 299.461 89.535 301.449 89.578 c 303.359 89.613 305.301 88.879 306.711
 87.473 c 319.516 74.664 l 322.344 71.84 326.582 70.945 330.324 72.398 c
 342.445 77.09 356.207 74.191 365.391 65.008 c 371.754 58.645 375.164 50.18
 374.992 41.18 c 374.82 32.184 371.082 23.852 364.461 17.715 c 358.219 11.934
 350.203 9.039 342.191 9.039 c h
342.191 9.039 m f
0.533333 0.321569 0.658824 rg
307.211 62.359 m 294.609 74.965 l 290.727 78.848 290.367 85.176 294.066
 89.238 c 298.012 93.574 304.734 93.695 308.832 89.594 c 321.637 76.789 
l h
307.211 62.359 m f
0.411765 0.0196078 0.537255 rg
301.629 95.582 m 301.52 95.582 301.414 95.582 301.305 95.578 c 297.664 
95.492 294.305 93.957 291.848 91.258 c 287.098 86.039 287.379 77.949 292.488
 72.844 c 305.09 60.242 l 306.215 59.117 308.207 59.113 309.332 60.242 c
 323.758 74.668 l 324.32 75.23 324.637 75.996 324.637 76.789 c 324.637 77.586
 324.32 78.348 323.758 78.91 c 310.953 91.719 l 308.453 94.215 305.152 95.582
 301.629 95.582 c h
307.211 66.605 m 296.73 77.086 l 293.941 79.875 293.742 84.422 296.285 
87.219 c 297.629 88.695 299.461 89.531 301.449 89.578 c 303.414 89.613 305.305
 88.879 306.711 87.473 c 317.398 76.785 l h
307.211 66.605 m f
311.883 88.223 m 311.117 88.223 310.352 87.93 309.762 87.344 c 296.656 
74.238 l 295.488 73.066 295.488 71.164 296.656 69.996 c 297.828 68.824 299.727
 68.824 300.898 69.996 c 314.004 83.102 l 315.176 84.273 315.176 86.172 
314.004 87.344 c 313.418 87.93 312.652 88.223 311.883 88.223 c h
311.883 88.223 m f
0.988235 0.760784 0.298039 rg
16.488 316.867 m 2.176 331.184 2.512 354.598 17.496 368.484 c 31.117 381.102
 52.492 381.102 66.113 368.488 c 77.293 358.137 80.32 342.488 75.203 329.262
 c 74.184 326.625 74.789 323.637 76.789 321.641 c 89.391 309.035 l 93.273
 305.152 93.633 298.824 89.934 294.762 c 85.988 290.426 79.266 290.305 75.168
 294.406 c 62.359 307.211 l 60.367 309.207 57.387 309.82 54.762 308.805 
c 41.938 303.836 26.836 306.523 16.488 316.867 c h
16.488 316.867 m f
0.411765 0.0196078 0.537255 rg
41.809 380.949 m 32.328 380.949 22.848 377.527 15.461 370.684 c 7.633 363.43
 3.211 353.574 3.008 342.934 c 2.805 332.285 6.84 322.273 14.367 314.746
 c 25.23 303.883 41.508 300.449 55.844 306.004 c 57.367 306.594 59.094 306.234
 60.238 305.09 c 73.047 292.281 l 75.625 289.703 79.047 288.352 82.695 288.418
 c 86.336 288.504 89.695 290.039 92.156 292.738 c 96.906 297.957 96.621 
306.047 91.512 311.152 c 78.91 323.754 l 77.766 324.902 77.41 326.637 78.004
 328.172 c 83.781 343.109 79.914 359.797 68.152 370.688 c 60.766 377.531
 51.285 380.949 41.809 380.949 c h
41.824 309.383 m 33.27 309.383 24.875 312.723 18.609 318.988 c 12.246 325.355
 8.832 333.816 9.008 342.82 c 9.176 351.816 12.918 360.148 19.535 366.281
 c 32.023 377.852 51.586 377.852 64.074 366.289 c 74.02 357.078 77.289 342.969
 72.406 330.34 c 70.957 326.59 71.844 322.34 74.668 319.516 c 87.27 306.914
 l 90.059 304.121 90.262 299.578 87.719 296.781 c 86.371 295.305 84.539 
294.465 82.555 294.418 c 80.559 294.367 78.695 295.121 77.289 296.527 c 
64.484 309.332 l 61.656 312.16 57.418 313.051 53.676 311.602 c 49.824 310.109
 45.809 309.383 41.824 309.383 c h
16.488 316.871 m 16.504 316.871 l h
16.488 316.871 m f
0.533333 0.321569 0.658824 rg
76.789 321.641 m 89.391 309.035 l 93.273 305.152 93.633 298.824 89.934 
294.762 c 85.988 290.426 79.266 290.305 75.168 294.406 c 62.359 307.211 
l h
76.789 321.641 m f
0.411765 0.0196078 0.537255 rg
76.789 324.641 m 76.02 324.641 75.254 324.348 74.668 323.762 c 60.238 309.332
 l 59.07 308.16 59.07 306.262 60.238 305.09 c 73.047 292.285 l 75.625 289.707
 79.047 288.355 82.695 288.422 c 86.336 288.508 89.695 290.043 92.152 292.742
 c 96.902 297.961 96.621 306.047 91.512 311.156 c 78.91 323.758 l 78.324
 324.344 77.555 324.641 76.789 324.641 c h
66.605 307.211 m 76.789 317.395 l 87.27 306.914 l 90.059 304.125 90.262
 299.578 87.719 296.781 c 86.371 295.305 84.539 294.469 82.555 294.422 c
 80.559 294.367 78.695 295.121 77.289 296.527 c h
66.605 307.211 m f
85.223 314.883 m 84.453 314.883 83.688 314.594 83.102 314.004 c 69.996 
300.898 l 68.824 299.727 68.824 297.828 69.996 296.656 c 71.164 295.484 
73.066 295.484 74.238 296.656 c 87.344 309.762 l 88.516 310.934 88.516 312.836
 87.344 314.004 c 86.758 314.594 85.992 314.883 85.223 314.883 c h
85.223 314.883 m f
0.988235 0.760784 0.298039 rg
367.512 67.133 m 381.824 52.816 381.488 29.402 366.504 15.516 c 352.883
 2.898 331.508 2.898 317.887 15.512 c 306.707 25.863 303.68 41.512 308.797
 54.738 c 309.816 57.375 309.211 60.363 307.211 62.359 c 294.609 74.965 
l 290.727 78.848 290.367 85.176 294.066 89.238 c 298.012 93.574 304.734 
93.695 308.832 89.594 c 321.641 76.789 l 323.633 74.793 326.613 74.18 329.238
 75.195 c 342.062 80.164 357.164 77.477 367.512 67.133 c h
367.512 67.133 m f
0.411765 0.0196078 0.537255 rg
301.629 95.582 m 301.523 95.582 301.414 95.582 301.305 95.578 c 297.664
 95.496 294.305 93.957 291.844 91.258 c 287.098 86.039 287.379 77.949 292.488
 72.844 c 305.09 60.242 l 306.238 59.098 306.594 57.363 305.996 55.824 c
 300.219 40.887 304.086 24.199 315.848 13.312 c 330.625 -0.375 353.77 -0.367
 368.539 13.32 c 376.367 20.57 380.789 30.426 380.992 41.07 c 381.195 51.719
 377.16 61.727 369.633 69.254 c 358.77 80.121 342.492 83.551 328.156 77.996
 c 326.633 77.406 324.906 77.766 323.758 78.914 c 310.953 91.719 l 308.453
 94.215 305.152 95.582 301.629 95.582 c h
342.191 9.039 m 334.18 9.039 326.168 11.93 319.926 17.711 c 309.98 26.918
 306.711 41.031 311.594 53.656 c 313.047 57.41 312.156 61.66 309.332 64.484
 c 296.73 77.086 l 293.941 79.875 293.738 84.422 296.281 87.219 c 297.629
 88.695 299.461 89.535 301.449 89.578 c 303.359 89.613 305.301 88.879 306.711
 87.473 c 319.516 74.664 l 322.344 71.84 326.582 70.945 330.324 72.398 c
 342.445 77.09 356.207 74.191 365.391 65.008 c 371.754 58.645 375.164 50.18
 374.992 41.18 c 374.82 32.184 371.082 23.852 364.461 17.715 c 358.219 11.934
 350.203 9.039 342.191 9.039 c h
342.191 9.039 m f
0.533333 0.321569 0.658824 rg
307.211 62.359 m 294.609 74.965 l 290.727 78.848 290.367 85.176 294.066
 89.238 c 298.012 93.574 304.734 93.695 308.832 89.594 c 321.637 76.789 
l h
307.211 62.359 m f
0.411765 0.0196078 0.537255 rg
301.629 95.582 m 301.52 95.582 301.414 95.582 301.305 95.578 c 297.664 
95.492 294.305 93.957 291.848 91.258 c 287.098 86.039 287.379 77.949 292.488
 72.844 c 305.09 60.242 l 306.215 59.117 308.207 59.113 309.332 60.242 c
 323.758 74.668 l 324.32 75.23 324.637 75.996 324.637 76.789 c 324.637 77.586
 324.32 78.348 323.758 78.91 c 310.953 91.719 l 308.453 94.215 305.152 95.582
 301.629 95.582 c h
307.211 66.605 m 296.73 77.086 l 293.941 79.875 293.742 84.422 296.285 
87.219 c 297.629 88.695 299.461 89.531 301.449 89.578 c 303.414 89.613 305.305
 88.879 306.711 87.473 c 317.398 76.785 l h
307.211 66.605 m f
311.883 88.223 m 311.117 88.223 310.352 87.93 309.762 87.344 c 296.656 
74.238 l 295.488 73.066 295.488 71.164 296.656 69.996 c 297.828 68.824 299.727
 68.824 300.898 69.996 c 314.004 83.102 l 315.176 84.273 315.176 86.172 
314.004 87.344 c 313.418 87.93 312.652 88.223 311.883 88.223 c h
311.883 88.223 m f
0.988235 0.760784 0.298039 rg
16.488 316.867 m 2.176 331.184 2.512 354.598 17.496 368.484 c 31.117 381.102
 52.492 381.102 66.113 368.488 c 77.293 358.137 80.32 342.488 75.203 329.262
 c 74.184 326.625 74.789 323.637 76.789 321.641 c 89.391 309.035 l 93.273
 305.152 93.633 298.824 89.934 294.762 c 85.988 290.426 79.266 290.305 75.168
 294.406 c 62.359 307.211 l 60.367 309.207 57.387 309.82 54.762 308.805 
c 41.938 303.836 26.836 306.523 16.488 316.867 c h
16.488 316.867 m f
0.411765 0.0196078 0.537255 rg
41.809 380.949 m 32.328 380.949 22.848 377.527 15.461 370.684 c 7.633 363.43
 3.211 353.574 3.008 342.934 c 2.805 332.285 6.84 322.273 14.367 314.746
 c 25.23 303.883 41.508 300.449 55.844 306.004 c 57.367 306.594 59.094 306.234
 60.238 305.09 c 73.047 292.281 l 75.625 289.703 79.047 288.352 82.695 288.418
 c 86.336 288.504 89.695 290.039 92.156 292.738 c 96.906 297.957 96.621 
306.047 91.512 311.152 c 78.91 323.754 l 77.766 324.902 77.41 326.637 78.004
 328.172 c 83.781 343.109 79.914 359.797 68.152 370.688 c 60.766 377.531
 51.285 380.949 41.809 380.949 c h
41.824 309.383 m 33.27 309.383 24.875 312.723 18.609 318.988 c 12.246 325.355
 8.832 333.816 9.008 342.82 c 9.176 351.816 12.918 360.148 19.535 366.281
 c 32.023 377.852 51.586 377.852 64.074 366.289 c 74.02 357.078 77.289 342.969
 72.406 330.34 c 70.957 326.59 71.844 322.34 74.668 319.516 c 87.27 306.914
 l 90.059 304.121 90.262 299.578 87.719 296.781 c 86.371 295.305 84.539 
294.465 82.555 294.418 c 80.559 294.367 78.695 295.121 77.289 296.527 c 
64.484 309.332 l 61.656 312.16 57.418 313.051 53.676 311.602 c 49.824 310.109
 45.809 309.383 41.824 309.383 c h
16.488 316.871 m 16.504 316.871 l h
16.488 316.871 m f
0.533333 0.321569 0.658824 rg
76.789 321.641 m 89.391 309.035 l 93.273 305.152 93.633 298.824 89.934 
294.762 c 85.988 290.426 79.266 290.305 75.168 294.406 c 62.359 307.211 
l h
76.789 321.641 m f
0.411765 0.0196078 0.537255 rg
76.789 324.641 m 76.02 324.641 75.254 324.348 74.668 323.762 c 60.238 309.332
 l 59.07 308.16 59.07 306.262 60.238 305.09 c 73.047 292.285 l 75.625 289.707
 79.047 288.355 82.695 288.422 c 86.336 288.508 89.695 290.043 92.152 292.742
 c 96.902 297.961 96.621 306.047 91.512 311.156 c 78.91 323.758 l 78.324
 324.344 77.555 324.641 76.789 324.641 c h
66.605 307.211 m 76.789 317.395 l 87.27 306.914 l 90.059 304.125 90.262
 299.578 87.719 296.781 c 86.371 295.305 84.539 294.469 82.555 294.422 c
 80.559 294.367 78.695 295.121 77.289 296.527 c h
66.605 307.211 m f
85.223 314.883 m 84.453 314.883 83.688 314.594 83.102 314.004 c 69.996 
300.898 l 68.824 299.727 68.824 297.828 69.996 296.656 c 71.164 295.484 
73.066 295.484 74.238 296.656 c 87.344 309.762 l 88.516 310.934 88.516 312.836
 87.344 314.004 c 86.758 314.594 85.992 314.883 85.223 314.883 c h
85.223 314.883 m f
0.321569 0.435294 0.666667 rg
168.953 222.855 m 168.953 179.41 l 215.254 179.41 l 215.254 222.855 l 247.633
 222.855 l 263.828 222.875 276.938 236.172 276.918 252.367 c 276.918 291.418
 l 107.082 291.418 l 107.082 252.125 l 107.102 235.93 120.324 222.82 136.516
 222.84 c h
168.953 222.855 m f
0.203922 0.317647 0.54902 rg
247.637 222.855 m 237.348 222.855 l 253.543 222.875 266.652 236.16 266.633
 252.355 c 266.633 291.418 l 276.918 291.418 l 276.918 252.367 l 276.938
 236.172 263.828 222.875 247.637 222.855 c h
247.637 222.855 m f
0.439216 0.552941 0.784314 rg
136.516 222.84 m 146.801 222.855 l 130.609 222.836 117.387 235.945 117.367
 252.137 c 117.367 291.418 l 107.082 291.418 l 107.082 252.125 l 107.102
 235.934 120.324 222.82 136.516 222.84 c h
136.516 222.84 m f
0.411765 0.0196078 0.537255 rg
276.918 294.418 m 107.082 294.418 l 105.426 294.418 104.082 293.074 104.082
 291.418 c 104.082 252.125 l 104.094 243.492 107.48 235.375 113.617 229.273
 c 119.742 223.191 127.859 219.84 136.477 219.84 c 136.52 219.84 l 165.953
 219.852 l 165.953 179.41 l 165.953 177.758 167.297 176.41 168.953 176.41
 c 215.254 176.41 l 216.91 176.41 218.254 177.758 218.254 179.41 c 218.254
 219.855 l 247.633 219.855 l 256.266 219.867 264.383 223.266 270.488 229.434
 c 276.578 235.586 279.926 243.73 279.918 252.371 c 279.918 291.418 l 279.918
 293.074 278.574 294.418 276.918 294.418 c h
110.082 288.418 m 273.918 288.418 l 273.918 252.367 l 273.926 245.316 271.195
 238.676 266.223 233.656 c 261.254 228.633 254.648 225.863 247.629 225.855
 c 215.254 225.855 l 213.598 225.855 212.254 224.512 212.254 222.855 c 212.254
 182.41 l 171.957 182.41 l 171.957 222.855 l 171.957 223.652 171.641 224.414
 171.078 224.977 c 170.516 225.539 169.75 225.855 168.957 225.855 c 168.957
 225.855 168.957 225.855 168.953 225.855 c 136.516 225.84 l 136.508 225.84
 136.492 225.84 136.48 225.84 c 129.453 225.84 122.84 228.57 117.852 233.531
 c 112.852 238.5 110.094 245.105 110.082 252.129 c h
110.082 288.418 m f
1 0.623529 0.439216 rg
168.953 179.41 m 215.254 179.41 l 215.254 225.965 l 215.254 238.754 204.887
 249.117 192.102 249.117 c 179.32 249.117 168.953 238.75 168.953 225.965
 c h
168.953 179.41 m f
0.411765 0.0196078 0.537255 rg
192.102 252.117 m 177.684 252.117 165.953 240.387 165.953 225.965 c 165.953
 179.41 l 165.953 177.758 167.297 176.41 168.953 176.41 c 215.254 176.41
 l 216.91 176.41 218.254 177.758 218.254 179.41 c 218.254 225.965 l 218.254
 240.387 206.523 252.117 192.102 252.117 c h
171.957 182.41 m 171.957 225.965 l 171.957 237.078 180.996 246.117 192.105
 246.117 c 203.215 246.117 212.258 237.078 212.258 225.965 c 212.258 182.41
 l h
171.957 182.41 m f
1 0.741176 0.556863 rg
146.152 139.781 m 142.875 139.781 l 134.406 139.781 127.539 146.645 127.539
 155.117 c 127.539 163.586 134.406 170.453 142.875 170.453 c 146.152 170.453
 l h
146.152 139.781 m f
0.882353 0.505882 0.321569 rg
241.211 139.781 m 237.934 139.781 l 237.934 170.453 l 241.211 170.453 l
 249.68 170.453 256.547 163.586 256.547 155.117 c 256.547 146.645 249.68
 139.781 241.211 139.781 c h
241.211 139.781 m f
1 0.623529 0.439216 rg
192.043 217.742 m 166.695 217.742 146.148 196.93 146.148 171.254 c 146.148
 139.07 l 146.148 113.395 166.695 92.582 192.043 92.582 c 217.387 92.582
 237.934 113.395 237.934 139.07 c 237.934 171.254 l 237.934 196.93 217.387
 217.742 192.043 217.742 c h
192.043 217.742 m f
0.882353 0.505882 0.321569 rg
192.043 92.582 m 190.277 92.582 188.539 92.695 186.828 92.891 c 209.715
 95.516 227.504 115.184 227.504 139.07 c 227.504 171.254 l 227.504 195.141
 209.715 214.812 186.828 217.434 c 188.539 217.633 190.277 217.742 192.043
 217.742 c 217.387 217.742 237.934 196.93 237.934 171.254 c 237.934 139.07
 l 237.934 113.395 217.387 92.582 192.043 92.582 c h
192.043 92.582 m f
1 0.741176 0.556863 rg
192.043 92.582 m 193.805 92.582 195.543 92.695 197.258 92.891 c 174.367
 95.516 156.582 115.184 156.582 139.07 c 156.582 171.254 l 156.582 195.141
 174.367 214.812 197.258 217.434 c 195.543 217.633 193.809 217.742 192.043
 217.742 c 166.695 217.742 146.148 196.93 146.148 171.254 c 146.148 139.07
 l 146.152 113.395 166.695 92.582 192.043 92.582 c h
192.043 92.582 m f
0.411765 0.0196078 0.537255 rg
192.043 220.742 m 165.082 220.742 143.148 198.543 143.148 171.254 c 143.148
 139.07 l 143.148 111.781 165.082 89.582 192.043 89.582 c 219 89.582 240.934
 111.781 240.934 139.07 c 240.934 171.254 l 240.934 198.543 219 220.742 
192.043 220.742 c h
192.043 95.582 m 168.391 95.582 149.148 115.094 149.148 139.07 c 149.148
 171.254 l 149.148 195.234 168.391 214.742 192.043 214.742 c 215.695 214.742
 234.934 195.234 234.934 171.254 c 234.934 139.07 l 234.934 115.094 215.695
 95.582 192.043 95.582 c h
192.043 95.582 m f
146.152 173.453 m 142.875 173.453 l 132.766 173.453 124.539 165.227 124.539
 155.117 c 124.539 145.008 132.766 136.781 142.875 136.781 c 146.152 136.781
 l 147.809 136.781 149.152 138.125 149.152 139.781 c 149.152 170.453 l 149.152
 172.109 147.809 173.453 146.152 173.453 c h
142.875 142.781 m 136.074 142.781 130.539 148.312 130.539 155.117 c 130.539
 161.918 136.074 167.453 142.875 167.453 c 143.152 167.453 l 143.152 142.781
 l h
142.875 142.781 m f
241.211 173.453 m 237.934 173.453 l 236.277 173.453 234.934 172.109 234.934
 170.453 c 234.934 139.781 l 234.934 138.125 236.277 136.781 237.934 136.781
 c 241.211 136.781 l 251.32 136.781 259.547 145.008 259.547 155.117 c 259.547
 165.227 251.32 173.453 241.211 173.453 c h
240.934 167.453 m 241.211 167.453 l 248.012 167.453 253.547 161.918 253.547
 155.117 c 253.547 148.312 248.016 142.781 241.211 142.781 c 240.934 142.781
 l h
240.934 167.453 m f
Q Q
showpage
%%Trailer
end
%%EOF
