%!PS-Adobe-3.0 EPSF-3.0
%%Creator: cairo 1.16.0 (https://cairographics.org)
%%CreationDate: Fri Jan 10 07:38:37 2020
%%Pages: 1
%%DocumentData: Clean7Bit
%%LanguageLevel: 2
%%BoundingBox: 3 3 381 381
%%EndComments
%%BeginProlog
50 dict begin
/q { gsave } bind def
/Q { grestore } bind def
/cm { 6 array astore concat } bind def
/w { setlinewidth } bind def
/J { setlinecap } bind def
/j { setlinejoin } bind def
/M { setmiterlimit } bind def
/d { setdash } bind def
/m { moveto } bind def
/l { lineto } bind def
/c { curveto } bind def
/h { closepath } bind def
/re { exch dup neg 3 1 roll 5 3 roll moveto 0 rlineto
      0 exch rlineto 0 rlineto closepath } bind def
/S { stroke } bind def
/f { fill } bind def
/f* { eofill } bind def
/n { newpath } bind def
/W { clip } bind def
/W* { eoclip } bind def
/BT { } bind def
/ET { } bind def
/BDC { mark 3 1 roll /BDC pdfmark } bind def
/EMC { mark /EMC pdfmark } bind def
/cairo_store_point { /cairo_point_y exch def /cairo_point_x exch def } def
/Tj { show currentpoint cairo_store_point } bind def
/TJ {
  {
    dup
    type /stringtype eq
    { show } { -0.001 mul 0 cairo_font_matrix dtransform rmoveto } ifelse
  } forall
  currentpoint cairo_store_point
} bind def
/cairo_selectfont { cairo_font_matrix aload pop pop pop 0 0 6 array astore
    cairo_font exch selectfont cairo_point_x cairo_point_y moveto } bind def
/Tf { pop /cairo_font exch def /cairo_font_matrix where
      { pop cairo_selectfont } if } bind def
/Td { matrix translate cairo_font_matrix matrix concatmatrix dup
      /cairo_font_matrix exch def dup 4 get exch 5 get cairo_store_point
      /cairo_font where { pop cairo_selectfont } if } bind def
/Tm { 2 copy 8 2 roll 6 array astore /cairo_font_matrix exch def
      cairo_store_point /cairo_font where { pop cairo_selectfont } if } bind def
/g { setgray } bind def
/rg { setrgbcolor } bind def
/d1 { setcachedevice } bind def
/cairo_data_source {
  CairoDataIndex CairoData length lt
    { CairoData CairoDataIndex get /CairoDataIndex CairoDataIndex 1 add def }
    { () } ifelse
} def
/cairo_flush_ascii85_file { cairo_ascii85_file status { cairo_ascii85_file flushfile } if } def
/cairo_image { image cairo_flush_ascii85_file } def
/cairo_imagemask { imagemask cairo_flush_ascii85_file } def
%%EndProlog
%%BeginSetup
%%EndSetup
%%Page: 1 1
%%BeginPageSetup
%%PageBoundingBox: 3 3 381 381
%%EndPageSetup
q 3 3 378 378 rectclip
1 0 0 -1 0 384 cm q
0.956863 0.937255 0.929412 rg
378 192 m 378 294.727 294.727 378 192 378 c 89.273 378 6 294.727 6 192 
c 6 89.273 89.273 6 192 6 c 294.727 6 378 89.273 378 192 c h
378 192 m f
0.839216 0.819608 0.811765 rg
192 6 m 189.484 6 186.988 6.066 184.5 6.164 c 283.746 10.102 363 91.789
 363 192 c 363 292.211 283.746 373.898 184.5 377.836 c 186.988 377.934 189.484
 378 192 378 c 294.723 378 378 294.723 378 192 c 378 89.277 294.723 6 192
 6 c h
192 6 m f
1 g
192 378 m 194.512 378 197.012 377.934 199.5 377.836 c 100.254 373.898 21
 292.211 21 192 c 21 91.789 100.254 10.102 199.5 6.164 c 197.012 6.066 194.512
 6 192 6 c 89.277 6 6 89.277 6 192 c 6 294.723 89.277 378 192 378 c h
192 378 m f
0.533333 0.321569 0.658824 rg
100.531 227.828 m 100.531 192.453 l 138.23 192.453 l 138.23 227.828 l 164.598
 227.828 l 177.785 227.844 188.461 238.672 188.445 251.859 c 188.445 283.656
 l 50.148 283.656 l 50.148 251.664 l 50.164 238.477 60.93 227.801 74.113
 227.816 c h
100.531 227.828 m f
0.65098 0.439216 0.776471 rg
74.117 227.816 m 82.492 227.828 l 69.305 227.812 58.539 238.488 58.523 
251.672 c 58.523 283.656 l 50.148 283.656 l 50.148 251.664 l 50.164 238.477
 60.93 227.801 74.117 227.816 c h
74.117 227.816 m f
0.411765 0.0196078 0.537255 rg
188.441 286.656 m 50.148 286.656 l 48.492 286.656 47.148 285.312 47.148
 283.656 c 47.148 251.66 l 47.168 236.852 59.246 224.816 74.086 224.816 
c 74.121 224.816 l 97.527 224.824 l 97.527 192.453 l 97.527 190.797 98.871
 189.453 100.527 189.453 c 138.23 189.453 l 139.887 189.453 141.23 190.797
 141.23 192.453 c 141.23 224.828 l 164.598 224.828 l 171.777 224.836 178.523
 227.664 183.602 232.793 c 188.664 237.906 191.449 244.68 191.441 251.863
 c 191.441 283.656 l 191.441 285.316 190.098 286.656 188.441 286.656 c h
53.148 280.656 m 185.445 280.656 l 185.445 251.859 l 185.449 246.266 183.285
 240.996 179.34 237.016 c 175.395 233.031 170.16 230.832 164.594 230.828
 c 138.23 230.828 l 136.574 230.828 135.23 229.484 135.23 227.828 c 135.23
 195.453 l 103.531 195.453 l 103.531 227.828 l 103.531 228.625 103.215 229.387
 102.652 229.949 c 102.09 230.512 101.324 230.828 100.531 230.828 c 100.531
 230.828 100.531 230.828 100.527 230.828 c 74.113 230.816 l 74.109 230.816
 74.098 230.816 74.09 230.816 c 62.551 230.816 53.164 240.164 53.148 251.664
 c h
53.148 280.656 m f
1 0.623529 0.439216 rg
100.531 192.453 m 138.23 192.453 l 138.23 230.359 l 138.23 240.773 129.793
 249.211 119.379 249.211 c 108.969 249.211 100.531 240.77 100.531 230.359
 c h
100.531 192.453 m f
0.411765 0.0196078 0.537255 rg
119.379 252.215 m 107.332 252.215 97.527 242.41 97.527 230.363 c 97.527
 192.453 l 97.527 190.797 98.871 189.453 100.527 189.453 c 138.23 189.453
 l 139.887 189.453 141.23 190.797 141.23 192.453 c 141.23 230.363 l 141.23
 242.41 131.43 252.215 119.379 252.215 c h
103.531 195.453 m 103.531 230.359 l 103.531 239.102 110.641 246.211 119.379
 246.211 c 128.121 246.211 135.23 239.102 135.23 230.359 c 135.23 195.453
 l h
103.531 195.453 m f
1 0.741176 0.556863 rg
81.961 160.184 m 79.293 160.184 l 72.395 160.184 66.805 165.773 66.805 
172.672 c 66.805 179.566 72.395 185.16 79.293 185.16 c 81.961 185.16 l h
81.961 160.184 m f
0.882353 0.505882 0.321569 rg
159.367 160.184 m 156.699 160.184 l 156.699 185.16 l 159.367 185.16 l 166.266
 185.16 171.855 179.566 171.855 172.672 c 171.855 165.773 166.266 160.184
 159.367 160.184 c h
159.367 160.184 m f
1 0.623529 0.439216 rg
119.328 223.664 m 98.691 223.664 81.961 206.715 81.961 185.812 c 81.961
 159.605 l 81.961 138.699 98.691 121.75 119.328 121.75 c 139.969 121.75 
156.699 138.699 156.699 159.605 c 156.699 185.812 l 156.699 206.715 139.969
 223.664 119.328 223.664 c h
119.328 223.664 m f
0.882353 0.505882 0.321569 rg
119.328 121.75 m 117.891 121.75 116.477 121.84 115.082 122 c 133.719 124.137
 148.207 140.152 148.207 159.605 c 148.207 185.812 l 148.207 205.262 133.719
 221.277 115.082 223.414 c 116.477 223.578 117.891 223.668 119.328 223.668
 c 139.969 223.668 156.699 206.719 156.699 185.812 c 156.699 159.605 l 156.699
 138.699 139.969 121.75 119.328 121.75 c h
119.328 121.75 m f
1 0.741176 0.556863 rg
119.328 121.75 m 120.766 121.75 122.18 121.84 123.574 122 c 104.938 124.137
 90.453 140.152 90.453 159.605 c 90.453 185.812 l 90.453 205.262 104.938
 221.277 123.574 223.414 c 122.18 223.578 120.766 223.668 119.328 223.668
 c 98.691 223.668 81.961 206.719 81.961 185.812 c 81.961 159.605 l 81.961
 138.699 98.691 121.75 119.328 121.75 c h
119.328 121.75 m f
0.411765 0.0196078 0.537255 rg
119.328 226.664 m 97.07 226.664 78.961 208.34 78.961 185.812 c 78.961 159.605
 l 78.961 137.078 97.07 118.75 119.328 118.75 c 141.59 118.75 159.699 137.078
 159.699 159.605 c 159.699 185.812 l 159.699 208.34 141.59 226.664 119.328
 226.664 c h
119.328 124.75 m 100.379 124.75 84.961 140.387 84.961 159.602 c 84.961 
185.809 l 84.961 205.027 100.379 220.664 119.328 220.664 c 138.281 220.664
 153.699 205.027 153.699 185.809 c 153.699 159.602 l 153.699 140.387 138.281
 124.75 119.328 124.75 c h
119.328 124.75 m f
81.961 188.156 m 79.293 188.156 l 70.754 188.156 63.805 181.211 63.805 
172.668 c 63.805 164.129 70.754 157.184 79.293 157.184 c 81.961 157.184 
l 83.617 157.184 84.961 158.527 84.961 160.184 c 84.961 185.156 l 84.961
 186.816 83.617 188.156 81.961 188.156 c h
78.961 163.188 m 73.883 163.363 69.805 167.551 69.805 172.668 c 69.805 
177.789 73.883 181.977 78.961 182.152 c h
78.961 163.188 m f
159.367 188.156 m 156.699 188.156 l 155.043 188.156 153.699 186.812 153.699
 185.156 c 153.699 160.184 l 153.699 158.527 155.043 157.184 156.699 157.184
 c 159.367 157.184 l 167.906 157.184 174.855 164.129 174.855 172.668 c 174.855
 181.211 167.906 188.156 159.367 188.156 c h
159.699 163.188 m 159.699 182.152 l 164.777 181.977 168.855 177.789 168.855
 172.672 c 168.855 167.551 164.777 163.363 159.699 163.188 c h
159.699 163.188 m f
0.533333 0.321569 0.658824 rg
245.941 227.828 m 245.941 192.453 l 283.641 192.453 l 283.641 227.828 l
 310.008 227.828 l 323.195 227.844 333.871 238.672 333.852 251.859 c 333.852
 283.656 l 195.559 283.656 l 195.559 251.664 l 195.574 238.477 206.34 227.801
 219.527 227.816 c h
245.941 227.828 m f
0.415686 0.203922 0.541176 rg
310.008 227.828 m 301.633 227.828 l 314.82 227.844 325.492 238.66 325.477
 251.848 c 325.477 283.656 l 333.852 283.656 l 333.852 251.859 l 333.871
 238.672 323.195 227.844 310.008 227.828 c h
310.008 227.828 m f
0.411765 0.0196078 0.537255 rg
333.852 286.656 m 195.559 286.656 l 193.902 286.656 192.559 285.312 192.559
 283.656 c 192.559 251.66 l 192.566 244.48 195.383 237.734 200.488 232.66
 c 205.578 227.602 212.328 224.816 219.492 224.816 c 219.531 224.816 l 242.938
 224.824 l 242.938 192.453 l 242.938 190.797 244.281 189.453 245.938 189.453
 c 283.641 189.453 l 285.297 189.453 286.641 190.797 286.641 192.453 c 286.641
 224.828 l 310.008 224.828 l 317.184 224.836 323.934 227.664 329.012 232.793
 c 334.074 237.906 336.859 244.68 336.852 251.863 c 336.852 283.656 l 336.852
 285.316 335.508 286.656 333.852 286.656 c h
198.559 280.656 m 330.852 280.656 l 330.852 251.859 l 330.859 246.266 328.691
 240.996 324.75 237.016 c 320.805 233.031 315.57 230.832 310.004 230.828
 c 283.641 230.828 l 281.984 230.828 280.641 229.484 280.641 227.828 c 280.641
 195.453 l 248.941 195.453 l 248.941 227.828 l 248.941 228.625 248.625 229.387
 248.062 229.949 c 247.5 230.512 246.734 230.828 245.941 230.828 c 245.938
 230.828 l 219.523 230.816 l 219.516 230.816 219.504 230.816 219.496 230.816
 c 213.922 230.816 208.676 232.98 204.719 236.914 c 200.75 240.855 198.562
 246.098 198.559 251.664 c h
198.559 280.656 m f
1 0.623529 0.439216 rg
245.941 192.453 m 283.641 192.453 l 283.641 230.359 l 283.641 240.773 275.203
 249.211 264.789 249.211 c 254.379 249.211 245.941 240.77 245.941 230.359
 c h
245.941 192.453 m f
0.411765 0.0196078 0.537255 rg
264.789 252.215 m 252.742 252.215 242.941 242.41 242.941 230.363 c 242.941
 192.453 l 242.941 190.797 244.285 189.453 245.941 189.453 c 283.641 189.453
 l 285.297 189.453 286.641 190.797 286.641 192.453 c 286.641 230.363 l 286.641
 242.41 276.84 252.215 264.789 252.215 c h
248.941 195.453 m 248.941 230.359 l 248.941 239.102 256.051 246.211 264.789
 246.211 c 273.531 246.211 280.641 239.102 280.641 230.359 c 280.641 195.453
 l h
248.941 195.453 m f
1 0.741176 0.556863 rg
227.371 160.184 m 224.703 160.184 l 217.805 160.184 212.215 165.773 212.215
 172.672 c 212.215 179.566 217.805 185.16 224.703 185.16 c 227.371 185.16
 l h
227.371 160.184 m f
0.882353 0.505882 0.321569 rg
304.777 160.184 m 302.109 160.184 l 302.109 185.16 l 304.777 185.16 l 311.676
 185.16 317.266 179.566 317.266 172.672 c 317.266 165.773 311.676 160.184
 304.777 160.184 c h
304.777 160.184 m f
1 0.623529 0.439216 rg
264.738 223.664 m 244.102 223.664 227.371 206.715 227.371 185.812 c 227.371
 159.605 l 227.371 138.699 244.102 121.75 264.738 121.75 c 285.379 121.75
 302.109 138.699 302.109 159.605 c 302.109 185.812 l 302.109 206.715 285.379
 223.664 264.738 223.664 c h
264.738 223.664 m f
0.882353 0.505882 0.321569 rg
264.738 121.75 m 263.301 121.75 261.887 121.84 260.492 122 c 279.129 124.137
 293.617 140.152 293.617 159.605 c 293.617 185.812 l 293.617 205.262 279.129
 221.277 260.492 223.414 c 261.887 223.578 263.301 223.668 264.738 223.668
 c 285.379 223.668 302.109 206.719 302.109 185.812 c 302.109 159.605 l 302.109
 138.699 285.379 121.75 264.738 121.75 c h
264.738 121.75 m f
1 0.741176 0.556863 rg
264.738 121.75 m 266.176 121.75 267.59 121.84 268.984 122 c 250.348 124.137
 235.863 140.152 235.863 159.605 c 235.863 185.812 l 235.863 205.262 250.348
 221.277 268.984 223.414 c 267.59 223.578 266.176 223.668 264.738 223.668
 c 244.102 223.668 227.371 206.719 227.371 185.812 c 227.371 159.605 l 227.371
 138.699 244.102 121.75 264.738 121.75 c h
264.738 121.75 m f
0.411765 0.0196078 0.537255 rg
264.738 226.664 m 242.48 226.664 224.371 208.34 224.371 185.812 c 224.371
 159.605 l 224.371 137.078 242.48 118.75 264.738 118.75 c 287 118.75 305.109
 137.078 305.109 159.605 c 305.109 185.812 l 305.109 208.34 287 226.664 
264.738 226.664 c h
264.738 124.75 m 245.785 124.75 230.371 140.387 230.371 159.602 c 230.371
 185.809 l 230.371 205.027 245.785 220.664 264.738 220.664 c 283.691 220.664
 299.109 205.027 299.109 185.809 c 299.109 159.602 l 299.109 140.387 283.691
 124.75 264.738 124.75 c h
264.738 124.75 m f
227.371 188.156 m 224.703 188.156 l 216.164 188.156 209.215 181.211 209.215
 172.668 c 209.215 164.129 216.164 157.184 224.703 157.184 c 227.371 157.184
 l 229.027 157.184 230.371 158.527 230.371 160.184 c 230.371 185.156 l 230.371
 186.816 229.027 188.156 227.371 188.156 c h
224.371 163.188 m 219.289 163.363 215.215 167.551 215.215 172.668 c 215.215
 177.789 219.289 181.977 224.371 182.152 c h
224.371 163.188 m f
304.777 188.156 m 302.109 188.156 l 300.453 188.156 299.109 186.812 299.109
 185.156 c 299.109 160.184 l 299.109 158.527 300.453 157.184 302.109 157.184
 c 304.777 157.184 l 313.316 157.184 320.266 164.129 320.266 172.668 c 320.266
 181.211 313.316 188.156 304.777 188.156 c h
305.109 163.188 m 305.109 182.152 l 310.188 181.977 314.266 177.789 314.266
 172.672 c 314.266 167.551 310.188 163.363 305.109 163.188 c h
305.109 163.188 m f
0.321569 0.435294 0.666667 rg
171.375 220.445 m 171.375 180.395 l 214.059 180.395 l 214.059 220.445 l
 243.91 220.445 l 258.84 220.465 270.93 232.727 270.91 247.656 c 270.91 
283.656 l 114.328 283.656 l 114.328 247.43 l 114.348 232.5 126.539 220.414
 141.469 220.434 c h
171.375 220.445 m f
0.203922 0.317647 0.54902 rg
243.914 220.445 m 234.43 220.445 l 249.359 220.465 261.445 232.715 261.426
 247.641 c 261.426 283.656 l 270.91 283.656 l 270.91 247.656 l 270.93 232.727
 258.844 220.465 243.914 220.445 c h
243.914 220.445 m f
0.439216 0.552941 0.784314 rg
141.469 220.434 m 150.949 220.445 l 136.023 220.426 123.832 232.516 123.812
 247.445 c 123.812 283.656 l 114.328 283.656 l 114.328 247.43 l 114.348 
232.504 126.539 220.414 141.469 220.434 c h
141.469 220.434 m f
0.411765 0.0196078 0.537255 rg
270.91 286.656 m 114.328 286.656 l 112.676 286.656 111.328 285.312 111.328
 283.656 c 111.328 247.43 l 111.352 230.879 124.852 217.434 141.434 217.434
 c 141.473 217.434 l 168.375 217.445 l 168.375 180.395 l 168.375 178.738
 169.719 177.395 171.375 177.395 c 214.059 177.395 l 215.715 177.395 217.059
 178.738 217.059 180.395 c 217.059 217.445 l 243.91 217.445 l 260.477 217.469
 273.93 231.02 273.91 247.656 c 273.91 283.656 l 273.91 285.316 272.566 
286.656 270.91 286.656 c h
117.328 280.656 m 267.91 280.656 l 267.91 247.656 l 267.918 241.219 265.422
 235.152 260.883 230.57 c 256.344 225.984 250.312 223.453 243.906 223.445
 c 214.059 223.445 l 212.402 223.445 211.059 222.102 211.059 220.445 c 211.059
 183.395 l 174.375 183.395 l 174.375 220.445 l 174.375 221.242 174.059 222.008
 173.496 222.57 c 172.934 223.133 172.172 223.445 171.375 223.445 c 141.465
 223.434 l 141.457 223.434 141.445 223.434 141.434 223.434 c 128.152 223.434
 117.348 234.195 117.328 247.434 c h
117.328 280.656 m f
1 0.623529 0.439216 rg
171.375 180.395 m 214.059 180.395 l 214.059 223.316 l 214.059 235.102 204.504
 244.66 192.715 244.66 c 180.93 244.66 171.371 235.105 171.371 223.316 c
 171.371 180.395 l h
171.375 180.395 m f
0.411765 0.0196078 0.537255 rg
192.719 247.656 m 179.297 247.656 168.375 236.738 168.375 223.312 c 168.375
 180.395 l 168.375 178.738 169.719 177.395 171.375 177.395 c 214.059 177.395
 l 215.715 177.395 217.059 178.738 217.059 180.395 c 217.059 223.312 l 217.059
 236.738 206.141 247.656 192.719 247.656 c h
174.375 183.395 m 174.375 223.316 l 174.375 233.43 182.602 241.66 192.719
 241.66 c 202.832 241.66 211.059 233.43 211.059 223.316 c 211.059 183.395
 l h
174.375 183.395 m f
1 0.741176 0.556863 rg
150.348 143.855 m 147.328 143.855 l 139.52 143.855 133.191 150.188 133.191
 157.996 c 133.191 165.805 139.52 172.133 147.328 172.133 c 150.348 172.133
 l h
150.348 143.855 m f
0.882353 0.505882 0.321569 rg
237.992 143.855 m 234.969 143.855 l 234.969 172.133 l 237.992 172.133 l
 245.801 172.133 252.129 165.805 252.129 157.996 c 252.129 150.188 245.801
 143.855 237.992 143.855 c h
237.992 143.855 m f
1 0.623529 0.439216 rg
192.66 215.734 m 169.293 215.734 150.348 196.547 150.348 172.875 c 150.348
 143.203 l 150.348 119.531 169.293 100.344 192.66 100.344 c 216.027 100.344
 234.969 119.531 234.969 143.203 c 234.969 172.875 l 234.969 196.547 216.027
 215.734 192.66 215.734 c h
192.66 215.734 m f
0.882353 0.505882 0.321569 rg
192.66 100.344 m 191.035 100.344 189.43 100.445 187.852 100.625 c 208.953
 103.047 225.355 121.18 225.355 143.203 c 225.355 172.875 l 225.355 194.898
 208.953 213.031 187.852 215.449 c 189.434 215.633 191.035 215.734 192.66
 215.734 c 216.027 215.734 234.969 196.547 234.969 172.875 c 234.969 143.203
 l 234.969 119.531 216.027 100.344 192.66 100.344 c h
192.66 100.344 m f
1 0.741176 0.556863 rg
192.66 100.344 m 194.285 100.344 195.891 100.445 197.469 100.625 c 176.367
 103.047 159.965 121.18 159.965 143.203 c 159.965 172.875 l 159.965 194.898
 176.367 213.031 197.469 215.449 c 195.887 215.633 194.285 215.734 192.66
 215.734 c 169.293 215.734 150.348 196.547 150.348 172.875 c 150.348 143.203
 l 150.348 119.531 169.293 100.344 192.66 100.344 c h
192.66 100.344 m f
0.411765 0.0196078 0.537255 rg
192.66 218.734 m 167.676 218.734 147.348 198.16 147.348 172.875 c 147.348
 143.203 l 147.348 117.914 167.676 97.344 192.66 97.344 c 217.645 97.344
 237.969 117.914 237.969 143.203 c 237.969 172.875 l 237.969 198.16 217.645
 218.734 192.66 218.734 c h
192.66 103.344 m 170.984 103.344 153.348 121.223 153.348 143.203 c 153.348
 172.875 l 153.348 194.852 170.984 212.734 192.66 212.734 c 214.336 212.734
 231.969 194.852 231.969 172.875 c 231.969 143.203 l 231.969 121.223 214.336
 103.344 192.66 103.344 c h
192.66 103.344 m f
150.348 175.133 m 147.328 175.133 l 137.879 175.133 130.191 167.445 130.191
 157.996 c 130.191 148.547 137.879 140.855 147.328 140.855 c 150.348 140.855
 l 152.004 140.855 153.348 142.199 153.348 143.855 c 153.348 172.133 l 153.348
 173.793 152.004 175.133 150.348 175.133 c h
147.328 146.855 m 141.188 146.855 136.191 151.852 136.191 157.996 c 136.191
 164.137 141.188 169.133 147.328 169.133 c 147.348 169.133 l h
147.328 146.855 m f
237.988 175.133 m 234.969 175.133 l 233.312 175.133 231.969 173.789 231.969
 172.133 c 231.969 143.855 l 231.969 142.199 233.312 140.855 234.969 140.855
 c 237.988 140.855 l 247.441 140.855 255.129 148.543 255.129 157.996 c 255.129
 167.445 247.441 175.133 237.988 175.133 c h
237.969 169.133 m 237.988 169.133 l 244.133 169.133 249.129 164.137 249.129
 157.996 c 249.129 151.855 244.133 146.855 237.988 146.855 c 237.969 146.855
 l h
237.969 169.133 m f
61.523 272.105 m 59.867 272.105 58.523 270.762 58.523 269.105 c 58.523 
251.105 l 58.523 249.449 59.867 248.105 61.523 248.105 c 63.18 248.105 64.523
 249.449 64.523 251.105 c 64.523 269.105 l 64.523 270.762 63.18 272.105 
61.523 272.105 c h
61.523 272.105 m f
192 381 m 87.785 381 3 296.215 3 192 c 3 87.785 87.785 3 192 3 c 296.215
 3 381 87.785 381 192 c 381 296.215 296.215 381 192 381 c h
192 9 m 91.094 9 9 91.094 9 192 c 9 292.906 91.094 375 192 375 c 292.906
 375 375 292.906 375 192 c 375 91.094 292.906 9 192 9 c h
192 9 m f
192 24.34 m 190.344 24.34 189 22.996 189 21.34 c 189 7.5 l 189 5.844 190.344
 4.5 192 4.5 c 193.656 4.5 195 5.844 195 7.5 c 195 21.34 l 195 22.996 193.656
 24.34 192 24.34 c h
192 24.34 m f
192 379.5 m 190.344 379.5 189 378.156 189 376.5 c 189 362.66 l 189 361.004
 190.344 359.66 192 359.66 c 193.656 359.66 195 361.004 195 362.66 c 195
 376.5 l 195 378.156 193.656 379.5 192 379.5 c h
192 379.5 m f
376.5 195 m 362.66 195 l 361.004 195 359.66 193.656 359.66 192 c 359.66
 190.344 361.004 189 362.66 189 c 376.5 189 l 378.156 189 379.5 190.344 
379.5 192 c 379.5 193.656 378.156 195 376.5 195 c h
376.5 195 m f
21.34 195 m 7.5 195 l 5.844 195 4.5 193.656 4.5 192 c 4.5 190.344 5.844
 189 7.5 189 c 21.34 189 l 22.996 189 24.34 190.344 24.34 192 c 24.34 193.656
 22.996 195 21.34 195 c h
21.34 195 m f
0.988235 0.760784 0.298039 rg
182.023 315.344 m 134.902 270.68 l 151.164 253.527 l 182.57 283.301 l 233.434
 238.145 l 249.098 255.84 l h
182.023 315.344 m f
0.411765 0.0196078 0.537255 rg
182.023 318.344 m 181.281 318.344 180.535 318.066 179.961 317.523 c 132.836
 272.855 l 132.258 272.309 131.922 271.551 131.902 270.758 c 131.879 269.961
 132.176 269.191 132.723 268.613 c 148.984 251.461 l 150.125 250.262 152.023
 250.211 153.227 251.348 c 182.637 279.227 l 231.441 235.898 l 232.035 235.367
 232.824 235.098 233.613 235.145 c 234.406 235.195 235.148 235.555 235.68
 236.152 c 251.344 253.852 l 252.441 255.094 252.324 256.984 251.086 258.086
 c 184.012 317.586 l 183.445 318.094 182.734 318.344 182.023 318.344 c h
139.145 270.562 m 182.09 311.273 l 244.867 255.586 l 233.18 242.379 l 184.562
 285.543 l 183.402 286.578 181.641 286.547 180.508 285.477 c 151.273 257.766
 l h
139.145 270.562 m f
Q Q
showpage
%%Trailer
end
%%EOF
