%!PS-Adobe-3.0 EPSF-3.0
%%Creator: cairo 1.16.0 (https://cairographics.org)
%%CreationDate: Fri Jan 10 07:38:38 2020
%%Pages: 1
%%DocumentData: Clean7Bit
%%LanguageLevel: 2
%%BoundingBox: 37 3 373 381
%%EndComments
%%BeginProlog
50 dict begin
/q { gsave } bind def
/Q { grestore } bind def
/cm { 6 array astore concat } bind def
/w { setlinewidth } bind def
/J { setlinecap } bind def
/j { setlinejoin } bind def
/M { setmiterlimit } bind def
/d { setdash } bind def
/m { moveto } bind def
/l { lineto } bind def
/c { curveto } bind def
/h { closepath } bind def
/re { exch dup neg 3 1 roll 5 3 roll moveto 0 rlineto
      0 exch rlineto 0 rlineto closepath } bind def
/S { stroke } bind def
/f { fill } bind def
/f* { eofill } bind def
/n { newpath } bind def
/W { clip } bind def
/W* { eoclip } bind def
/BT { } bind def
/ET { } bind def
/BDC { mark 3 1 roll /BDC pdfmark } bind def
/EMC { mark /EMC pdfmark } bind def
/cairo_store_point { /cairo_point_y exch def /cairo_point_x exch def } def
/Tj { show currentpoint cairo_store_point } bind def
/TJ {
  {
    dup
    type /stringtype eq
    { show } { -0.001 mul 0 cairo_font_matrix dtransform rmoveto } ifelse
  } forall
  currentpoint cairo_store_point
} bind def
/cairo_selectfont { cairo_font_matrix aload pop pop pop 0 0 6 array astore
    cairo_font exch selectfont cairo_point_x cairo_point_y moveto } bind def
/Tf { pop /cairo_font exch def /cairo_font_matrix where
      { pop cairo_selectfont } if } bind def
/Td { matrix translate cairo_font_matrix matrix concatmatrix dup
      /cairo_font_matrix exch def dup 4 get exch 5 get cairo_store_point
      /cairo_font where { pop cairo_selectfont } if } bind def
/Tm { 2 copy 8 2 roll 6 array astore /cairo_font_matrix exch def
      cairo_store_point /cairo_font where { pop cairo_selectfont } if } bind def
/g { setgray } bind def
/rg { setrgbcolor } bind def
/d1 { setcachedevice } bind def
/cairo_data_source {
  CairoDataIndex CairoData length lt
    { CairoData CairoDataIndex get /CairoDataIndex CairoDataIndex 1 add def }
    { () } ifelse
} def
/cairo_flush_ascii85_file { cairo_ascii85_file status { cairo_ascii85_file flushfile } if } def
/cairo_image { image cairo_flush_ascii85_file } def
/cairo_imagemask { imagemask cairo_flush_ascii85_file } def
%%EndProlog
%%BeginSetup
%%EndSetup
%%Page: 1 1
%%BeginPageSetup
%%PageBoundingBox: 37 3 373 381
%%EndPageSetup
q 37 3 336 378 rectclip
1 0 0 -1 0 384 cm q
0.956863 0.937255 0.929412 rg
40.293 378 m 312.25 378 l 312.25 69.5 l 248.75 6 l 40.293 6 l h
40.293 378 m f
0.988235 0.760784 0.298039 rg
70.598 47.719 m 70.598 71.688 l 91.355 83.672 l 112.113 71.688 l 112.113
 47.719 l 91.355 35.734 l h
70.598 47.719 m f
112.113 47.719 m 112.113 71.688 l 132.871 83.672 l 153.629 71.688 l 153.629
 47.719 l 132.871 35.734 l h
112.113 47.719 m f
70.598 47.719 m 70.598 71.688 l 91.355 83.672 l 112.113 71.688 l 112.113
 47.719 l 91.355 35.734 l h
70.598 47.719 m f
112.113 47.719 m 112.113 71.688 l 132.871 83.672 l 153.629 71.688 l 153.629
 47.719 l 132.871 35.734 l h
112.113 47.719 m f
0.839216 0.819608 0.811765 rg
312.25 69.5 m 312.25 378 l 297.25 378 l 297.25 54.5 l h
312.25 69.5 m f
1 g
40.293 6 15 372 re f
0.411765 0.0196078 0.537255 rg
312.25 381 m 40.293 381 l 38.637 381 37.293 379.656 37.293 378 c 37.293
 6 l 37.293 4.344 38.637 3 40.293 3 c 248.75 3 l 249.547 3 250.309 3.316
 250.871 3.879 c 314.371 67.379 l 314.934 67.941 315.25 68.703 315.25 69.5
 c 315.25 378 l 315.25 379.656 313.906 381 312.25 381 c h
43.293 375 m 309.25 375 l 309.25 70.742 l 247.508 9 l 43.293 9 l h
43.293 375 m f
52.293 129.02 m 50.637 129.02 49.293 127.676 49.293 126.02 c 49.293 108.02
 l 49.293 106.363 50.637 105.02 52.293 105.02 c 53.949 105.02 55.293 106.363
 55.293 108.02 c 55.293 126.02 l 55.293 127.676 53.949 129.02 52.293 129.02
 c h
52.293 129.02 m f
0.533333 0.321569 0.658824 rg
248.75 6 m 248.75 69.5 l 312.25 69.5 l h
248.75 6 m f
0.411765 0.0196078 0.537255 rg
312.25 72.5 m 248.75 72.5 l 247.094 72.5 245.75 71.156 245.75 69.5 c 245.75
 6 l 245.75 4.785 246.48 3.691 247.602 3.227 c 248.723 2.762 250.012 3.02
 250.871 3.879 c 314.371 67.379 l 315.23 68.238 315.484 69.527 315.023 70.648
 c 314.559 71.77 313.465 72.5 312.25 72.5 c h
251.75 66.5 m 305.008 66.5 l 251.75 13.242 l h
251.75 66.5 m f
0.988235 0.760784 0.298039 rg
70.598 47.719 m 70.598 71.688 l 91.355 83.672 l 112.113 71.688 l 112.113
 47.719 l 91.355 35.734 l h
70.598 47.719 m f
112.113 47.719 m 112.113 71.688 l 132.871 83.672 l 153.629 71.688 l 153.629
 47.719 l 132.871 35.734 l h
112.113 47.719 m f
0.411765 0.0196078 0.537255 rg
91.355 86.672 m 90.836 86.672 90.32 86.535 89.855 86.27 c 69.098 74.285
 l 68.172 73.75 67.598 72.758 67.598 71.688 c 67.598 47.719 l 67.598 46.648
 68.172 45.656 69.098 45.121 c 89.855 33.137 l 90.785 32.598 91.926 32.598
 92.855 33.137 c 113.613 45.121 l 114.543 45.656 115.113 46.648 115.113 
47.719 c 115.113 71.688 l 115.113 72.758 114.543 73.75 113.613 74.285 c 
92.855 86.27 l 92.391 86.535 91.875 86.672 91.355 86.672 c h
73.598 69.953 m 91.355 80.203 l 109.113 69.953 l 109.113 49.449 l 91.355
 39.199 l 73.598 49.449 l h
73.598 69.953 m f
132.871 86.672 m 132.352 86.672 131.836 86.535 131.371 86.27 c 110.613 
74.285 l 109.684 73.75 109.113 72.758 109.113 71.688 c 109.113 47.719 l 
109.113 46.648 109.684 45.656 110.613 45.121 c 131.371 33.137 l 132.297 
32.598 133.441 32.598 134.371 33.137 c 155.129 45.121 l 156.055 45.656 156.629
 46.648 156.629 47.719 c 156.629 71.688 l 156.629 72.758 156.055 73.75 155.129
 74.285 c 134.371 86.27 l 133.906 86.535 133.391 86.672 132.871 86.672 c
 h
115.113 69.953 m 132.871 80.203 l 150.629 69.953 l 150.629 49.449 l 132.871
 39.199 l 115.113 49.449 l h
115.113 69.953 m f
0.321569 0.435294 0.666667 rg
172.992 256.281 176.645 121.719 re f
0.203922 0.317647 0.54902 rg
334.637 256.281 15 121.719 re f
0.988235 0.760784 0.298039 rg
226.254 307.02 m 226.254 327.262 l 243.785 337.383 l 261.316 327.262 l 
261.316 307.02 l 243.785 296.898 l h
226.254 307.02 m f
261.316 307.02 m 261.316 327.262 l 278.844 337.383 l 296.371 327.262 l 
296.371 307.02 l 278.844 296.898 l h
261.316 307.02 m f
0.411765 0.0196078 0.537255 rg
349.637 381 m 172.992 381 l 171.336 381 169.992 379.656 169.992 378 c 169.992
 256.281 l 169.992 254.625 171.336 253.281 172.992 253.281 c 349.637 253.281
 l 351.293 253.281 352.637 254.625 352.637 256.281 c 352.637 378 l 352.637
 379.656 351.293 381 349.637 381 c h
175.992 375 m 346.637 375 l 346.637 259.281 l 175.992 259.281 l h
175.992 375 m f
243.785 340.383 m 243.266 340.383 242.75 340.246 242.285 339.98 c 224.754
 329.859 l 223.824 329.324 223.254 328.332 223.254 327.262 c 223.254 307.02
 l 223.254 305.949 223.824 304.957 224.754 304.422 c 242.285 294.301 l 243.215
 293.766 244.355 293.766 245.285 294.301 c 262.816 304.422 l 263.742 304.957
 264.316 305.949 264.316 307.02 c 264.316 327.262 l 264.316 328.332 263.742
 329.324 262.816 329.859 c 245.285 339.98 l 244.82 340.246 244.305 340.383
 243.785 340.383 c h
229.254 325.527 m 243.785 333.918 l 258.316 325.527 l 258.316 308.75 l 
243.785 300.363 l 229.254 308.75 l h
229.254 325.527 m f
278.844 340.383 m 278.324 340.383 277.809 340.246 277.344 339.98 c 259.812
 329.859 l 258.887 329.324 258.312 328.332 258.312 327.262 c 258.312 307.02
 l 258.312 305.949 258.887 304.957 259.812 304.422 c 277.344 294.301 l 278.273
 293.766 279.414 293.766 280.344 294.301 c 297.871 304.422 l 298.801 304.957
 299.371 305.949 299.371 307.02 c 299.371 327.262 l 299.371 328.332 298.801
 329.324 297.871 329.859 c 280.344 339.98 l 279.879 340.246 279.363 340.383
 278.844 340.383 c h
264.316 325.527 m 278.844 333.918 l 293.375 325.527 l 293.375 308.75 l 
278.844 300.363 l 264.316 308.75 l h
264.316 325.527 m f
249.207 111.02 m 96.781 111.02 l 95.125 111.02 93.781 109.676 93.781 108.02
 c 93.781 106.363 95.125 105.02 96.781 105.02 c 249.207 105.02 l 250.863
 105.02 252.207 106.363 252.207 108.02 c 252.207 109.676 250.863 111.02 
249.207 111.02 c h
249.207 111.02 m f
277.945 149.539 m 68.043 149.539 l 66.387 149.539 65.043 148.195 65.043
 146.539 c 65.043 144.883 66.387 143.539 68.043 143.539 c 277.945 143.539
 l 279.602 143.539 280.945 144.883 280.945 146.539 c 280.945 148.195 279.602
 149.539 277.945 149.539 c h
277.945 149.539 m f
277.945 193.285 m 68.043 193.285 l 66.387 193.285 65.043 191.941 65.043
 190.285 c 65.043 188.629 66.387 187.285 68.043 187.285 c 277.945 187.285
 l 279.602 187.285 280.945 188.629 280.945 190.285 c 280.945 191.941 279.602
 193.285 277.945 193.285 c h
277.945 193.285 m f
277.945 237.031 m 68.043 237.031 l 66.387 237.031 65.043 235.688 65.043
 234.031 c 65.043 232.375 66.387 231.031 68.043 231.031 c 277.945 231.031
 l 279.602 231.031 280.945 232.375 280.945 234.031 c 280.945 235.688 279.602
 237.031 277.945 237.031 c h
277.945 237.031 m f
147.648 280.777 m 68.043 280.777 l 66.387 280.777 65.043 279.434 65.043
 277.777 c 65.043 276.121 66.387 274.777 68.043 274.777 c 147.648 274.777
 l 149.301 274.777 150.648 276.121 150.648 277.777 c 150.648 279.434 149.305
 280.777 147.648 280.777 c h
147.648 280.777 m f
147.648 324.523 m 68.043 324.523 l 66.387 324.523 65.043 323.18 65.043 
321.523 c 65.043 319.867 66.387 318.523 68.043 318.523 c 147.648 318.523
 l 149.301 318.523 150.648 319.867 150.648 321.523 c 150.648 323.18 149.305
 324.523 147.648 324.523 c h
147.648 324.523 m f
0.533333 0.321569 0.658824 rg
344.461 157.758 m 280.039 157.758 l 255.434 196.676 l 255.434 220.734 l
 369.066 220.734 l 369.066 196.676 l h
344.461 157.758 m f
0.415686 0.203922 0.541176 rg
357.848 178.93 m 357.848 220.734 l 369.066 220.734 l 369.066 196.676 l 
h
357.848 178.93 m f
0.65098 0.439216 0.776471 rg
266.652 178.93 m 266.652 220.734 l 255.434 220.734 l 255.434 196.676 l 
h
266.652 178.93 m f
0.411765 0.0196078 0.537255 rg
369.066 223.734 m 255.434 223.734 l 253.777 223.734 252.434 222.391 252.434
 220.734 c 252.434 196.676 l 252.434 196.109 252.594 195.555 252.898 195.074
 c 277.504 156.156 l 278.055 155.285 279.012 154.758 280.039 154.758 c 344.461
 154.758 l 345.492 154.758 346.449 155.289 346.996 156.156 c 371.602 195.074
 l 371.902 195.555 372.066 196.109 372.066 196.676 c 372.066 220.734 l 372.066
 222.391 370.723 223.734 369.066 223.734 c h
258.434 217.734 m 366.066 217.734 l 366.066 197.547 l 342.809 160.762 l
 281.691 160.762 l 258.434 197.547 l h
258.434 217.734 m f
0.956863 0.937255 0.929412 rg
344.461 220.734 m 280.039 220.734 l 280.039 99.379 l 280.039 69.52 291.582
 40.812 312.25 19.262 c 332.922 40.812 344.461 69.52 344.461 99.379 c h
344.461 220.734 m f
0.839216 0.819608 0.811765 rg
313.648 20.793 m 326.324 41.168 333.242 65.25 333.242 90.094 c 333.242 
220.734 l 344.461 220.734 l 344.461 99.379 l 344.461 70.211 333.426 42.164
 313.648 20.793 c h
313.648 20.793 m f
1 g
310.852 20.793 m 298.176 41.168 291.258 65.25 291.258 90.094 c 291.258 
220.734 l 280.039 220.734 l 280.039 99.379 l 280.039 70.211 291.078 42.164
 310.852 20.793 c h
310.852 20.793 m f
0.411765 0.0196078 0.537255 rg
344.465 223.734 m 280.039 223.734 l 278.387 223.734 277.039 222.391 277.039
 220.734 c 277.039 99.379 l 277.039 68.594 288.777 39.402 310.086 17.188
 c 311.219 16.008 313.285 16.008 314.418 17.188 c 335.727 39.406 347.465
 68.594 347.461 99.379 c 347.465 220.734 l 347.465 221.527 347.148 222.293
 346.586 222.855 c 346.023 223.418 345.258 223.734 344.465 223.734 c h
283.039 217.734 m 341.461 217.734 l 341.461 99.379 l 341.461 71.211 331.113
 44.445 312.25 23.66 c 293.387 44.445 283.039 71.211 283.039 99.379 c h
283.039 217.734 m f
0.533333 0.321569 0.658824 rg
322.68 238.184 m 301.82 238.184 l 301.82 168.188 l 301.82 162.43 306.488
 157.758 312.25 157.758 c 318.008 157.758 322.68 162.43 322.68 168.188 c
 h
322.68 238.184 m f
0.411765 0.0196078 0.537255 rg
322.68 241.188 m 301.82 241.188 l 300.164 241.188 298.82 239.844 298.82
 238.188 c 298.82 168.191 l 298.82 160.785 304.848 154.758 312.25 154.758
 c 319.656 154.758 325.68 160.785 325.68 168.191 c 325.68 238.188 l 325.68
 239.844 324.336 241.188 322.68 241.188 c h
304.82 235.188 m 319.68 235.188 l 319.68 168.191 l 319.68 164.094 316.348
 160.758 312.25 160.758 c 308.152 160.758 304.82 164.094 304.82 168.191 
c h
304.82 235.188 m f
0.321569 0.435294 0.666667 rg
326.297 85.922 m 326.297 93.676 320.008 99.965 312.25 99.965 c 304.492 
99.965 298.207 93.676 298.207 85.922 c 298.207 78.164 304.492 71.879 312.25
 71.879 c 320.008 71.879 326.297 78.164 326.297 85.922 c h
326.297 85.922 m f
0.411765 0.0196078 0.537255 rg
312.25 102.965 m 302.852 102.965 295.207 95.32 295.207 85.922 c 295.207
 76.523 302.852 68.879 312.25 68.879 c 321.648 68.879 329.293 76.523 329.293
 85.922 c 329.293 95.32 321.648 102.965 312.25 102.965 c h
312.25 74.879 m 306.16 74.879 301.207 79.832 301.207 85.922 c 301.207 92.012
 306.16 96.965 312.25 96.965 c 318.34 96.965 323.293 92.012 323.293 85.922
 c 323.293 79.832 318.34 74.879 312.25 74.879 c h
312.25 74.879 m f
Q Q
showpage
%%Trailer
end
%%EOF
