%!PS-Adobe-3.0 EPSF-3.0
%%Creator: cairo 1.16.0 (https://cairographics.org)
%%CreationDate: Fri Jan 10 07:38:38 2020
%%Pages: 1
%%DocumentData: Clean7Bit
%%LanguageLevel: 2
%%BoundingBox: 3 3 381 381
%%EndComments
%%BeginProlog
50 dict begin
/q { gsave } bind def
/Q { grestore } bind def
/cm { 6 array astore concat } bind def
/w { setlinewidth } bind def
/J { setlinecap } bind def
/j { setlinejoin } bind def
/M { setmiterlimit } bind def
/d { setdash } bind def
/m { moveto } bind def
/l { lineto } bind def
/c { curveto } bind def
/h { closepath } bind def
/re { exch dup neg 3 1 roll 5 3 roll moveto 0 rlineto
      0 exch rlineto 0 rlineto closepath } bind def
/S { stroke } bind def
/f { fill } bind def
/f* { eofill } bind def
/n { newpath } bind def
/W { clip } bind def
/W* { eoclip } bind def
/BT { } bind def
/ET { } bind def
/BDC { mark 3 1 roll /BDC pdfmark } bind def
/EMC { mark /EMC pdfmark } bind def
/cairo_store_point { /cairo_point_y exch def /cairo_point_x exch def } def
/Tj { show currentpoint cairo_store_point } bind def
/TJ {
  {
    dup
    type /stringtype eq
    { show } { -0.001 mul 0 cairo_font_matrix dtransform rmoveto } ifelse
  } forall
  currentpoint cairo_store_point
} bind def
/cairo_selectfont { cairo_font_matrix aload pop pop pop 0 0 6 array astore
    cairo_font exch selectfont cairo_point_x cairo_point_y moveto } bind def
/Tf { pop /cairo_font exch def /cairo_font_matrix where
      { pop cairo_selectfont } if } bind def
/Td { matrix translate cairo_font_matrix matrix concatmatrix dup
      /cairo_font_matrix exch def dup 4 get exch 5 get cairo_store_point
      /cairo_font where { pop cairo_selectfont } if } bind def
/Tm { 2 copy 8 2 roll 6 array astore /cairo_font_matrix exch def
      cairo_store_point /cairo_font where { pop cairo_selectfont } if } bind def
/g { setgray } bind def
/rg { setrgbcolor } bind def
/d1 { setcachedevice } bind def
/cairo_data_source {
  CairoDataIndex CairoData length lt
    { CairoData CairoDataIndex get /CairoDataIndex CairoDataIndex 1 add def }
    { () } ifelse
} def
/cairo_flush_ascii85_file { cairo_ascii85_file status { cairo_ascii85_file flushfile } if } def
/cairo_image { image cairo_flush_ascii85_file } def
/cairo_imagemask { imagemask cairo_flush_ascii85_file } def
%%EndProlog
%%BeginSetup
%%EndSetup
%%Page: 1 1
%%BeginPageSetup
%%PageBoundingBox: 3 3 381 381
%%EndPageSetup
q 3 3 378 378 rectclip
1 0 0 -1 0 384 cm q
0.988235 0.760784 0.298039 rg
249.145 298.41 m 259.84 329.867 243.008 364.039 211.551 374.734 c 180.094
 385.434 145.922 368.602 135.223 337.145 c 124.527 305.688 141.359 271.516
 172.816 260.816 c 187.922 255.68 204.449 256.758 218.766 263.805 c 233.078
 270.855 244.008 283.305 249.145 298.41 c h
249.145 298.41 m f
0.956863 0.937255 0.929412 rg
216.867 291.352 m 167.133 291.352 l 161.754 291.352 157.395 295.711 157.395
 301.086 c 157.395 330.902 l 157.395 336.281 161.754 340.641 167.133 340.641
 c 179.34 340.641 l 192 353.301 l 192 340.641 l 216.867 340.641 l 222.246
 340.641 226.605 336.281 226.605 330.902 c 226.605 301.086 l 226.605 295.707
 222.246 291.352 216.867 291.352 c h
216.867 291.352 m f
0.988235 0.760784 0.298039 rg
378 192 m 378 225.219 351.07 252.148 317.852 252.148 c 284.633 252.148 
257.707 225.219 257.707 192 c 257.707 158.781 284.633 131.852 317.852 131.852
 c 351.07 131.852 378 158.781 378 192 c h
378 192 m f
0.956863 0.937255 0.929412 rg
317.852 152.723 m 338.34 152.723 351.145 174.902 340.902 192.648 c 317.852
 232.57 l 294.805 192.648 l 284.559 174.902 297.363 152.723 317.852 152.723
 c h
317.852 152.723 m f
0.988235 0.760784 0.298039 rg
200.93 6.738 m 233.781 11.621 256.457 42.211 251.574 75.066 c 246.691 107.918
 216.102 130.594 183.246 125.711 c 150.395 120.828 127.719 90.234 132.602
 57.383 c 134.949 41.605 143.465 27.406 156.277 17.91 c 169.09 8.41 185.152
 4.395 200.93 6.738 c h
200.93 6.738 m f
0.956863 0.937255 0.929412 rg
192 107.453 m 177.516 107.453 165.77 95.711 165.77 81.227 c 165.77 62.594
 l 165.77 48.105 177.516 36.363 192 36.363 c 206.484 36.363 218.23 48.105
 218.23 62.594 c 218.23 81.227 l 218.23 95.711 206.484 107.453 192 107.453
 c h
192 107.453 m f
0.988235 0.760784 0.298039 rg
126.293 192 m 126.293 225.219 99.367 252.148 66.148 252.148 c 32.93 252.148
 6 225.219 6 192 c 6 158.781 32.93 131.852 66.148 131.852 c 99.367 131.852
 126.293 158.781 126.293 192 c h
126.293 192 m f
0.956863 0.937255 0.929412 rg
87.297 228.93 m 44.996 228.93 l 42.227 228.93 39.98 226.684 39.98 223.914
 c 39.98 160.086 l 39.98 157.316 42.227 155.07 44.996 155.07 c 87.301 155.07
 l 90.07 155.07 92.316 157.316 92.316 160.086 c 92.316 223.914 l 92.312 
226.684 90.07 228.93 87.297 228.93 c h
87.297 228.93 m f
0.870588 0.643137 0.180392 rg
66.148 131.852 m 64.223 131.852 62.32 131.953 60.441 132.129 c 90.984 135.004
 114.887 160.707 114.887 192 c 114.887 223.293 90.984 248.996 60.441 251.871
 c 62.32 252.047 64.223 252.148 66.148 252.148 c 99.367 252.148 126.293 
225.219 126.293 192 c 126.293 158.781 99.367 131.852 66.148 131.852 c h
66.148 131.852 m f
0.988235 0.878431 0.415686 rg
66.148 252.148 m 68.07 252.148 69.973 252.047 71.852 251.871 c 41.309 248.996
 17.406 223.293 17.406 192 c 17.406 160.707 41.309 135.004 71.852 132.129
 c 69.973 131.953 68.074 131.852 66.148 131.852 c 32.93 131.852 6 158.781
 6 192 c 6 225.219 32.93 252.148 66.148 252.148 c h
66.148 252.148 m f
0.411765 0.0196078 0.537255 rg
66.148 255.148 m 31.328 255.148 3 226.82 3 192 c 3 157.18 31.328 128.852
 66.148 128.852 c 100.965 128.852 129.293 157.18 129.293 192 c 129.293 226.82
 100.965 255.148 66.148 255.148 c h
66.148 134.852 m 34.637 134.852 9 160.488 9 192 c 9 223.512 34.637 249.148
 66.148 249.148 c 97.656 249.148 123.293 223.512 123.293 192 c 123.293 160.488
 97.656 134.852 66.148 134.852 c h
66.148 134.852 m f
17.668 197.359 m 16.012 197.359 14.668 196.016 14.668 194.359 c 14.668 
187.965 15.555 181.629 17.309 175.531 c 17.766 173.941 19.43 173.023 21.02
 173.477 c 22.613 173.934 23.535 175.598 23.074 177.191 c 21.477 182.75 
20.668 188.527 20.668 194.363 c 20.668 196.016 19.324 197.359 17.668 197.359
 c h
17.668 197.359 m f
0.870588 0.643137 0.180392 rg
317.852 131.852 m 315.93 131.852 314.027 131.953 312.148 132.129 c 342.691
 135.004 366.594 160.707 366.594 192 c 366.594 223.293 342.691 248.996 312.148
 251.871 c 314.027 252.047 315.93 252.148 317.852 252.148 c 351.07 252.148
 378 225.219 378 192 c 378 158.781 351.07 131.852 317.852 131.852 c h
317.852 131.852 m f
0.988235 0.878431 0.415686 rg
317.852 252.148 m 319.777 252.148 321.68 252.047 323.559 251.871 c 293.016
 248.996 269.113 223.293 269.113 192 c 269.113 160.707 293.016 135.004 323.559
 132.129 c 321.68 131.953 319.777 131.852 317.852 131.852 c 284.633 131.852
 257.707 158.781 257.707 192 c 257.707 225.219 284.633 252.148 317.852 252.148
 c h
317.852 252.148 m f
0.411765 0.0196078 0.537255 rg
317.852 255.148 m 283.031 255.148 254.703 226.82 254.703 192 c 254.703 
157.18 283.031 128.852 317.852 128.852 c 352.672 128.852 381 157.18 381 
192 c 381 226.82 352.672 255.148 317.852 255.148 c h
317.852 134.852 m 286.34 134.852 260.703 160.488 260.703 192 c 260.703 
223.512 286.34 249.148 317.852 249.148 c 349.363 249.148 375 223.512 375
 192 c 375 160.488 349.363 134.852 317.852 134.852 c h
317.852 134.852 m f
0.870588 0.643137 0.180392 rg
192 6 m 190.074 6 188.176 6.102 186.297 6.277 c 216.836 9.152 240.738 34.855
 240.738 66.148 c 240.738 97.441 216.84 123.145 186.297 126.02 c 188.172
 126.195 190.074 126.297 192 126.297 c 225.219 126.297 252.148 99.367 252.148
 66.148 c 252.148 32.93 225.219 6 192 6 c h
192 6 m f
0.988235 0.878431 0.415686 rg
192 126.293 m 193.926 126.293 195.824 126.195 197.703 126.02 c 167.164 
123.145 143.262 97.441 143.262 66.148 c 143.262 34.852 167.16 9.152 197.703
 6.277 c 195.824 6.102 193.926 6 192 6 c 158.781 6 131.852 32.93 131.852
 66.148 c 131.852 99.367 158.781 126.293 192 126.293 c h
192 126.293 m f
0.411765 0.0196078 0.537255 rg
192 129.293 m 157.18 129.293 128.852 100.965 128.852 66.148 c 128.852 31.328
 157.18 3 192 3 c 226.82 3 255.148 31.328 255.148 66.148 c 255.148 100.965
 226.82 129.293 192 129.293 c h
192 9 m 160.488 9 134.852 34.637 134.852 66.148 c 134.852 97.656 160.488
 123.293 192 123.293 c 223.512 123.293 249.148 97.656 249.148 66.148 c 249.148
 34.637 223.512 9 192 9 c h
192 9 m f
0.870588 0.643137 0.180392 rg
192 257.707 m 190.074 257.707 188.176 257.805 186.297 257.984 c 216.836
 260.859 240.738 286.559 240.738 317.855 c 240.738 349.148 216.84 374.852
 186.297 377.727 c 188.172 377.902 190.074 378 192 378 c 225.219 378 252.148
 351.07 252.148 317.855 c 252.148 284.633 225.219 257.707 192 257.707 c 
h
192 257.707 m f
0.988235 0.878431 0.415686 rg
192 378 m 193.926 378 195.824 377.898 197.703 377.723 c 167.164 374.852
 143.262 349.148 143.262 317.852 c 143.262 286.559 167.16 260.859 197.703
 257.98 c 195.828 257.805 193.926 257.703 192 257.703 c 158.781 257.703 
131.852 284.633 131.852 317.852 c 131.852 351.07 158.781 378 192 378 c h
192 378 m f
0.411765 0.0196078 0.537255 rg
192 381 m 157.18 381 128.852 352.672 128.852 317.852 c 128.852 283.035 
157.18 254.707 192 254.707 c 226.82 254.707 255.148 283.035 255.148 317.852
 c 255.148 352.672 226.82 381 192 381 c h
192 260.707 m 160.488 260.707 134.852 286.344 134.852 317.852 c 134.852
 349.363 160.488 375 192 375 c 223.512 375 249.148 349.363 249.148 317.852
 c 249.148 286.344 223.512 260.707 192 260.707 c h
192 260.707 m f
87.301 231.93 m 44.996 231.93 l 40.578 231.93 36.984 228.332 36.984 223.914
 c 36.984 160.086 l 36.984 155.668 40.578 152.07 44.996 152.07 c 87.301 
152.07 l 91.719 152.07 95.312 155.668 95.312 160.086 c 95.312 223.914 l 
95.312 228.332 91.719 231.93 87.301 231.93 c h
44.996 158.07 m 43.887 158.07 42.984 158.977 42.984 160.086 c 42.984 223.914
 l 42.984 225.023 43.887 225.93 44.996 225.93 c 87.301 225.93 l 88.41 225.93
 89.312 225.023 89.312 223.914 c 89.312 160.086 l 89.312 158.977 88.41 158.07
 87.301 158.07 c h
44.996 158.07 m f
81.754 170.668 m 50.539 170.668 l 48.883 170.668 47.539 169.324 47.539 
167.668 c 47.539 166.012 48.883 164.668 50.539 164.668 c 81.754 164.668 
l 83.41 164.668 84.754 166.012 84.754 167.668 c 84.754 169.324 83.41 170.668
 81.754 170.668 c h
81.754 170.668 m f
81.754 186.891 m 50.539 186.891 l 48.883 186.891 47.539 185.547 47.539 
183.891 c 47.539 182.234 48.883 180.891 50.539 180.891 c 81.754 180.891 
l 83.41 180.891 84.754 182.234 84.754 183.891 c 84.754 185.547 83.41 186.891
 81.754 186.891 c h
81.754 186.891 m f
81.754 203.109 m 50.539 203.109 l 48.883 203.109 47.539 201.766 47.539 
200.109 c 47.539 198.453 48.883 197.109 50.539 197.109 c 81.754 197.109 
l 83.41 197.109 84.754 198.453 84.754 200.109 c 84.754 201.766 83.41 203.109
 81.754 203.109 c h
81.754 203.109 m f
81.754 219.332 m 50.539 219.332 l 48.883 219.332 47.539 217.988 47.539 
216.332 c 47.539 214.676 48.883 213.332 50.539 213.332 c 81.754 213.332 
l 83.41 213.332 84.754 214.676 84.754 216.332 c 84.754 217.988 83.41 219.332
 81.754 219.332 c h
81.754 219.332 m f
317.852 235.566 m 316.777 235.566 315.789 234.996 315.254 234.066 c 292.207
 194.148 l 286.855 184.875 286.852 173.805 292.207 164.531 c 297.559 155.258
 307.145 149.723 317.852 149.723 c 328.559 149.723 338.148 155.258 343.5
 164.531 c 348.852 173.805 348.852 184.875 343.5 194.148 c 320.453 234.066
 l 319.914 234.996 318.926 235.566 317.852 235.566 c h
317.852 155.723 m 309.316 155.723 301.668 160.137 297.402 167.531 c 293.133
 174.926 293.133 183.754 297.402 191.148 c 317.852 226.566 l 338.301 191.148
 l 342.57 183.754 342.57 174.926 338.301 167.531 c 334.035 160.137 326.391
 155.723 317.852 155.723 c h
317.852 155.723 m f
192 356.297 m 191.219 356.297 190.453 355.992 189.879 355.418 c 178.098
 343.637 l 167.129 343.637 l 160.105 343.637 154.395 337.922 154.395 330.898
 c 154.395 301.086 l 154.395 294.062 160.105 288.348 167.129 288.348 c 216.867
 288.348 l 223.891 288.348 229.602 294.062 229.602 301.086 c 229.602 330.898
 l 229.602 337.922 223.887 343.637 216.867 343.637 c 195 343.637 l 195 353.297
 l 195 354.512 194.27 355.602 193.148 356.07 c 192.777 356.223 192.387 356.297
 192 356.297 c h
167.133 294.348 m 163.418 294.348 160.395 297.371 160.395 301.086 c 160.395
 330.898 l 160.395 334.613 163.418 337.637 167.133 337.637 c 179.34 337.637
 l 180.137 337.637 180.898 337.953 181.461 338.516 c 189 346.055 l 189 340.637
 l 189 338.98 190.344 337.637 192 337.637 c 216.867 337.637 l 220.582 337.637
 223.602 334.613 223.602 330.898 c 223.602 301.086 l 223.602 297.371 220.582
 294.348 216.867 294.348 c h
167.133 294.348 m f
213.523 310.254 m 170.477 310.254 l 168.82 310.254 167.477 308.91 167.477
 307.254 c 167.477 305.598 168.82 304.254 170.477 304.254 c 213.523 304.254
 l 215.18 304.254 216.523 305.598 216.523 307.254 c 216.523 308.91 215.18
 310.254 213.523 310.254 c h
213.523 310.254 m f
203.789 326.363 m 170.477 326.363 l 168.82 326.363 167.477 325.02 167.477
 323.363 c 167.477 321.707 168.82 320.363 170.477 320.363 c 203.789 320.363
 l 205.445 320.363 206.789 321.707 206.789 323.363 c 206.789 325.02 205.445
 326.363 203.789 326.363 c h
203.789 326.363 m f
192 110.453 m 175.883 110.453 162.77 97.34 162.77 81.227 c 162.77 62.594
 l 162.77 46.473 175.883 33.363 192 33.363 c 208.117 33.363 221.23 46.473
 221.23 62.594 c 221.23 81.227 l 221.23 97.344 208.117 110.453 192 110.453
 c h
192 39.363 m 179.191 39.363 168.77 49.785 168.77 62.594 c 168.77 81.227
 l 168.77 94.035 179.191 104.453 192 104.453 c 204.809 104.453 215.23 94.035
 215.23 81.227 c 215.23 62.594 l 215.23 49.785 204.809 39.363 192 39.363
 c h
192 39.363 m f
192 69.93 m 186.969 69.93 182.875 65.836 182.875 60.805 c 182.875 54.125
 l 182.875 49.094 186.969 45 192 45 c 197.031 45 201.125 49.094 201.125 
54.125 c 201.125 60.805 l 201.125 65.836 197.031 69.93 192 69.93 c h
192 51 m 190.277 51 188.875 52.402 188.875 54.125 c 188.875 60.801 l 188.875
 62.523 190.277 63.926 192 63.926 c 193.723 63.926 195.125 62.523 195.125
 60.801 c 195.125 54.125 l 195.125 52.402 193.723 51 192 51 c h
192 51 m f
192 51 m 190.344 51 189 49.656 189 48 c 189 21.746 l 189 20.09 190.344 
18.746 192 18.746 c 193.656 18.746 195 20.09 195 21.746 c 195 48 l 195 49.656
 193.656 51 192 51 c h
192 51 m f
0.988235 0.760784 0.298039 rg
328.516 178.566 m 328.516 184.453 323.742 189.23 317.852 189.23 c 311.961
 189.23 307.188 184.453 307.188 178.566 c 307.188 172.676 311.961 167.898
 317.852 167.898 c 323.742 167.898 328.516 172.676 328.516 178.566 c h
328.516 178.566 m f
0.411765 0.0196078 0.537255 rg
317.852 192.227 m 310.32 192.227 304.188 186.098 304.188 178.562 c 304.188
 171.027 310.32 164.898 317.852 164.898 c 325.387 164.898 331.516 171.027
 331.516 178.562 c 331.52 186.098 325.387 192.227 317.852 192.227 c h
317.852 170.898 m 313.625 170.898 310.188 174.336 310.188 178.562 c 310.188
 182.789 313.625 186.227 317.852 186.227 c 322.078 186.227 325.516 182.789
 325.516 178.562 c 325.516 174.336 322.078 170.898 317.852 170.898 c h
317.852 170.898 m f
0.321569 0.435294 0.666667 rg
267.387 192 m 267.387 233.633 233.633 267.387 192 267.387 c 150.367 267.387
 116.613 233.633 116.613 192 c 116.613 150.367 150.367 116.613 192 116.613
 c 211.992 116.613 231.168 124.559 245.305 138.695 c 259.441 152.832 267.387
 172.008 267.387 192 c h
267.387 192 m f
0.203922 0.317647 0.54902 rg
192 116.613 m 189.59 116.613 187.207 116.738 184.852 116.961 c 223.133 
120.562 253.086 152.777 253.086 192 c 253.086 231.219 223.133 263.434 184.852
 267.035 c 187.207 267.258 189.59 267.383 192 267.383 c 233.633 267.383 
267.387 233.633 267.387 191.996 c 267.387 150.363 233.633 116.613 192 116.613
 c h
192 116.613 m f
0.439216 0.552941 0.784314 rg
192 267.387 m 194.41 267.387 196.793 267.262 199.148 267.039 c 160.867 
263.438 130.914 231.223 130.914 192 c 130.914 152.781 160.867 120.566 199.148
 116.965 c 196.793 116.742 194.41 116.617 192 116.617 c 150.367 116.617 
116.613 150.367 116.613 192.004 c 116.613 233.637 150.367 267.387 192 267.387
 c h
192 267.387 m f
0.411765 0.0196078 0.537255 rg
192 270.387 m 148.777 270.387 113.613 235.223 113.613 192 c 113.613 148.777
 148.777 113.613 192 113.613 c 235.223 113.613 270.387 148.777 270.387 192
 c 270.387 235.223 235.223 270.387 192 270.387 c h
192 119.613 m 152.086 119.613 119.613 152.086 119.613 192 c 119.613 231.914
 152.086 264.387 192 264.387 c 231.914 264.387 264.387 231.914 264.387 192
 c 264.387 152.086 231.914 119.613 192 119.613 c h
192 119.613 m f
0.956863 0.937255 0.929412 rg
138.262 202.203 m 138.262 181.797 l 138.262 180.727 139.125 179.898 140.164
 179.898 c 145.074 179.898 l 148.703 179.898 151.641 182.836 151.641 186.465
 c 151.641 187.953 151.156 189.305 150.328 190.41 c 152.402 191.723 153.82
 194.043 153.82 196.668 c 153.82 200.785 150.5 204.102 146.422 204.102 c
 140.301 204.102 l 140.266 204.102 140.266 204.07 140.266 204.07 c 140.195
 204.07 140.195 204.102 140.16 204.102 c 139.125 204.102 138.262 203.238
 138.262 202.203 c h
142.098 189.27 m 145.074 189.27 l 146.598 189.27 147.805 187.988 147.805
 186.465 c 147.805 184.945 146.594 183.734 145.074 183.734 c 142.098 183.734
 l h
142.098 200.266 m 146.422 200.266 l 148.395 200.23 149.984 198.672 149.984
 196.668 c 149.984 194.695 148.391 193.141 146.422 193.105 c 142.098 193.105
 l h
142.098 200.266 m f
174.812 201.234 m 175.16 202.234 174.605 203.309 173.602 203.652 c 173.465
 203.688 173.188 203.758 172.844 203.758 c 172.844 203.758 172.844 203.758
 172.809 203.758 c 172.461 203.758 171.945 203.688 171.461 203.375 c 171.008
 203.102 170.629 202.648 170.352 202.164 c 169.867 201.164 169.625 199.918
 169.625 198.016 c 169.59 197.359 169.453 196.91 169.211 196.527 c 169.004
 196.148 168.59 195.801 168.172 195.527 c 167.445 195.043 166.547 194.766
 166.234 194.695 c 162.156 194.695 l 162.156 202.203 l 162.156 203.238 161.293
 204.102 160.219 204.102 c 159.148 204.102 158.316 203.238 158.316 202.203
 c 158.316 181.797 l 158.316 180.727 159.148 179.898 160.219 179.898 c 166.41
 179.898 l 170.527 179.898 173.812 183.215 173.812 187.332 c 173.812 189.613
 172.773 191.621 171.113 193.004 c 171.562 193.352 171.977 193.766 172.324
 194.281 c 173.016 195.285 173.465 196.566 173.465 198.02 c 173.43 199.055
 173.535 199.715 173.605 200.059 c 174.156 200.23 174.605 200.645 174.812
 201.234 c h
169.973 187.332 m 169.973 185.328 168.383 183.734 166.41 183.734 c 162.156
 183.734 l 162.156 190.859 l 166.41 190.859 l 168.383 190.859 169.973 189.27
 169.973 187.332 c h
169.973 187.332 m f
192.762 198.398 m 184.359 198.398 l 182.664 202.895 l 182.352 203.652 181.625
 204.102 180.863 204.102 c 180.621 204.102 180.414 204.07 180.207 204 c 
179.203 203.617 178.719 202.512 179.066 201.512 c 186.711 181.141 l 187.02
 180.383 187.781 179.898 188.543 179.93 c 189.336 179.898 190.062 180.383
 190.375 181.141 c 198.02 201.512 l 198.363 202.512 197.879 203.617 196.879
 204 c 196.703 204.07 196.461 204.102 196.223 204.102 c 195.461 204.102 
194.734 203.652 194.457 202.895 c h
191.344 194.594 m 188.539 187.16 l 185.738 194.594 l h
191.344 194.594 m f
206.559 202.203 m 206.559 203.238 205.695 204.102 204.691 204.102 c 203.617
 204.102 202.789 203.238 202.789 202.203 c 202.789 182.109 l 202.789 182.109
 202.789 182.109 202.789 182.074 c 202.754 181.488 203.031 180.863 203.551
 180.484 c 204.414 179.895 205.59 180.07 206.18 180.898 c 217.348 196.355
 l 217.348 182.109 l 217.348 181.105 218.18 180.242 219.215 180.242 c 220.254
 180.242 221.117 181.105 221.117 182.109 c 221.117 202.203 l 221.117 203.238
 220.254 204.102 219.215 204.102 c 218.664 204.102 218.145 203.828 217.797
 203.41 c 217.73 203.344 217.66 203.273 217.625 203.203 c 206.559 187.852
 l h
206.559 202.203 m f
227.688 202.203 m 227.688 181.797 l 227.688 180.727 228.516 179.898 229.59
 179.898 c 233.672 179.898 l 240.348 179.898 245.742 185.324 245.742 191.965
 c 245.742 198.672 240.348 204.102 233.672 204.102 c 229.59 204.102 l 228.516
 204.102 227.688 203.238 227.688 202.203 c h
231.527 200.266 m 233.672 200.266 l 238.234 200.23 241.902 196.566 241.902
 191.965 c 241.902 187.434 238.234 183.734 233.672 183.734 c 231.527 183.734
 l h
231.527 200.266 m f
Q Q
showpage
%%Trailer
end
%%EOF
