%!PS-Adobe-3.0 EPSF-3.0
%%Creator: cairo 1.16.0 (https://cairographics.org)
%%CreationDate: Fri Jan 10 07:38:39 2020
%%Pages: 1
%%DocumentData: Clean7Bit
%%LanguageLevel: 2
%%BoundingBox: 8 3 376 381
%%EndComments
%%BeginProlog
50 dict begin
/q { gsave } bind def
/Q { grestore } bind def
/cm { 6 array astore concat } bind def
/w { setlinewidth } bind def
/J { setlinecap } bind def
/j { setlinejoin } bind def
/M { setmiterlimit } bind def
/d { setdash } bind def
/m { moveto } bind def
/l { lineto } bind def
/c { curveto } bind def
/h { closepath } bind def
/re { exch dup neg 3 1 roll 5 3 roll moveto 0 rlineto
      0 exch rlineto 0 rlineto closepath } bind def
/S { stroke } bind def
/f { fill } bind def
/f* { eofill } bind def
/n { newpath } bind def
/W { clip } bind def
/W* { eoclip } bind def
/BT { } bind def
/ET { } bind def
/BDC { mark 3 1 roll /BDC pdfmark } bind def
/EMC { mark /EMC pdfmark } bind def
/cairo_store_point { /cairo_point_y exch def /cairo_point_x exch def } def
/Tj { show currentpoint cairo_store_point } bind def
/TJ {
  {
    dup
    type /stringtype eq
    { show } { -0.001 mul 0 cairo_font_matrix dtransform rmoveto } ifelse
  } forall
  currentpoint cairo_store_point
} bind def
/cairo_selectfont { cairo_font_matrix aload pop pop pop 0 0 6 array astore
    cairo_font exch selectfont cairo_point_x cairo_point_y moveto } bind def
/Tf { pop /cairo_font exch def /cairo_font_matrix where
      { pop cairo_selectfont } if } bind def
/Td { matrix translate cairo_font_matrix matrix concatmatrix dup
      /cairo_font_matrix exch def dup 4 get exch 5 get cairo_store_point
      /cairo_font where { pop cairo_selectfont } if } bind def
/Tm { 2 copy 8 2 roll 6 array astore /cairo_font_matrix exch def
      cairo_store_point /cairo_font where { pop cairo_selectfont } if } bind def
/g { setgray } bind def
/rg { setrgbcolor } bind def
/d1 { setcachedevice } bind def
/cairo_data_source {
  CairoDataIndex CairoData length lt
    { CairoData CairoDataIndex get /CairoDataIndex CairoDataIndex 1 add def }
    { () } ifelse
} def
/cairo_flush_ascii85_file { cairo_ascii85_file status { cairo_ascii85_file flushfile } if } def
/cairo_image { image cairo_flush_ascii85_file } def
/cairo_imagemask { imagemask cairo_flush_ascii85_file } def
%%EndProlog
%%BeginSetup
%%EndSetup
%%Page: 1 1
%%BeginPageSetup
%%PageBoundingBox: 8 3 376 381
%%EndPageSetup
q 8 3 368 378 rectclip
1 0 0 -1 0 384 cm q
0.956863 0.937255 0.929412 rg
11.867 378 m 283.824 378 l 283.824 69.5 l 220.324 6 l 11.867 6 l h
11.867 378 m f
0.988235 0.760784 0.298039 rg
42.176 47.719 m 42.176 71.688 l 62.93 83.672 l 83.688 71.688 l 83.688 47.719
 l 62.93 35.734 l h
42.176 47.719 m f
83.688 47.719 m 83.688 71.688 l 104.445 83.672 l 125.203 71.688 l 125.203
 47.719 l 104.445 35.734 l h
83.688 47.719 m f
42.176 47.719 m 42.176 71.688 l 62.93 83.672 l 83.688 71.688 l 83.688 47.719
 l 62.93 35.734 l h
42.176 47.719 m f
83.688 47.719 m 83.688 71.688 l 104.445 83.672 l 125.203 71.688 l 125.203
 47.719 l 104.445 35.734 l h
83.688 47.719 m f
0.839216 0.819608 0.811765 rg
283.824 69.5 m 283.824 378 l 268.824 378 l 268.824 54.5 l h
283.824 69.5 m f
1 g
11.867 6 15 372 re f
0.411765 0.0196078 0.537255 rg
283.824 381 m 11.867 381 l 10.211 381 8.867 379.656 8.867 378 c 8.867 6
 l 8.867 4.344 10.211 3 11.867 3 c 220.324 3 l 221.121 3 221.883 3.316 222.445
 3.879 c 285.945 67.379 l 286.508 67.941 286.824 68.703 286.824 69.5 c 286.824
 378 l 286.824 379.656 285.484 381 283.824 381 c h
14.867 375 m 280.828 375 l 280.828 70.742 l 219.082 9 l 14.867 9 l h
14.867 375 m f
23.867 129.02 m 22.211 129.02 20.867 127.676 20.867 126.02 c 20.867 108.02
 l 20.867 106.363 22.211 105.02 23.867 105.02 c 25.523 105.02 26.867 106.363
 26.867 108.02 c 26.867 126.02 l 26.867 127.676 25.523 129.02 23.867 129.02
 c h
23.867 129.02 m f
0.533333 0.321569 0.658824 rg
220.324 6 m 220.324 69.5 l 283.824 69.5 l h
220.324 6 m f
0.411765 0.0196078 0.537255 rg
283.824 72.5 m 220.324 72.5 l 218.672 72.5 217.324 71.156 217.324 69.5 
c 217.324 6 l 217.324 4.785 218.055 3.691 219.18 3.227 c 220.301 2.762 221.59
 3.02 222.445 3.879 c 285.945 67.379 l 286.805 68.238 287.062 69.527 286.598
 70.648 c 286.133 71.77 285.039 72.5 283.824 72.5 c h
223.324 66.5 m 276.582 66.5 l 223.324 13.242 l h
223.324 66.5 m f
0.988235 0.760784 0.298039 rg
42.176 47.719 m 42.176 71.688 l 62.93 83.672 l 83.688 71.688 l 83.688 47.719
 l 62.93 35.734 l h
42.176 47.719 m f
83.688 47.719 m 83.688 71.688 l 104.445 83.672 l 125.203 71.688 l 125.203
 47.719 l 104.445 35.734 l h
83.688 47.719 m f
0.411765 0.0196078 0.537255 rg
62.93 86.672 m 62.414 86.672 61.895 86.535 61.43 86.27 c 40.676 74.285 
l 39.746 73.75 39.176 72.758 39.176 71.688 c 39.176 47.719 l 39.176 46.648
 39.746 45.656 40.676 45.121 c 61.43 33.137 l 62.359 32.598 63.504 32.598
 64.43 33.137 c 85.188 45.121 l 86.117 45.656 86.688 46.648 86.688 47.719
 c 86.688 71.688 l 86.688 72.758 86.117 73.75 85.188 74.285 c 64.43 86.27
 l 63.969 86.535 63.449 86.672 62.93 86.672 c h
45.176 69.953 m 62.93 80.203 l 80.688 69.953 l 80.688 49.449 l 62.93 39.199
 l 45.176 49.449 l h
45.176 69.953 m f
104.445 86.672 m 103.926 86.672 103.41 86.535 102.945 86.27 c 82.188 74.285
 l 81.258 73.75 80.688 72.758 80.688 71.688 c 80.688 47.719 l 80.688 46.648
 81.258 45.656 82.188 45.121 c 102.945 33.137 l 103.875 32.598 105.016 32.598
 105.945 33.137 c 126.703 45.121 l 127.629 45.656 128.203 46.648 128.203
 47.719 c 128.203 71.688 l 128.203 72.758 127.629 73.75 126.703 74.285 c
 105.945 86.27 l 105.48 86.535 104.965 86.672 104.445 86.672 c h
86.688 69.953 m 104.445 80.203 l 122.203 69.953 l 122.203 49.449 l 104.445
 39.199 l 86.688 49.449 l h
86.688 69.953 m f
0.321569 0.435294 0.666667 rg
144.57 256.281 176.641 121.719 re f
0.203922 0.317647 0.54902 rg
306.211 256.281 15 121.719 re f
0.988235 0.760784 0.298039 rg
197.832 307.02 m 197.832 327.262 l 215.359 337.383 l 232.891 327.262 l 
232.891 307.02 l 215.359 296.898 l h
197.832 307.02 m f
232.891 307.02 m 232.891 327.262 l 250.418 337.383 l 267.949 327.262 l 
267.949 307.02 l 250.418 296.898 l h
232.891 307.02 m f
0.411765 0.0196078 0.537255 rg
321.211 381 m 144.57 381 l 142.914 381 141.57 379.656 141.57 378 c 141.57
 256.281 l 141.57 254.625 142.914 253.281 144.57 253.281 c 321.211 253.281
 l 322.867 253.281 324.211 254.625 324.211 256.281 c 324.211 378 l 324.211
 379.656 322.867 381 321.211 381 c h
147.57 375 m 318.211 375 l 318.211 259.281 l 147.57 259.281 l h
147.57 375 m f
215.359 340.383 m 214.844 340.383 214.324 340.246 213.859 339.98 c 196.332
 329.859 l 195.402 329.324 194.832 328.332 194.832 327.262 c 194.832 307.02
 l 194.832 305.949 195.402 304.957 196.332 304.422 c 213.859 294.301 l 214.789
 293.766 215.934 293.766 216.859 294.301 c 234.391 304.422 l 235.32 304.957
 235.891 305.949 235.891 307.02 c 235.891 327.262 l 235.891 328.332 235.32
 329.324 234.391 329.859 c 216.859 339.98 l 216.395 340.246 215.879 340.383
 215.359 340.383 c h
200.832 325.527 m 215.359 333.918 l 229.891 325.527 l 229.891 308.75 l 
215.359 300.363 l 200.832 308.75 l h
200.832 325.527 m f
250.418 340.383 m 249.902 340.383 249.383 340.246 248.918 339.98 c 231.387
 329.859 l 230.461 329.324 229.887 328.332 229.887 327.262 c 229.887 307.02
 l 229.887 305.949 230.461 304.957 231.387 304.422 c 248.918 294.301 l 249.848
 293.766 250.992 293.766 251.918 294.301 c 269.449 304.422 l 270.379 304.957
 270.949 305.949 270.949 307.02 c 270.949 327.262 l 270.949 328.332 270.379
 329.324 269.449 329.859 c 251.918 339.98 l 251.457 340.246 250.938 340.383
 250.418 340.383 c h
235.891 325.527 m 250.422 333.918 l 264.949 325.527 l 264.949 308.75 l 
250.422 300.363 l 235.891 308.75 l h
235.891 325.527 m f
220.785 111.02 m 68.355 111.02 l 66.699 111.02 65.355 109.676 65.355 108.02
 c 65.355 106.363 66.699 105.02 68.355 105.02 c 220.785 105.02 l 222.441
 105.02 223.785 106.363 223.785 108.02 c 223.785 109.676 222.441 111.02 
220.785 111.02 c h
220.785 111.02 m f
249.52 149.539 m 39.617 149.539 l 37.961 149.539 36.617 148.195 36.617 
146.539 c 36.617 144.883 37.961 143.539 39.617 143.539 c 249.52 143.539 
l 251.176 143.539 252.52 144.883 252.52 146.539 c 252.52 148.195 251.176
 149.539 249.52 149.539 c h
249.52 149.539 m f
249.52 193.285 m 39.617 193.285 l 37.961 193.285 36.617 191.941 36.617 
190.285 c 36.617 188.629 37.961 187.285 39.617 187.285 c 249.52 187.285 
l 251.176 187.285 252.52 188.629 252.52 190.285 c 252.52 191.941 251.176
 193.285 249.52 193.285 c h
249.52 193.285 m f
249.52 237.031 m 39.617 237.031 l 37.961 237.031 36.617 235.688 36.617 
234.031 c 36.617 232.375 37.961 231.031 39.617 231.031 c 249.52 231.031 
l 251.176 231.031 252.52 232.375 252.52 234.031 c 252.52 235.688 251.176
 237.031 249.52 237.031 c h
249.52 237.031 m f
119.223 280.777 m 39.617 280.777 l 37.961 280.777 36.617 279.434 36.617
 277.777 c 36.617 276.121 37.961 274.777 39.617 274.777 c 119.223 274.777
 l 120.879 274.777 122.223 276.121 122.223 277.777 c 122.223 279.434 120.879
 280.777 119.223 280.777 c h
119.223 280.777 m f
119.223 324.523 m 39.617 324.523 l 37.961 324.523 36.617 323.18 36.617 
321.523 c 36.617 319.867 37.961 318.523 39.617 318.523 c 119.223 318.523
 l 120.879 318.523 122.223 319.867 122.223 321.523 c 122.223 323.18 120.879
 324.523 119.223 324.523 c h
119.223 324.523 m f
0.956863 0.937255 0.929412 rg
346.211 80.387 m 380.691 114.867 380.691 170.77 346.211 205.25 c 311.73
 239.73 255.828 239.73 221.348 205.25 c 186.867 170.77 186.867 114.867 221.348
 80.387 c 255.828 45.902 311.73 45.902 346.211 80.387 c h
346.211 80.387 m f
1 g
206.02 142.801 m 206.02 95.793 242.75 57.383 289.074 54.664 c 287.336 54.562
 285.59 54.496 283.824 54.496 c 235.055 54.496 195.52 94.031 195.52 142.801
 c 195.52 191.57 235.055 231.109 283.824 231.109 c 285.59 231.109 287.336
 231.043 289.074 230.941 c 242.75 228.219 206.02 189.809 206.02 142.801 
c h
206.02 142.801 m f
0.839216 0.819608 0.811765 rg
361.633 142.801 m 361.633 189.809 324.898 228.219 278.574 230.941 c 280.312
 231.043 282.062 231.109 283.824 231.109 c 332.594 231.109 372.133 191.574
 372.133 142.801 c 372.133 94.031 332.598 54.496 283.824 54.496 c 282.062
 54.496 280.312 54.562 278.574 54.664 c 324.898 57.383 361.633 95.793 361.633
 142.801 c h
361.633 142.801 m f
0.411765 0.0196078 0.537255 rg
283.824 234.109 m 233.48 234.109 192.52 193.148 192.52 142.801 c 192.52
 92.457 233.48 51.496 283.824 51.496 c 334.172 51.496 375.133 92.457 375.133
 142.801 c 375.133 193.148 334.172 234.109 283.824 234.109 c h
283.824 57.496 m 236.785 57.496 198.52 95.762 198.52 142.801 c 198.52 189.84
 236.785 228.109 283.824 228.109 c 330.863 228.109 369.133 189.84 369.133
 142.801 c 369.133 95.762 330.863 57.496 283.824 57.496 c h
283.824 57.496 m f
283.824 64.777 m 282.168 64.777 280.824 63.434 280.824 61.777 c 280.824
 55.207 l 280.824 53.551 282.168 52.207 283.824 52.207 c 285.48 52.207 286.824
 53.551 286.824 55.207 c 286.824 61.777 l 286.824 63.434 285.484 64.777 
283.824 64.777 c h
283.824 64.777 m f
283.824 233.395 m 282.168 233.395 280.824 232.051 280.824 230.395 c 280.824
 223.824 l 280.824 222.168 282.168 220.824 283.824 220.824 c 285.48 220.824
 286.824 222.168 286.824 223.824 c 286.824 230.395 l 286.824 232.051 285.484
 233.395 283.824 233.395 c h
283.824 233.395 m f
371.418 145.801 m 364.848 145.801 l 363.195 145.801 361.848 144.457 361.848
 142.801 c 361.848 141.145 363.195 139.801 364.848 139.801 c 371.418 139.801
 l 373.074 139.801 374.418 141.145 374.418 142.801 c 374.418 144.457 373.078
 145.801 371.418 145.801 c h
371.418 145.801 m f
202.801 145.801 m 196.23 145.801 l 194.574 145.801 193.23 144.457 193.23
 142.801 c 193.23 141.145 194.574 139.801 196.23 139.801 c 202.801 139.801
 l 204.457 139.801 205.801 141.145 205.801 142.801 c 205.801 144.457 204.461
 145.801 202.801 145.801 c h
202.801 145.801 m f
0.321569 0.435294 0.666667 rg
283.824 90.289 m 312.691 90.289 330.734 121.539 316.301 146.539 c 283.824
 202.789 l 251.348 146.539 l 236.914 121.539 254.957 90.289 283.824 90.289
 c h
283.824 90.289 m f
0.956863 0.937255 0.929412 rg
301.195 127.668 m 301.195 137.262 293.418 145.039 283.824 145.039 c 274.23
 145.039 266.453 137.262 266.453 127.668 c 266.453 118.074 274.23 110.297
 283.824 110.297 c 293.418 110.297 301.195 118.074 301.195 127.668 c h
301.195 127.668 m f
0.411765 0.0196078 0.537255 rg
283.824 205.789 m 282.754 205.789 281.762 205.219 281.227 204.289 c 248.754
 148.039 l 241.43 135.359 241.43 120.219 248.754 107.539 c 256.074 94.859
 269.184 87.289 283.828 87.289 c 298.469 87.289 311.578 94.859 318.902 107.539
 c 326.223 120.219 326.223 135.359 318.902 148.039 c 286.426 204.289 l 285.887
 205.219 284.898 205.789 283.824 205.789 c h
283.824 93.289 m 271.352 93.289 260.184 99.738 253.949 110.539 c 247.715
 121.34 247.715 134.238 253.949 145.039 c 283.824 196.789 l 313.703 145.039
 l 319.941 134.238 319.941 121.34 313.703 110.539 c 307.469 99.738 296.297
 93.289 283.824 93.289 c h
283.824 93.289 m f
283.824 148.039 m 272.594 148.039 263.453 138.902 263.453 127.668 c 263.453
 116.434 272.594 107.297 283.824 107.297 c 295.059 107.297 304.195 116.434
 304.195 127.668 c 304.195 138.902 295.059 148.039 283.824 148.039 c h
283.824 113.297 m 275.902 113.297 269.453 119.742 269.453 127.668 c 269.453
 135.594 275.902 142.039 283.824 142.039 c 291.75 142.039 298.195 135.594
 298.195 127.668 c 298.195 119.742 291.75 113.297 283.824 113.297 c h
283.824 113.297 m f
Q Q
showpage
%%Trailer
end
%%EOF
