%!PS-Adobe-3.0 EPSF-3.0
%%Creator: cairo 1.16.0 (https://cairographics.org)
%%CreationDate: Fri Jan 10 07:38:39 2020
%%Pages: 1
%%DocumentData: Clean7Bit
%%LanguageLevel: 2
%%BoundingBox: 18 3 366 381
%%EndComments
%%BeginProlog
50 dict begin
/q { gsave } bind def
/Q { grestore } bind def
/cm { 6 array astore concat } bind def
/w { setlinewidth } bind def
/J { setlinecap } bind def
/j { setlinejoin } bind def
/M { setmiterlimit } bind def
/d { setdash } bind def
/m { moveto } bind def
/l { lineto } bind def
/c { curveto } bind def
/h { closepath } bind def
/re { exch dup neg 3 1 roll 5 3 roll moveto 0 rlineto
      0 exch rlineto 0 rlineto closepath } bind def
/S { stroke } bind def
/f { fill } bind def
/f* { eofill } bind def
/n { newpath } bind def
/W { clip } bind def
/W* { eoclip } bind def
/BT { } bind def
/ET { } bind def
/BDC { mark 3 1 roll /BDC pdfmark } bind def
/EMC { mark /EMC pdfmark } bind def
/cairo_store_point { /cairo_point_y exch def /cairo_point_x exch def } def
/Tj { show currentpoint cairo_store_point } bind def
/TJ {
  {
    dup
    type /stringtype eq
    { show } { -0.001 mul 0 cairo_font_matrix dtransform rmoveto } ifelse
  } forall
  currentpoint cairo_store_point
} bind def
/cairo_selectfont { cairo_font_matrix aload pop pop pop 0 0 6 array astore
    cairo_font exch selectfont cairo_point_x cairo_point_y moveto } bind def
/Tf { pop /cairo_font exch def /cairo_font_matrix where
      { pop cairo_selectfont } if } bind def
/Td { matrix translate cairo_font_matrix matrix concatmatrix dup
      /cairo_font_matrix exch def dup 4 get exch 5 get cairo_store_point
      /cairo_font where { pop cairo_selectfont } if } bind def
/Tm { 2 copy 8 2 roll 6 array astore /cairo_font_matrix exch def
      cairo_store_point /cairo_font where { pop cairo_selectfont } if } bind def
/g { setgray } bind def
/rg { setrgbcolor } bind def
/d1 { setcachedevice } bind def
/cairo_data_source {
  CairoDataIndex CairoData length lt
    { CairoData CairoDataIndex get /CairoDataIndex CairoDataIndex 1 add def }
    { () } ifelse
} def
/cairo_flush_ascii85_file { cairo_ascii85_file status { cairo_ascii85_file flushfile } if } def
/cairo_image { image cairo_flush_ascii85_file } def
/cairo_imagemask { imagemask cairo_flush_ascii85_file } def
%%EndProlog
%%BeginSetup
%%EndSetup
%%Page: 1 1
%%BeginPageSetup
%%PageBoundingBox: 18 3 366 381
%%EndPageSetup
q 18 3 348 378 rectclip
1 0 0 -1 0 384 cm q
0.956863 0.937255 0.929412 rg
21.305 378 m 293.262 378 l 293.262 69.5 l 229.762 6 l 21.305 6 l h
21.305 378 m f
0.988235 0.760784 0.298039 rg
51.609 47.719 m 51.609 71.688 l 72.367 83.672 l 93.125 71.688 l 93.125 
47.719 l 72.367 35.734 l h
51.609 47.719 m f
93.125 47.719 m 93.125 71.688 l 113.883 83.672 l 134.637 71.688 l 134.637
 47.719 l 113.883 35.734 l h
93.125 47.719 m f
51.609 47.719 m 51.609 71.688 l 72.367 83.672 l 93.125 71.688 l 93.125 
47.719 l 72.367 35.734 l h
51.609 47.719 m f
93.125 47.719 m 93.125 71.688 l 113.883 83.672 l 134.637 71.688 l 134.637
 47.719 l 113.883 35.734 l h
93.125 47.719 m f
0.839216 0.819608 0.811765 rg
293.262 69.5 m 293.262 378 l 278.262 378 l 278.262 54.5 l h
293.262 69.5 m f
1 g
21.305 6 15 372 re f
0.411765 0.0196078 0.537255 rg
293.262 381 m 21.305 381 l 19.648 381 18.305 379.656 18.305 378 c 18.305
 6 l 18.305 4.344 19.648 3 21.305 3 c 229.762 3 l 230.559 3 231.32 3.316
 231.883 3.879 c 295.383 67.379 l 295.945 67.941 296.262 68.703 296.262 
69.5 c 296.262 378 l 296.262 379.656 294.918 381 293.262 381 c h
24.305 375 m 290.262 375 l 290.262 70.742 l 228.52 9 l 24.305 9 l h
24.305 375 m f
33.305 129.02 m 31.648 129.02 30.305 127.676 30.305 126.02 c 30.305 108.02
 l 30.305 106.363 31.648 105.02 33.305 105.02 c 34.961 105.02 36.305 106.363
 36.305 108.02 c 36.305 126.02 l 36.305 127.676 34.961 129.02 33.305 129.02
 c h
33.305 129.02 m f
0.533333 0.321569 0.658824 rg
229.762 6 m 229.762 69.5 l 293.262 69.5 l h
229.762 6 m f
0.411765 0.0196078 0.537255 rg
293.262 72.5 m 229.762 72.5 l 228.105 72.5 226.762 71.156 226.762 69.5 
c 226.762 6 l 226.762 4.785 227.492 3.691 228.613 3.227 c 229.734 2.762 
231.023 3.02 231.883 3.879 c 295.383 67.379 l 296.242 68.238 296.496 69.527
 296.035 70.648 c 295.57 71.77 294.473 72.5 293.262 72.5 c h
232.762 66.5 m 286.02 66.5 l 232.762 13.242 l h
232.762 66.5 m f
0.988235 0.760784 0.298039 rg
51.609 47.719 m 51.609 71.688 l 72.367 83.672 l 93.125 71.688 l 93.125 
47.719 l 72.367 35.734 l h
51.609 47.719 m f
93.125 47.719 m 93.125 71.688 l 113.883 83.672 l 134.637 71.688 l 134.637
 47.719 l 113.883 35.734 l h
93.125 47.719 m f
0.411765 0.0196078 0.537255 rg
72.367 86.672 m 71.848 86.672 71.332 86.535 70.867 86.27 c 50.109 74.285
 l 49.184 73.75 48.609 72.758 48.609 71.688 c 48.609 47.719 l 48.609 46.645
 49.184 45.656 50.109 45.121 c 70.867 33.137 l 71.797 32.602 72.938 32.602
 73.867 33.137 c 94.625 45.121 l 95.555 45.656 96.125 46.648 96.125 47.719
 c 96.125 71.688 l 96.125 72.758 95.555 73.75 94.625 74.285 c 73.867 86.27
 l 73.402 86.535 72.887 86.672 72.367 86.672 c h
54.609 69.957 m 72.367 80.207 l 90.125 69.957 l 90.125 49.449 l 72.367 
39.199 l 54.609 49.449 l h
54.609 69.957 m f
113.883 86.672 m 113.363 86.672 112.848 86.535 112.383 86.27 c 91.625 74.285
 l 90.695 73.75 90.125 72.758 90.125 71.688 c 90.125 47.719 l 90.125 46.645
 90.695 45.656 91.625 45.121 c 112.383 33.137 l 113.309 32.602 114.453 32.602
 115.383 33.137 c 136.141 45.121 l 137.07 45.656 137.641 46.648 137.641 
47.719 c 137.641 71.688 l 137.641 72.758 137.07 73.75 136.141 74.285 c 115.383
 86.27 l 114.918 86.535 114.402 86.672 113.883 86.672 c h
96.125 69.957 m 113.883 80.207 l 131.641 69.957 l 131.641 49.449 l 113.883
 39.199 l 96.125 49.449 l h
96.125 69.957 m f
0.321569 0.435294 0.666667 rg
154.004 256.281 176.645 121.719 re f
0.203922 0.317647 0.54902 rg
315.648 256.281 15 121.719 re f
0.988235 0.760784 0.298039 rg
207.266 307.02 m 207.266 327.262 l 224.797 337.383 l 242.328 327.262 l 
242.328 307.02 l 224.797 296.898 l h
207.266 307.02 m f
242.328 307.02 m 242.328 327.262 l 259.855 337.383 l 277.383 327.262 l 
277.383 307.02 l 259.855 296.898 l h
242.328 307.02 m f
0.411765 0.0196078 0.537255 rg
330.648 381 m 154.004 381 l 152.348 381 151.004 379.656 151.004 378 c 151.004
 256.281 l 151.004 254.625 152.348 253.281 154.004 253.281 c 330.648 253.281
 l 332.305 253.281 333.648 254.625 333.648 256.281 c 333.648 378 l 333.648
 379.656 332.305 381 330.648 381 c h
157.004 375 m 327.648 375 l 327.648 259.281 l 157.004 259.281 l h
157.004 375 m f
224.797 340.383 m 224.277 340.383 223.762 340.246 223.297 339.98 c 205.766
 329.859 l 204.84 329.324 204.266 328.332 204.266 327.262 c 204.266 307.02
 l 204.266 305.949 204.84 304.957 205.766 304.422 c 223.297 294.301 l 224.223
 293.766 225.367 293.766 226.297 294.301 c 243.828 304.422 l 244.754 304.957
 245.328 305.949 245.328 307.02 c 245.328 327.262 l 245.328 328.332 244.754
 329.324 243.828 329.859 c 226.297 339.98 l 225.832 340.246 225.316 340.383
 224.797 340.383 c h
210.27 325.531 m 224.797 333.918 l 239.328 325.531 l 239.328 308.75 l 224.797
 300.363 l 210.27 308.75 l h
210.27 325.531 m f
259.855 340.383 m 259.336 340.383 258.82 340.246 258.355 339.98 c 240.824
 329.859 l 239.898 329.324 239.324 328.332 239.324 327.262 c 239.324 307.02
 l 239.324 305.949 239.898 304.957 240.824 304.422 c 258.355 294.301 l 259.285
 293.766 260.426 293.766 261.355 294.301 c 278.887 304.422 l 279.816 304.957
 280.387 305.949 280.387 307.02 c 280.387 327.262 l 280.387 328.332 279.816
 329.324 278.887 329.859 c 261.355 339.98 l 260.891 340.246 260.375 340.383
 259.855 340.383 c h
245.328 325.531 m 259.855 333.918 l 274.387 325.531 l 274.387 308.75 l 
259.855 300.363 l 245.328 308.75 l h
245.328 325.531 m f
230.219 111.02 m 77.789 111.02 l 76.133 111.02 74.789 109.676 74.789 108.02
 c 74.789 106.363 76.133 105.02 77.789 105.02 c 230.219 105.02 l 231.875
 105.02 233.219 106.363 233.219 108.02 c 233.219 109.676 231.875 111.02 
230.219 111.02 c h
230.219 111.02 m f
258.957 149.539 m 49.055 149.539 l 47.398 149.539 46.055 148.195 46.055
 146.539 c 46.055 144.883 47.398 143.539 49.055 143.539 c 258.957 143.539
 l 260.613 143.539 261.957 144.883 261.957 146.539 c 261.957 148.195 260.613
 149.539 258.957 149.539 c h
258.957 149.539 m f
258.957 193.285 m 49.055 193.285 l 47.398 193.285 46.055 191.941 46.055
 190.285 c 46.055 188.629 47.398 187.285 49.055 187.285 c 258.957 187.285
 l 260.613 187.285 261.957 188.629 261.957 190.285 c 261.957 191.941 260.613
 193.285 258.957 193.285 c h
258.957 193.285 m f
258.957 237.031 m 49.055 237.031 l 47.398 237.031 46.055 235.688 46.055
 234.031 c 46.055 232.375 47.398 231.031 49.055 231.031 c 258.957 231.031
 l 260.613 231.031 261.957 232.375 261.957 234.031 c 261.957 235.688 260.613
 237.031 258.957 237.031 c h
258.957 237.031 m f
128.656 280.777 m 49.055 280.777 l 47.398 280.777 46.055 279.434 46.055
 277.777 c 46.055 276.121 47.398 274.777 49.055 274.777 c 128.656 274.777
 l 130.312 274.777 131.656 276.121 131.656 277.777 c 131.656 279.434 130.316
 280.777 128.656 280.777 c h
128.656 280.777 m f
128.656 324.523 m 49.055 324.523 l 47.398 324.523 46.055 323.18 46.055 
321.523 c 46.055 319.867 47.398 318.523 49.055 318.523 c 128.656 318.523
 l 130.312 318.523 131.656 319.867 131.656 321.523 c 131.656 323.18 130.316
 324.523 128.656 324.523 c h
128.656 324.523 m f
0.988235 0.760784 0.298039 rg
362.695 111.754 m 362.695 72.504 330.129 40.863 290.547 42.371 c 254.574
 43.742 225.262 73.043 223.883 109.016 c 222.746 138.535 240.055 164.145
 265.203 175.266 c 270.219 177.484 273.48 182.406 273.48 187.887 c 273.48
 222.445 l 273.48 233.098 281.668 242.262 292.305 242.762 c 303.664 243.297
 313.039 234.246 313.039 223.004 c 313.039 187.887 l 313.039 182.422 316.281
 177.492 321.277 175.281 c 345.672 164.516 362.695 140.129 362.695 111.754
 c h
362.695 111.754 m f
0.870588 0.643137 0.180392 rg
290.547 42.371 m 290.102 42.387 289.656 42.43 289.211 42.453 c 325.594 
44.637 354.426 74.824 354.426 111.754 c 354.426 140.129 337.402 164.516 
313.012 175.285 c 308.012 177.492 304.773 182.422 304.773 187.887 c 304.773
 223.008 l 304.773 232.508 298.066 240.418 289.137 242.324 c 290.164 242.547
 291.219 242.711 292.305 242.762 c 303.664 243.297 313.039 234.246 313.039
 223.008 c 313.039 187.887 l 313.039 182.422 316.281 177.492 321.277 175.285
 c 345.668 164.516 362.695 140.129 362.695 111.754 c 362.695 72.504 330.133
 40.863 290.547 42.371 c h
290.547 42.371 m f
0.988235 0.878431 0.415686 rg
295.977 42.371 m 296.426 42.387 296.867 42.43 297.312 42.453 c 260.93 44.637
 232.098 74.824 232.098 111.754 c 232.098 140.129 249.121 164.516 273.512
 175.285 c 278.512 177.492 281.75 182.422 281.75 187.887 c 281.75 223.008
 l 281.75 232.508 288.457 240.418 297.387 242.324 c 296.359 242.547 295.305
 242.711 294.219 242.762 c 282.859 243.297 273.484 234.246 273.484 223.008
 c 273.484 187.887 l 273.484 182.422 270.246 177.492 265.246 175.285 c 240.855
 164.516 223.832 140.129 223.832 111.754 c 223.828 72.504 256.395 40.863
 295.977 42.371 c h
295.977 42.371 m f
0.411765 0.0196078 0.537255 rg
293.277 245.785 m 292.906 245.785 292.539 245.777 292.168 245.762 c 280.008
 245.184 270.484 234.945 270.484 222.445 c 270.484 187.891 l 270.484 183.633
 267.938 179.754 263.992 178.012 c 236.656 165.918 219.738 138.793 220.887
 108.898 c 222.328 71.344 252.879 40.805 290.434 39.371 c 310.352 38.633
 329.18 45.785 343.492 59.562 c 357.812 73.344 365.699 91.883 365.699 111.754
 c 365.699 140.426 348.738 166.441 322.492 178.027 c 318.574 179.758 316.043
 183.629 316.043 187.887 c 316.043 223.008 l 316.043 229.293 313.535 235.152
 308.984 239.492 c 304.703 243.574 299.16 245.785 293.277 245.785 c h
293.285 45.316 m 292.41 45.316 291.539 45.336 290.66 45.367 c 256.219 46.68
 228.199 74.691 226.879 109.133 c 225.828 136.551 241.348 161.434 266.418
 172.523 c 272.531 175.227 276.48 181.258 276.48 187.891 c 276.48 222.445
 l 276.48 231.738 283.496 239.348 292.449 239.766 c 297.102 239.992 301.492
 238.344 304.844 235.152 c 308.195 231.949 310.043 227.637 310.043 223.008
 c 310.043 187.887 l 310.043 181.254 313.977 175.227 320.07 172.539 c 344.145
 161.91 359.699 138.051 359.699 111.754 c 359.699 93.531 352.465 76.531 
339.332 63.887 c 326.836 51.855 310.57 45.316 293.285 45.316 c h
293.285 45.316 m f
0.533333 0.321569 0.658824 rg
273.484 187.891 m 273.484 222.449 l 273.484 233.098 281.668 242.262 292.305
 242.766 c 303.664 243.301 313.043 234.25 313.043 223.008 c 313.043 187.891
 l h
273.484 187.891 m f
0.415686 0.203922 0.541176 rg
304.773 187.891 m 304.773 223.008 l 304.773 232.508 298.066 240.418 289.137
 242.324 c 290.164 242.547 291.219 242.711 292.305 242.762 c 303.664 243.297
 313.039 234.246 313.039 223.008 c 313.039 187.891 l h
304.773 187.891 m f
0.65098 0.439216 0.776471 rg
281.75 187.891 m 281.75 223.008 l 281.75 232.508 288.457 240.418 297.387
 242.324 c 296.359 242.547 295.305 242.711 294.219 242.762 c 282.859 243.297
 273.484 234.246 273.484 223.008 c 273.484 187.891 l h
281.75 187.891 m f
0.411765 0.0196078 0.537255 rg
293.281 245.785 m 292.91 245.785 292.539 245.777 292.164 245.758 c 280.008
 245.184 270.484 234.945 270.484 222.445 c 270.484 187.891 l 270.484 186.234
 271.828 184.891 273.484 184.891 c 313.043 184.891 l 314.699 184.891 316.043
 186.234 316.043 187.891 c 316.043 223.008 l 316.043 229.293 313.535 235.152
 308.984 239.492 c 304.703 243.574 299.164 245.785 293.281 245.785 c h
276.48 190.891 m 276.48 222.445 l 276.48 231.738 283.496 239.344 292.449
 239.766 c 297.086 240 301.492 238.348 304.844 235.152 c 308.195 231.953
 310.043 227.641 310.043 223.008 c 310.043 190.891 l h
276.48 190.891 m f
311.234 206.109 m 275.289 206.109 l 273.633 206.109 272.289 204.766 272.289
 203.109 c 272.289 201.453 273.633 200.109 275.289 200.109 c 311.234 200.109
 l 312.891 200.109 314.234 201.453 314.234 203.109 c 314.234 204.766 312.891
 206.109 311.234 206.109 c h
311.234 206.109 m f
311.234 223.48 m 275.289 223.48 l 273.633 223.48 272.289 222.137 272.289
 220.48 c 272.289 218.824 273.633 217.48 275.289 217.48 c 311.234 217.48
 l 312.891 217.48 314.234 218.824 314.234 220.48 c 314.234 222.137 312.891
 223.48 311.234 223.48 c h
311.234 223.48 m f
Q Q
showpage
%%Trailer
end
%%EOF
