%!PS-Adobe-3.0 EPSF-3.0
%%Creator: cairo 1.16.0 (https://cairographics.org)
%%CreationDate: Fri Jan 10 07:38:40 2020
%%Pages: 1
%%DocumentData: Clean7Bit
%%LanguageLevel: 2
%%BoundingBox: 27 3 357 381
%%EndComments
%%BeginProlog
50 dict begin
/q { gsave } bind def
/Q { grestore } bind def
/cm { 6 array astore concat } bind def
/w { setlinewidth } bind def
/J { setlinecap } bind def
/j { setlinejoin } bind def
/M { setmiterlimit } bind def
/d { setdash } bind def
/m { moveto } bind def
/l { lineto } bind def
/c { curveto } bind def
/h { closepath } bind def
/re { exch dup neg 3 1 roll 5 3 roll moveto 0 rlineto
      0 exch rlineto 0 rlineto closepath } bind def
/S { stroke } bind def
/f { fill } bind def
/f* { eofill } bind def
/n { newpath } bind def
/W { clip } bind def
/W* { eoclip } bind def
/BT { } bind def
/ET { } bind def
/BDC { mark 3 1 roll /BDC pdfmark } bind def
/EMC { mark /EMC pdfmark } bind def
/cairo_store_point { /cairo_point_y exch def /cairo_point_x exch def } def
/Tj { show currentpoint cairo_store_point } bind def
/TJ {
  {
    dup
    type /stringtype eq
    { show } { -0.001 mul 0 cairo_font_matrix dtransform rmoveto } ifelse
  } forall
  currentpoint cairo_store_point
} bind def
/cairo_selectfont { cairo_font_matrix aload pop pop pop 0 0 6 array astore
    cairo_font exch selectfont cairo_point_x cairo_point_y moveto } bind def
/Tf { pop /cairo_font exch def /cairo_font_matrix where
      { pop cairo_selectfont } if } bind def
/Td { matrix translate cairo_font_matrix matrix concatmatrix dup
      /cairo_font_matrix exch def dup 4 get exch 5 get cairo_store_point
      /cairo_font where { pop cairo_selectfont } if } bind def
/Tm { 2 copy 8 2 roll 6 array astore /cairo_font_matrix exch def
      cairo_store_point /cairo_font where { pop cairo_selectfont } if } bind def
/g { setgray } bind def
/rg { setrgbcolor } bind def
/d1 { setcachedevice } bind def
/cairo_data_source {
  CairoDataIndex CairoData length lt
    { CairoData CairoDataIndex get /CairoDataIndex CairoDataIndex 1 add def }
    { () } ifelse
} def
/cairo_flush_ascii85_file { cairo_ascii85_file status { cairo_ascii85_file flushfile } if } def
/cairo_image { image cairo_flush_ascii85_file } def
/cairo_imagemask { imagemask cairo_flush_ascii85_file } def
%%EndProlog
%%BeginSetup
%%EndSetup
%%Page: 1 1
%%BeginPageSetup
%%PageBoundingBox: 27 3 357 381
%%EndPageSetup
q 27 3 330 378 rectclip
1 0 0 -1 0 384 cm q
0.988235 0.760784 0.298039 rg
77.312 278.484 m 99.598 290.672 l 77.312 302.859 l 65.125 325.145 l 52.938
 302.859 l 30.652 290.672 l 52.938 278.484 l 65.125 256.199 l h
77.312 278.484 m f
331.062 244.012 m 353.348 256.199 l 331.062 268.387 l 318.875 290.672 l
 306.688 268.387 l 284.402 256.199 l 306.688 244.012 l 318.875 221.727 l
 h
331.062 244.012 m f
320.844 134.844 m 320.844 62.016 260.418 3.297 186.961 6.098 c 120.211 
8.641 65.816 63.02 63.254 129.77 c 61.148 184.551 93.266 232.066 139.934
 252.707 c 149.238 256.82 155.297 265.961 155.297 276.129 c 155.297 340.258
 l 155.297 360.023 170.484 377.027 190.227 377.957 c 211.305 378.949 228.703
 362.152 228.703 341.297 c 228.703 276.129 l 228.703 265.984 234.715 256.836
 243.992 252.738 c 289.25 232.754 320.844 187.5 320.844 134.844 c h
320.844 134.844 m f
0.870588 0.643137 0.180392 rg
186.961 6.098 m 186.129 6.129 185.312 6.203 184.484 6.25 c 252 10.297 305.504
 66.316 305.504 134.844 c 305.504 187.5 273.91 232.754 228.648 252.738 c
 219.371 256.836 213.363 265.984 213.363 276.129 c 213.363 341.297 l 213.363
 358.922 200.918 373.602 184.344 377.145 c 186.254 377.559 188.207 377.863
 190.223 377.957 c 211.301 378.949 228.703 362.152 228.703 341.293 c 228.703
 276.125 l 228.703 265.984 234.715 256.832 243.992 252.738 c 289.25 232.754
 320.844 187.5 320.844 134.844 c 320.844 62.016 260.418 3.297 186.961 6.098
 c h
186.961 6.098 m f
0.988235 0.878431 0.415686 rg
197.039 6.098 m 197.871 6.129 198.688 6.203 199.516 6.25 c 132 10.301 78.496
 66.316 78.496 134.844 c 78.496 187.5 110.09 232.754 155.348 252.738 c 164.625
 256.836 170.637 265.984 170.637 276.129 c 170.637 341.297 l 170.637 358.922
 183.082 373.602 199.656 377.145 c 197.746 377.559 195.789 377.863 193.777
 377.957 c 172.699 378.949 155.297 362.152 155.297 341.293 c 155.297 276.125
 l 155.297 265.984 149.285 256.832 140.008 252.738 c 94.75 232.754 63.156
 187.5 63.156 134.844 c 63.156 62.016 123.582 3.297 197.039 6.098 c h
197.039 6.098 m f
0.411765 0.0196078 0.537255 rg
192.023 381 m 191.379 381 190.734 380.984 190.086 380.953 c 168.895 379.957
 152.297 362.082 152.297 340.258 c 152.297 276.129 l 152.297 267.215 146.969
 259.094 138.723 255.449 c 88.965 233.441 58.164 184.062 60.254 129.652 
c 62.883 61.293 118.488 5.703 186.848 3.098 c 223.066 1.723 257.371 14.766
 283.426 39.848 c 309.492 64.938 323.848 98.676 323.848 134.844 c 323.848
 187.035 292.977 234.387 245.203 255.484 c 237.004 259.105 231.703 267.207
 231.703 276.129 c 231.703 341.297 l 231.703 352.254 227.336 362.457 219.402
 370.027 c 211.941 377.145 202.285 381 192.023 381 c h
192.047 9 m 190.395 9 188.738 9.031 187.078 9.094 c 121.828 11.582 68.758
 64.637 66.25 129.883 c 64.254 181.824 93.652 228.957 141.148 249.965 c 
151.566 254.57 158.297 264.84 158.297 276.129 c 158.297 340.258 l 158.297
 358.871 172.383 374.113 190.371 374.961 c 199.691 375.402 208.531 372.105
 215.262 365.688 c 221.996 359.262 225.707 350.598 225.707 341.297 c 225.707
 276.129 l 225.707 264.836 232.41 254.574 242.781 249.996 c 288.383 229.863
 317.848 184.664 317.848 134.848 c 317.848 100.324 304.145 68.121 279.266
 44.172 c 255.594 21.383 224.785 9 192.047 9 c h
192.047 9 m f
78.309 129.723 m 78.27 129.723 78.23 129.723 78.191 129.723 c 76.535 129.66
 75.246 128.262 75.309 126.609 c 75.547 120.398 76.305 114.176 77.559 108.117
 c 77.895 106.492 79.484 105.449 81.105 105.785 c 82.727 106.121 83.77 107.711
 83.434 109.332 c 82.246 115.066 81.527 120.957 81.305 126.84 c 81.238 128.457
 79.91 129.723 78.309 129.723 c h
78.309 129.723 m f
0.533333 0.321569 0.658824 rg
155.297 276.129 m 155.297 340.258 l 155.297 360.023 170.484 377.027 190.227
 377.957 c 211.305 378.949 228.703 362.156 228.703 341.297 c 228.703 276.129
 l h
155.297 276.129 m f
0.415686 0.203922 0.541176 rg
213.363 276.129 m 213.363 341.297 l 213.363 358.922 200.918 373.602 184.344
 377.145 c 186.254 377.559 188.211 377.863 190.227 377.957 c 211.305 378.949
 228.703 362.152 228.703 341.293 c 228.703 276.129 l h
213.363 276.129 m f
0.65098 0.439216 0.776471 rg
170.637 276.129 m 170.637 341.297 l 170.637 358.922 183.082 373.602 199.656
 377.145 c 197.746 377.559 195.789 377.863 193.773 377.957 c 172.695 378.949
 155.297 362.152 155.297 341.293 c 155.297 276.129 l h
170.637 276.129 m f
0.411765 0.0196078 0.537255 rg
192.027 381 m 191.379 381 190.734 380.984 190.086 380.953 c 168.895 379.957
 152.297 362.082 152.297 340.258 c 152.297 276.129 l 152.297 274.473 153.641
 273.129 155.297 273.129 c 228.707 273.129 l 230.363 273.129 231.707 274.473
 231.707 276.129 c 231.707 341.297 l 231.707 352.254 227.336 362.457 219.406
 370.027 c 211.945 377.145 202.285 381 192.027 381 c h
158.297 279.129 m 158.297 340.258 l 158.297 358.871 172.383 374.113 190.367
 374.961 c 199.703 375.402 208.531 372.105 215.262 365.688 c 221.996 359.262
 225.703 350.598 225.703 341.297 c 225.703 279.129 l h
158.297 279.129 m f
225.348 307.379 m 158.652 307.379 l 156.996 307.379 155.652 306.031 155.652
 304.379 c 155.652 302.723 156.996 301.379 158.652 301.379 c 225.348 301.379
 l 227.004 301.379 228.348 302.723 228.348 304.379 c 228.348 306.031 227.004
 307.379 225.348 307.379 c h
225.348 307.379 m f
225.348 339.613 m 158.652 339.613 l 156.996 339.613 155.652 338.27 155.652
 336.613 c 155.652 334.957 156.996 333.613 158.652 333.613 c 225.348 333.613
 l 227.004 333.613 228.348 334.957 228.348 336.613 c 228.348 338.27 227.004
 339.613 225.348 339.613 c h
225.348 339.613 m f
0.956863 0.937255 0.929412 rg
138.215 149.758 m 147.652 149.758 l 147.652 111.512 l 138.215 111.512 l
 127.652 111.512 119.094 120.074 119.094 130.637 c 119.094 141.195 127.652
 149.758 138.215 149.758 c h
138.215 149.758 m f
201.461 108.836 m 251.156 82.5 l 251.156 178.773 l 201.461 152.438 l h
201.461 108.836 m f
174.555 206.406 m 169.926 206.406 166.172 202.652 166.172 198.023 c 166.172
 136.727 l 182.938 136.727 l 182.938 198.023 l 182.938 202.652 179.184 206.406
 174.555 206.406 c h
174.555 206.406 m f
0.411765 0.0196078 0.537255 rg
174.555 209.406 m 168.281 209.406 163.176 204.301 163.176 198.023 c 163.176
 136.727 l 163.176 135.07 164.52 133.727 166.176 133.727 c 182.938 133.727
 l 184.594 133.727 185.938 135.07 185.938 136.727 c 185.938 198.023 l 185.938
 204.301 180.832 209.406 174.555 209.406 c h
169.176 139.727 m 169.176 198.023 l 169.176 200.992 171.59 203.406 174.555
 203.406 c 177.523 203.406 179.938 200.992 179.938 198.023 c 179.938 139.727
 l h
169.176 139.727 m f
0.533333 0.321569 0.658824 rg
193.547 159.117 m 155.562 159.117 l 151.195 159.117 147.652 155.574 147.652
 151.207 c 147.652 110.066 l 147.652 105.695 151.195 102.156 155.562 102.156
 c 193.547 102.156 l 197.918 102.156 201.461 105.695 201.461 110.066 c 201.461
 151.207 l 201.461 155.574 197.918 159.117 193.547 159.117 c h
193.547 159.117 m f
0.956863 0.937255 0.929412 rg
254.578 140.965 m 251.156 140.965 l 251.156 120.305 l 254.578 120.305 l
 260.281 120.305 264.906 124.93 264.906 130.637 c 264.906 136.34 260.281
 140.965 254.578 140.965 c h
254.578 140.965 m f
0.411765 0.0196078 0.537255 rg
254.578 143.965 m 251.156 143.965 l 249.5 143.965 248.156 142.621 248.156
 140.965 c 248.156 120.305 l 248.156 118.648 249.5 117.305 251.156 117.305
 c 254.578 117.305 l 261.93 117.305 267.906 123.285 267.906 130.637 c 267.906
 137.984 261.93 143.965 254.578 143.965 c h
254.156 137.965 m 254.578 137.965 l 258.621 137.965 261.906 134.676 261.906
 130.637 c 261.906 126.594 258.621 123.309 254.578 123.309 c 254.156 123.309
 l h
254.156 137.965 m f
251.156 181.773 m 250.676 181.773 250.191 181.656 249.75 181.422 c 200.055
 155.09 l 199.074 154.566 198.461 153.551 198.461 152.438 c 198.461 108.836
 l 198.461 107.723 199.074 106.707 200.055 106.184 c 249.75 79.848 l 250.68
 79.355 251.801 79.387 252.703 79.93 c 253.605 80.473 254.156 81.449 254.156
 82.5 c 254.156 178.773 l 254.156 179.824 253.605 180.801 252.703 181.34
 c 252.23 181.629 251.691 181.773 251.156 181.773 c h
204.461 150.633 m 248.156 173.785 l 248.156 87.484 l 204.461 110.641 l 
h
204.461 150.633 m f
147.652 152.758 m 138.215 152.758 l 126.016 152.758 116.094 142.832 116.094
 130.637 c 116.094 118.438 126.016 108.512 138.215 108.512 c 147.652 108.512
 l 149.309 108.512 150.652 109.855 150.652 111.512 c 150.652 149.758 l 150.652
 151.414 149.309 152.758 147.652 152.758 c h
138.215 114.512 m 129.324 114.512 122.094 121.746 122.094 130.637 c 122.094
 139.523 129.324 146.758 138.215 146.758 c 144.652 146.758 l 144.652 114.512
 l h
138.215 114.512 m f
193.547 162.117 m 155.562 162.117 l 149.547 162.117 144.652 157.223 144.652
 151.207 c 144.652 110.062 l 144.652 104.047 149.547 99.152 155.562 99.152
 c 193.547 99.152 l 199.566 99.152 204.461 104.047 204.461 110.062 c 204.461
 151.207 l 204.461 157.223 199.566 162.117 193.547 162.117 c h
155.562 105.156 m 152.855 105.156 150.652 107.359 150.652 110.066 c 150.652
 151.207 l 150.652 153.914 152.855 156.117 155.562 156.117 c 193.547 156.117
 l 196.254 156.117 198.461 153.914 198.461 151.207 c 198.461 110.062 l 198.461
 107.355 196.254 105.152 193.547 105.152 c 155.562 105.152 l h
155.562 105.156 m f
65.125 328.145 m 64.027 328.145 63.02 327.543 62.492 326.582 c 50.727 305.07
 l 29.215 293.301 l 28.25 292.777 27.652 291.766 27.652 290.672 c 27.652
 289.574 28.25 288.562 29.215 288.039 c 50.727 276.273 l 62.492 254.758 
l 63.02 253.797 64.027 253.195 65.125 253.195 c 66.223 253.195 67.23 253.797
 67.758 254.758 c 79.523 276.273 l 101.035 288.039 l 102 288.562 102.598
 289.574 102.598 290.672 c 102.598 291.766 102 292.777 101.039 293.301 c
 79.527 305.07 l 67.758 326.582 l 67.23 327.543 66.219 328.145 65.125 328.145
 c h
36.906 290.672 m 54.375 300.227 l 54.879 300.504 55.293 300.914 55.57 301.418
 c 65.125 318.891 l 74.68 301.418 l 74.953 300.914 75.367 300.5 75.871 300.227
 c 93.344 290.672 l 75.871 281.113 l 75.367 280.84 74.953 280.426 74.68 
279.922 c 65.125 262.453 l 55.57 279.922 l 55.293 280.426 54.883 280.84 
54.379 281.113 c h
36.906 290.672 m f
318.875 293.672 m 317.777 293.672 316.77 293.07 316.242 292.109 c 304.477
 270.594 l 282.965 258.828 l 282 258.305 281.402 257.293 281.402 256.195
 c 281.402 255.102 282 254.09 282.965 253.566 c 304.477 241.797 l 316.242
 220.285 l 316.77 219.324 317.777 218.723 318.875 218.723 c 319.973 218.723
 320.98 219.324 321.508 220.285 c 333.273 241.797 l 354.785 253.566 l 355.75
 254.09 356.348 255.102 356.348 256.195 c 356.348 257.293 355.75 258.305
 354.785 258.828 c 333.273 270.594 l 321.508 292.109 l 320.98 293.07 319.973
 293.672 318.875 293.672 c h
290.656 256.199 m 308.129 265.754 l 308.633 266.031 309.047 266.441 309.32
 266.945 c 318.875 284.418 l 328.43 266.945 l 328.707 266.441 329.117 266.027
 329.621 265.754 c 347.094 256.199 l 329.621 246.645 l 329.117 246.367 328.703
 245.953 328.43 245.449 c 318.875 227.98 l 309.32 245.449 l 309.043 245.953
 308.633 246.367 308.129 246.645 c h
290.656 256.199 m f
Q Q
showpage
%%Trailer
end
%%EOF
