%!PS-Adobe-3.0 EPSF-3.0
%%Creator: cairo 1.16.0 (https://cairographics.org)
%%CreationDate: Fri Jan 10 07:38:40 2020
%%Pages: 1
%%DocumentData: Clean7Bit
%%LanguageLevel: 2
%%BoundingBox: 11 3 373 381
%%EndComments
%%BeginProlog
50 dict begin
/q { gsave } bind def
/Q { grestore } bind def
/cm { 6 array astore concat } bind def
/w { setlinewidth } bind def
/J { setlinecap } bind def
/j { setlinejoin } bind def
/M { setmiterlimit } bind def
/d { setdash } bind def
/m { moveto } bind def
/l { lineto } bind def
/c { curveto } bind def
/h { closepath } bind def
/re { exch dup neg 3 1 roll 5 3 roll moveto 0 rlineto
      0 exch rlineto 0 rlineto closepath } bind def
/S { stroke } bind def
/f { fill } bind def
/f* { eofill } bind def
/n { newpath } bind def
/W { clip } bind def
/W* { eoclip } bind def
/BT { } bind def
/ET { } bind def
/BDC { mark 3 1 roll /BDC pdfmark } bind def
/EMC { mark /EMC pdfmark } bind def
/cairo_store_point { /cairo_point_y exch def /cairo_point_x exch def } def
/Tj { show currentpoint cairo_store_point } bind def
/TJ {
  {
    dup
    type /stringtype eq
    { show } { -0.001 mul 0 cairo_font_matrix dtransform rmoveto } ifelse
  } forall
  currentpoint cairo_store_point
} bind def
/cairo_selectfont { cairo_font_matrix aload pop pop pop 0 0 6 array astore
    cairo_font exch selectfont cairo_point_x cairo_point_y moveto } bind def
/Tf { pop /cairo_font exch def /cairo_font_matrix where
      { pop cairo_selectfont } if } bind def
/Td { matrix translate cairo_font_matrix matrix concatmatrix dup
      /cairo_font_matrix exch def dup 4 get exch 5 get cairo_store_point
      /cairo_font where { pop cairo_selectfont } if } bind def
/Tm { 2 copy 8 2 roll 6 array astore /cairo_font_matrix exch def
      cairo_store_point /cairo_font where { pop cairo_selectfont } if } bind def
/g { setgray } bind def
/rg { setrgbcolor } bind def
/d1 { setcachedevice } bind def
/cairo_data_source {
  CairoDataIndex CairoData length lt
    { CairoData CairoDataIndex get /CairoDataIndex CairoDataIndex 1 add def }
    { () } ifelse
} def
/cairo_flush_ascii85_file { cairo_ascii85_file status { cairo_ascii85_file flushfile } if } def
/cairo_image { image cairo_flush_ascii85_file } def
/cairo_imagemask { imagemask cairo_flush_ascii85_file } def
%%EndProlog
%%BeginSetup
%%EndSetup
%%Page: 1 1
%%BeginPageSetup
%%PageBoundingBox: 11 3 373 381
%%EndPageSetup
q 11 3 362 378 rectclip
1 0 0 -1 0 384 cm q
0.956863 0.937255 0.929412 rg
278.008 378 m 29.246 378 l 20.961 378 14.246 371.285 14.246 363 c 14.246
 21 l 14.246 12.715 20.961 6 29.246 6 c 278.008 6 l 286.293 6 293.008 12.715
 293.008 21 c 293.008 363 l 293.008 371.285 286.293 378 278.008 378 c h
278.008 378 m f
0.839216 0.819608 0.811765 rg
278.008 6 m 263.008 6 l 271.293 6 278.008 12.715 278.008 21 c 278.008 363
 l 278.008 371.285 271.293 378 263.008 378 c 278.008 378 l 286.293 378 293.008
 371.285 293.008 363 c 293.008 21 l 293.008 12.715 286.293 6 278.008 6 c
 h
278.008 6 m f
1 g
29.246 378 m 44.246 378 l 35.961 378 29.246 371.285 29.246 363 c 29.246
 21 l 29.246 12.715 35.961 6 44.246 6 c 29.246 6 l 20.961 6 14.246 12.715
 14.246 21 c 14.246 363 l 14.246 371.285 20.965 378 29.246 378 c h
29.246 378 m f
0.411765 0.0196078 0.537255 rg
278.008 381 m 29.246 381 l 19.32 381 11.246 372.926 11.246 363 c 11.246
 21 l 11.246 11.074 19.32 3 29.246 3 c 278.008 3 l 287.934 3 296.008 11.074
 296.008 21 c 296.008 363 l 296.008 372.926 287.934 381 278.008 381 c h
29.246 9 m 22.629 9 17.246 14.383 17.246 21 c 17.246 363 l 17.246 369.617
 22.629 375 29.246 375 c 278.008 375 l 284.625 375 290.008 369.617 290.008
 363 c 290.008 21 l 290.008 14.383 284.625 9 278.008 9 c h
29.246 9 m f
29.246 103.078 m 27.59 103.078 26.246 101.734 26.246 100.078 c 26.246 82.078
 l 26.246 80.422 27.59 79.078 29.246 79.078 c 30.902 79.078 32.246 80.422
 32.246 82.078 c 32.246 100.078 l 32.246 101.734 30.906 103.078 29.246 103.078
 c h
29.246 103.078 m f
249.453 67.652 m 177.098 67.652 l 175.441 67.652 174.098 66.309 174.098
 64.652 c 174.098 62.996 175.441 61.652 177.098 61.652 c 249.453 61.652 
l 251.109 61.652 252.453 62.996 252.453 64.652 c 252.453 66.309 251.109 
67.652 249.453 67.652 c h
249.453 67.652 m f
249.453 195 m 57.805 195 l 56.148 195 54.805 193.656 54.805 192 c 54.805
 190.344 56.148 189 57.805 189 c 249.453 189 l 251.109 189 252.453 190.344
 252.453 192 c 252.453 193.656 251.109 195 249.453 195 c h
249.453 195 m f
249.453 258.676 m 57.805 258.676 l 56.148 258.676 54.805 257.332 54.805
 255.676 c 54.805 254.02 56.148 252.676 57.805 252.676 c 249.453 252.676
 l 251.109 252.676 252.453 254.02 252.453 255.676 c 252.453 257.332 251.109
 258.676 249.453 258.676 c h
249.453 258.676 m f
249.453 322.348 m 57.805 322.348 l 56.148 322.348 54.805 321.004 54.805
 319.348 c 54.805 317.691 56.148 316.348 57.805 316.348 c 249.453 316.348
 l 251.109 316.348 252.453 317.691 252.453 319.348 c 252.453 321.004 251.109
 322.348 249.453 322.348 c h
249.453 322.348 m f
0.321569 0.435294 0.666667 rg
293.008 378 m 279.078 378 268.215 365.945 269.656 352.094 c 280.922 243.836
 l 305.094 243.836 l 316.359 352.094 l 317.801 365.945 306.934 378 293.008
 378 c h
293.008 378 m f
0.203922 0.317647 0.54902 rg
316.359 352.094 m 305.094 243.836 l 297.836 243.836 l 309.102 352.094 l
 310.418 364.715 301.508 375.84 289.379 377.719 c 290.559 377.902 291.77
 378 293.004 378 c 306.934 378 317.801 365.945 316.359 352.094 c h
316.359 352.094 m f
0.439216 0.552941 0.784314 rg
269.656 352.094 m 280.922 243.836 l 288.176 243.836 l 276.91 352.094 l 
275.598 364.715 284.504 375.84 296.637 377.719 c 295.453 377.902 294.246
 378 293.008 378 c 279.078 378 268.215 365.945 269.656 352.094 c h
269.656 352.094 m f
0.411765 0.0196078 0.537255 rg
293.008 381 m 285.52 381 278.352 377.812 273.34 372.25 c 268.324 366.688
 265.895 359.227 266.672 351.781 c 277.941 243.523 l 278.098 241.996 279.387
 240.836 280.922 240.836 c 305.094 240.836 l 306.629 240.836 307.918 241.996
 308.074 243.523 c 319.344 351.781 l 320.121 359.227 317.688 366.688 312.676
 372.25 c 307.66 377.812 300.492 381 293.008 381 c h
283.625 246.836 m 272.637 352.402 l 272.039 358.16 273.918 363.93 277.797
 368.23 c 281.672 372.531 287.215 375 293.008 375 c 298.797 375 304.344 
372.531 308.219 368.23 c 312.098 363.93 313.977 358.16 313.375 352.402 c
 302.387 246.836 l h
283.625 246.836 m f
0.988235 0.760784 0.298039 rg
305.219 101.406 m 347.055 108.188 375.469 147.602 368.688 189.434 c 361.906
 231.27 322.496 259.684 280.66 252.902 c 238.824 246.121 210.41 206.711 
217.191 164.875 c 223.973 123.043 263.383 94.625 305.219 101.406 c h
305.219 101.406 m f
0.870588 0.643137 0.180392 rg
291.227 253.629 m 292.547 253.734 293.879 253.805 295.215 253.852 c 336.578
 252.68 369.75 218.805 369.75 177.16 c 369.75 135.516 336.574 101.645 295.215
 100.473 c 293.879 100.52 292.547 100.59 291.227 100.695 c 330.652 103.914
 361.652 136.906 361.652 177.16 c 361.652 217.418 330.652 250.41 291.227
 253.629 c h
291.227 253.629 m f
0.988235 0.878431 0.415686 rg
294.789 100.695 m 293.469 100.59 292.137 100.52 290.797 100.473 c 249.434
 101.645 216.262 135.52 216.262 177.16 c 216.262 218.809 249.438 252.68 
290.801 253.852 c 292.137 253.805 293.469 253.734 294.789 253.629 c 255.359
 250.414 224.359 217.422 224.359 177.164 c 224.359 136.906 255.363 103.91
 294.789 100.695 c h
294.789 100.695 m f
0.411765 0.0196078 0.537255 rg
293.008 256.867 m 272.586 256.871 252.168 249.098 236.617 233.551 c 205.527
 202.457 205.527 151.867 236.617 120.773 c 267.711 89.68 318.301 89.68 349.395
 120.773 c 364.457 135.836 372.754 155.859 372.754 177.16 c 372.754 198.461
 364.457 218.488 349.395 233.547 c 333.852 249.094 313.426 256.867 293.008
 256.867 c h
293.008 103.449 m 274.121 103.449 255.238 110.637 240.859 125.016 c 212.109
 153.77 212.109 200.555 240.859 229.305 c 269.617 258.059 316.398 258.059
 345.152 229.305 c 359.082 215.379 366.75 196.859 366.75 177.16 c 366.75
 157.461 359.082 138.945 345.152 125.016 c 330.777 110.637 311.891 103.449
 293.008 103.449 c h
293.008 103.449 m f
0.956863 0.937255 0.929412 rg
345.18 154.617 m 357.625 183.324 344.445 216.684 315.738 229.129 c 287.031
 241.574 253.672 228.391 241.227 199.688 c 228.781 170.98 241.965 137.621
 270.668 125.176 c 299.375 112.73 332.734 125.914 345.18 154.617 c h
345.18 154.617 m f
0.411765 0.0196078 0.537255 rg
293.008 236.781 m 277.082 236.781 262.109 230.578 250.852 219.316 c 239.59
 208.059 233.387 193.086 233.387 177.16 c 233.387 161.234 239.59 146.262
 250.852 135.004 c 262.113 123.742 277.082 117.543 293.008 117.543 c 308.934
 117.543 323.902 123.742 335.164 135.004 c 346.426 146.266 352.625 161.238
 352.625 177.16 c 352.625 193.086 346.426 208.059 335.164 219.316 c 323.902
 230.578 308.934 236.781 293.008 236.781 c h
293.008 123.543 m 278.684 123.543 265.223 129.121 255.094 139.246 c 244.965
 149.371 239.387 162.84 239.387 177.16 c 239.387 191.484 244.965 204.949
 255.094 215.074 c 265.219 225.203 278.688 230.781 293.008 230.781 c 307.328
 230.781 320.793 225.203 330.922 215.074 c 341.051 204.949 346.625 191.484
 346.625 177.16 c 346.625 162.84 341.051 149.371 330.922 139.246 c 320.793
 129.121 307.328 123.543 293.008 123.543 c h
293.008 123.543 m f
293.008 205.539 m 273.891 205.539 256.059 195.238 246.465 178.664 c 245.93
 177.734 245.93 176.586 246.465 175.656 c 256.059 159.082 273.891 148.785
 293.008 148.785 c 312.121 148.785 329.957 159.082 339.551 175.656 c 340.086
 176.586 340.086 177.734 339.551 178.664 c 329.957 195.238 312.121 205.539
 293.008 205.539 c h
252.566 177.16 m 261.277 191.004 276.609 199.539 293.008 199.539 c 309.402
 199.539 324.738 191.004 333.449 177.16 c 324.738 163.316 309.402 154.785
 293.008 154.785 c 276.609 154.785 261.277 163.316 252.566 177.16 c h
252.566 177.16 m f
0.321569 0.435294 0.666667 rg
298.871 152.586 m 312.508 155.812 320.949 169.48 317.727 183.117 c 314.504
 196.754 300.836 205.195 287.199 201.973 c 273.562 198.746 265.121 185.078
 268.344 171.441 c 271.566 157.805 285.234 149.363 298.871 152.586 c h
298.871 152.586 m f
0.411765 0.0196078 0.537255 rg
293.008 205.539 m 277.359 205.539 264.629 192.809 264.629 177.16 c 264.629
 161.516 277.359 148.785 293.008 148.785 c 308.656 148.785 321.383 161.516
 321.383 177.16 c 321.383 192.809 308.656 205.539 293.008 205.539 c h
293.008 154.785 m 280.668 154.785 270.629 164.824 270.629 177.16 c 270.629
 189.5 280.668 199.539 293.008 199.539 c 305.348 199.539 315.383 189.5 315.383
 177.16 c 315.383 164.824 305.344 154.785 293.008 154.785 c h
293.008 154.785 m f
0.321569 0.435294 0.666667 rg
94.801 104.617 m 94.801 78.23 l 122.926 78.23 l 122.926 104.617 l 142.594
 104.617 l 152.43 104.633 160.395 112.707 160.383 122.547 c 160.383 146.266
 l 57.219 146.266 l 57.219 122.398 l 57.23 112.562 65.262 104.598 75.098
 104.613 c h
94.801 104.617 m f
0.203922 0.317647 0.54902 rg
142.594 104.617 m 133.836 104.617 l 143.672 104.629 151.637 112.699 151.621
 122.535 c 151.621 146.266 l 160.383 146.266 l 160.383 122.543 l 160.395
 112.707 152.43 104.633 142.594 104.617 c h
142.594 104.617 m f
0.439216 0.552941 0.784314 rg
75.098 104.609 m 83.855 104.617 l 74.02 104.605 65.988 112.57 65.977 122.406
 c 65.977 146.266 l 57.219 146.266 l 57.219 122.398 l 57.23 112.562 65.262
 104.598 75.098 104.609 c h
75.098 104.609 m f
0.411765 0.0196078 0.537255 rg
160.383 149.266 m 57.219 149.266 l 55.562 149.266 54.219 147.922 54.219
 146.266 c 54.219 122.398 l 54.234 110.93 63.59 101.613 75.074 101.613 c
 75.102 101.613 l 91.805 101.617 l 91.805 78.23 l 91.805 76.574 93.148 75.23
 94.805 75.23 c 122.926 75.23 l 124.582 75.23 125.926 76.574 125.926 78.23
 c 125.926 101.617 l 142.594 101.617 l 148.152 101.625 153.379 103.816 157.312
 107.785 c 161.23 111.746 163.387 116.988 163.379 122.547 c 163.379 146.266
 l 163.383 147.922 162.039 149.266 160.383 149.266 c h
60.219 143.266 m 157.383 143.266 l 157.383 122.543 l 157.387 118.574 155.848
 114.836 153.051 112.008 c 150.25 109.184 146.535 107.625 142.59 107.617
 c 122.926 107.617 l 121.27 107.617 119.926 106.273 119.926 104.617 c 119.926
 81.23 l 97.801 81.23 l 97.801 104.617 l 97.801 105.414 97.484 106.18 96.922
 106.742 c 96.359 107.305 95.598 107.617 94.801 107.617 c 75.098 107.609
 l 75.09 107.609 75.082 107.609 75.078 107.609 c 66.891 107.609 60.227 114.242
 60.215 122.402 c 60.215 143.266 l h
60.219 143.266 m f
1 0.623529 0.439216 rg
94.801 78.23 m 122.926 78.23 l 122.926 106.508 l 122.926 114.273 116.629
 120.57 108.863 120.57 c 101.098 120.57 94.801 114.273 94.801 106.508 c 
h
94.801 78.23 m f
0.411765 0.0196078 0.537255 rg
108.863 123.57 m 99.457 123.57 91.801 115.914 91.801 106.508 c 91.801 78.23
 l 91.801 76.574 93.145 75.23 94.801 75.23 c 122.926 75.23 l 124.582 75.23
 125.926 76.574 125.926 78.23 c 125.926 106.508 l 125.926 115.914 118.273
 123.57 108.863 123.57 c h
97.801 81.23 m 97.801 106.508 l 97.801 112.605 102.762 117.57 108.863 117.57
 c 114.961 117.57 119.926 112.605 119.926 106.508 c 119.926 81.23 l h
97.801 81.23 m f
1 0.741176 0.556863 rg
80.949 54.156 m 78.957 54.156 l 73.812 54.156 69.641 58.324 69.641 63.473
 c 69.641 68.617 73.812 72.789 78.957 72.789 c 80.949 72.789 l h
80.949 54.156 m f
0.882353 0.505882 0.321569 rg
138.691 54.156 m 136.703 54.156 l 136.703 72.789 l 138.691 72.789 l 143.84
 72.789 148.008 68.617 148.008 63.473 c 148.008 58.324 143.84 54.156 138.691
 54.156 c h
138.691 54.156 m f
1 0.623529 0.439216 rg
108.824 101.512 m 93.43 101.512 80.949 88.871 80.949 73.273 c 80.949 53.723
 l 80.949 38.129 93.43 25.484 108.824 25.484 c 124.223 25.484 136.699 38.129
 136.699 53.723 c 136.699 73.273 l 136.703 88.871 124.223 101.512 108.824
 101.512 c h
108.824 101.512 m f
0.882353 0.505882 0.321569 rg
108.824 25.484 m 107.754 25.484 106.699 25.551 105.656 25.672 c 119.559
 27.266 130.363 39.215 130.363 53.723 c 130.363 73.273 l 130.363 87.781 
119.559 99.73 105.656 101.324 c 106.699 101.445 107.754 101.512 108.824 
101.512 c 124.223 101.512 136.699 88.871 136.699 73.273 c 136.699 53.723
 l 136.703 38.129 124.223 25.484 108.824 25.484 c h
108.824 25.484 m f
1 0.741176 0.556863 rg
108.824 25.484 m 109.898 25.484 110.953 25.551 111.992 25.672 c 98.09 27.266
 87.285 39.215 87.285 53.723 c 87.285 73.273 l 87.285 87.781 98.09 99.73
 111.992 101.324 c 110.953 101.445 109.898 101.512 108.824 101.512 c 93.43
 101.512 80.949 88.871 80.949 73.273 c 80.949 53.723 l 80.949 38.129 93.43
 25.484 108.824 25.484 c h
108.824 25.484 m f
0.411765 0.0196078 0.537255 rg
108.828 104.512 m 91.801 104.512 77.949 90.5 77.949 73.273 c 77.949 53.723
 l 77.949 36.5 91.801 22.484 108.828 22.484 c 125.852 22.484 139.703 36.496
 139.703 53.723 c 139.703 73.273 l 139.703 90.5 125.852 104.512 108.828 
104.512 c h
108.828 28.488 m 95.109 28.488 83.949 39.809 83.949 53.727 c 83.949 73.273
 l 83.949 87.191 95.109 98.516 108.828 98.516 c 122.543 98.516 133.703 87.191
 133.703 73.273 c 133.703 53.723 l 133.703 39.809 122.543 28.488 108.828
 28.488 c h
108.828 28.488 m f
80.949 75.789 m 78.961 75.789 l 72.168 75.789 66.645 70.262 66.645 63.473
 c 66.645 56.684 72.168 51.156 78.961 51.156 c 80.949 51.156 l 82.605 51.156
 83.949 52.5 83.949 54.156 c 83.949 72.789 l 83.949 74.445 82.605 75.789
 80.949 75.789 c h
77.949 57.238 m 74.945 57.723 72.645 60.332 72.645 63.473 c 72.645 66.613
 74.945 69.223 77.949 69.707 c h
77.949 57.238 m f
138.691 75.789 m 136.703 75.789 l 135.047 75.789 133.703 74.445 133.703
 72.789 c 133.703 54.156 l 133.703 52.5 135.047 51.156 136.703 51.156 c 
138.691 51.156 l 145.484 51.156 151.008 56.68 151.008 63.473 c 151.008 70.262
 145.484 75.789 138.691 75.789 c h
139.703 57.238 m 139.703 69.707 l 142.707 69.223 145.008 66.609 145.008
 63.473 c 145.008 60.332 142.707 57.723 139.703 57.238 c h
139.703 57.238 m f
219.453 123.57 m 177.098 123.57 l 175.441 123.57 174.098 122.227 174.098
 120.57 c 174.098 118.914 175.441 117.57 177.098 117.57 c 219.453 117.57
 l 221.109 117.57 222.453 118.914 222.453 120.57 c 222.453 122.227 221.109
 123.57 219.453 123.57 c h
219.453 123.57 m f
Q Q
showpage
%%Trailer
end
%%EOF
