%!PS-Adobe-3.0 EPSF-3.0
%%Creator: cairo 1.16.0 (https://cairographics.org)
%%CreationDate: Fri Jan 10 07:38:41 2020
%%Pages: 1
%%DocumentData: Clean7Bit
%%LanguageLevel: 2
%%BoundingBox: 3 3 381 381
%%EndComments
%%BeginProlog
50 dict begin
/q { gsave } bind def
/Q { grestore } bind def
/cm { 6 array astore concat } bind def
/w { setlinewidth } bind def
/J { setlinecap } bind def
/j { setlinejoin } bind def
/M { setmiterlimit } bind def
/d { setdash } bind def
/m { moveto } bind def
/l { lineto } bind def
/c { curveto } bind def
/h { closepath } bind def
/re { exch dup neg 3 1 roll 5 3 roll moveto 0 rlineto
      0 exch rlineto 0 rlineto closepath } bind def
/S { stroke } bind def
/f { fill } bind def
/f* { eofill } bind def
/n { newpath } bind def
/W { clip } bind def
/W* { eoclip } bind def
/BT { } bind def
/ET { } bind def
/BDC { mark 3 1 roll /BDC pdfmark } bind def
/EMC { mark /EMC pdfmark } bind def
/cairo_store_point { /cairo_point_y exch def /cairo_point_x exch def } def
/Tj { show currentpoint cairo_store_point } bind def
/TJ {
  {
    dup
    type /stringtype eq
    { show } { -0.001 mul 0 cairo_font_matrix dtransform rmoveto } ifelse
  } forall
  currentpoint cairo_store_point
} bind def
/cairo_selectfont { cairo_font_matrix aload pop pop pop 0 0 6 array astore
    cairo_font exch selectfont cairo_point_x cairo_point_y moveto } bind def
/Tf { pop /cairo_font exch def /cairo_font_matrix where
      { pop cairo_selectfont } if } bind def
/Td { matrix translate cairo_font_matrix matrix concatmatrix dup
      /cairo_font_matrix exch def dup 4 get exch 5 get cairo_store_point
      /cairo_font where { pop cairo_selectfont } if } bind def
/Tm { 2 copy 8 2 roll 6 array astore /cairo_font_matrix exch def
      cairo_store_point /cairo_font where { pop cairo_selectfont } if } bind def
/g { setgray } bind def
/rg { setrgbcolor } bind def
/d1 { setcachedevice } bind def
/cairo_data_source {
  CairoDataIndex CairoData length lt
    { CairoData CairoDataIndex get /CairoDataIndex CairoDataIndex 1 add def }
    { () } ifelse
} def
/cairo_flush_ascii85_file { cairo_ascii85_file status { cairo_ascii85_file flushfile } if } def
/cairo_image { image cairo_flush_ascii85_file } def
/cairo_imagemask { imagemask cairo_flush_ascii85_file } def
%%EndProlog
%%BeginSetup
%%EndSetup
%%Page: 1 1
%%BeginPageSetup
%%PageBoundingBox: 3 3 381 381
%%EndPageSetup
q 3 3 378 378 rectclip
1 0 0 -1 0 384 cm q
0.988235 0.760784 0.298039 rg
190.629 6.512 m 204.367 6.512 216.258 16.953 217.094 30.668 c 217.129 31.242
 217.145 31.82 217.145 32.402 c 217.145 35.18 l 233.531 35.18 246.441 49.141
 245.16 65.477 c 240.371 126.434 l 59.805 126.434 l 55.02 65.477 l 53.738
 49.145 66.648 35.18 83.031 35.18 c 83.031 32.402 l 83.031 31.82 83.051 
31.242 83.086 30.672 c 83.918 16.957 95.809 6.512 109.551 6.512 c h
190.629 6.512 m f
0.870588 0.643137 0.180392 rg
221.078 35.484 m 228.168 41.457 232.496 50.945 231.73 61.371 c 226.941 
126.434 l 240.371 126.434 l 245.16 65.477 l 246.336 50.477 235.535 37.512
 221.078 35.484 c h
221.078 35.484 m f
0.988235 0.878431 0.415686 rg
79.098 35.484 m 72.012 41.457 67.68 50.945 68.449 61.371 c 73.234 126.434
 l 59.805 126.434 l 55.02 65.477 l 53.844 50.477 64.641 37.512 79.098 35.484
 c h
79.098 35.484 m f
0.411765 0.0196078 0.537255 rg
240.371 129.434 m 59.805 129.434 l 58.242 129.434 56.938 128.23 56.816 
126.668 c 52.027 65.711 l 51.352 57.094 54.328 48.512 60.199 42.164 c 65.383
 36.555 72.484 33.062 80.031 32.324 c 80.035 31.707 80.055 31.094 80.09 
30.484 c 81.012 15.359 93.949 3.512 109.551 3.512 c 190.629 3.512 l 206.227
 3.512 219.168 15.359 220.086 30.484 c 220.125 31.094 220.145 31.707 220.145
 32.324 c 227.691 33.059 234.797 36.555 239.98 42.164 c 245.852 48.512 248.828
 57.094 248.152 65.711 c 243.363 126.668 l 243.238 128.23 241.938 129.434
 240.371 129.434 c h
62.578 123.434 m 237.598 123.434 l 242.168 65.242 l 242.723 58.184 240.379
 51.438 235.574 46.238 c 230.766 41.039 224.223 38.18 217.145 38.18 c 215.488
 38.18 214.145 36.836 214.145 35.18 c 214.145 32.402 l 214.145 31.879 214.125
 31.363 214.098 30.848 c 213.367 18.883 203.059 9.512 190.629 9.512 c 109.551
 9.512 l 97.117 9.512 86.809 18.883 86.082 30.852 c 86.051 31.367 86.035
 31.883 86.035 32.402 c 86.035 35.18 l 86.035 36.836 84.691 38.18 83.035
 38.18 c 75.957 38.18 69.41 41.039 64.605 46.238 c 59.801 51.438 57.457 
58.184 58.012 65.242 c h
62.578 123.434 m f
0.321569 0.435294 0.666667 rg
114.891 240.66 m 114.891 174.309 l 185.605 174.309 l 185.605 240.66 l 249.453
 240.66 l 274.184 240.691 294.211 261 294.176 285.734 c 294.176 377.488 
l 6 377.488 l 6 285.367 l 6.031 260.633 26.223 240.609 50.957 240.641 c 
h
114.891 240.66 m f
0.956863 0.937255 0.929412 rg
110.141 297.629 m 149.918 355.477 l 190.035 297.629 l 149.918 268.164 l
 h
110.141 297.629 m f
0.533333 0.321569 0.658824 rg
149.918 268.164 m 124.188 287.227 l 149.918 306.285 l 175.871 287.227 l
 h
149.918 268.164 m f
149.918 306.285 m 131.637 328.891 l 149.918 355.477 l 168.355 328.891 l
 h
149.918 306.285 m f
1 0.623529 0.439216 rg
114.891 224.598 m 149.918 268.164 l 185.605 224.598 l 185.605 174.309 l
 114.891 174.309 l h
114.891 224.598 m f
0.203922 0.317647 0.54902 rg
249.453 240.66 m 233.742 240.66 l 258.477 240.691 278.5 260.98 278.469 
285.715 c 278.469 377.488 l 294.18 377.488 l 294.18 285.734 l 294.211 261.004
 274.184 240.691 249.453 240.66 c h
249.453 240.66 m f
0.439216 0.552941 0.784314 rg
50.957 240.641 m 66.664 240.66 l 41.934 240.629 21.742 260.652 21.711 285.387
 c 21.711 377.488 l 6 377.488 l 6 285.363 l 6.031 260.633 26.223 240.609
 50.957 240.641 c h
50.957 240.641 m f
0.411765 0.0196078 0.537255 rg
61.633 378.918 m 59.977 378.918 58.633 377.574 58.633 375.918 c 58.633 
335.035 l 58.633 333.379 59.977 332.035 61.633 332.035 c 63.289 332.035 
64.633 333.379 64.633 335.035 c 64.633 375.918 l 64.633 377.574 63.289 378.918
 61.633 378.918 c h
61.633 378.918 m f
238.547 378.918 m 236.891 378.918 235.547 377.574 235.547 375.918 c 235.547
 335.035 l 235.547 333.379 236.891 332.035 238.547 332.035 c 240.199 332.035
 241.547 333.379 241.547 335.035 c 241.547 375.918 l 241.547 377.574 240.203
 378.918 238.547 378.918 c h
238.547 378.918 m f
294.18 380.488 m 6 380.488 l 4.344 380.488 3 379.145 3 377.488 c 3 285.367
 l 3.031 259.035 24.516 237.641 50.898 237.641 c 50.961 237.641 l 111.891
 237.66 l 111.891 174.312 l 111.891 172.656 113.238 171.312 114.891 171.312
 c 185.605 171.312 l 187.262 171.312 188.605 172.656 188.605 174.312 c 188.605
 237.664 l 249.453 237.664 l 275.805 237.695 297.215 259.266 297.18 285.742
 c 297.18 377.488 l 297.18 379.145 295.836 380.488 294.18 380.488 c h
9 374.488 m 291.18 374.488 l 291.18 285.734 l 291.207 262.566 272.488 243.691
 249.449 243.66 c 185.605 243.66 l 183.949 243.66 182.605 242.316 182.605
 240.66 c 182.605 177.309 l 117.891 177.309 l 117.891 240.66 l 117.891 241.457
 117.574 242.219 117.012 242.781 c 116.449 243.344 115.688 243.66 114.891
 243.66 c 50.957 243.641 l 50.941 243.641 50.922 243.641 50.902 243.641 
c 27.82 243.641 9.027 262.348 9 285.367 c h
9 374.488 m f
1 0.741176 0.556863 rg
80.062 113.781 m 75.059 113.781 l 62.121 113.781 51.633 124.266 51.633 
137.203 c 51.633 150.141 62.121 160.629 75.059 160.629 c 80.062 160.629 
l h
80.062 113.781 m f
0.882353 0.505882 0.321569 rg
225.25 113.781 m 220.246 113.781 l 220.246 160.629 l 225.25 160.629 l 238.188
 160.629 248.672 150.141 248.672 137.203 c 248.672 124.266 238.188 113.781
 225.25 113.781 c h
225.25 113.781 m f
1 0.623529 0.439216 rg
150.156 232.855 m 111.445 232.855 80.062 201.066 80.062 161.852 c 80.062
 112.695 l 80.062 73.484 111.441 41.695 150.156 41.695 c 188.863 41.695 
220.246 73.48 220.246 112.695 c 220.246 161.852 l 220.246 201.066 188.863
 232.855 150.156 232.855 c h
150.156 232.855 m f
0.882353 0.505882 0.321569 rg
150.156 41.695 m 147.461 41.695 144.805 41.863 142.191 42.164 c 177.148
 46.172 204.316 76.215 204.316 112.695 c 204.316 161.852 l 204.316 198.336
 177.148 228.375 142.191 232.383 c 144.805 232.684 147.461 232.855 150.156
 232.855 c 188.863 232.855 220.246 201.066 220.246 161.852 c 220.246 112.699
 l 220.246 73.484 188.863 41.695 150.156 41.695 c h
150.156 41.695 m f
1 0.741176 0.556863 rg
150.156 41.695 m 152.848 41.695 155.504 41.863 158.121 42.164 c 123.16 
46.172 95.992 76.215 95.992 112.695 c 95.992 161.852 l 95.992 198.336 123.16
 228.375 158.121 232.383 c 155.504 232.684 152.848 232.855 150.156 232.855
 c 111.445 232.855 80.062 201.066 80.062 161.852 c 80.062 112.699 l 80.062
 73.484 111.445 41.695 150.156 41.695 c h
150.156 41.695 m f
0.411765 0.0196078 0.537255 rg
150.156 235.852 m 109.852 235.852 77.062 202.656 77.062 161.852 c 77.062
 112.695 l 77.062 71.891 109.852 38.695 150.156 38.695 c 190.457 38.695 
223.246 71.891 223.246 112.695 c 223.246 161.852 l 223.246 202.656 190.457
 235.852 150.156 235.852 c h
150.156 44.695 m 113.16 44.695 83.062 75.199 83.062 112.695 c 83.062 161.852
 l 83.062 199.348 113.16 229.855 150.156 229.855 c 187.148 229.855 217.246
 199.348 217.246 161.852 c 217.246 112.695 l 217.246 75.199 187.148 44.695
 150.156 44.695 c h
150.156 44.695 m f
80.062 163.629 m 75.059 163.629 l 60.488 163.629 48.633 151.773 48.633 
137.203 c 48.633 122.637 60.488 110.781 75.059 110.781 c 80.062 110.781 
l 81.719 110.781 83.062 112.125 83.062 113.781 c 83.062 160.629 l 83.062
 162.285 81.719 163.629 80.062 163.629 c h
75.059 116.781 m 63.797 116.781 54.633 125.941 54.633 137.203 c 54.633 
148.465 63.797 157.625 75.059 157.625 c 77.062 157.625 l 77.062 116.781 
l h
75.059 116.781 m f
225.25 163.629 m 220.246 163.629 l 218.59 163.629 217.246 162.285 217.246
 160.629 c 217.246 113.781 l 217.246 112.125 218.59 110.781 220.246 110.781
 c 225.25 110.781 l 239.82 110.781 251.676 122.637 251.676 137.203 c 251.676
 151.773 239.82 163.629 225.25 163.629 c h
223.246 157.629 m 225.25 157.629 l 236.512 157.629 245.676 148.469 245.676
 137.203 c 245.676 125.941 236.512 116.781 225.25 116.781 c 223.246 116.781
 l h
223.246 157.629 m f
0.956863 0.937255 0.929412 rg
185.605 224.598 m 149.918 268.164 l 190.035 297.629 l 200.703 240.66 l 
h
185.605 224.598 m f
114.891 224.598 m 149.918 268.164 l 110.141 297.629 l 99.473 240.656 l 
h
114.891 224.598 m f
0.411765 0.0196078 0.537255 rg
190.035 300.629 m 189.406 300.629 188.781 300.43 188.258 300.047 c 148.145
 270.586 l 147.48 270.098 147.047 269.359 146.941 268.543 c 146.84 267.727
 147.078 266.902 147.598 266.266 c 183.285 222.695 l 183.832 222.027 184.641
 221.629 185.504 221.598 c 186.383 221.555 187.203 221.914 187.793 222.543
 c 202.891 238.609 l 203.547 239.309 203.832 240.273 203.652 241.215 c 192.984
 298.184 l 192.797 299.195 192.098 300.039 191.137 300.422 c 190.781 300.559
 190.406 300.629 190.035 300.629 c h
154.246 267.621 m 187.965 292.387 l 197.477 241.605 l 185.762 229.141 l
 h
154.246 267.621 m f
110.141 300.629 m 109.773 300.629 109.398 300.559 109.047 300.422 c 108.082
 300.043 107.383 299.199 107.191 298.18 c 96.523 241.207 l 96.344 240.254
 96.637 239.277 97.309 238.578 c 112.727 222.52 l 113.324 221.898 114.176
 221.578 115.023 221.602 c 115.887 221.637 116.688 222.047 117.23 222.719
 c 152.258 266.289 l 152.77 266.922 153 267.742 152.895 268.551 c 152.793
 269.359 152.363 270.09 151.707 270.578 c 111.93 300.043 l 111.402 300.426
 110.777 300.629 110.141 300.629 c h
102.707 241.621 m 112.211 292.363 l 145.625 267.613 l 114.691 229.137 l
 h
102.707 241.621 m f
21.711 326.586 m 20.055 326.586 18.711 325.242 18.711 323.586 c 18.711 
305.586 l 18.711 303.93 20.055 302.586 21.711 302.586 c 23.367 302.586 24.711
 303.93 24.711 305.586 c 24.711 323.586 l 24.711 325.242 23.367 326.586 
21.711 326.586 c h
21.711 326.586 m f
149.918 358.477 m 149.918 358.477 149.914 358.477 149.914 358.477 c 148.926
 358.473 148.004 357.988 147.445 357.176 c 107.672 299.328 l 106.754 297.996
 107.059 296.18 108.355 295.219 c 148.133 265.754 l 149.191 264.973 150.633
 264.969 151.695 265.746 c 191.812 295.211 l 193.121 296.172 193.43 298.004
 192.5 299.34 c 152.387 357.188 l 151.824 357.996 150.902 358.477 149.918
 358.477 c h
114.254 298.316 m 149.93 350.199 l 185.906 298.32 l 149.926 271.895 l h
114.254 298.316 m f
149.918 309.285 m 149.293 309.285 148.664 309.09 148.133 308.695 c 122.402
 289.637 l 121.637 289.066 121.188 288.176 121.188 287.223 c 121.188 286.273
 121.637 285.383 122.402 284.812 c 148.133 265.754 l 149.191 264.969 150.633
 264.969 151.695 265.746 c 177.648 284.805 l 178.418 285.371 178.871 286.27
 178.871 287.223 c 178.871 288.18 178.418 289.078 177.648 289.641 c 151.695
 308.703 l 151.168 309.094 150.543 309.285 149.918 309.285 c h
129.227 287.223 m 149.926 302.559 l 170.801 287.223 l 149.926 271.891 l
 h
129.227 287.223 m f
149.918 358.477 m 149.918 358.477 149.914 358.477 149.914 358.477 c 148.926
 358.473 148.004 357.988 147.445 357.176 c 129.164 330.59 l 128.41 329.496
 128.469 328.035 129.305 327 c 147.586 304.398 l 148.156 303.695 149.012
 303.285 149.914 303.285 c 149.918 303.285 l 150.82 303.285 151.676 303.691
 152.242 304.391 c 170.684 326.992 l 171.527 328.027 171.586 329.5 170.824
 330.598 c 152.387 357.184 l 151.824 357.996 150.902 358.477 149.918 358.477
 c h
135.379 329.035 m 149.93 350.195 l 164.605 329.035 l 149.93 311.043 l h
135.379 329.035 m f
0.988235 0.760784 0.298039 rg
87.109 64.863 m 87.109 64.863 109.508 60.109 128.18 74.012 c 152.305 91.977
 204.664 109.797 229.305 84.461 c 229.305 84.461 217.27 25.492 159.441 25.492
 c 101.613 25.492 87.109 64.863 87.109 64.863 c h
87.109 64.863 m f
0.411765 0.0196078 0.537255 rg
194.945 100.062 m 188.965 100.062 183.172 99.375 178.008 98.426 c 159.926
 95.094 140.145 86.66 126.387 76.418 c 109.008 63.473 87.945 67.754 87.734
 67.797 c 86.113 68.148 84.52 67.105 84.176 65.484 c 83.832 63.867 84.867
 62.273 86.488 61.93 c 87.453 61.723 110.438 57.059 129.969 71.605 c 140.211
 79.23 158.492 88.73 179.094 92.523 c 193.867 95.242 214.199 95.691 227.156
 82.367 c 228.309 81.18 230.211 81.152 231.398 82.309 c 232.586 83.465 232.613
 85.363 231.457 86.551 c 221.367 96.926 207.738 100.062 194.945 100.062 
c h
194.945 100.062 m f
0.956863 0.937255 0.929412 rg
367.855 6.512 m 266.758 6.512 l 261.156 6.512 256.613 11.055 256.613 16.656
 c 256.613 80.199 l 256.613 85.805 261.156 90.348 266.758 90.348 c 295.441
 90.348 l 295.441 106.621 l 311.715 90.348 l 367.855 90.348 l 373.457 90.348
 378 85.805 378 80.199 c 378 16.656 l 378 11.055 373.457 6.512 367.855 6.512
 c h
367.855 6.512 m f
1 g
266.758 90.348 m 277.66 90.348 l 272.055 90.348 267.516 85.805 267.516 
80.203 c 267.516 16.656 l 267.516 11.055 272.055 6.512 277.66 6.512 c 266.758
 6.512 l 261.156 6.512 256.613 11.055 256.613 16.656 c 256.613 80.199 l 
256.613 85.805 261.156 90.348 266.758 90.348 c h
266.758 90.348 m f
0.839216 0.819608 0.811765 rg
367.855 6.512 m 356.953 6.512 l 362.555 6.512 367.098 11.055 367.098 16.656
 c 367.098 80.199 l 367.098 85.805 362.555 90.344 356.953 90.344 c 367.855
 90.344 l 373.457 90.344 378 85.805 378 80.199 c 378 16.656 l 378 11.055
 373.457 6.512 367.855 6.512 c h
367.855 6.512 m f
0.411765 0.0196078 0.537255 rg
295.441 109.621 m 295.055 109.621 294.664 109.547 294.293 109.395 c 293.172
 108.93 292.441 107.836 292.441 106.621 c 292.441 93.344 l 266.754 93.344
 l 259.508 93.344 253.609 87.449 253.609 80.199 c 253.609 16.656 l 253.609
 9.406 259.508 3.512 266.754 3.512 c 367.855 3.512 l 375.102 3.512 381 9.406
 381 16.656 c 381 80.199 l 381 87.449 375.102 93.344 367.855 93.344 c 312.961
 93.344 l 297.562 108.742 l 296.988 109.316 296.223 109.621 295.441 109.621
 c h
266.758 9.512 m 262.816 9.512 259.613 12.719 259.613 16.656 c 259.613 80.203
 l 259.613 84.141 262.816 87.348 266.758 87.348 c 295.441 87.348 l 297.098
 87.348 298.441 88.691 298.441 90.348 c 298.441 99.379 l 309.598 88.223 
l 310.16 87.66 310.922 87.344 311.719 87.344 c 367.855 87.344 l 371.793 
87.344 375 84.141 375 80.199 c 375 16.656 l 375 12.715 371.793 9.512 367.855
 9.512 c h
266.758 9.512 m f
350.289 38.723 m 284.324 38.723 l 282.668 38.723 281.324 37.379 281.324
 35.723 c 281.324 34.066 282.668 32.723 284.324 32.723 c 350.289 32.723 
l 351.945 32.723 353.289 34.066 353.289 35.723 c 353.289 37.379 351.945 
38.723 350.289 38.723 c h
350.289 38.723 m f
350.289 64.871 m 284.324 64.871 l 282.668 64.871 281.324 63.527 281.324
 61.871 c 281.324 60.215 282.668 58.871 284.324 58.871 c 350.289 58.871 
l 351.945 58.871 353.289 60.215 353.289 61.871 c 353.289 63.527 351.945 
64.871 350.289 64.871 c h
350.289 64.871 m f
Q Q
showpage
%%Trailer
end
%%EOF
