%!PS-Adobe-3.0 EPSF-3.0
%%Creator: cairo 1.16.0 (https://cairographics.org)
%%CreationDate: Fri Jan 10 07:38:42 2020
%%Pages: 1
%%DocumentData: Clean7Bit
%%LanguageLevel: 2
%%BoundingBox: 44 3 340 381
%%EndComments
%%BeginProlog
50 dict begin
/q { gsave } bind def
/Q { grestore } bind def
/cm { 6 array astore concat } bind def
/w { setlinewidth } bind def
/J { setlinecap } bind def
/j { setlinejoin } bind def
/M { setmiterlimit } bind def
/d { setdash } bind def
/m { moveto } bind def
/l { lineto } bind def
/c { curveto } bind def
/h { closepath } bind def
/re { exch dup neg 3 1 roll 5 3 roll moveto 0 rlineto
      0 exch rlineto 0 rlineto closepath } bind def
/S { stroke } bind def
/f { fill } bind def
/f* { eofill } bind def
/n { newpath } bind def
/W { clip } bind def
/W* { eoclip } bind def
/BT { } bind def
/ET { } bind def
/BDC { mark 3 1 roll /BDC pdfmark } bind def
/EMC { mark /EMC pdfmark } bind def
/cairo_store_point { /cairo_point_y exch def /cairo_point_x exch def } def
/Tj { show currentpoint cairo_store_point } bind def
/TJ {
  {
    dup
    type /stringtype eq
    { show } { -0.001 mul 0 cairo_font_matrix dtransform rmoveto } ifelse
  } forall
  currentpoint cairo_store_point
} bind def
/cairo_selectfont { cairo_font_matrix aload pop pop pop 0 0 6 array astore
    cairo_font exch selectfont cairo_point_x cairo_point_y moveto } bind def
/Tf { pop /cairo_font exch def /cairo_font_matrix where
      { pop cairo_selectfont } if } bind def
/Td { matrix translate cairo_font_matrix matrix concatmatrix dup
      /cairo_font_matrix exch def dup 4 get exch 5 get cairo_store_point
      /cairo_font where { pop cairo_selectfont } if } bind def
/Tm { 2 copy 8 2 roll 6 array astore /cairo_font_matrix exch def
      cairo_store_point /cairo_font where { pop cairo_selectfont } if } bind def
/g { setgray } bind def
/rg { setrgbcolor } bind def
/d1 { setcachedevice } bind def
/cairo_data_source {
  CairoDataIndex CairoData length lt
    { CairoData CairoDataIndex get /CairoDataIndex CairoDataIndex 1 add def }
    { () } ifelse
} def
/cairo_flush_ascii85_file { cairo_ascii85_file status { cairo_ascii85_file flushfile } if } def
/cairo_image { image cairo_flush_ascii85_file } def
/cairo_imagemask { imagemask cairo_flush_ascii85_file } def
%%EndProlog
%%BeginSetup
%%EndSetup
%%Page: 1 1
%%BeginPageSetup
%%PageBoundingBox: 44 3 340 381
%%EndPageSetup
q 44 3 296 378 rectclip
1 0 0 -1 0 384 cm q
0.988235 0.760784 0.298039 rg
232.652 6 m 246.43 6 258.352 16.473 259.188 30.227 c 259.223 30.801 259.242
 31.379 259.242 31.965 c 259.242 34.746 l 275.672 34.746 288.617 48.75 287.332
 65.129 c 282.531 126.254 l 101.469 126.254 l 96.668 65.129 l 95.383 48.75
 108.328 34.746 124.758 34.746 c 124.758 31.965 l 124.758 31.379 124.777
 30.801 124.812 30.227 c 125.648 16.473 137.57 6 151.348 6 c h
232.652 6 m f
0.870588 0.643137 0.180392 rg
263.184 35.055 m 270.293 41.039 274.633 50.559 273.867 61.012 c 269.066
 126.254 l 282.531 126.254 l 287.332 65.129 l 288.512 50.09 277.684 37.086
 263.184 35.055 c h
263.184 35.055 m f
0.988235 0.878431 0.415686 rg
120.816 35.055 m 113.707 41.039 109.367 50.559 110.133 61.012 c 114.934
 126.254 l 101.469 126.254 l 96.668 65.129 l 95.488 50.09 106.316 37.086
 120.816 35.055 c h
120.816 35.055 m f
0.411765 0.0196078 0.537255 rg
282.531 129.254 m 101.469 129.254 l 99.902 129.254 98.602 128.051 98.477
 126.488 c 93.68 65.363 l 93 56.727 95.984 48.121 101.867 41.758 c 107.07
 36.133 114.191 32.629 121.762 31.891 c 121.762 31.27 121.781 30.652 121.82
 30.043 c 122.738 14.879 135.711 3 151.348 3 c 232.648 3 l 248.289 3 261.258
 14.879 262.184 30.043 c 262.219 30.652 262.238 31.27 262.242 31.891 c 269.809
 32.629 276.934 36.133 282.133 41.758 c 288.016 48.121 291 56.727 290.324
 65.363 c 285.523 126.488 l 285.402 128.051 284.098 129.254 282.531 129.254
 c h
104.242 123.254 m 279.758 123.254 l 284.34 64.895 l 284.898 57.816 282.551
 51.047 277.727 45.832 c 272.91 40.617 266.34 37.746 259.242 37.746 c 257.586
 37.746 256.242 36.402 256.242 34.746 c 256.242 31.965 l 256.242 31.441 
256.227 30.926 256.195 30.41 c 255.465 18.402 245.121 9 232.652 9 c 151.352
 9 l 138.879 9 128.539 18.402 127.809 30.406 c 127.777 30.922 127.762 31.441
 127.762 31.961 c 127.762 34.746 l 127.762 36.402 126.418 37.746 124.762
 37.746 c 117.66 37.746 111.094 40.617 106.273 45.828 c 101.453 51.043 99.105
 57.812 99.66 64.891 c h
104.242 123.254 m f
0.321569 0.435294 0.666667 rg
156.703 240.797 m 156.703 174.262 l 227.613 174.262 l 227.613 240.797 l
 291.637 240.797 l 316.438 240.828 336.516 261.195 336.484 285.996 c 336.484
 378 l 47.516 378 l 47.516 285.625 l 47.547 260.824 67.793 240.742 92.594
 240.777 c h
156.703 240.797 m f
0.956863 0.937255 0.929412 rg
151.945 297.918 m 191.832 355.926 l 232.055 297.918 l 191.832 268.375 l
 h
151.945 297.918 m f
0.533333 0.321569 0.658824 rg
191.832 268.375 m 166.027 287.488 l 191.832 306.602 l 217.852 287.488 l
 h
191.832 268.375 m f
191.832 306.602 m 173.5 329.27 l 191.832 355.926 l 210.316 329.27 l h
191.832 306.602 m f
1 0.623529 0.439216 rg
156.703 224.688 m 191.832 268.375 l 227.613 224.688 l 227.613 174.262 l
 156.703 174.262 l h
156.703 224.688 m f
0.203922 0.317647 0.54902 rg
291.637 240.797 m 275.883 240.797 l 300.684 240.828 320.766 261.176 320.734
 285.973 c 320.734 378 l 336.484 378 l 336.484 285.996 l 336.516 261.195
 316.438 240.828 291.637 240.797 c h
291.637 240.797 m f
0.439216 0.552941 0.784314 rg
92.594 240.777 m 108.348 240.797 l 83.547 240.766 63.297 260.844 63.266
 285.645 c 63.266 378 l 47.516 378 l 47.516 285.625 l 47.547 260.824 67.793
 240.742 92.594 240.777 c h
92.594 240.777 m f
0.411765 0.0196078 0.537255 rg
103.301 379.422 m 101.645 379.422 100.301 378.078 100.301 376.422 c 100.301
 335.43 l 100.301 333.777 101.645 332.43 103.301 332.43 c 104.953 332.43
 106.301 333.777 106.301 335.43 c 106.301 376.422 l 106.301 378.082 104.957
 379.422 103.301 379.422 c h
103.301 379.422 m f
280.699 379.422 m 279.047 379.422 277.699 378.078 277.699 376.422 c 277.699
 335.43 l 277.699 333.777 279.047 332.43 280.699 332.43 c 282.355 332.43
 283.699 333.777 283.699 335.43 c 283.699 376.422 l 283.699 378.082 282.355
 379.422 280.699 379.422 c h
280.699 379.422 m f
336.484 381 m 47.516 381 l 45.859 381 44.516 379.656 44.516 378 c 44.516
 285.625 l 44.531 272.828 49.551 260.805 58.652 251.762 c 67.727 242.742
 79.758 237.777 92.535 237.777 c 92.598 237.777 l 153.707 237.797 l 153.707
 174.266 l 153.707 172.609 155.051 171.266 156.707 171.266 c 227.613 171.266
 l 229.27 171.266 230.613 172.609 230.613 174.266 c 230.613 237.797 l 291.641
 237.797 l 304.43 237.816 316.453 242.859 325.508 251.996 c 334.539 261.117
 339.504 273.195 339.484 286 c 339.484 378 l 339.484 379.656 338.145 381
 336.484 381 c h
50.516 375 m 333.484 375 l 333.484 285.996 l 333.5 274.777 329.152 264.207
 321.242 256.219 c 313.324 248.223 302.809 243.812 291.633 243.797 c 227.613
 243.797 l 225.957 243.797 224.613 242.453 224.613 240.797 c 224.613 177.262
 l 159.707 177.262 l 159.707 240.797 l 159.707 241.594 159.391 242.355 158.828
 242.918 c 158.266 243.48 157.5 243.797 156.707 243.797 c 156.707 243.797
 156.707 243.797 156.703 243.797 c 92.594 243.777 l 92.574 243.777 92.559
 243.777 92.539 243.777 c 81.355 243.777 70.824 248.121 62.883 256.016 c
 54.918 263.93 50.527 274.445 50.516 285.629 c h
50.516 375 m f
1 0.741176 0.556863 rg
121.781 113.566 m 116.762 113.566 l 103.789 113.566 93.273 124.082 93.273
 137.055 c 93.273 150.027 103.789 160.539 116.762 160.539 c 121.781 160.539
 l h
121.781 113.566 m f
0.882353 0.505882 0.321569 rg
267.367 113.566 m 262.352 113.566 l 262.352 160.539 l 267.367 160.539 l
 280.34 160.539 290.855 150.027 290.855 137.055 c 290.855 124.082 280.34
 113.566 267.367 113.566 c h
267.367 113.566 m f
1 0.623529 0.439216 rg
192.066 232.965 m 153.25 232.965 121.781 201.09 121.781 161.77 c 121.781
 112.48 l 121.781 73.156 153.246 41.281 192.066 41.281 c 230.883 41.281 
262.352 73.156 262.352 112.48 c 262.352 161.77 l 262.352 201.09 230.883 
232.965 192.066 232.965 c h
192.066 232.965 m f
0.882353 0.505882 0.321569 rg
192.066 41.281 m 189.363 41.281 186.703 41.449 184.078 41.75 c 219.133 
45.77 246.375 75.895 246.375 112.477 c 246.375 161.766 l 246.375 198.352
 219.133 228.477 184.078 232.492 c 186.703 232.797 189.363 232.965 192.066
 232.965 c 230.883 232.965 262.352 201.09 262.352 161.766 c 262.352 112.477
 l 262.352 73.156 230.883 41.281 192.066 41.281 c h
192.066 41.281 m f
1 0.741176 0.556863 rg
192.066 41.281 m 194.766 41.281 197.43 41.449 200.055 41.75 c 165 45.77
 137.754 75.895 137.754 112.477 c 137.754 161.766 l 137.754 198.352 165 
228.477 200.055 232.492 c 197.43 232.797 194.77 232.965 192.066 232.965 
c 153.25 232.965 121.781 201.09 121.781 161.766 c 121.781 112.477 l 121.781
 73.156 153.246 41.281 192.066 41.281 c h
192.066 41.281 m f
0.411765 0.0196078 0.537255 rg
192.066 235.965 m 151.656 235.965 118.781 202.68 118.781 161.77 c 118.781
 112.48 l 118.781 71.566 151.656 38.281 192.066 38.281 c 232.473 38.281 
265.352 71.566 265.352 112.477 c 265.352 161.766 l 265.352 202.68 232.473
 235.965 192.066 235.965 c h
192.066 44.281 m 154.965 44.281 124.781 74.875 124.781 112.48 c 124.781
 161.77 l 124.781 199.375 154.965 229.965 192.066 229.965 c 229.168 229.965
 259.352 199.371 259.352 161.77 c 259.352 112.48 l 259.352 74.875 229.168
 44.281 192.066 44.281 c h
192.066 44.281 m f
121.781 163.539 m 116.762 163.539 l 102.16 163.539 90.277 151.66 90.277
 137.055 c 90.277 122.449 102.156 110.566 116.762 110.566 c 121.781 110.566
 l 123.438 110.566 124.781 111.91 124.781 113.566 c 124.781 160.539 l 124.781
 162.199 123.438 163.539 121.781 163.539 c h
116.762 116.566 m 105.465 116.566 96.277 125.754 96.277 137.055 c 96.277
 148.352 105.465 157.539 116.762 157.539 c 118.781 157.539 l 118.781 116.566
 l h
116.762 116.566 m f
267.367 163.539 m 262.352 163.539 l 260.695 163.539 259.352 162.195 259.352
 160.539 c 259.352 113.566 l 259.352 111.91 260.695 110.566 262.352 110.566
 c 267.367 110.566 l 281.973 110.566 293.855 122.449 293.855 137.055 c 293.855
 151.66 281.973 163.539 267.367 163.539 c h
265.352 157.539 m 267.367 157.539 l 278.664 157.539 287.855 148.352 287.855
 137.055 c 287.855 125.758 278.664 116.566 267.367 116.566 c 265.352 116.566
 l h
265.352 157.539 m f
0.956863 0.937255 0.929412 rg
227.613 224.688 m 191.832 268.375 l 232.055 297.918 l 242.754 240.797 l
 h
227.613 224.688 m f
156.703 224.688 m 191.832 268.375 l 151.945 297.918 l 141.246 240.789 l
 h
156.703 224.688 m f
0.411765 0.0196078 0.537255 rg
232.055 300.918 m 231.426 300.918 230.805 300.723 230.281 300.336 c 190.055
 270.793 l 189.391 270.305 188.957 269.566 188.852 268.754 c 188.75 267.938
 188.988 267.113 189.512 266.477 c 225.293 222.785 l 225.84 222.117 226.648
 221.719 227.512 221.688 c 228.418 221.68 229.211 222.004 229.801 222.633
 c 244.941 238.742 l 245.598 239.438 245.879 240.406 245.703 241.348 c 235.004
 298.473 l 234.816 299.484 234.117 300.328 233.16 300.711 c 232.801 300.852
 232.43 300.918 232.055 300.918 c h
196.156 267.828 m 229.988 292.676 l 239.527 241.738 l 227.77 229.23 l h
196.156 267.828 m f
151.945 300.918 m 151.574 300.918 151.203 300.852 150.848 300.711 c 149.887
 300.336 149.188 299.488 148.996 298.473 c 138.297 241.344 l 138.117 240.391
 138.41 239.41 139.082 238.715 c 154.543 222.609 l 155.141 221.988 155.98
 221.645 156.84 221.691 c 157.699 221.727 158.504 222.137 159.047 222.809
 c 194.168 266.496 l 194.68 267.133 194.91 267.949 194.805 268.758 c 194.703
 269.566 194.273 270.301 193.617 270.789 c 153.73 300.332 l 153.207 300.719
 152.578 300.918 151.945 300.918 c h
144.477 241.754 m 154.008 292.656 l 187.535 267.82 l 156.504 229.227 l 
h
144.477 241.754 m f
63.266 327.379 m 61.609 327.379 60.266 326.035 60.266 324.379 c 60.266 
305.465 l 60.266 303.809 61.609 302.465 63.266 302.465 c 64.922 302.465 
66.266 303.809 66.266 305.465 c 66.266 324.379 l 66.266 326.035 64.922 327.379
 63.266 327.379 c h
63.266 327.379 m f
191.832 358.926 m 191.828 358.926 191.824 358.926 191.824 358.926 c 190.84
 358.926 189.918 358.441 189.355 357.629 c 149.469 299.617 l 148.555 298.285
 148.859 296.469 150.156 295.508 c 190.043 265.965 l 191.102 265.184 192.551
 265.18 193.605 265.957 c 233.832 295.5 l 235.141 296.465 235.445 298.293
 234.52 299.629 c 194.297 357.637 l 193.734 358.445 192.812 358.926 191.832
 358.926 c h
156.059 298.605 m 191.84 350.648 l 227.926 298.609 l 191.836 272.105 l 
h
156.059 298.605 m f
191.832 309.602 m 191.203 309.602 190.574 309.402 190.047 309.012 c 164.242
 289.898 l 163.48 289.332 163.027 288.438 163.027 287.488 c 163.027 286.535
 163.48 285.641 164.242 285.078 c 190.047 265.965 l 191.105 265.18 192.551
 265.18 193.605 265.957 c 219.629 285.07 l 220.402 285.633 220.855 286.531
 220.855 287.488 c 220.855 288.441 220.398 289.34 219.629 289.906 c 193.605
 309.02 l 193.078 309.406 192.453 309.602 191.832 309.602 c h
171.066 287.488 m 191.84 302.871 l 212.785 287.488 l 191.84 272.105 l h
171.066 287.488 m f
191.832 358.926 m 191.828 358.926 191.824 358.926 191.824 358.926 c 190.84
 358.926 189.918 358.441 189.355 357.629 c 171.027 330.969 l 170.273 329.871
 170.328 328.414 171.168 327.383 c 189.496 304.715 l 190.066 304.012 190.922
 303.602 191.824 303.602 c 191.832 303.602 l 192.73 303.602 193.586 304.008
 194.156 304.707 c 212.645 327.371 l 213.488 328.41 213.547 329.879 212.785
 330.977 c 194.297 357.637 l 193.734 358.445 192.812 358.926 191.832 358.926
 c h
177.238 329.41 m 191.84 350.648 l 206.566 329.414 l 191.84 311.359 l h
177.238 329.41 m f
0.988235 0.760784 0.298039 rg
128.848 64.512 m 128.848 64.512 151.309 59.742 170.031 73.684 c 194.223
 91.699 246.727 109.57 271.434 84.164 c 271.434 84.164 259.367 25.031 201.379
 25.031 c 143.387 25.035 128.848 64.512 128.848 64.512 c h
128.848 64.512 m f
0.411765 0.0196078 0.537255 rg
236.98 99.801 m 230.984 99.801 225.176 99.113 219.996 98.16 c 201.863 94.816
 182.031 86.363 168.238 76.09 c 150.809 63.113 129.684 67.398 129.469 67.445
 c 127.852 67.789 126.254 66.758 125.914 65.133 c 125.57 63.512 126.602 
61.922 128.223 61.578 c 129.195 61.371 152.238 56.695 171.82 71.277 c 182.09
 78.926 200.422 88.453 221.082 92.258 c 235.895 94.984 256.285 95.438 269.285
 82.074 c 270.441 80.883 272.34 80.859 273.527 82.016 c 274.715 83.168 274.742
 85.066 273.586 86.258 c 263.473 96.656 249.805 99.801 236.98 99.801 c h
236.98 99.801 m f
Q Q
showpage
%%Trailer
end
%%EOF
