%!PS-Adobe-3.0 EPSF-3.0
%%Creator: cairo 1.16.0 (https://cairographics.org)
%%CreationDate: Fri Jan 10 07:38:43 2020
%%Pages: 1
%%DocumentData: Clean7Bit
%%LanguageLevel: 2
%%BoundingBox: 3 44 381 340
%%EndComments
%%BeginProlog
50 dict begin
/q { gsave } bind def
/Q { grestore } bind def
/cm { 6 array astore concat } bind def
/w { setlinewidth } bind def
/J { setlinecap } bind def
/j { setlinejoin } bind def
/M { setmiterlimit } bind def
/d { setdash } bind def
/m { moveto } bind def
/l { lineto } bind def
/c { curveto } bind def
/h { closepath } bind def
/re { exch dup neg 3 1 roll 5 3 roll moveto 0 rlineto
      0 exch rlineto 0 rlineto closepath } bind def
/S { stroke } bind def
/f { fill } bind def
/f* { eofill } bind def
/n { newpath } bind def
/W { clip } bind def
/W* { eoclip } bind def
/BT { } bind def
/ET { } bind def
/BDC { mark 3 1 roll /BDC pdfmark } bind def
/EMC { mark /EMC pdfmark } bind def
/cairo_store_point { /cairo_point_y exch def /cairo_point_x exch def } def
/Tj { show currentpoint cairo_store_point } bind def
/TJ {
  {
    dup
    type /stringtype eq
    { show } { -0.001 mul 0 cairo_font_matrix dtransform rmoveto } ifelse
  } forall
  currentpoint cairo_store_point
} bind def
/cairo_selectfont { cairo_font_matrix aload pop pop pop 0 0 6 array astore
    cairo_font exch selectfont cairo_point_x cairo_point_y moveto } bind def
/Tf { pop /cairo_font exch def /cairo_font_matrix where
      { pop cairo_selectfont } if } bind def
/Td { matrix translate cairo_font_matrix matrix concatmatrix dup
      /cairo_font_matrix exch def dup 4 get exch 5 get cairo_store_point
      /cairo_font where { pop cairo_selectfont } if } bind def
/Tm { 2 copy 8 2 roll 6 array astore /cairo_font_matrix exch def
      cairo_store_point /cairo_font where { pop cairo_selectfont } if } bind def
/g { setgray } bind def
/rg { setrgbcolor } bind def
/d1 { setcachedevice } bind def
/cairo_data_source {
  CairoDataIndex CairoData length lt
    { CairoData CairoDataIndex get /CairoDataIndex CairoDataIndex 1 add def }
    { () } ifelse
} def
/cairo_flush_ascii85_file { cairo_ascii85_file status { cairo_ascii85_file flushfile } if } def
/cairo_image { image cairo_flush_ascii85_file } def
/cairo_imagemask { imagemask cairo_flush_ascii85_file } def
%%EndProlog
%%BeginSetup
%%EndSetup
%%Page: 1 1
%%BeginPageSetup
%%PageBoundingBox: 3 44 381 340
%%EndPageSetup
q 3 44 378 296 rectclip
1 0 0 -1 0 384 cm q
0.956863 0.937255 0.929412 rg
364.727 286.977 m 19.273 286.977 l 11.941 286.977 6 281.035 6 273.703 c
 6 61.008 l 6 53.676 11.941 47.734 19.273 47.734 c 364.727 47.734 l 372.059
 47.734 378 53.676 378 61.008 c 378 273.703 l 378 281.035 372.059 286.977
 364.727 286.977 c h
364.727 286.977 m f
0.839216 0.819608 0.811765 rg
364.727 47.734 m 349.727 47.734 l 357.059 47.734 363 53.676 363 61.008 
c 363 273.703 l 363 281.035 357.059 286.977 349.727 286.977 c 364.727 286.977
 l 372.059 286.977 378 281.035 378 273.703 c 378 61.008 l 378 53.676 372.059
 47.734 364.727 47.734 c h
364.727 47.734 m f
1 g
19.273 286.977 m 34.273 286.977 l 26.941 286.977 21 281.035 21 273.703 
c 21 61.008 l 21 53.676 26.941 47.734 34.273 47.734 c 19.273 47.734 l 11.941
 47.734 6 53.676 6 61.008 c 6 273.703 l 6 281.035 11.941 286.977 19.273 
286.977 c h
19.273 286.977 m f
0.411765 0.0196078 0.537255 rg
328.281 238.434 m 305.773 238.434 l 304.117 238.434 302.773 237.09 302.773
 235.434 c 302.773 99.273 l 302.773 97.617 304.117 96.273 305.773 96.273
 c 328.281 96.273 l 329.938 96.273 331.281 97.617 331.281 99.273 c 331.281
 100.93 329.938 102.273 328.281 102.273 c 308.773 102.273 l 308.773 232.434
 l 328.281 232.434 l 329.938 232.434 331.281 233.781 331.281 235.434 c 331.281
 237.09 329.938 238.434 328.281 238.434 c h
328.281 238.434 m f
78.223 238.434 m 55.719 238.434 l 54.062 238.434 52.719 237.09 52.719 235.434
 c 52.719 233.781 54.062 232.434 55.719 232.434 c 75.227 232.434 l 75.227
 102.273 l 55.719 102.273 l 54.062 102.273 52.719 100.93 52.719 99.273 c
 52.719 97.617 54.062 96.273 55.719 96.273 c 78.227 96.273 l 79.883 96.273
 81.227 97.617 81.227 99.273 c 81.227 235.434 l 81.223 237.094 79.883 238.434
 78.223 238.434 c h
78.223 238.434 m f
351.156 170.355 m 32.844 170.355 l 31.188 170.355 29.844 169.012 29.844
 167.355 c 29.844 165.699 31.188 164.355 32.844 164.355 c 351.16 164.355
 l 352.816 164.355 354.16 165.699 354.16 167.355 c 354.16 169.012 352.816
 170.355 351.156 170.355 c h
351.156 170.355 m f
0.533333 0.321569 0.658824 rg
45.934 167.355 m 45.934 174.473 40.164 180.238 33.047 180.238 c 25.934 
180.238 20.164 174.473 20.164 167.355 c 20.164 160.238 25.934 154.469 33.047
 154.469 c 40.164 154.469 45.934 160.238 45.934 167.355 c h
45.934 167.355 m f
68.754 235.344 m 68.754 242.461 62.988 248.23 55.871 248.23 c 48.754 248.23
 42.984 242.461 42.984 235.344 c 42.984 228.227 48.754 222.461 55.871 222.461
 c 62.988 222.461 68.754 228.227 68.754 235.344 c h
68.754 235.344 m f
68.754 99.367 m 68.754 106.48 62.988 112.25 55.871 112.25 c 48.754 112.25
 42.984 106.48 42.984 99.367 c 42.984 92.25 48.754 86.48 55.871 86.48 c 
62.988 86.48 68.754 92.25 68.754 99.367 c h
68.754 99.367 m f
363.836 167.355 m 363.836 174.473 358.066 180.238 350.953 180.238 c 343.836
 180.238 338.066 174.473 338.066 167.355 c 338.066 160.238 343.836 154.469
 350.953 154.469 c 358.066 154.469 363.836 160.238 363.836 167.355 c h
363.836 167.355 m f
315.246 235.344 m 315.246 242.461 321.012 248.23 328.129 248.23 c 335.246
 248.23 341.016 242.461 341.016 235.344 c 341.016 228.227 335.246 222.461
 328.129 222.461 c 321.012 222.461 315.246 228.227 315.246 235.344 c h
315.246 235.344 m f
341.016 99.367 m 341.016 106.48 335.246 112.25 328.129 112.25 c 321.012
 112.25 315.246 106.48 315.246 99.367 c 315.246 92.25 321.012 86.48 328.129
 86.48 c 335.246 86.48 341.016 92.25 341.016 99.367 c h
341.016 99.367 m f
0.411765 0.0196078 0.537255 rg
33.047 183.238 m 24.289 183.238 17.164 176.113 17.164 167.355 c 17.164 
158.594 24.289 151.469 33.047 151.469 c 41.805 151.469 48.934 158.594 48.934
 167.355 c 48.934 176.113 41.805 183.238 33.047 183.238 c h
33.047 157.469 m 27.598 157.469 23.164 161.902 23.164 167.355 c 23.164 
172.805 27.598 177.238 33.047 177.238 c 38.5 177.238 42.934 172.805 42.934
 167.355 c 42.934 161.902 38.5 157.469 33.047 157.469 c h
33.047 157.469 m f
55.871 251.23 m 47.113 251.23 39.984 244.105 39.984 235.344 c 39.984 226.586
 47.113 219.461 55.871 219.461 c 64.629 219.461 71.754 226.586 71.754 235.344
 c 71.754 244.105 64.629 251.23 55.871 251.23 c h
55.871 225.461 m 50.418 225.461 45.984 229.895 45.984 235.344 c 45.984 
240.797 50.418 245.23 55.871 245.23 c 61.32 245.23 65.754 240.797 65.754
 235.344 c 65.754 229.895 61.32 225.461 55.871 225.461 c h
55.871 225.461 m f
55.871 115.25 m 47.113 115.25 39.984 108.125 39.984 99.363 c 39.984 90.605
 47.113 83.48 55.871 83.48 c 64.629 83.48 71.754 90.605 71.754 99.363 c 
71.754 108.125 64.629 115.25 55.871 115.25 c h
55.871 89.48 m 50.418 89.48 45.984 93.914 45.984 99.367 c 45.984 104.816
 50.418 109.25 55.871 109.25 c 61.32 109.25 65.754 104.816 65.754 99.367
 c 65.754 93.914 61.32 89.48 55.871 89.48 c h
55.871 89.48 m f
350.953 183.238 m 342.195 183.238 335.066 176.113 335.066 167.355 c 335.066
 158.594 342.195 151.469 350.953 151.469 c 359.711 151.469 366.836 158.594
 366.836 167.355 c 366.836 176.113 359.711 183.238 350.953 183.238 c h
350.953 157.469 m 345.5 157.469 341.066 161.902 341.066 167.355 c 341.066
 172.805 345.5 177.238 350.953 177.238 c 356.402 177.238 360.836 172.805
 360.836 167.355 c 360.836 161.902 356.402 157.469 350.953 157.469 c h
350.953 157.469 m f
328.129 251.23 m 319.371 251.23 312.246 244.105 312.246 235.344 c 312.246
 226.586 319.371 219.461 328.129 219.461 c 336.887 219.461 344.016 226.586
 344.016 235.344 c 344.016 244.105 336.887 251.23 328.129 251.23 c h
328.129 225.461 m 322.68 225.461 318.246 229.895 318.246 235.344 c 318.246
 240.797 322.68 245.23 328.129 245.23 c 333.582 245.23 338.016 240.797 338.016
 235.344 c 338.016 229.895 333.582 225.461 328.129 225.461 c h
328.129 225.461 m f
328.129 115.25 m 319.371 115.25 312.246 108.125 312.246 99.363 c 312.246
 90.605 319.371 83.48 328.129 83.48 c 336.887 83.48 344.016 90.605 344.016
 99.363 c 344.016 108.125 336.887 115.25 328.129 115.25 c h
328.129 89.48 m 322.68 89.48 318.246 93.914 318.246 99.367 c 318.246 104.816
 322.68 109.25 328.129 109.25 c 333.582 109.25 338.016 104.816 338.016 99.367
 c 338.016 93.914 333.582 89.48 328.129 89.48 c h
328.129 89.48 m f
0.321569 0.435294 0.666667 rg
313.352 336.266 m 70.648 336.266 l 70.648 318.484 l 70.648 311.152 76.59
 305.211 83.922 305.211 c 300.078 305.211 l 307.41 305.211 313.352 311.152
 313.352 318.484 c h
313.352 336.266 m f
0.203922 0.317647 0.54902 rg
300.078 305.211 m 285.078 305.211 l 292.41 305.211 298.352 311.152 298.352
 318.484 c 298.352 336.27 l 313.352 336.27 l 313.352 318.484 l 313.352 311.152
 307.41 305.211 300.078 305.211 c h
300.078 305.211 m f
0.439216 0.552941 0.784314 rg
83.922 305.211 m 98.922 305.211 l 91.59 305.211 85.648 311.152 85.648 318.484
 c 85.648 336.27 l 70.648 336.27 l 70.648 318.484 l 70.648 311.152 76.59
 305.211 83.922 305.211 c h
83.922 305.211 m f
0.203922 0.317647 0.54902 rg
120.754 286.977 142.488 18.234 re f
0.411765 0.0196078 0.537255 rg
18 103.539 m 16.344 103.539 15 102.195 15 100.539 c 15 82.539 l 15 80.883
 16.344 79.539 18 79.539 c 19.656 79.539 21 80.883 21 82.539 c 21 100.539
 l 21 102.195 19.656 103.539 18 103.539 c h
18 103.539 m f
313.352 339.266 m 70.648 339.266 l 68.992 339.266 67.648 337.922 67.648
 336.266 c 67.648 318.484 l 67.648 309.512 74.949 302.211 83.926 302.211
 c 300.078 302.211 l 309.051 302.211 316.355 309.512 316.355 318.484 c 316.355
 336.266 l 316.352 337.926 315.008 339.266 313.352 339.266 c h
73.648 333.266 m 310.352 333.266 l 310.352 318.484 l 310.352 312.82 305.742
 308.211 300.078 308.211 c 83.922 308.211 l 78.258 308.211 73.648 312.82
 73.648 318.484 c h
73.648 333.266 m f
263.246 308.211 m 120.754 308.211 l 119.098 308.211 117.754 306.867 117.754
 305.211 c 117.754 286.977 l 117.754 285.324 119.098 283.977 120.754 283.977
 c 263.246 283.977 l 264.902 283.977 266.246 285.324 266.246 286.977 c 266.246
 305.211 l 266.246 306.867 264.902 308.211 263.246 308.211 c h
123.754 302.211 m 260.246 302.211 l 260.246 289.977 l 123.754 289.977 l
 h
123.754 302.211 m f
364.727 289.977 m 19.273 289.977 l 10.301 289.977 3 282.676 3 273.703 c
 3 61.008 l 3 52.035 10.301 44.734 19.273 44.734 c 364.727 44.734 l 373.699
 44.734 381 52.035 381 61.008 c 381 273.703 l 381 282.676 373.699 289.977
 364.727 289.977 c h
19.273 50.734 m 13.609 50.734 9 55.344 9 61.008 c 9 273.703 l 9 279.367
 13.609 283.977 19.273 283.977 c 364.727 283.977 l 370.391 283.977 375 279.367
 375 273.703 c 375 61.008 l 375 55.344 370.391 50.734 364.727 50.734 c h
19.273 50.734 m f
0.988235 0.760784 0.298039 rg
292.59 184.203 m 292.59 150.508 l 273.941 150.508 l 271.777 139.914 267.594
 130.062 261.84 121.344 c 275.043 108.141 l 251.211 84.316 l 238.012 97.52
 l 229.293 91.762 219.438 87.582 208.848 85.414 c 208.848 66.766 l 175.152
 66.766 l 175.152 85.414 l 164.559 87.578 154.711 91.758 145.988 97.516 
c 132.789 84.312 l 108.961 108.141 l 122.164 121.344 l 116.406 130.062 112.227
 139.918 110.059 150.508 c 91.41 150.508 l 91.41 184.203 l 110.059 184.203
 l 112.223 194.793 116.406 204.648 122.16 213.367 c 108.957 226.57 l 132.785
 250.395 l 145.984 237.195 l 154.707 242.949 164.559 247.133 175.148 249.297
 c 175.148 267.945 l 208.844 267.945 l 208.844 249.297 l 219.438 247.133
 229.289 242.949 238.008 237.195 c 251.211 250.395 l 275.035 226.57 l 261.832
 213.367 l 267.59 204.648 271.77 194.793 273.938 184.203 c h
192 224.133 m 160.641 224.133 135.223 198.711 135.223 167.355 c 135.223
 135.996 160.641 110.578 192 110.578 c 223.359 110.578 248.781 135.996 248.781
 167.355 c 248.781 198.711 223.359 224.133 192 224.133 c h
192 224.133 m f
292.59 184.203 m 292.59 150.508 l 273.941 150.508 l 271.777 139.914 267.594
 130.062 261.84 121.344 c 275.043 108.141 l 251.211 84.316 l 238.012 97.52
 l 229.293 91.762 219.438 87.582 208.848 85.414 c 208.848 66.766 l 175.152
 66.766 l 175.152 85.414 l 164.559 87.578 154.711 91.758 145.988 97.516 
c 132.789 84.312 l 108.961 108.141 l 122.164 121.344 l 116.406 130.062 112.227
 139.918 110.059 150.508 c 91.41 150.508 l 91.41 184.203 l 110.059 184.203
 l 112.223 194.793 116.406 204.648 122.16 213.367 c 108.957 226.57 l 132.785
 250.395 l 145.984 237.195 l 154.707 242.949 164.559 247.133 175.148 249.297
 c 175.148 267.945 l 208.844 267.945 l 208.844 249.297 l 219.438 247.133
 229.289 242.949 238.008 237.195 c 251.211 250.395 l 275.035 226.57 l 261.832
 213.367 l 267.59 204.648 271.77 194.793 273.938 184.203 c h
192 224.133 m 160.641 224.133 135.223 198.711 135.223 167.355 c 135.223
 135.996 160.641 110.578 192 110.578 c 223.359 110.578 248.781 135.996 248.781
 167.355 c 248.781 198.711 223.359 224.133 192 224.133 c h
192 224.133 m f
0.411765 0.0196078 0.537255 rg
208.848 270.945 m 175.152 270.945 l 173.496 270.945 172.152 269.598 172.152
 267.945 c 172.152 251.711 l 163.047 249.578 154.402 245.992 146.402 241.023
 c 134.906 252.516 l 133.734 253.688 131.836 253.688 130.664 252.516 c 106.836
 228.691 l 106.273 228.129 105.957 227.367 105.957 226.57 c 105.957 225.777
 106.273 225.012 106.836 224.449 c 118.332 212.953 l 113.367 204.953 109.777
 196.312 107.645 187.203 c 91.41 187.203 l 89.754 187.203 88.41 185.859 
88.41 184.203 c 88.41 150.512 l 88.41 148.855 89.754 147.512 91.41 147.512
 c 107.645 147.512 l 109.777 138.402 113.367 129.762 118.332 121.762 c 106.836
 110.266 l 106.273 109.703 105.957 108.938 105.957 108.145 c 105.957 107.348
 106.273 106.586 106.836 106.023 c 130.664 82.195 l 131.836 81.023 133.734
 81.023 134.906 82.195 c 146.402 93.691 l 154.402 88.723 163.047 85.133 
172.152 83 c 172.152 66.766 l 172.152 65.109 173.496 63.766 175.152 63.766
 c 208.848 63.766 l 210.504 63.766 211.848 65.109 211.848 66.766 c 211.848
 83 l 220.953 85.133 229.598 88.723 237.594 93.691 c 249.09 82.195 l 249.652
 81.633 250.418 81.316 251.211 81.316 c 252.008 81.316 252.77 81.633 253.332
 82.195 c 277.16 106.023 l 278.332 107.191 278.332 109.094 277.16 110.262
 c 265.664 121.758 l 270.633 129.758 274.219 138.402 276.352 147.508 c 292.586
 147.508 l 294.242 147.508 295.586 148.852 295.586 150.508 c 295.586 184.203
 l 295.586 185.859 294.242 187.203 292.586 187.203 c 276.352 187.203 l 274.219
 196.312 270.633 204.953 265.664 212.953 c 277.16 224.449 l 277.723 225.012
 278.039 225.773 278.039 226.57 c 278.039 227.363 277.723 228.129 277.16
 228.691 c 253.332 252.516 l 252.16 253.688 250.262 253.688 249.09 252.516
 c 237.594 241.02 l 229.594 245.988 220.953 249.574 211.848 251.711 c 211.848
 267.941 l 211.848 269.598 210.504 270.945 208.848 270.945 c h
178.152 264.945 m 205.848 264.945 l 205.848 249.297 l 205.848 247.871 206.852
 246.645 208.246 246.359 c 218.281 244.305 227.738 240.383 236.359 234.691
 c 237.547 233.902 239.125 234.066 240.133 235.074 c 251.215 246.152 l 270.801
 226.57 l 259.719 215.488 l 258.711 214.48 258.551 212.902 259.336 211.715
 c 265.027 203.094 268.953 193.637 271.004 183.602 c 271.285 182.207 272.516
 181.203 273.941 181.203 c 289.59 181.203 l 289.59 153.508 l 273.941 153.508
 l 272.516 153.508 271.285 152.508 271.004 151.109 c 268.953 141.074 265.027
 131.617 259.336 122.996 c 258.551 121.809 258.711 120.23 259.719 119.223
 c 270.801 108.141 l 251.215 88.559 l 240.133 99.641 l 239.129 100.648 237.551
 100.809 236.359 100.023 c 227.742 94.332 218.281 90.406 208.246 88.352 
c 206.852 88.066 205.848 86.84 205.848 85.414 c 205.848 69.766 l 178.152
 69.766 l 178.152 85.414 l 178.152 86.84 177.152 88.066 175.754 88.352 c
 165.719 90.402 156.262 94.328 147.641 100.02 c 146.453 100.805 144.875 
100.645 143.867 99.637 c 132.785 88.559 l 113.203 108.141 l 124.285 119.223
 l 125.293 120.23 125.449 121.809 124.668 122.996 c 118.977 131.617 115.051
 141.074 112.996 151.109 c 112.715 152.504 111.484 153.508 110.059 153.508
 c 94.41 153.508 l 94.41 181.203 l 110.059 181.203 l 111.484 181.203 112.711
 182.203 112.996 183.602 c 115.051 193.637 118.977 203.094 124.664 211.711
 c 125.449 212.902 125.289 214.48 124.281 215.484 c 113.199 226.566 l 132.785
 246.148 l 143.867 235.07 l 144.875 234.062 146.457 233.902 147.641 234.688
 c 156.266 240.379 165.723 244.305 175.754 246.355 c 177.148 246.641 178.152
 247.867 178.152 249.293 c h
192 227.133 m 159.039 227.133 132.219 200.316 132.219 167.352 c 132.219
 134.391 159.039 107.578 192 107.578 c 224.961 107.578 251.781 134.391 251.781
 167.355 c 251.781 200.316 224.961 227.133 192 227.133 c h
192 113.578 m 162.344 113.578 138.219 137.703 138.219 167.355 c 138.219
 197.008 162.344 221.133 192 221.133 c 221.656 221.133 245.781 197.008 245.781
 167.352 c 245.781 137.699 221.656 113.578 192 113.578 c h
192 113.578 m f
208.848 270.945 m 175.152 270.945 l 173.496 270.945 172.152 269.598 172.152
 267.945 c 172.152 251.711 l 163.047 249.578 154.402 245.992 146.402 241.023
 c 134.906 252.516 l 133.734 253.688 131.836 253.688 130.664 252.516 c 106.836
 228.691 l 106.273 228.129 105.957 227.367 105.957 226.57 c 105.957 225.777
 106.273 225.012 106.836 224.449 c 118.332 212.953 l 113.367 204.953 109.777
 196.312 107.645 187.203 c 91.41 187.203 l 89.754 187.203 88.41 185.859 
88.41 184.203 c 88.41 150.512 l 88.41 148.855 89.754 147.512 91.41 147.512
 c 107.645 147.512 l 109.777 138.402 113.367 129.762 118.332 121.762 c 106.836
 110.266 l 106.273 109.703 105.957 108.938 105.957 108.145 c 105.957 107.348
 106.273 106.586 106.836 106.023 c 130.664 82.195 l 131.836 81.023 133.734
 81.023 134.906 82.195 c 146.402 93.691 l 154.402 88.723 163.047 85.133 
172.152 83 c 172.152 66.766 l 172.152 65.109 173.496 63.766 175.152 63.766
 c 208.848 63.766 l 210.504 63.766 211.848 65.109 211.848 66.766 c 211.848
 83 l 220.953 85.133 229.598 88.723 237.594 93.691 c 249.09 82.195 l 249.652
 81.633 250.418 81.316 251.211 81.316 c 252.008 81.316 252.77 81.633 253.332
 82.195 c 277.16 106.023 l 278.332 107.191 278.332 109.094 277.16 110.262
 c 265.664 121.758 l 270.633 129.758 274.219 138.402 276.352 147.508 c 292.586
 147.508 l 294.242 147.508 295.586 148.852 295.586 150.508 c 295.586 184.203
 l 295.586 185.859 294.242 187.203 292.586 187.203 c 276.352 187.203 l 274.219
 196.312 270.633 204.953 265.664 212.953 c 277.16 224.449 l 277.723 225.012
 278.039 225.773 278.039 226.57 c 278.039 227.363 277.723 228.129 277.16
 228.691 c 253.332 252.516 l 252.16 253.688 250.262 253.688 249.09 252.516
 c 237.594 241.02 l 229.594 245.988 220.953 249.574 211.848 251.711 c 211.848
 267.941 l 211.848 269.598 210.504 270.945 208.848 270.945 c h
178.152 264.945 m 205.848 264.945 l 205.848 249.297 l 205.848 247.871 206.852
 246.645 208.246 246.359 c 218.281 244.305 227.738 240.383 236.359 234.691
 c 237.547 233.902 239.125 234.066 240.133 235.074 c 251.215 246.152 l 270.801
 226.57 l 259.719 215.488 l 258.711 214.48 258.551 212.902 259.336 211.715
 c 265.027 203.094 268.953 193.637 271.004 183.602 c 271.285 182.207 272.516
 181.203 273.941 181.203 c 289.59 181.203 l 289.59 153.508 l 273.941 153.508
 l 272.516 153.508 271.285 152.508 271.004 151.109 c 268.953 141.074 265.027
 131.617 259.336 122.996 c 258.551 121.809 258.711 120.23 259.719 119.223
 c 270.801 108.141 l 251.215 88.559 l 240.133 99.641 l 239.129 100.648 237.551
 100.809 236.359 100.023 c 227.742 94.332 218.281 90.406 208.246 88.352 
c 206.852 88.066 205.848 86.84 205.848 85.414 c 205.848 69.766 l 178.152
 69.766 l 178.152 85.414 l 178.152 86.84 177.152 88.066 175.754 88.352 c
 165.719 90.402 156.262 94.328 147.641 100.02 c 146.453 100.805 144.875 
100.645 143.867 99.637 c 132.785 88.559 l 113.203 108.141 l 124.285 119.223
 l 125.293 120.23 125.449 121.809 124.668 122.996 c 118.977 131.617 115.051
 141.074 112.996 151.109 c 112.715 152.504 111.484 153.508 110.059 153.508
 c 94.41 153.508 l 94.41 181.203 l 110.059 181.203 l 111.484 181.203 112.711
 182.203 112.996 183.602 c 115.051 193.637 118.977 203.094 124.664 211.711
 c 125.449 212.902 125.289 214.48 124.281 215.484 c 113.199 226.566 l 132.785
 246.148 l 143.867 235.07 l 144.875 234.062 146.457 233.902 147.641 234.688
 c 156.266 240.379 165.723 244.305 175.754 246.355 c 177.148 246.641 178.152
 247.867 178.152 249.293 c h
192 227.133 m 159.039 227.133 132.219 200.316 132.219 167.352 c 132.219
 134.391 159.039 107.578 192 107.578 c 224.961 107.578 251.781 134.391 251.781
 167.355 c 251.781 200.316 224.961 227.133 192 227.133 c h
192 113.578 m 162.344 113.578 138.219 137.703 138.219 167.355 c 138.219
 197.008 162.344 221.133 192 221.133 c 221.656 221.133 245.781 197.008 245.781
 167.352 c 245.781 137.699 221.656 113.578 192 113.578 c h
192 113.578 m f
0.956863 0.937255 0.929412 rg
229.391 227.355 m 154.609 227.355 l 150.469 227.355 147.109 223.996 147.109
 219.855 c 147.109 114.855 l 147.109 110.715 150.469 107.355 154.609 107.355
 c 229.391 107.355 l 233.531 107.355 236.891 110.715 236.891 114.855 c 236.891
 219.855 l 236.891 223.996 233.531 227.355 229.391 227.355 c h
229.391 227.355 m f
0.411765 0.0196078 0.537255 rg
229.391 230.355 m 154.609 230.355 l 148.82 230.355 144.109 225.645 144.109
 219.855 c 144.109 114.855 l 144.109 109.066 148.82 104.355 154.609 104.355
 c 229.391 104.355 l 235.18 104.355 239.891 109.066 239.891 114.855 c 239.891
 219.855 l 239.891 225.645 235.18 230.355 229.391 230.355 c h
154.609 110.355 m 152.129 110.355 150.109 112.375 150.109 114.855 c 150.109
 219.855 l 150.109 222.336 152.129 224.355 154.609 224.355 c 229.391 224.355
 l 231.871 224.355 233.891 222.336 233.891 219.855 c 233.891 114.855 l 233.891
 112.375 231.871 110.355 229.391 110.355 c h
154.609 110.355 m f
220.504 130.84 m 163.496 130.84 l 161.84 130.84 160.496 129.496 160.496
 127.84 c 160.496 126.184 161.84 124.84 163.496 124.84 c 220.504 124.84 
l 222.16 124.84 223.504 126.184 223.504 127.84 c 223.504 129.496 222.16 
130.84 220.504 130.84 c h
220.504 130.84 m f
220.504 157.184 m 163.496 157.184 l 161.84 157.184 160.496 155.84 160.496
 154.184 c 160.496 152.527 161.84 151.184 163.496 151.184 c 220.504 151.184
 l 222.16 151.184 223.504 152.527 223.504 154.184 c 223.504 155.84 222.16
 157.184 220.504 157.184 c h
220.504 157.184 m f
220.504 183.527 m 163.496 183.527 l 161.84 183.527 160.496 182.184 160.496
 180.527 c 160.496 178.871 161.84 177.527 163.496 177.527 c 220.504 177.527
 l 222.16 177.527 223.504 178.871 223.504 180.527 c 223.504 182.184 222.16
 183.527 220.504 183.527 c h
220.504 183.527 m f
220.504 209.871 m 163.496 209.871 l 161.84 209.871 160.496 208.527 160.496
 206.871 c 160.496 205.215 161.84 203.871 163.496 203.871 c 220.504 203.871
 l 222.16 203.871 223.504 205.215 223.504 206.871 c 223.504 208.527 222.16
 209.871 220.504 209.871 c h
220.504 209.871 m f
Q Q
showpage
%%Trailer
end
%%EOF
