%!PS-Adobe-3.0 EPSF-3.0
%%Creator: cairo 1.16.0 (https://cairographics.org)
%%CreationDate: Fri Jan 10 07:38:43 2020
%%Pages: 1
%%DocumentData: Clean7Bit
%%LanguageLevel: 2
%%BoundingBox: 37 3 347 381
%%EndComments
%%BeginProlog
50 dict begin
/q { gsave } bind def
/Q { grestore } bind def
/cm { 6 array astore concat } bind def
/w { setlinewidth } bind def
/J { setlinecap } bind def
/j { setlinejoin } bind def
/M { setmiterlimit } bind def
/d { setdash } bind def
/m { moveto } bind def
/l { lineto } bind def
/c { curveto } bind def
/h { closepath } bind def
/re { exch dup neg 3 1 roll 5 3 roll moveto 0 rlineto
      0 exch rlineto 0 rlineto closepath } bind def
/S { stroke } bind def
/f { fill } bind def
/f* { eofill } bind def
/n { newpath } bind def
/W { clip } bind def
/W* { eoclip } bind def
/BT { } bind def
/ET { } bind def
/BDC { mark 3 1 roll /BDC pdfmark } bind def
/EMC { mark /EMC pdfmark } bind def
/cairo_store_point { /cairo_point_y exch def /cairo_point_x exch def } def
/Tj { show currentpoint cairo_store_point } bind def
/TJ {
  {
    dup
    type /stringtype eq
    { show } { -0.001 mul 0 cairo_font_matrix dtransform rmoveto } ifelse
  } forall
  currentpoint cairo_store_point
} bind def
/cairo_selectfont { cairo_font_matrix aload pop pop pop 0 0 6 array astore
    cairo_font exch selectfont cairo_point_x cairo_point_y moveto } bind def
/Tf { pop /cairo_font exch def /cairo_font_matrix where
      { pop cairo_selectfont } if } bind def
/Td { matrix translate cairo_font_matrix matrix concatmatrix dup
      /cairo_font_matrix exch def dup 4 get exch 5 get cairo_store_point
      /cairo_font where { pop cairo_selectfont } if } bind def
/Tm { 2 copy 8 2 roll 6 array astore /cairo_font_matrix exch def
      cairo_store_point /cairo_font where { pop cairo_selectfont } if } bind def
/g { setgray } bind def
/rg { setrgbcolor } bind def
/d1 { setcachedevice } bind def
/cairo_data_source {
  CairoDataIndex CairoData length lt
    { CairoData CairoDataIndex get /CairoDataIndex CairoDataIndex 1 add def }
    { () } ifelse
} def
/cairo_flush_ascii85_file { cairo_ascii85_file status { cairo_ascii85_file flushfile } if } def
/cairo_image { image cairo_flush_ascii85_file } def
/cairo_imagemask { imagemask cairo_flush_ascii85_file } def
%%EndProlog
%%BeginSetup
%%EndSetup
%%Page: 1 1
%%BeginPageSetup
%%PageBoundingBox: 37 3 347 381
%%EndPageSetup
q 37 3 310 378 rectclip
1 0 0 -1 0 384 cm q
0.956863 0.937255 0.929412 rg
312.25 378 m 40.293 378 l 40.293 69.5 l 103.793 6 l 312.25 6 l h
312.25 378 m f
1 g
40.293 69.5 m 40.293 378 l 55.293 378 l 55.293 54.5 l h
40.293 69.5 m f
0.839216 0.819608 0.811765 rg
297.25 6 15 372 re f
0.411765 0.0196078 0.537255 rg
312.25 381 m 40.293 381 l 38.637 381 37.293 379.656 37.293 378 c 37.293
 69.5 l 37.293 68.703 37.609 67.941 38.172 67.379 c 101.672 3.879 l 102.234
 3.316 102.996 3 103.793 3 c 312.25 3 l 313.906 3 315.25 4.344 315.25 6 
c 315.25 378 l 315.25 379.656 313.906 381 312.25 381 c h
43.293 375 m 309.25 375 l 309.25 9 l 105.035 9 l 43.293 70.742 l h
43.293 375 m f
52.293 129.02 m 50.637 129.02 49.293 127.676 49.293 126.02 c 49.293 108.02
 l 49.293 106.363 50.637 105.02 52.293 105.02 c 53.949 105.02 55.293 106.363
 55.293 108.02 c 55.293 126.02 l 55.293 127.676 53.949 129.02 52.293 129.02
 c h
52.293 129.02 m f
270.406 219.93 m 82.137 219.93 l 80.48 219.93 79.137 218.586 79.137 216.93
 c 79.137 215.277 80.48 213.93 82.137 213.93 c 270.406 213.93 l 272.062 
213.93 273.406 215.277 273.406 216.93 c 273.406 218.586 272.062 219.93 270.406
 219.93 c h
270.406 219.93 m f
270.406 275.457 m 82.137 275.457 l 80.48 275.457 79.137 274.113 79.137 
272.457 c 79.137 270.801 80.48 269.457 82.137 269.457 c 270.406 269.457 
l 272.062 269.457 273.406 270.801 273.406 272.457 c 273.406 274.113 272.062
 275.457 270.406 275.457 c h
270.406 275.457 m f
270.406 330.984 m 82.137 330.984 l 80.48 330.984 79.137 329.637 79.137 
327.984 c 79.137 326.328 80.48 324.984 82.137 324.984 c 270.406 324.984 
l 272.062 324.984 273.406 326.328 273.406 327.984 c 273.406 329.637 272.062
 330.984 270.406 330.984 c h
270.406 330.984 m f
0.533333 0.321569 0.658824 rg
103.793 6 m 103.793 69.5 l 40.293 69.5 l h
103.793 6 m f
0.411765 0.0196078 0.537255 rg
103.793 72.5 m 40.293 72.5 l 39.078 72.5 37.984 71.77 37.52 70.648 c 37.055
 69.527 37.312 68.238 38.172 67.379 c 101.672 3.879 l 102.527 3.02 103.82
 2.762 104.941 3.227 c 106.062 3.691 106.793 4.785 106.793 6 c 106.793 69.5
 l 106.793 71.156 105.449 72.5 103.793 72.5 c h
47.535 66.5 m 100.793 66.5 l 100.793 13.242 l h
47.535 66.5 m f
0.988235 0.760784 0.298039 rg
245.297 104.852 m 245.297 66.73 214.395 35.824 176.273 35.824 c 138.152
 35.824 107.25 66.727 107.25 104.852 c 107.25 138.898 131.906 167.168 164.336
 172.824 c 167.578 178.445 l 176.27 193.5 l 184.965 178.445 l 188.207 172.824
 l 220.637 167.168 245.297 138.898 245.297 104.852 c h
245.297 104.852 m f
0.956863 0.937255 0.929412 rg
136.809 114.156 m 143.539 114.156 l 143.539 86.883 l 136.809 86.883 l 129.277
 86.883 123.168 92.988 123.168 100.52 c 123.168 108.051 129.277 114.156 
136.809 114.156 c h
136.809 114.156 m f
181.914 84.973 m 217.355 66.191 l 217.355 134.852 l 181.914 116.07 l h
181.914 84.973 m f
162.727 154.559 m 159.426 154.559 156.75 151.883 156.75 148.582 c 156.75
 104.863 l 168.703 104.863 l 168.703 148.582 l 168.703 151.883 166.027 154.559
 162.727 154.559 c h
162.727 154.559 m f
0.411765 0.0196078 0.537255 rg
162.723 157.559 m 157.773 157.559 153.746 153.531 153.746 148.582 c 153.746
 104.863 l 153.746 103.207 155.09 101.863 156.746 101.863 c 168.703 101.863
 l 170.359 101.863 171.703 103.207 171.703 104.863 c 171.703 148.582 l 171.703
 153.531 167.676 157.559 162.723 157.559 c h
159.75 107.863 m 159.75 148.582 l 159.75 150.223 161.086 151.559 162.727
 151.559 c 164.367 151.559 165.703 150.223 165.703 148.582 c 165.703 107.863
 l h
159.75 107.863 m f
0.533333 0.321569 0.658824 rg
176.27 120.832 m 149.18 120.832 l 146.066 120.832 143.539 118.305 143.539
 115.191 c 143.539 85.848 l 143.539 82.734 146.066 80.207 149.18 80.207 
c 176.27 80.207 l 179.387 80.207 181.914 82.734 181.914 85.848 c 181.914
 115.191 l 181.914 118.305 179.387 120.832 176.27 120.832 c h
176.27 120.832 m f
0.956863 0.937255 0.929412 rg
219.797 107.887 m 217.355 107.887 l 217.355 93.152 l 219.797 93.152 l 223.863
 93.152 227.164 96.449 227.164 100.52 c 227.164 104.59 223.863 107.887 219.797
 107.887 c h
219.797 107.887 m f
0.411765 0.0196078 0.537255 rg
219.797 110.887 m 217.355 110.887 l 215.699 110.887 214.355 109.543 214.355
 107.887 c 214.355 93.152 l 214.355 91.496 215.699 90.152 217.355 90.152
 c 219.797 90.152 l 225.512 90.152 230.164 94.805 230.164 100.52 c 230.164
 106.234 225.512 110.887 219.797 110.887 c h
220.355 96.188 m 220.355 104.852 l 222.5 104.574 224.164 102.738 224.164
 100.52 c 224.164 98.301 222.5 96.465 220.355 96.188 c h
220.355 96.188 m f
217.355 137.848 m 216.875 137.848 216.391 137.734 215.949 137.5 c 180.508
 118.719 l 179.527 118.195 178.914 117.18 178.914 116.066 c 178.914 84.973
 l 178.914 83.859 179.527 82.844 180.508 82.32 c 215.949 63.539 l 216.879
 63.047 218 63.078 218.902 63.621 c 219.805 64.164 220.355 65.141 220.355
 66.191 c 220.355 134.852 l 220.355 135.902 219.805 136.879 218.902 137.418
 c 218.43 137.707 217.895 137.848 217.355 137.848 c h
184.914 114.262 m 214.355 129.863 l 214.355 71.176 l 184.914 86.777 l h
184.914 114.262 m f
143.539 117.156 m 136.809 117.156 l 127.633 117.156 120.168 109.695 120.168
 100.52 c 120.168 91.344 127.633 83.883 136.809 83.883 c 143.539 83.883 
l 145.195 83.883 146.539 85.227 146.539 86.883 c 146.539 114.156 l 146.539
 115.812 145.195 117.156 143.539 117.156 c h
136.809 89.883 m 130.941 89.883 126.168 94.652 126.168 100.52 c 126.168
 106.387 130.941 111.156 136.809 111.156 c 140.539 111.156 l 140.539 89.883
 l h
136.809 89.883 m f
176.27 123.832 m 149.18 123.832 l 144.414 123.832 140.539 119.957 140.539
 115.191 c 140.539 85.848 l 140.539 81.082 144.414 77.207 149.18 77.207 
c 176.27 77.207 l 181.035 77.207 184.914 81.082 184.914 85.848 c 184.914
 115.191 l 184.914 119.957 181.035 123.832 176.27 123.832 c h
149.18 83.207 m 147.723 83.207 146.539 84.391 146.539 85.848 c 146.539 
115.191 l 146.539 116.645 147.723 117.832 149.18 117.832 c 176.27 117.832
 l 177.727 117.832 178.914 116.645 178.914 115.191 c 178.914 85.848 l 178.914
 84.391 177.727 83.207 176.27 83.207 c h
149.18 83.207 m f
176.27 196.5 m 175.199 196.5 174.207 195.93 173.672 195 c 162.426 175.523
 l 128.629 168.953 104.246 139.453 104.246 104.852 c 104.246 65.133 136.559
 32.824 176.273 32.824 c 215.988 32.824 248.297 65.133 248.297 104.852 c
 248.297 139.453 223.914 168.953 190.113 175.523 c 178.867 195 l 178.332
 195.93 177.344 196.5 176.27 196.5 c h
176.27 38.824 m 139.863 38.824 110.246 68.445 110.246 104.852 c 110.246
 137.004 133.211 164.352 164.848 169.867 c 165.723 170.023 166.488 170.555
 166.93 171.324 c 176.27 187.5 l 185.609 171.324 l 186.055 170.555 186.816
 170.02 187.691 169.867 c 219.328 164.348 242.297 137.004 242.297 104.852
 c 242.297 68.445 212.676 38.824 176.27 38.824 c h
176.27 38.824 m f
0.321569 0.435294 0.666667 rg
322.172 220.633 m 350.793 249.254 350.793 295.66 322.172 324.281 c 293.551
 352.902 247.148 352.902 218.527 324.281 c 189.906 295.66 189.906 249.254
 218.527 220.633 c 247.148 192.012 293.551 192.012 322.172 220.633 c h
322.172 220.633 m f
0.203922 0.317647 0.54902 rg
270.406 199.156 m 268.316 199.156 266.254 199.266 264.207 199.438 c 301.785
 202.59 331.305 234.066 331.305 272.457 c 331.305 310.848 301.785 342.328
 264.207 345.477 c 266.254 345.648 268.316 345.758 270.406 345.758 c 310.891
 345.758 343.707 312.938 343.707 272.457 c 343.707 231.977 310.891 199.156
 270.406 199.156 c h
270.406 199.156 m f
0.439216 0.552941 0.784314 rg
270.406 345.758 m 272.5 345.758 274.562 345.648 276.609 345.477 c 239.031
 342.324 209.508 310.848 209.508 272.457 c 209.508 234.066 239.031 202.586
 276.609 199.438 c 274.562 199.266 272.5 199.156 270.406 199.156 c 229.926
 199.156 197.109 231.977 197.109 272.457 c 197.109 312.938 229.926 345.758
 270.406 345.758 c h
270.406 345.758 m f
0.956863 0.937255 0.929412 rg
239.641 272.457 m 239.641 228.078 l 278.078 250.266 l 316.512 272.457 l
 278.078 294.648 l 239.641 316.84 l h
239.641 272.457 m f
0.411765 0.0196078 0.537255 rg
239.645 319.84 m 239.125 319.84 238.609 319.707 238.145 319.438 c 237.215
 318.902 236.645 317.91 236.645 316.84 c 236.645 228.078 l 236.645 227.004
 237.215 226.016 238.145 225.477 c 239.07 224.941 240.215 224.941 241.145
 225.477 c 318.012 269.859 l 318.941 270.395 319.512 271.387 319.512 272.457
 c 319.512 273.527 318.941 274.52 318.012 275.055 c 241.145 319.434 l 240.68
 319.703 240.16 319.84 239.645 319.84 c h
242.645 233.273 m 242.645 311.645 l 310.512 272.457 l h
242.645 233.273 m f
270.406 348.758 m 228.336 348.758 194.105 314.527 194.105 272.457 c 194.105
 230.387 228.336 196.156 270.406 196.156 c 312.477 196.156 346.707 230.387
 346.707 272.457 c 346.707 314.527 312.477 348.758 270.406 348.758 c h
270.406 202.156 m 231.641 202.156 200.105 233.691 200.105 272.457 c 200.105
 311.223 231.641 342.758 270.406 342.758 c 309.172 342.758 340.707 311.223
 340.707 272.457 c 340.707 233.691 309.172 202.156 270.406 202.156 c h
270.406 202.156 m f
Q Q
showpage
%%Trailer
end
%%EOF
