%!PS-Adobe-3.0 EPSF-3.0
%%Creator: cairo 1.16.0 (https://cairographics.org)
%%CreationDate: Fri Jan 10 07:38:46 2020
%%Pages: 1
%%DocumentData: Clean7Bit
%%LanguageLevel: 2
%%BoundingBox: 31 3 353 381
%%EndComments
%%BeginProlog
50 dict begin
/q { gsave } bind def
/Q { grestore } bind def
/cm { 6 array astore concat } bind def
/w { setlinewidth } bind def
/J { setlinecap } bind def
/j { setlinejoin } bind def
/M { setmiterlimit } bind def
/d { setdash } bind def
/m { moveto } bind def
/l { lineto } bind def
/c { curveto } bind def
/h { closepath } bind def
/re { exch dup neg 3 1 roll 5 3 roll moveto 0 rlineto
      0 exch rlineto 0 rlineto closepath } bind def
/S { stroke } bind def
/f { fill } bind def
/f* { eofill } bind def
/n { newpath } bind def
/W { clip } bind def
/W* { eoclip } bind def
/BT { } bind def
/ET { } bind def
/BDC { mark 3 1 roll /BDC pdfmark } bind def
/EMC { mark /EMC pdfmark } bind def
/cairo_store_point { /cairo_point_y exch def /cairo_point_x exch def } def
/Tj { show currentpoint cairo_store_point } bind def
/TJ {
  {
    dup
    type /stringtype eq
    { show } { -0.001 mul 0 cairo_font_matrix dtransform rmoveto } ifelse
  } forall
  currentpoint cairo_store_point
} bind def
/cairo_selectfont { cairo_font_matrix aload pop pop pop 0 0 6 array astore
    cairo_font exch selectfont cairo_point_x cairo_point_y moveto } bind def
/Tf { pop /cairo_font exch def /cairo_font_matrix where
      { pop cairo_selectfont } if } bind def
/Td { matrix translate cairo_font_matrix matrix concatmatrix dup
      /cairo_font_matrix exch def dup 4 get exch 5 get cairo_store_point
      /cairo_font where { pop cairo_selectfont } if } bind def
/Tm { 2 copy 8 2 roll 6 array astore /cairo_font_matrix exch def
      cairo_store_point /cairo_font where { pop cairo_selectfont } if } bind def
/g { setgray } bind def
/rg { setrgbcolor } bind def
/d1 { setcachedevice } bind def
/cairo_data_source {
  CairoDataIndex CairoData length lt
    { CairoData CairoDataIndex get /CairoDataIndex CairoDataIndex 1 add def }
    { () } ifelse
} def
/cairo_flush_ascii85_file { cairo_ascii85_file status { cairo_ascii85_file flushfile } if } def
/cairo_image { image cairo_flush_ascii85_file } def
/cairo_imagemask { imagemask cairo_flush_ascii85_file } def
%%EndProlog
%%BeginSetup
%%EndSetup
%%Page: 1 1
%%BeginPageSetup
%%PageBoundingBox: 31 3 353 381
%%EndPageSetup
q 31 3 322 378 rectclip
1 0 0 -1 0 384 cm q
0.956863 0.937255 0.929412 rg
306.223 378 m 34.266 378 l 34.266 69.5 l 97.766 6 l 306.223 6 l h
306.223 378 m f
1 g
34.266 69.5 m 34.266 378 l 49.266 378 l 49.266 54.5 l h
34.266 69.5 m f
0.839216 0.819608 0.811765 rg
291.223 6 15 372 re f
0.411765 0.0196078 0.537255 rg
306.223 381 m 34.266 381 l 32.609 381 31.266 379.656 31.266 378 c 31.266
 69.5 l 31.266 68.703 31.582 67.941 32.145 67.379 c 95.645 3.879 l 96.207
 3.316 96.969 3 97.766 3 c 306.223 3 l 307.879 3 309.223 4.344 309.223 6
 c 309.223 378 l 309.223 379.656 307.879 381 306.223 381 c h
37.266 375 m 303.223 375 l 303.223 9 l 99.008 9 l 37.266 70.742 l h
37.266 375 m f
46.266 129.02 m 44.609 129.02 43.266 127.676 43.266 126.02 c 43.266 108.02
 l 43.266 106.363 44.609 105.02 46.266 105.02 c 47.922 105.02 49.266 106.363
 49.266 108.02 c 49.266 126.02 l 49.266 127.676 47.922 129.02 46.266 129.02
 c h
46.266 129.02 m f
0.533333 0.321569 0.658824 rg
97.766 6 m 97.766 69.5 l 34.266 69.5 l h
97.766 6 m f
0.411765 0.0196078 0.537255 rg
97.766 72.5 m 34.266 72.5 l 33.051 72.5 31.957 71.77 31.492 70.648 c 31.027
 69.527 31.285 68.238 32.145 67.379 c 95.645 3.879 l 96.5 3.02 97.793 2.762
 98.91 3.227 c 100.035 3.691 100.766 4.785 100.766 6 c 100.766 69.5 l 100.766
 71.156 99.422 72.5 97.766 72.5 c h
41.508 66.5 m 94.766 66.5 l 94.766 13.242 l h
41.508 66.5 m f
0.988235 0.760784 0.298039 rg
239.27 104.852 m 239.27 66.73 208.363 35.824 170.242 35.824 c 132.121 35.824
 101.219 66.727 101.219 104.852 c 101.219 138.898 125.879 167.168 158.309
 172.824 c 161.551 178.445 l 170.242 193.5 l 178.938 178.445 l 182.18 172.824
 l 214.609 167.168 239.27 138.898 239.27 104.852 c h
239.27 104.852 m f
0.956863 0.937255 0.929412 rg
130.777 114.156 m 137.508 114.156 l 137.508 86.883 l 130.777 86.883 l 123.246
 86.883 117.141 92.988 117.141 100.52 c 117.141 108.051 123.246 114.156 
130.777 114.156 c h
130.777 114.156 m f
175.883 84.973 m 211.328 66.191 l 211.328 134.852 l 175.883 116.07 l h
175.883 84.973 m f
156.699 154.559 m 153.395 154.559 150.719 151.883 150.719 148.582 c 150.719
 104.863 l 162.676 104.863 l 162.676 148.582 l 162.676 151.883 160 154.559
 156.699 154.559 c h
156.699 154.559 m f
0.411765 0.0196078 0.537255 rg
156.699 157.559 m 151.746 157.559 147.719 153.531 147.719 148.582 c 147.719
 104.863 l 147.719 103.207 149.062 101.863 150.719 101.863 c 162.676 101.863
 l 164.332 101.863 165.676 103.207 165.676 104.863 c 165.676 148.582 l 165.676
 153.531 161.648 157.559 156.699 157.559 c h
153.719 107.863 m 153.719 148.582 l 153.719 150.223 155.055 151.559 156.699
 151.559 c 158.34 151.559 159.676 150.223 159.676 148.582 c 159.676 107.863
 l h
153.719 107.863 m f
0.533333 0.321569 0.658824 rg
170.242 120.832 m 143.152 120.832 l 140.035 120.832 137.512 118.305 137.512
 115.191 c 137.512 85.848 l 137.512 82.734 140.035 80.207 143.152 80.207
 c 170.242 80.207 l 173.359 80.207 175.883 82.734 175.883 85.848 c 175.883
 115.191 l 175.883 118.305 173.359 120.832 170.242 120.832 c h
170.242 120.832 m f
0.956863 0.937255 0.929412 rg
213.77 107.887 m 211.328 107.887 l 211.328 93.152 l 213.77 93.152 l 217.836
 93.152 221.133 96.449 221.133 100.52 c 221.137 104.59 217.836 107.887 213.77
 107.887 c h
213.77 107.887 m f
0.411765 0.0196078 0.537255 rg
213.77 110.887 m 211.328 110.887 l 209.672 110.887 208.328 109.543 208.328
 107.887 c 208.328 93.152 l 208.328 91.496 209.672 90.152 211.328 90.152
 c 213.77 90.152 l 219.484 90.152 224.137 94.805 224.137 100.52 c 224.137
 106.234 219.484 110.887 213.77 110.887 c h
214.328 96.188 m 214.328 104.852 l 216.473 104.574 218.137 102.738 218.137
 100.52 c 218.137 98.301 216.473 96.465 214.328 96.188 c h
214.328 96.188 m f
211.328 137.848 m 210.848 137.848 210.363 137.734 209.922 137.5 c 174.48
 118.719 l 173.5 118.199 172.887 117.18 172.887 116.066 c 172.887 84.969
 l 172.887 83.859 173.5 82.84 174.48 82.32 c 209.922 63.535 l 210.852 63.047
 211.973 63.074 212.875 63.617 c 213.777 64.164 214.328 65.137 214.328 66.188
 c 214.328 134.848 l 214.328 135.898 213.777 136.875 212.875 137.418 c 212.402
 137.707 211.863 137.848 211.328 137.848 c h
178.883 114.262 m 208.328 129.863 l 208.328 71.176 l 178.883 86.777 l h
178.883 114.262 m f
137.512 117.156 m 130.781 117.156 l 121.605 117.156 114.141 109.695 114.141
 100.52 c 114.141 91.344 121.605 83.879 130.781 83.879 c 137.512 83.879 
l 139.168 83.879 140.512 85.223 140.512 86.879 c 140.512 114.156 l 140.512
 115.816 139.168 117.156 137.512 117.156 c h
130.781 89.883 m 124.914 89.883 120.141 94.656 120.141 100.52 c 120.141
 106.387 124.914 111.16 130.781 111.16 c 134.512 111.16 l 134.512 89.883
 l h
130.781 89.883 m f
170.242 123.832 m 143.152 123.832 l 138.387 123.832 134.512 119.957 134.512
 115.191 c 134.512 85.848 l 134.512 81.082 138.387 77.207 143.152 77.207
 c 170.242 77.207 l 175.008 77.207 178.887 81.082 178.887 85.848 c 178.887
 115.191 l 178.883 119.957 175.008 123.832 170.242 123.832 c h
143.152 83.207 m 141.695 83.207 140.512 84.395 140.512 85.848 c 140.512
 115.191 l 140.512 116.648 141.695 117.836 143.152 117.836 c 170.242 117.836
 l 171.699 117.836 172.887 116.648 172.887 115.191 c 172.887 85.848 l 172.887
 84.391 171.699 83.207 170.242 83.207 c h
143.152 83.207 m f
170.242 196.5 m 169.172 196.5 168.18 195.93 167.645 195 c 156.402 175.527
 l 122.602 168.953 98.219 139.453 98.219 104.852 c 98.219 65.133 130.527
 32.824 170.242 32.824 c 209.961 32.824 242.27 65.133 242.27 104.852 c 242.27
 139.453 217.887 168.953 184.086 175.527 c 172.844 195 l 172.305 195.93 
171.316 196.5 170.242 196.5 c h
170.242 38.824 m 133.836 38.824 104.219 68.445 104.219 104.852 c 104.219
 137.008 127.184 164.352 158.82 169.871 c 159.695 170.023 160.461 170.559
 160.902 171.328 c 170.242 187.5 l 179.582 171.324 l 180.027 170.555 180.789
 170.023 181.664 169.867 c 213.305 164.348 236.27 137.004 236.27 104.848
 c 236.27 68.445 206.652 38.824 170.242 38.824 c h
170.242 38.824 m f
182.973 219.93 m 76.105 219.93 l 74.449 219.93 73.105 218.586 73.105 216.93
 c 73.105 215.277 74.449 213.93 76.105 213.93 c 182.973 213.93 l 184.629
 213.93 185.973 215.277 185.973 216.93 c 185.973 218.586 184.629 219.93 
182.973 219.93 c h
182.973 219.93 m f
182.973 275.457 m 76.105 275.457 l 74.449 275.457 73.105 274.113 73.105
 272.457 c 73.105 270.801 74.449 269.457 76.105 269.457 c 182.973 269.457
 l 184.629 269.457 185.973 270.801 185.973 272.457 c 185.973 274.113 184.629
 275.457 182.973 275.457 c h
182.973 275.457 m f
182.973 330.984 m 76.105 330.984 l 74.449 330.984 73.105 329.637 73.105
 327.984 c 73.105 326.328 74.449 324.984 76.105 324.984 c 182.973 324.984
 l 184.629 324.984 185.973 326.328 185.973 327.984 c 185.973 329.637 184.629
 330.984 182.973 330.984 c h
182.973 330.984 m f
0.956863 0.937255 0.929412 rg
213.977 209.996 124.922 124.922 re f
0.839216 0.819608 0.811765 rg
325.398 209.996 13.5 124.922 re f
0.411765 0.0196078 0.537255 rg
338.898 337.918 m 213.977 337.918 l 212.32 337.918 210.977 336.574 210.977
 334.918 c 210.977 209.996 l 210.977 208.34 212.32 206.996 213.977 206.996
 c 338.898 206.996 l 340.551 206.996 341.898 208.34 341.898 209.996 c 341.898
 334.918 l 341.898 336.574 340.551 337.918 338.898 337.918 c h
216.977 331.918 m 335.898 331.918 l 335.898 212.996 l 216.977 212.996 l
 h
216.977 331.918 m f
0.533333 0.321569 0.658824 rg
203.133 199.156 21.68 21.68 re f
0.411765 0.0196078 0.537255 rg
224.812 223.836 m 203.133 223.836 l 201.477 223.836 200.133 222.492 200.133
 220.836 c 200.133 199.156 l 200.133 197.504 201.477 196.156 203.133 196.156
 c 224.812 196.156 l 226.469 196.156 227.812 197.504 227.812 199.156 c 227.812
 220.836 l 227.812 222.492 226.473 223.836 224.812 223.836 c h
206.133 217.836 m 221.812 217.836 l 221.812 202.156 l 206.133 202.156 l
 h
206.133 217.836 m f
0.533333 0.321569 0.658824 rg
328.055 199.156 21.68 21.68 re f
0.411765 0.0196078 0.537255 rg
349.734 223.836 m 328.055 223.836 l 326.398 223.836 325.055 222.492 325.055
 220.836 c 325.055 199.156 l 325.055 197.504 326.398 196.156 328.055 196.156
 c 349.734 196.156 l 351.391 196.156 352.734 197.504 352.734 199.156 c 352.734
 220.836 l 352.734 222.492 351.395 223.836 349.734 223.836 c h
331.055 217.836 m 346.734 217.836 l 346.734 202.156 l 331.055 202.156 l
 h
331.055 217.836 m f
0.533333 0.321569 0.658824 rg
203.133 324.078 21.68 21.68 re f
0.411765 0.0196078 0.537255 rg
224.812 348.758 m 203.133 348.758 l 201.477 348.758 200.133 347.414 200.133
 345.758 c 200.133 324.078 l 200.133 322.422 201.477 321.078 203.133 321.078
 c 224.812 321.078 l 226.469 321.078 227.812 322.422 227.812 324.078 c 227.812
 345.758 l 227.812 347.414 226.473 348.758 224.812 348.758 c h
206.133 342.758 m 221.812 342.758 l 221.812 327.078 l 206.133 327.078 l
 h
206.133 342.758 m f
0.533333 0.321569 0.658824 rg
328.055 324.078 21.68 21.68 re f
0.411765 0.0196078 0.537255 rg
349.734 348.758 m 328.055 348.758 l 326.398 348.758 325.055 347.414 325.055
 345.758 c 325.055 324.078 l 325.055 322.422 326.398 321.078 328.055 321.078
 c 349.734 321.078 l 351.391 321.078 352.734 322.422 352.734 324.078 c 352.734
 345.758 l 352.734 347.414 351.395 348.758 349.734 348.758 c h
331.055 342.758 m 346.734 342.758 l 346.734 327.078 l 331.055 327.078 l
 h
331.055 342.758 m f
0.956863 0.937255 0.929412 rg
300.367 334.918 m 252.5 334.918 l 252.5 267.156 l 276.434 230.477 l 300.367
 267.156 l h
300.367 334.918 m f
0.988235 0.760784 0.298039 rg
252.5 267.156 47.867 67.762 re f
0.533333 0.321569 0.658824 rg
276.434 230.48 m 260.961 254.195 l 291.91 254.195 l h
276.434 230.48 m f
0.411765 0.0196078 0.537255 rg
276.438 336.418 m 274.781 336.418 273.438 335.074 273.438 333.418 c 273.438
 268.656 l 273.438 267 274.781 265.656 276.438 265.656 c 278.094 265.656
 279.438 267 279.438 268.656 c 279.438 333.418 l 279.438 335.074 278.094
 336.418 276.438 336.418 c h
276.438 336.418 m f
291.91 257.195 m 260.961 257.195 l 259.859 257.195 258.848 256.594 258.32
 255.625 c 257.797 254.656 257.844 253.477 258.445 252.555 c 273.922 228.84
 l 274.477 227.988 275.422 227.477 276.434 227.477 c 277.449 227.477 278.395
 227.988 278.949 228.84 c 294.422 252.555 l 295.023 253.477 295.074 254.656
 294.551 255.625 c 294.023 256.594 293.012 257.195 291.91 257.195 c h
266.5 251.195 m 286.371 251.195 l 276.438 235.969 l h
266.5 251.195 m f
300.367 337.918 m 252.5 337.918 l 250.844 337.918 249.5 336.574 249.5 334.918
 c 249.5 267.156 l 249.5 266.574 249.672 266.004 249.988 265.516 c 273.922
 228.84 l 274.477 227.988 275.422 227.477 276.434 227.477 c 277.449 227.477
 278.395 227.988 278.949 228.84 c 302.883 265.516 l 303.199 266.004 303.367
 266.574 303.367 267.156 c 303.367 334.918 l 303.367 336.574 302.027 337.918
 300.367 337.918 c h
255.5 331.918 m 297.367 331.918 l 297.367 268.047 l 276.434 235.969 l 255.5
 268.047 l h
255.5 331.918 m f
298.867 270.156 m 254 270.156 l 252.344 270.156 251 268.812 251 267.156
 c 251 265.5 252.344 264.156 254 264.156 c 298.867 264.156 l 300.523 264.156
 301.867 265.5 301.867 267.156 c 301.867 268.812 300.527 270.156 298.867
 270.156 c h
298.867 270.156 m f
Q Q
showpage
%%Trailer
end
%%EOF
