%!PS-Adobe-3.0 EPSF-3.0
%%Creator: cairo 1.16.0 (https://cairographics.org)
%%CreationDate: Fri Jan 10 07:38:46 2020
%%Pages: 1
%%DocumentData: Clean7Bit
%%LanguageLevel: 2
%%BoundingBox: 53 3 384 381
%%EndComments
%%BeginProlog
50 dict begin
/q { gsave } bind def
/Q { grestore } bind def
/cm { 6 array astore concat } bind def
/w { setlinewidth } bind def
/J { setlinecap } bind def
/j { setlinejoin } bind def
/M { setmiterlimit } bind def
/d { setdash } bind def
/m { moveto } bind def
/l { lineto } bind def
/c { curveto } bind def
/h { closepath } bind def
/re { exch dup neg 3 1 roll 5 3 roll moveto 0 rlineto
      0 exch rlineto 0 rlineto closepath } bind def
/S { stroke } bind def
/f { fill } bind def
/f* { eofill } bind def
/n { newpath } bind def
/W { clip } bind def
/W* { eoclip } bind def
/BT { } bind def
/ET { } bind def
/BDC { mark 3 1 roll /BDC pdfmark } bind def
/EMC { mark /EMC pdfmark } bind def
/cairo_store_point { /cairo_point_y exch def /cairo_point_x exch def } def
/Tj { show currentpoint cairo_store_point } bind def
/TJ {
  {
    dup
    type /stringtype eq
    { show } { -0.001 mul 0 cairo_font_matrix dtransform rmoveto } ifelse
  } forall
  currentpoint cairo_store_point
} bind def
/cairo_selectfont { cairo_font_matrix aload pop pop pop 0 0 6 array astore
    cairo_font exch selectfont cairo_point_x cairo_point_y moveto } bind def
/Tf { pop /cairo_font exch def /cairo_font_matrix where
      { pop cairo_selectfont } if } bind def
/Td { matrix translate cairo_font_matrix matrix concatmatrix dup
      /cairo_font_matrix exch def dup 4 get exch 5 get cairo_store_point
      /cairo_font where { pop cairo_selectfont } if } bind def
/Tm { 2 copy 8 2 roll 6 array astore /cairo_font_matrix exch def
      cairo_store_point /cairo_font where { pop cairo_selectfont } if } bind def
/g { setgray } bind def
/rg { setrgbcolor } bind def
/d1 { setcachedevice } bind def
/cairo_data_source {
  CairoDataIndex CairoData length lt
    { CairoData CairoDataIndex get /CairoDataIndex CairoDataIndex 1 add def }
    { () } ifelse
} def
/cairo_flush_ascii85_file { cairo_ascii85_file status { cairo_ascii85_file flushfile } if } def
/cairo_image { image cairo_flush_ascii85_file } def
/cairo_imagemask { imagemask cairo_flush_ascii85_file } def
%%EndProlog
%%BeginSetup
%%EndSetup
%%Page: 1 1
%%BeginPageSetup
%%PageBoundingBox: 53 3 384 381
%%EndPageSetup
q 53 3 331 378 rectclip
1 0 0 -1 0 384 cm q
0.956863 0.937255 0.929412 rg
327.98 378 m 56.02 378 l 56.02 69.5 l 119.52 6 l 327.98 6 l h
327.98 378 m f
1 g
56.02 69.5 m 56.02 378 l 71.02 378 l 71.02 54.5 l h
56.02 69.5 m f
0.839216 0.819608 0.811765 rg
312.98 6 15 372 re f
0.411765 0.0196078 0.537255 rg
327.98 381 m 56.02 381 l 54.363 381 53.02 379.656 53.02 378 c 53.02 69.5
 l 53.02 68.703 53.336 67.941 53.898 67.379 c 117.402 3.879 l 117.965 3.316
 118.727 3 119.523 3 c 327.98 3 l 329.637 3 330.98 4.344 330.98 6 c 330.98
 378 l 330.98 379.656 329.637 381 327.98 381 c h
59.02 375 m 324.98 375 l 324.98 9 l 120.762 9 l 59.02 70.742 l h
59.02 375 m f
68.02 129.02 m 66.363 129.02 65.02 127.676 65.02 126.02 c 65.02 108.02 
l 65.02 106.363 66.363 105.02 68.02 105.02 c 69.676 105.02 71.02 106.363
 71.02 108.02 c 71.02 126.02 l 71.02 127.676 69.68 129.02 68.02 129.02 c
 h
68.02 129.02 m f
286.137 219.93 m 97.863 219.93 l 96.207 219.93 94.863 218.586 94.863 216.93
 c 94.863 215.277 96.207 213.93 97.863 213.93 c 286.137 213.93 l 287.793
 213.93 289.137 215.277 289.137 216.93 c 289.137 218.586 287.793 219.93 
286.137 219.93 c h
286.137 219.93 m f
286.137 275.457 m 97.863 275.457 l 96.207 275.457 94.863 274.113 94.863
 272.457 c 94.863 270.801 96.207 269.457 97.863 269.457 c 286.137 269.457
 l 287.793 269.457 289.137 270.801 289.137 272.457 c 289.137 274.113 287.793
 275.457 286.137 275.457 c h
286.137 275.457 m f
286.137 330.984 m 97.863 330.984 l 96.207 330.984 94.863 329.637 94.863
 327.984 c 94.863 326.328 96.207 324.984 97.863 324.984 c 286.137 324.984
 l 287.793 324.984 289.137 326.328 289.137 327.984 c 289.137 329.637 287.793
 330.984 286.137 330.984 c h
286.137 330.984 m f
0.533333 0.321569 0.658824 rg
119.52 6 m 119.52 69.5 l 56.02 69.5 l h
119.52 6 m f
0.411765 0.0196078 0.537255 rg
119.523 72.5 m 56.02 72.5 l 54.809 72.5 53.715 71.77 53.25 70.648 c 52.785
 69.527 53.039 68.238 53.898 67.379 c 117.402 3.879 l 118.258 3.02 119.551
 2.762 120.668 3.227 c 121.789 3.691 122.523 4.785 122.523 6 c 122.523 69.5
 l 122.523 71.156 121.176 72.5 119.523 72.5 c h
63.266 66.5 m 116.523 66.5 l 116.523 13.242 l h
63.266 66.5 m f
0.988235 0.760784 0.298039 rg
261.023 104.852 m 261.023 66.73 230.121 35.824 192 35.824 c 153.879 35.824
 122.977 66.73 122.977 104.852 c 122.977 138.898 147.633 167.168 180.062
 172.824 c 183.309 178.445 l 192 193.5 l 200.691 178.445 l 203.938 172.824
 l 236.367 167.168 261.023 138.898 261.023 104.852 c h
261.023 104.852 m f
0.956863 0.937255 0.929412 rg
152.535 114.156 m 159.266 114.156 l 159.266 86.883 l 152.535 86.883 l 145.004
 86.883 138.898 92.988 138.898 100.52 c 138.898 108.051 145.004 114.156 
152.535 114.156 c h
152.535 114.156 m f
197.641 84.973 m 233.086 66.191 l 233.086 134.852 l 197.641 116.07 l h
197.641 84.973 m f
178.453 154.559 m 175.152 154.559 172.477 151.883 172.477 148.582 c 172.477
 104.863 l 184.43 104.863 l 184.43 148.582 l 184.434 151.883 181.754 154.559
 178.453 154.559 c h
178.453 154.559 m f
0.411765 0.0196078 0.537255 rg
178.453 157.559 m 173.504 157.559 169.477 153.531 169.477 148.582 c 169.477
 104.863 l 169.477 103.207 170.82 101.863 172.477 101.863 c 184.434 101.863
 l 186.09 101.863 187.434 103.207 187.434 104.863 c 187.434 148.582 l 187.434
 153.531 183.406 157.559 178.453 157.559 c h
175.477 107.863 m 175.477 148.582 l 175.477 150.223 176.812 151.559 178.453
 151.559 c 180.094 151.559 181.43 150.223 181.43 148.582 c 181.43 107.863
 l h
175.477 107.863 m f
0.533333 0.321569 0.658824 rg
192 120.832 m 164.91 120.832 l 161.793 120.832 159.266 118.305 159.266 
115.191 c 159.266 85.848 l 159.266 82.734 161.793 80.207 164.91 80.207 c
 192 80.207 l 195.113 80.207 197.641 82.734 197.641 85.848 c 197.641 115.191
 l 197.641 118.305 195.117 120.832 192 120.832 c h
192 120.832 m f
0.956863 0.937255 0.929412 rg
235.527 107.887 m 233.086 107.887 l 233.086 93.152 l 235.527 93.152 l 239.594
 93.152 242.891 96.449 242.891 100.52 c 242.891 104.59 239.594 107.887 235.527
 107.887 c h
235.527 107.887 m f
0.411765 0.0196078 0.537255 rg
235.527 110.887 m 233.086 110.887 l 231.43 110.887 230.086 109.543 230.086
 107.887 c 230.086 93.152 l 230.086 91.496 231.43 90.152 233.086 90.152 
c 235.527 90.152 l 241.242 90.152 245.895 94.805 245.895 100.52 c 245.895
 106.234 241.242 110.887 235.527 110.887 c h
236.086 96.188 m 236.086 104.852 l 238.23 104.574 239.891 102.738 239.891
 100.52 c 239.891 98.301 238.23 96.465 236.086 96.188 c h
236.086 96.188 m f
233.086 137.848 m 232.602 137.848 232.121 137.734 231.68 137.5 c 196.234
 118.719 l 195.254 118.195 194.641 117.18 194.641 116.066 c 194.641 84.973
 l 194.641 83.859 195.254 82.844 196.234 82.32 c 231.68 63.539 l 232.609
 63.047 233.73 63.078 234.633 63.621 c 235.531 64.164 236.086 65.141 236.086
 66.191 c 236.086 134.852 l 236.086 135.902 235.531 136.879 234.633 137.418
 c 234.156 137.707 233.621 137.848 233.086 137.848 c h
200.641 114.262 m 230.086 129.863 l 230.086 71.176 l 200.641 86.777 l h
200.641 114.262 m f
159.266 117.156 m 152.535 117.156 l 143.363 117.156 135.898 109.695 135.898
 100.52 c 135.898 91.344 143.363 83.883 152.535 83.883 c 159.266 83.883 
l 160.922 83.883 162.266 85.227 162.266 86.883 c 162.266 114.156 l 162.266
 115.812 160.922 117.156 159.266 117.156 c h
152.535 89.883 m 146.668 89.883 141.898 94.652 141.898 100.52 c 141.898
 106.387 146.668 111.156 152.535 111.156 c 156.266 111.156 l 156.266 89.883
 l h
152.535 89.883 m f
192 123.832 m 164.91 123.832 l 160.145 123.832 156.266 119.957 156.266 
115.191 c 156.266 85.848 l 156.266 81.082 160.145 77.207 164.91 77.207 c
 192 77.207 l 196.766 77.207 200.641 81.082 200.641 85.848 c 200.641 115.191
 l 200.641 119.957 196.766 123.832 192 123.832 c h
164.91 83.207 m 163.453 83.207 162.266 84.391 162.266 85.848 c 162.266 
115.191 l 162.266 116.645 163.453 117.832 164.91 117.832 c 192 117.832 l
 193.457 117.832 194.641 116.645 194.641 115.191 c 194.641 85.848 l 194.641
 84.391 193.457 83.207 192 83.207 c h
164.91 83.207 m f
192 196.5 m 190.93 196.5 189.938 195.93 189.402 195 c 178.156 175.523 l
 144.359 168.953 119.973 139.453 119.973 104.852 c 119.973 65.133 152.285
 32.824 192 32.824 c 231.715 32.824 264.027 65.133 264.027 104.852 c 264.027
 139.453 239.641 168.953 205.844 175.523 c 194.598 195 l 194.062 195.93 
193.07 196.5 192 196.5 c h
192 38.824 m 155.594 38.824 125.973 68.445 125.973 104.852 c 125.973 137.004
 148.941 164.352 180.578 169.867 c 181.453 170.023 182.215 170.555 182.66
 171.324 c 192 187.5 l 201.34 171.324 l 201.781 170.555 202.547 170.02 203.422
 169.867 c 235.059 164.348 258.023 137.004 258.023 104.852 c 258.027 68.445
 228.406 38.824 192 38.824 c h
192 38.824 m f
0.321569 0.435294 0.666667 rg
359.258 226.141 m 353.113 226.141 347.547 228.539 343.391 232.43 c 343.391
 188 l 220.613 188 l 220.613 310.777 l 265.039 310.777 l 261.152 314.934
 258.754 320.504 258.754 326.645 c 258.754 339.484 269.16 349.891 282 349.891
 c 294.84 349.891 305.25 339.484 305.25 326.645 c 305.25 320.504 302.852
 314.934 298.961 310.777 c 343.391 310.777 l 343.391 266.348 l 347.547 270.238
 353.113 272.637 359.258 272.637 c 372.098 272.637 382.504 262.227 382.504
 249.387 c 382.504 236.551 372.094 226.141 359.258 226.141 c h
359.258 226.141 m f
0.203922 0.317647 0.54902 rg
359.258 226.141 m 357.176 226.141 355.172 226.434 353.258 226.949 c 363.184
 229.598 370.504 238.629 370.504 249.387 c 370.504 260.148 363.18 269.18
 353.258 271.828 c 355.172 272.34 357.176 272.637 359.258 272.637 c 372.098
 272.637 382.504 262.227 382.504 249.387 c 382.504 236.551 372.094 226.141
 359.258 226.141 c h
359.258 226.141 m f
0.439216 0.552941 0.784314 rg
220.613 188 12 122.777 re f
0.411765 0.0196078 0.537255 rg
282 352.895 m 267.527 352.895 255.75 341.117 255.75 326.645 c 255.75 322.09
 256.93 317.676 259.137 313.777 c 220.609 313.777 l 218.953 313.777 217.609
 312.434 217.609 310.777 c 217.609 188 l 217.609 186.344 218.953 185 220.609
 185 c 343.391 185 l 345.047 185 346.391 186.344 346.391 188 c 346.391 226.523
 l 350.289 224.316 354.703 223.141 359.258 223.141 c 373.73 223.141 385.504
 234.914 385.504 249.387 c 385.504 263.863 373.73 275.637 359.258 275.637
 c 354.703 275.637 350.289 274.461 346.391 272.254 c 346.391 310.777 l 346.391
 312.434 345.047 313.777 343.391 313.777 c 304.863 313.777 l 307.07 317.676
 308.25 322.09 308.25 326.645 c 308.25 341.117 296.473 352.895 282 352.895
 c h
223.613 307.777 m 265.039 307.777 l 266.238 307.777 267.316 308.488 267.793
 309.582 c 268.27 310.68 268.047 311.953 267.23 312.828 c 263.699 316.602
 261.75 321.512 261.75 326.645 c 261.75 337.809 270.836 346.895 282 346.895
 c 293.164 346.895 302.25 337.809 302.25 326.645 c 302.25 321.512 300.305
 316.602 296.77 312.828 c 295.953 311.953 295.734 310.68 296.207 309.582
 c 296.684 308.488 297.762 307.777 298.961 307.777 c 340.387 307.777 l 340.387
 266.348 l 340.387 265.152 341.098 264.07 342.195 263.598 c 343.293 263.121
 344.566 263.344 345.438 264.16 c 349.215 267.691 354.121 269.637 359.254
 269.637 c 370.418 269.637 379.504 260.555 379.504 249.387 c 379.504 238.223
 370.422 229.141 359.254 229.141 c 354.121 229.141 349.215 231.086 345.438
 234.617 c 344.566 235.434 343.293 235.656 342.195 235.18 c 341.098 234.703
 340.387 233.625 340.387 232.43 c 340.387 190.996 l 223.609 190.996 l 223.609
 307.777 l h
223.613 307.777 m f
Q Q
showpage
%%Trailer
end
%%EOF
