%!PS-Adobe-3.0 EPSF-3.0
%%Creator: cairo 1.16.0 (https://cairographics.org)
%%CreationDate: Fri Jan 10 07:38:47 2020
%%Pages: 1
%%DocumentData: Clean7Bit
%%LanguageLevel: 2
%%BoundingBox: 25 3 367 381
%%EndComments
%%BeginProlog
50 dict begin
/q { gsave } bind def
/Q { grestore } bind def
/cm { 6 array astore concat } bind def
/w { setlinewidth } bind def
/J { setlinecap } bind def
/j { setlinejoin } bind def
/M { setmiterlimit } bind def
/d { setdash } bind def
/m { moveto } bind def
/l { lineto } bind def
/c { curveto } bind def
/h { closepath } bind def
/re { exch dup neg 3 1 roll 5 3 roll moveto 0 rlineto
      0 exch rlineto 0 rlineto closepath } bind def
/S { stroke } bind def
/f { fill } bind def
/f* { eofill } bind def
/n { newpath } bind def
/W { clip } bind def
/W* { eoclip } bind def
/BT { } bind def
/ET { } bind def
/BDC { mark 3 1 roll /BDC pdfmark } bind def
/EMC { mark /EMC pdfmark } bind def
/cairo_store_point { /cairo_point_y exch def /cairo_point_x exch def } def
/Tj { show currentpoint cairo_store_point } bind def
/TJ {
  {
    dup
    type /stringtype eq
    { show } { -0.001 mul 0 cairo_font_matrix dtransform rmoveto } ifelse
  } forall
  currentpoint cairo_store_point
} bind def
/cairo_selectfont { cairo_font_matrix aload pop pop pop 0 0 6 array astore
    cairo_font exch selectfont cairo_point_x cairo_point_y moveto } bind def
/Tf { pop /cairo_font exch def /cairo_font_matrix where
      { pop cairo_selectfont } if } bind def
/Td { matrix translate cairo_font_matrix matrix concatmatrix dup
      /cairo_font_matrix exch def dup 4 get exch 5 get cairo_store_point
      /cairo_font where { pop cairo_selectfont } if } bind def
/Tm { 2 copy 8 2 roll 6 array astore /cairo_font_matrix exch def
      cairo_store_point /cairo_font where { pop cairo_selectfont } if } bind def
/g { setgray } bind def
/rg { setrgbcolor } bind def
/d1 { setcachedevice } bind def
/cairo_data_source {
  CairoDataIndex CairoData length lt
    { CairoData CairoDataIndex get /CairoDataIndex CairoDataIndex 1 add def }
    { () } ifelse
} def
/cairo_flush_ascii85_file { cairo_ascii85_file status { cairo_ascii85_file flushfile } if } def
/cairo_image { image cairo_flush_ascii85_file } def
/cairo_imagemask { imagemask cairo_flush_ascii85_file } def
%%EndProlog
%%BeginSetup
%%EndSetup
%%Page: 1 1
%%BeginPageSetup
%%PageBoundingBox: 25 3 367 381
%%EndPageSetup
q 25 3 342 378 rectclip
1 0 0 -1 0 384 cm q
0.956863 0.937255 0.929412 rg
300.719 378 m 28.758 378 l 28.758 69.5 l 92.258 6 l 300.719 6 l h
300.719 378 m f
1 g
28.758 69.5 m 28.758 378 l 43.758 378 l 43.758 54.5 l h
28.758 69.5 m f
0.839216 0.819608 0.811765 rg
285.719 6 15 372 re f
0.411765 0.0196078 0.537255 rg
300.719 381 m 28.758 381 l 27.102 381 25.758 379.656 25.758 378 c 25.758
 69.5 l 25.758 68.703 26.074 67.941 26.637 67.379 c 90.137 3.879 l 90.699
 3.316 91.461 3 92.258 3 c 300.719 3 l 302.371 3 303.719 4.344 303.719 6
 c 303.719 378 l 303.719 379.656 302.375 381 300.719 381 c h
31.758 375 m 297.719 375 l 297.719 9 l 93.5 9 l 31.758 70.742 l h
31.758 375 m f
40.758 129.02 m 39.102 129.02 37.758 127.676 37.758 126.02 c 37.758 108.02
 l 37.758 106.363 39.102 105.02 40.758 105.02 c 42.414 105.02 43.758 106.363
 43.758 108.02 c 43.758 126.02 l 43.758 127.676 42.414 129.02 40.758 129.02
 c h
40.758 129.02 m f
243.875 219.93 m 70.602 219.93 l 68.945 219.93 67.602 218.586 67.602 216.93
 c 67.602 215.277 68.945 213.93 70.602 213.93 c 243.875 213.93 l 245.531
 213.93 246.875 215.277 246.875 216.93 c 246.875 218.586 245.531 219.93 
243.875 219.93 c h
243.875 219.93 m f
243.875 275.457 m 70.602 275.457 l 68.945 275.457 67.602 274.113 67.602
 272.457 c 67.602 270.801 68.945 269.457 70.602 269.457 c 243.875 269.457
 l 245.531 269.457 246.875 270.801 246.875 272.457 c 246.875 274.113 245.531
 275.457 243.875 275.457 c h
243.875 275.457 m f
228.875 330.984 m 70.602 330.984 l 68.945 330.984 67.602 329.637 67.602
 327.984 c 67.602 326.328 68.945 324.984 70.602 324.984 c 228.875 324.984
 l 230.531 324.984 231.875 326.328 231.875 327.984 c 231.875 329.637 230.531
 330.984 228.875 330.984 c h
228.875 330.984 m f
0.533333 0.321569 0.658824 rg
92.258 6 m 92.258 69.5 l 28.758 69.5 l h
92.258 6 m f
0.411765 0.0196078 0.537255 rg
92.258 72.5 m 28.758 72.5 l 27.543 72.5 26.449 71.77 25.984 70.648 c 25.52
 69.527 25.777 68.238 26.637 67.379 c 90.137 3.879 l 90.992 3.02 92.285 
2.762 93.406 3.227 c 94.527 3.691 95.258 4.785 95.258 6 c 95.258 69.5 l 
95.258 71.156 93.914 72.5 92.258 72.5 c h
36 66.5 m 89.258 66.5 l 89.258 13.242 l h
36 66.5 m f
0.988235 0.760784 0.298039 rg
233.762 104.852 m 233.762 66.73 202.859 35.824 164.738 35.824 c 126.617
 35.824 95.715 66.73 95.715 104.852 c 95.715 138.898 120.371 167.168 152.801
 172.824 c 156.047 178.445 l 164.738 193.5 l 173.43 178.445 l 176.676 172.824
 l 209.102 167.168 233.762 138.898 233.762 104.852 c h
233.762 104.852 m f
0.956863 0.937255 0.929412 rg
125.273 114.156 m 132.004 114.156 l 132.004 86.883 l 125.273 86.883 l 117.742
 86.883 111.637 92.988 111.637 100.52 c 111.637 108.051 117.742 114.156 
125.273 114.156 c h
125.273 114.156 m f
170.379 84.973 m 205.824 66.191 l 205.824 134.852 l 170.379 116.07 l h
170.379 84.973 m f
151.191 154.559 m 147.891 154.559 145.215 151.883 145.215 148.582 c 145.215
 104.863 l 157.172 104.863 l 157.172 148.582 l 157.172 151.883 154.492 154.559
 151.191 154.559 c h
151.191 154.559 m f
0.411765 0.0196078 0.537255 rg
151.191 157.559 m 146.242 157.559 142.215 153.531 142.215 148.582 c 142.215
 104.863 l 142.215 103.207 143.559 101.863 145.215 101.863 c 157.172 101.863
 l 158.824 101.863 160.172 103.207 160.172 104.863 c 160.172 148.582 l 160.172
 153.531 156.141 157.559 151.191 157.559 c h
148.215 107.863 m 148.215 148.582 l 148.215 150.223 149.551 151.559 151.191
 151.559 c 152.832 151.559 154.168 150.223 154.168 148.582 c 154.168 107.863
 l h
148.215 107.863 m f
0.533333 0.321569 0.658824 rg
164.738 120.832 m 137.648 120.832 l 134.531 120.832 132.008 118.305 132.008
 115.191 c 132.008 85.848 l 132.008 82.734 134.531 80.207 137.648 80.207
 c 164.738 80.207 l 167.852 80.207 170.379 82.734 170.379 85.848 c 170.379
 115.191 l 170.379 118.305 167.852 120.832 164.738 120.832 c h
164.738 120.832 m f
0.956863 0.937255 0.929412 rg
208.262 107.887 m 205.824 107.887 l 205.824 93.152 l 208.262 93.152 l 212.332
 93.152 215.629 96.449 215.629 100.52 c 215.629 104.59 212.332 107.887 208.262
 107.887 c h
208.262 107.887 m f
0.411765 0.0196078 0.537255 rg
208.262 110.887 m 205.824 110.887 l 204.168 110.887 202.824 109.543 202.824
 107.887 c 202.824 93.152 l 202.824 91.496 204.168 90.152 205.824 90.152
 c 208.262 90.152 l 213.98 90.152 218.633 94.805 218.633 100.52 c 218.633
 106.234 213.98 110.887 208.262 110.887 c h
208.824 96.188 m 208.824 104.852 l 210.969 104.574 212.629 102.738 212.629
 100.52 c 212.629 98.301 210.969 96.465 208.824 96.188 c h
208.824 96.188 m f
205.824 137.848 m 205.34 137.848 204.859 137.734 204.418 137.5 c 168.973
 118.719 l 167.992 118.195 167.379 117.18 167.379 116.066 c 167.379 84.973
 l 167.379 83.859 167.992 82.844 168.973 82.32 c 204.418 63.539 l 205.348
 63.047 206.469 63.078 207.367 63.621 c 208.27 64.164 208.824 65.141 208.824
 66.191 c 208.824 134.852 l 208.824 135.902 208.27 136.879 207.367 137.418
 c 206.895 137.707 206.359 137.848 205.824 137.848 c h
173.379 114.262 m 202.824 129.863 l 202.824 71.176 l 173.379 86.777 l h
173.379 114.262 m f
132.004 117.156 m 125.273 117.156 l 116.102 117.156 108.637 109.695 108.637
 100.52 c 108.637 91.344 116.102 83.883 125.273 83.883 c 132.004 83.883 
l 133.66 83.883 135.004 85.227 135.004 86.883 c 135.004 114.156 l 135.004
 115.812 133.66 117.156 132.004 117.156 c h
125.273 89.883 m 119.406 89.883 114.637 94.652 114.637 100.52 c 114.637
 106.387 119.406 111.156 125.273 111.156 c 129.004 111.156 l 129.004 89.883
 l h
125.273 89.883 m f
164.738 123.832 m 137.645 123.832 l 132.879 123.832 129.004 119.957 129.004
 115.191 c 129.004 85.848 l 129.004 81.082 132.879 77.207 137.645 77.207
 c 164.738 77.207 l 169.504 77.207 173.379 81.082 173.379 85.848 c 173.379
 115.191 l 173.379 119.957 169.5 123.832 164.738 123.832 c h
137.645 83.207 m 136.191 83.207 135.004 84.391 135.004 85.848 c 135.004
 115.191 l 135.004 116.645 136.191 117.832 137.645 117.832 c 164.738 117.832
 l 166.195 117.832 167.379 116.645 167.379 115.191 c 167.379 85.848 l 167.379
 84.391 166.195 83.207 164.738 83.207 c h
137.645 83.207 m f
164.738 196.5 m 163.668 196.5 162.676 195.93 162.141 195 c 150.895 175.523
 l 117.098 168.953 92.715 139.453 92.715 104.852 c 92.715 65.133 125.023
 32.824 164.738 32.824 c 204.453 32.824 236.762 65.133 236.762 104.852 c
 236.762 139.453 212.379 168.953 178.582 175.523 c 167.336 195 l 166.801
 195.93 165.809 196.5 164.738 196.5 c h
164.738 38.824 m 128.332 38.824 98.711 68.445 98.711 104.852 c 98.711 137.004
 121.676 164.352 153.316 169.867 c 154.191 170.023 154.953 170.555 155.398
 171.324 c 164.738 187.5 l 174.078 171.324 l 174.52 170.555 175.285 170.02
 176.16 169.867 c 207.797 164.348 230.762 137.004 230.762 104.852 c 230.762
 68.445 201.145 38.824 164.738 38.824 c h
164.738 38.824 m f
0.988235 0.760784 0.298039 rg
346.527 328.898 m 254.906 328.898 l 271.945 311.582 281.508 288.16 281.508
 263.754 c 281.508 248.559 l 319.926 248.559 l 319.926 263.754 l 319.926
 288.16 329.488 311.582 346.527 328.898 c h
346.527 328.898 m f
346.527 328.898 m 254.906 328.898 l 251.395 328.898 248.547 331.742 248.547
 335.254 c 248.547 338.766 251.395 341.613 254.906 341.613 c 346.527 341.613
 l 350.035 341.613 352.883 338.766 352.883 335.254 c 352.883 331.742 350.039
 328.898 346.527 328.898 c h
346.527 328.898 m f
238.324 378 m 363.109 378 l 363.109 364.09 l 363.109 351.676 353.043 341.609
 340.629 341.609 c 260.805 341.609 l 248.387 341.609 238.324 351.676 238.324
 364.09 c h
238.324 378 m f
0.870588 0.643137 0.180392 rg
319.926 248.559 m 310.926 248.559 l 310.926 263.754 l 310.926 288.164 320.488
 311.582 337.527 328.898 c 346.527 328.898 l 329.488 311.582 319.926 288.16
 319.926 263.754 c h
319.926 248.559 m f
346.527 328.898 m 334.527 328.898 l 338.035 328.898 340.883 331.742 340.883
 335.254 c 340.883 338.766 338.039 341.613 334.527 341.613 c 346.527 341.613
 l 350.035 341.613 352.883 338.766 352.883 335.254 c 352.883 331.742 350.039
 328.898 346.527 328.898 c h
346.527 328.898 m f
342.129 341.609 m 327.129 341.609 l 339.547 341.609 349.609 351.676 349.609
 364.09 c 349.609 378 l 364.609 378 l 364.609 364.09 l 364.609 351.676 354.547
 341.609 342.129 341.609 c h
342.129 341.609 m f
0.988235 0.878431 0.415686 rg
283.008 248.559 m 292.008 248.559 l 292.008 263.754 l 292.008 288.164 282.445
 311.582 265.406 328.898 c 256.406 328.898 l 273.445 311.582 283.008 288.16
 283.008 263.754 c h
283.008 248.559 m f
256.406 328.898 m 268.406 328.898 l 264.895 328.898 262.047 331.742 262.047
 335.254 c 262.047 338.766 264.895 341.613 268.406 341.613 c 256.406 341.613
 l 252.895 341.613 250.047 338.766 250.047 335.254 c 250.051 331.742 252.895
 328.898 256.406 328.898 c h
256.406 328.898 m f
260.805 341.609 m 275.805 341.609 l 263.387 341.609 253.324 351.676 253.324
 364.09 c 253.324 378 l 238.324 378 l 238.324 364.09 l 238.324 351.676 248.387
 341.609 260.805 341.609 c h
260.805 341.609 m f
0.411765 0.0196078 0.537255 rg
346.527 331.898 m 254.906 331.898 l 253.699 331.898 252.609 331.172 252.141
 330.059 c 251.672 328.941 251.922 327.656 252.77 326.793 c 269.367 309.926
 278.508 287.535 278.508 263.75 c 278.508 248.559 l 278.508 246.902 279.852
 245.559 281.508 245.559 c 319.926 245.559 l 321.582 245.559 322.926 246.902
 322.926 248.559 c 322.926 263.75 l 322.926 287.535 332.07 309.926 348.668
 326.793 c 349.516 327.656 349.762 328.941 349.297 330.059 c 348.828 331.172
 347.738 331.898 346.527 331.898 c h
261.719 325.898 m 339.711 325.898 l 324.969 308.605 316.926 286.789 316.926
 263.75 c 316.926 251.559 l 284.504 251.559 l 284.504 263.75 l 284.508 286.789
 276.461 308.605 261.719 325.898 c h
261.719 325.898 m f
346.527 344.609 m 254.906 344.609 l 249.75 344.609 245.551 340.414 245.551
 335.254 c 245.551 330.098 249.746 325.898 254.906 325.898 c 346.527 325.898
 l 351.688 325.898 355.883 330.094 355.883 335.254 c 355.883 340.414 351.688
 344.609 346.527 344.609 c h
254.906 331.898 m 253.055 331.898 251.551 333.402 251.551 335.254 c 251.551
 337.105 253.055 338.609 254.906 338.609 c 346.527 338.609 l 348.379 338.609
 349.883 337.105 349.883 335.254 c 349.883 333.402 348.379 331.898 346.527
 331.898 c h
254.906 331.898 m f
363.109 381 m 238.324 381 l 236.668 381 235.324 379.656 235.324 378 c 235.324
 364.09 l 235.324 350.039 246.754 338.609 260.805 338.609 c 340.629 338.609
 l 354.68 338.609 366.109 350.039 366.109 364.09 c 366.109 378 l 366.109
 379.656 364.766 381 363.109 381 c h
241.324 375 m 360.109 375 l 360.109 364.09 l 360.109 353.348 351.371 344.609
 340.629 344.609 c 260.805 344.609 l 250.062 344.609 241.324 353.348 241.324
 364.09 c h
241.324 375 m f
362.078 367.09 m 239.355 367.09 l 237.699 367.09 236.355 365.746 236.355
 364.09 c 236.355 362.434 237.699 361.09 239.355 361.09 c 362.078 361.09
 l 363.734 361.09 365.078 362.434 365.078 364.09 c 365.078 365.746 363.738
 367.09 362.078 367.09 c h
362.078 367.09 m f
0.988235 0.760784 0.298039 rg
331.797 210.215 m 331.797 227.379 317.883 241.293 300.719 241.293 c 283.551
 241.293 269.637 227.379 269.637 210.215 c 269.637 193.051 283.551 179.133
 300.719 179.133 c 317.883 179.133 331.797 193.051 331.797 210.215 c h
331.797 210.215 m f
0.870588 0.643137 0.180392 rg
300.719 179.137 m 299.184 179.137 297.691 179.285 296.219 179.5 c 311.242
 181.684 322.797 194.586 322.797 210.215 c 322.797 225.848 311.242 238.746
 296.219 240.934 c 297.691 241.148 299.184 241.297 300.719 241.297 c 317.883
 241.297 331.797 227.379 331.797 210.215 c 331.797 193.051 317.883 179.137
 300.719 179.137 c h
300.719 179.137 m f
0.988235 0.878431 0.415686 rg
302.219 179.137 m 303.75 179.137 305.242 179.285 306.719 179.5 c 291.691
 181.684 280.137 194.586 280.137 210.215 c 280.137 225.848 291.691 238.746
 306.719 240.934 c 305.242 241.148 303.75 241.297 302.219 241.297 c 285.051
 241.297 271.137 227.379 271.137 210.215 c 271.137 193.051 285.051 179.137
 302.219 179.137 c h
302.219 179.137 m f
0.411765 0.0196078 0.537255 rg
300.719 244.293 m 281.926 244.293 266.637 229.008 266.637 210.215 c 266.637
 191.426 281.926 176.137 300.719 176.137 c 319.508 176.137 334.797 191.426
 334.797 210.215 c 334.797 229.008 319.508 244.293 300.719 244.293 c h
300.719 182.137 m 285.234 182.137 272.637 194.73 272.637 210.215 c 272.637
 225.699 285.234 238.293 300.719 238.293 c 316.199 238.293 328.797 225.699
 328.797 210.215 c 328.797 194.73 316.199 182.137 300.719 182.137 c h
300.719 182.137 m f
0.988235 0.760784 0.298039 rg
328.828 248.559 m 272.605 248.559 l 269 248.559 266.074 245.637 266.074
 242.031 c 266.074 238.426 269 235.5 272.605 235.5 c 328.828 235.5 l 332.434
 235.5 335.359 238.426 335.359 242.031 c 335.359 245.637 332.434 248.559
 328.828 248.559 c h
328.828 248.559 m f
0.870588 0.643137 0.180392 rg
328.828 235.5 m 318.328 235.5 l 321.934 235.5 324.859 238.426 324.859 242.031
 c 324.859 245.637 321.934 248.559 318.328 248.559 c 328.828 248.559 l 332.434
 248.559 335.359 245.637 335.359 242.031 c 335.359 238.422 332.434 235.5
 328.828 235.5 c h
328.828 235.5 m f
0.988235 0.878431 0.415686 rg
274.105 235.5 m 284.605 235.5 l 281 235.5 278.074 238.426 278.074 242.031
 c 278.074 245.637 281 248.559 284.605 248.559 c 274.105 248.559 l 270.5
 248.559 267.574 245.637 267.574 242.031 c 267.574 238.422 270.5 235.5 274.105
 235.5 c h
274.105 235.5 m f
0.411765 0.0196078 0.537255 rg
328.828 251.559 m 272.605 251.559 l 267.352 251.559 263.074 247.285 263.074
 242.031 c 263.074 236.777 267.352 232.5 272.605 232.5 c 328.828 232.5 l
 334.082 232.5 338.359 236.777 338.359 242.031 c 338.359 247.285 334.082
 251.559 328.828 251.559 c h
272.605 238.5 m 270.66 238.5 269.074 240.086 269.074 242.031 c 269.074 
243.977 270.66 245.559 272.605 245.559 c 328.828 245.559 l 330.773 245.559
 332.359 243.977 332.359 242.031 c 332.359 240.086 330.773 238.5 328.828
 238.5 c h
272.605 238.5 m f
Q Q
showpage
%%Trailer
end
%%EOF
