%!PS-Adobe-3.0 EPSF-3.0
%%Creator: cairo 1.16.0 (https://cairographics.org)
%%CreationDate: Fri Jan 10 07:38:47 2020
%%Pages: 1
%%DocumentData: Clean7Bit
%%LanguageLevel: 2
%%BoundingBox: 53 3 351 381
%%EndComments
%%BeginProlog
50 dict begin
/q { gsave } bind def
/Q { grestore } bind def
/cm { 6 array astore concat } bind def
/w { setlinewidth } bind def
/J { setlinecap } bind def
/j { setlinejoin } bind def
/M { setmiterlimit } bind def
/d { setdash } bind def
/m { moveto } bind def
/l { lineto } bind def
/c { curveto } bind def
/h { closepath } bind def
/re { exch dup neg 3 1 roll 5 3 roll moveto 0 rlineto
      0 exch rlineto 0 rlineto closepath } bind def
/S { stroke } bind def
/f { fill } bind def
/f* { eofill } bind def
/n { newpath } bind def
/W { clip } bind def
/W* { eoclip } bind def
/BT { } bind def
/ET { } bind def
/BDC { mark 3 1 roll /BDC pdfmark } bind def
/EMC { mark /EMC pdfmark } bind def
/cairo_store_point { /cairo_point_y exch def /cairo_point_x exch def } def
/Tj { show currentpoint cairo_store_point } bind def
/TJ {
  {
    dup
    type /stringtype eq
    { show } { -0.001 mul 0 cairo_font_matrix dtransform rmoveto } ifelse
  } forall
  currentpoint cairo_store_point
} bind def
/cairo_selectfont { cairo_font_matrix aload pop pop pop 0 0 6 array astore
    cairo_font exch selectfont cairo_point_x cairo_point_y moveto } bind def
/Tf { pop /cairo_font exch def /cairo_font_matrix where
      { pop cairo_selectfont } if } bind def
/Td { matrix translate cairo_font_matrix matrix concatmatrix dup
      /cairo_font_matrix exch def dup 4 get exch 5 get cairo_store_point
      /cairo_font where { pop cairo_selectfont } if } bind def
/Tm { 2 copy 8 2 roll 6 array astore /cairo_font_matrix exch def
      cairo_store_point /cairo_font where { pop cairo_selectfont } if } bind def
/g { setgray } bind def
/rg { setrgbcolor } bind def
/d1 { setcachedevice } bind def
/cairo_data_source {
  CairoDataIndex CairoData length lt
    { CairoData CairoDataIndex get /CairoDataIndex CairoDataIndex 1 add def }
    { () } ifelse
} def
/cairo_flush_ascii85_file { cairo_ascii85_file status { cairo_ascii85_file flushfile } if } def
/cairo_image { image cairo_flush_ascii85_file } def
/cairo_imagemask { imagemask cairo_flush_ascii85_file } def
%%EndProlog
%%BeginSetup
%%EndSetup
%%Page: 1 1
%%BeginPageSetup
%%PageBoundingBox: 53 3 351 381
%%EndPageSetup
q 53 3 298 378 rectclip
1 0 0 -1 0 384 cm q
0.956863 0.937255 0.929412 rg
327.98 378 m 56.02 378 l 56.02 69.5 l 119.52 6 l 327.98 6 l h
327.98 378 m f
1 g
56.02 69.5 m 56.02 378 l 71.02 378 l 71.02 54.5 l h
56.02 69.5 m f
0.839216 0.819608 0.811765 rg
312.98 6 15 372 re f
0.411765 0.0196078 0.537255 rg
327.98 381 m 56.02 381 l 54.363 381 53.02 379.656 53.02 378 c 53.02 69.5
 l 53.02 68.703 53.336 67.941 53.898 67.379 c 117.402 3.879 l 117.965 3.316
 118.727 3 119.523 3 c 327.98 3 l 329.637 3 330.98 4.344 330.98 6 c 330.98
 378 l 330.98 379.656 329.637 381 327.98 381 c h
59.02 375 m 324.98 375 l 324.98 9 l 120.762 9 l 59.02 70.742 l h
59.02 375 m f
68.02 129.02 m 66.363 129.02 65.02 127.676 65.02 126.02 c 65.02 108.02 
l 65.02 106.363 66.363 105.02 68.02 105.02 c 69.676 105.02 71.02 106.363
 71.02 108.02 c 71.02 126.02 l 71.02 127.676 69.68 129.02 68.02 129.02 c
 h
68.02 129.02 m f
256.137 108.879 m 127.863 108.879 l 126.207 108.879 124.863 107.535 124.863
 105.879 c 124.863 104.223 126.207 102.879 127.863 102.879 c 256.137 102.879
 l 257.793 102.879 259.137 104.223 259.137 105.879 c 259.137 107.535 257.793
 108.879 256.137 108.879 c h
256.137 108.879 m f
286.137 164.406 m 97.863 164.406 l 96.207 164.406 94.863 163.062 94.863
 161.406 c 94.863 159.75 96.207 158.406 97.863 158.406 c 286.137 158.406
 l 287.793 158.406 289.137 159.75 289.137 161.406 c 289.137 163.062 287.793
 164.406 286.137 164.406 c h
286.137 164.406 m f
286.137 219.93 m 97.863 219.93 l 96.207 219.93 94.863 218.586 94.863 216.93
 c 94.863 215.277 96.207 213.93 97.863 213.93 c 286.137 213.93 l 287.793
 213.93 289.137 215.277 289.137 216.93 c 289.137 218.586 287.793 219.93 
286.137 219.93 c h
286.137 219.93 m f
286.137 275.457 m 97.863 275.457 l 96.207 275.457 94.863 274.113 94.863
 272.457 c 94.863 270.801 96.207 269.457 97.863 269.457 c 286.137 269.457
 l 287.793 269.457 289.137 270.801 289.137 272.457 c 289.137 274.113 287.793
 275.457 286.137 275.457 c h
286.137 275.457 m f
286.137 330.984 m 97.863 330.984 l 96.207 330.984 94.863 329.637 94.863
 327.984 c 94.863 326.328 96.207 324.984 97.863 324.984 c 286.137 324.984
 l 287.793 324.984 289.137 326.328 289.137 327.984 c 289.137 329.637 287.793
 330.984 286.137 330.984 c h
286.137 330.984 m f
0.533333 0.321569 0.658824 rg
119.52 6 m 119.52 69.5 l 56.02 69.5 l h
119.52 6 m f
0.411765 0.0196078 0.537255 rg
119.523 72.5 m 56.02 72.5 l 54.809 72.5 53.715 71.77 53.25 70.648 c 52.785
 69.527 53.039 68.238 53.898 67.379 c 117.402 3.879 l 118.258 3.02 119.551
 2.762 120.668 3.227 c 121.789 3.691 122.523 4.785 122.523 6 c 122.523 69.5
 l 122.523 71.156 121.176 72.5 119.523 72.5 c h
63.266 66.5 m 116.523 66.5 l 116.523 13.242 l h
63.266 66.5 m f
0.988235 0.760784 0.298039 rg
327.98 355.574 m 347.82 330.781 l 340.242 290.672 l 315.715 290.672 l 308.137
 330.781 l h
327.98 355.574 m f
0.321569 0.435294 0.666667 rg
337.559 28.426 m 318.398 28.426 l 313.285 28.426 309.141 32.57 309.141 
37.684 c 309.141 76.449 l 346.816 76.449 l 346.816 37.684 l 346.816 32.57
 342.672 28.426 337.559 28.426 c h
337.559 28.426 m f
0.203922 0.317647 0.54902 rg
337.559 28.426 m 328.543 28.426 l 333.656 28.426 337.801 32.57 337.801 
37.684 c 337.801 76.449 l 346.816 76.449 l 346.816 37.684 l 346.816 32.57
 342.672 28.426 337.559 28.426 c h
337.559 28.426 m f
0.439216 0.552941 0.784314 rg
318.398 28.426 m 327.414 28.426 l 322.305 28.426 318.16 32.57 318.16 37.684
 c 318.16 76.449 l 309.141 76.449 l 309.141 37.684 l 309.141 32.57 313.285
 28.426 318.398 28.426 c h
318.398 28.426 m f
0.321569 0.435294 0.666667 rg
309.141 76.449 37.676 214.223 re f
0.203922 0.317647 0.54902 rg
337.801 76.449 9.016 214.223 re f
0.439216 0.552941 0.784314 rg
309.141 76.449 9.02 214.223 re f
0.411765 0.0196078 0.537255 rg
346.816 293.672 m 309.141 293.672 l 307.488 293.672 306.141 292.324 306.141
 290.672 c 306.141 76.449 l 306.141 74.793 307.488 73.449 309.141 73.449
 c 346.816 73.449 l 348.473 73.449 349.816 74.793 349.816 76.449 c 349.816
 290.672 l 349.816 292.328 348.473 293.672 346.816 293.672 c h
312.141 287.672 m 343.816 287.672 l 343.816 79.449 l 312.141 79.449 l h
312.141 287.672 m f
346.816 79.449 m 309.141 79.449 l 307.488 79.449 306.141 78.102 306.141
 76.449 c 306.141 37.684 l 306.141 30.926 311.641 25.426 318.398 25.426 
c 337.559 25.426 l 344.316 25.426 349.816 30.926 349.816 37.684 c 349.816
 76.449 l 349.816 78.105 348.473 79.449 346.816 79.449 c h
312.141 73.449 m 343.816 73.449 l 343.816 37.684 l 343.816 34.234 341.012
 31.426 337.559 31.426 c 318.398 31.426 l 314.949 31.426 312.141 34.234 
312.141 37.684 c h
312.141 73.449 m f
345.316 93.738 m 310.641 93.738 l 308.988 93.738 307.641 92.391 307.641
 90.738 c 307.641 89.082 308.988 87.738 310.641 87.738 c 345.316 87.738 
l 346.973 87.738 348.316 89.082 348.316 90.738 c 348.316 92.391 346.973 
93.738 345.316 93.738 c h
345.316 93.738 m f
345.316 279.844 m 310.641 279.844 l 308.988 279.844 307.641 278.5 307.641
 276.844 c 307.641 275.188 308.988 273.844 310.641 273.844 c 345.316 273.844
 l 346.973 273.844 348.316 275.188 348.316 276.844 c 348.316 278.5 346.973
 279.844 345.316 279.844 c h
345.316 279.844 m f
327.98 358.574 m 327.07 358.574 326.207 358.16 325.637 357.449 c 305.793
 332.656 l 305.246 331.973 305.023 331.086 305.188 330.227 c 312.766 290.113
 l 313.035 288.699 314.273 287.672 315.715 287.672 c 340.242 287.672 l 341.684
 287.672 342.922 288.699 343.191 290.113 c 350.77 330.227 l 350.93 331.086
 350.711 331.973 350.164 332.656 c 330.32 357.449 l 329.75 358.16 328.891
 358.574 327.98 358.574 c h
311.34 329.984 m 327.98 350.773 l 344.617 329.984 l 337.758 293.672 l 318.203
 293.672 l h
311.34 329.984 m f
327.98 358.574 m 326.324 358.574 324.98 357.23 324.98 355.574 c 324.98 
328.312 l 324.98 326.656 326.324 325.312 327.98 325.312 c 329.637 325.312
 330.98 326.656 330.98 328.312 c 330.98 355.574 l 330.98 357.23 329.637 
358.574 327.98 358.574 c h
327.98 358.574 m f
Q Q
showpage
%%Trailer
end
%%EOF
