%!PS-Adobe-3.0 EPSF-3.0
%%Creator: cairo 1.16.0 (https://cairographics.org)
%%CreationDate: Fri Jan 10 07:38:48 2020
%%Pages: 1
%%DocumentData: Clean7Bit
%%LanguageLevel: 2
%%BoundingBox: 79 3 305 381
%%EndComments
%%BeginProlog
50 dict begin
/q { gsave } bind def
/Q { grestore } bind def
/cm { 6 array astore concat } bind def
/w { setlinewidth } bind def
/J { setlinecap } bind def
/j { setlinejoin } bind def
/M { setmiterlimit } bind def
/d { setdash } bind def
/m { moveto } bind def
/l { lineto } bind def
/c { curveto } bind def
/h { closepath } bind def
/re { exch dup neg 3 1 roll 5 3 roll moveto 0 rlineto
      0 exch rlineto 0 rlineto closepath } bind def
/S { stroke } bind def
/f { fill } bind def
/f* { eofill } bind def
/n { newpath } bind def
/W { clip } bind def
/W* { eoclip } bind def
/BT { } bind def
/ET { } bind def
/BDC { mark 3 1 roll /BDC pdfmark } bind def
/EMC { mark /EMC pdfmark } bind def
/cairo_store_point { /cairo_point_y exch def /cairo_point_x exch def } def
/Tj { show currentpoint cairo_store_point } bind def
/TJ {
  {
    dup
    type /stringtype eq
    { show } { -0.001 mul 0 cairo_font_matrix dtransform rmoveto } ifelse
  } forall
  currentpoint cairo_store_point
} bind def
/cairo_selectfont { cairo_font_matrix aload pop pop pop 0 0 6 array astore
    cairo_font exch selectfont cairo_point_x cairo_point_y moveto } bind def
/Tf { pop /cairo_font exch def /cairo_font_matrix where
      { pop cairo_selectfont } if } bind def
/Td { matrix translate cairo_font_matrix matrix concatmatrix dup
      /cairo_font_matrix exch def dup 4 get exch 5 get cairo_store_point
      /cairo_font where { pop cairo_selectfont } if } bind def
/Tm { 2 copy 8 2 roll 6 array astore /cairo_font_matrix exch def
      cairo_store_point /cairo_font where { pop cairo_selectfont } if } bind def
/g { setgray } bind def
/rg { setrgbcolor } bind def
/d1 { setcachedevice } bind def
/cairo_data_source {
  CairoDataIndex CairoData length lt
    { CairoData CairoDataIndex get /CairoDataIndex CairoDataIndex 1 add def }
    { () } ifelse
} def
/cairo_flush_ascii85_file { cairo_ascii85_file status { cairo_ascii85_file flushfile } if } def
/cairo_image { image cairo_flush_ascii85_file } def
/cairo_imagemask { imagemask cairo_flush_ascii85_file } def
%%EndProlog
%%BeginSetup
%%EndSetup
%%Page: 1 1
%%BeginPageSetup
%%PageBoundingBox: 79 3 305 381
%%EndPageSetup
q 79 3 226 378 rectclip
1 0 0 -1 0 384 cm q
0.321569 0.435294 0.666667 rg
168.215 176.973 m 168.215 132.137 l 216 132.137 l 216 176.973 l 259.145
 176.973 l 275.859 176.992 289.391 190.715 289.367 207.43 c 289.367 284.191
 l 94.633 284.191 l 94.633 207.18 l 94.656 190.469 108.301 176.938 125.012
 176.957 c h
168.215 176.973 m f
1 0.623529 0.439216 rg
168.215 166.117 m 191.887 195.555 l 216 166.117 l 216 132.137 l 168.215
 132.137 l h
168.215 166.117 m f
0.203922 0.317647 0.54902 rg
259.145 176.973 m 248.527 176.973 l 265.242 176.992 278.773 190.703 278.75
 207.414 c 278.75 284.191 l 289.367 284.191 l 289.367 207.43 l 289.387 190.719
 275.859 176.992 259.145 176.973 c h
259.145 176.973 m f
0.439216 0.552941 0.784314 rg
125.012 176.957 m 135.629 176.973 l 118.914 176.949 105.27 190.48 105.25
 207.195 c 105.25 284.191 l 94.633 284.191 l 94.633 207.18 l 94.656 190.469
 108.301 176.938 125.012 176.957 c h
125.012 176.957 m f
0.411765 0.0196078 0.537255 rg
289.367 287.191 m 94.633 287.191 l 92.977 287.191 91.633 285.848 91.633
 284.191 c 91.633 207.18 l 91.656 188.852 106.609 173.957 124.973 173.957
 c 125.016 173.957 l 165.215 173.969 l 165.215 132.137 l 165.215 130.48 
166.559 129.137 168.215 129.137 c 216 129.137 l 217.656 129.137 219 130.48
 219 132.137 c 219 173.973 l 259.145 173.973 l 277.488 173.996 292.391 189.008
 292.367 207.434 c 292.367 284.191 l 292.367 285.848 291.023 287.191 289.367
 287.191 c h
97.633 281.191 m 286.367 281.191 l 286.367 207.43 l 286.387 192.309 274.172
 179.992 259.141 179.973 c 216 179.973 l 214.344 179.973 213 178.629 213
 176.973 c 213 135.137 l 171.215 135.137 l 171.215 176.973 l 171.215 177.77
 170.898 178.531 170.336 179.094 c 169.773 179.656 169.012 179.973 168.215
 179.973 c 125.012 179.957 l 125.004 179.957 124.988 179.957 124.977 179.957
 c 109.914 179.957 97.652 192.164 97.633 207.184 c h
97.633 281.191 m f
0.988235 0.760784 0.298039 rg
236.07 44.32 m 236.07 42.496 l 236.07 34.848 231.418 28.285 224.789 25.48
 c 217.234 22.285 209.895 18.605 203.188 13.883 c 192.012 6.02 l 192.012
 6 l 192 6.008 l 191.988 6 l 191.988 6.02 l 180.812 13.883 l 174.105 18.605
 166.766 22.285 159.211 25.48 c 152.582 28.285 147.93 34.848 147.93 42.496
 c 147.93 44.32 l 137.164 44.32 128.68 53.5 129.523 64.234 c 132.668 104.297
 l 251.336 104.297 l 254.48 64.234 l 255.32 53.496 246.836 44.32 236.07 
44.32 c h
236.07 44.32 m f
0.870588 0.643137 0.180392 rg
236.07 44.32 m 236.07 42.496 l 236.07 34.848 231.418 28.285 224.789 25.48
 c 217.234 22.285 209.895 18.605 203.188 13.883 c 192.031 6.031 l 196.383
 14.953 207.047 22.289 214.594 25.48 c 221.223 28.281 225.871 34.844 225.871
 42.496 c 225.871 43.488 226.633 44.309 227.621 44.402 c 237.543 45.332 
245.078 54.086 244.281 64.23 c 241.137 104.293 l 251.336 104.293 l 254.48
 64.23 l 255.32 53.496 246.836 44.32 236.07 44.32 c h
236.07 44.32 m f
0.988235 0.878431 0.415686 rg
147.93 44.32 m 147.93 42.496 l 147.93 34.848 152.582 28.285 159.211 25.48
 c 166.766 22.285 174.105 18.605 180.812 13.883 c 191.969 6.031 l 187.617
 14.953 176.953 22.289 169.406 25.48 c 162.777 28.281 158.129 34.844 158.129
 42.496 c 158.129 43.488 157.367 44.309 156.379 44.402 c 146.457 45.332 
138.922 54.086 139.719 64.23 c 142.863 104.293 l 132.664 104.293 l 129.52
 64.23 l 128.676 53.496 137.164 44.32 147.93 44.32 c h
147.93 44.32 m f
0.411765 0.0196078 0.537255 rg
251.336 107.293 m 132.664 107.293 l 131.102 107.293 129.797 106.086 129.676
 104.527 c 126.531 64.469 l 126.062 58.52 128.117 52.594 132.168 48.215 
c 135.539 44.566 140.082 42.215 144.949 41.527 c 145.32 33.273 150.375 25.961
 158.039 22.715 c 166.602 19.094 173.289 15.508 179.086 11.43 c 190.094 
3.68 l 190.242 3.555 190.41 3.445 190.586 3.355 c 191.125 3.07 191.727 2.957
 192.309 3.02 c 192.684 3.059 193.059 3.168 193.402 3.348 c 193.586 3.445
 193.754 3.559 193.91 3.684 c 204.91 11.43 l 210.707 15.508 217.395 19.094
 225.957 22.715 c 233.621 25.961 238.676 33.273 239.043 41.527 c 243.914
 42.215 248.457 44.566 251.824 48.215 c 255.879 52.594 257.934 58.52 257.465
 64.469 c 254.32 104.527 l 254.203 106.09 252.898 107.293 251.336 107.293
 c h
135.441 101.293 m 248.559 101.293 l 251.488 63.996 l 251.828 59.648 250.387
 55.488 247.426 52.285 c 244.461 49.086 240.43 47.32 236.07 47.32 c 234.414
 47.32 233.07 45.977 233.07 44.32 c 233.07 42.496 l 233.07 36.266 229.359
 30.672 223.621 28.242 c 214.656 24.453 207.613 20.668 201.461 16.336 c 
192 9.68 l 182.539 16.336 l 176.387 20.668 169.344 24.449 160.379 28.242
 c 154.641 30.672 150.93 36.266 150.93 42.496 c 150.93 44.32 l 150.93 45.977
 149.586 47.32 147.93 47.32 c 143.57 47.32 139.535 49.082 136.574 52.285
 c 133.613 55.488 132.172 59.648 132.512 63.996 c h
135.441 101.293 m f
1 0.741176 0.556863 rg
144.68 91.234 m 141.301 91.234 l 132.559 91.234 125.473 98.32 125.473 107.062
 c 125.473 115.805 132.559 122.891 141.301 122.891 c 144.68 122.891 l h
144.68 91.234 m f
0.882353 0.505882 0.321569 rg
242.789 91.234 m 239.406 91.234 l 239.406 122.891 l 242.789 122.891 l 251.531
 122.891 258.617 115.805 258.617 107.062 c 258.617 98.32 251.531 91.234 
242.789 91.234 c h
242.789 91.234 m f
1 0.623529 0.439216 rg
192.043 171.695 m 165.887 171.695 144.68 150.215 144.68 123.719 c 144.68
 90.5 l 144.68 64.004 165.887 42.523 192.043 42.523 c 218.203 42.523 239.406
 64.004 239.406 90.5 c 239.406 123.719 l 239.406 150.215 218.203 171.695
 192.043 171.695 c h
192.043 171.695 m f
0.882353 0.505882 0.321569 rg
192.043 42.523 m 190.223 42.523 188.43 42.637 186.66 42.84 c 210.285 45.547
 228.645 65.848 228.645 90.5 c 228.645 123.719 l 228.645 148.371 210.285
 168.672 186.66 171.379 c 188.43 171.582 190.223 171.695 192.043 171.695
 c 218.203 171.695 239.406 150.215 239.406 123.719 c 239.406 90.5 l 239.406
 64.004 218.203 42.523 192.043 42.523 c h
192.043 42.523 m f
1 0.741176 0.556863 rg
192.043 42.523 m 193.863 42.523 195.66 42.637 197.426 42.84 c 173.805 45.547
 155.445 65.848 155.445 90.5 c 155.445 123.719 l 155.445 148.371 173.801
 168.672 197.426 171.379 c 195.66 171.582 193.863 171.695 192.043 171.695
 c 165.887 171.695 144.68 150.215 144.68 123.719 c 144.68 90.5 l 144.68 
64.004 165.887 42.523 192.043 42.523 c h
192.043 42.523 m f
0.411765 0.0196078 0.537255 rg
192.043 174.695 m 164.273 174.695 141.68 151.824 141.68 123.715 c 141.68
 90.5 l 141.68 62.391 164.273 39.52 192.043 39.52 c 219.816 39.52 242.406
 62.391 242.406 90.5 c 242.406 123.715 l 242.406 151.824 219.816 174.695
 192.043 174.695 c h
192.043 45.523 m 167.582 45.523 147.68 65.699 147.68 90.5 c 147.68 123.719
 l 147.68 148.52 167.582 168.695 192.043 168.695 c 216.504 168.695 236.406
 148.52 236.406 123.719 c 236.406 90.5 l 236.406 65.699 216.504 45.523 192.043
 45.523 c h
192.043 45.523 m f
144.68 125.891 m 141.301 125.891 l 130.918 125.891 122.473 117.441 122.473
 107.062 c 122.473 96.68 130.918 88.234 141.301 88.234 c 144.68 88.234 l
 146.336 88.234 147.68 89.578 147.68 91.234 c 147.68 122.891 l 147.68 124.547
 146.336 125.891 144.68 125.891 c h
141.297 94.234 m 134.223 94.234 128.469 99.988 128.469 107.062 c 128.469
 114.137 134.223 119.891 141.297 119.891 c 141.68 119.891 l 141.68 94.234
 l h
141.297 94.234 m f
242.789 125.891 m 239.406 125.891 l 237.75 125.891 236.406 124.547 236.406
 122.891 c 236.406 91.234 l 236.406 89.578 237.75 88.234 239.406 88.234 
c 242.789 88.234 l 253.172 88.234 261.617 96.68 261.617 107.062 c 261.617
 117.441 253.172 125.891 242.789 125.891 c h
242.406 119.891 m 242.789 119.891 l 249.863 119.891 255.617 114.137 255.617
 107.062 c 255.617 99.988 249.863 94.234 242.789 94.234 c 242.406 94.234
 l h
242.406 119.891 m f
0.956863 0.937255 0.929412 rg
216 166.117 m 191.887 195.555 l 218.992 215.465 l 226.203 176.973 l h
216 166.117 m f
168.215 166.117 m 191.887 195.555 l 165.008 215.465 l 157.797 176.969 l
 h
168.215 166.117 m f
0.411765 0.0196078 0.537255 rg
218.992 218.465 m 218.367 218.465 217.742 218.27 217.219 217.883 c 190.109
 197.973 l 189.445 197.488 189.012 196.75 188.91 195.934 c 188.809 195.117
 189.043 194.293 189.566 193.656 c 213.68 164.215 l 214.227 163.547 215.035
 163.148 215.898 163.117 c 216.777 163.105 217.598 163.434 218.188 164.062
 c 228.391 174.918 l 229.047 175.613 229.328 176.582 229.152 177.523 c 221.941
 216.02 l 221.754 217.031 221.055 217.875 220.094 218.258 c 219.738 218.398
 219.367 218.465 218.992 218.465 c h
196.211 195.012 m 216.922 210.223 l 222.973 177.918 l 216.156 170.66 l 
h
196.211 195.012 m f
165.008 218.465 m 164.637 218.465 164.262 218.398 163.91 218.258 c 162.949
 217.883 162.246 217.035 162.059 216.02 c 154.848 177.52 l 154.668 176.566
 154.961 175.586 155.633 174.891 c 166.051 164.039 l 166.648 163.414 167.496
 163.082 168.348 163.117 c 169.211 163.156 170.012 163.566 170.555 164.238
 c 194.223 193.676 l 194.734 194.312 194.965 195.129 194.859 195.941 c 194.758
 196.75 194.328 197.484 193.672 197.969 c 166.793 217.879 l 166.266 218.266
 165.641 218.465 165.008 218.465 c h
161.031 177.93 m 167.074 210.203 l 187.59 195.004 l 168.016 170.656 l h
161.031 177.93 m f
0.956863 0.937255 0.929412 rg
290.809 357.109 m 93.191 357.109 l 87.422 357.109 82.746 361.785 82.746
 367.555 c 82.746 373.324 87.422 378 93.191 378 c 290.809 378 l 296.578 
378 301.254 373.324 301.254 367.555 c 301.254 361.785 296.578 357.109 290.809
 357.109 c h
290.809 357.109 m f
293.871 357.109 m 90.129 357.109 l 86.051 357.109 82.746 353.805 82.746
 349.727 c 82.746 234.305 l 82.746 230.227 86.051 226.922 90.129 226.922
 c 293.875 226.922 l 297.949 226.922 301.254 230.227 301.254 234.305 c 301.254
 349.727 l 301.254 353.805 297.949 357.109 293.871 357.109 c h
293.871 357.109 m f
0.839216 0.819608 0.811765 rg
293.871 226.922 m 283.539 226.922 l 287.617 226.922 290.922 230.227 290.922
 234.305 c 290.922 349.727 l 290.922 353.805 287.617 357.109 283.539 357.109
 c 293.871 357.109 l 297.949 357.109 301.254 353.805 301.254 349.727 c 301.254
 234.305 l 301.254 230.227 297.949 226.922 293.871 226.922 c h
293.871 226.922 m f
1 g
90.129 357.109 m 100.461 357.109 l 96.383 357.109 93.078 353.805 93.078
 349.727 c 93.078 234.305 l 93.078 230.227 96.383 226.922 100.461 226.922
 c 90.129 226.922 l 86.051 226.922 82.746 230.227 82.746 234.305 c 82.746
 349.727 l 82.746 353.805 86.051 357.109 90.129 357.109 c h
90.129 357.109 m f
0.839216 0.819608 0.811765 rg
290.809 357.109 m 279 357.109 l 284.766 357.109 289.445 361.785 289.445
 367.555 c 289.445 373.324 284.766 378 279 378 c 290.809 378 l 296.578 378
 301.254 373.324 301.254 367.555 c 301.254 361.785 296.578 357.109 290.809
 357.109 c h
290.809 357.109 m f
1 g
93.191 378 m 105 378 l 99.234 378 94.555 373.324 94.555 367.555 c 94.555
 361.785 99.234 357.109 105 357.109 c 93.191 357.109 l 87.422 357.109 82.746
 361.785 82.746 367.555 c 82.746 373.324 87.422 378 93.191 378 c h
93.191 378 m f
0.411765 0.0196078 0.537255 rg
293.875 360.109 m 90.125 360.109 l 84.402 360.109 79.746 355.453 79.746
 349.727 c 79.746 234.305 l 79.746 228.582 84.402 223.922 90.125 223.922
 c 293.871 223.922 l 299.598 223.922 304.254 228.578 304.254 234.305 c 304.254
 349.727 l 304.254 355.453 299.598 360.109 293.875 360.109 c h
90.125 229.922 m 87.711 229.922 85.746 231.891 85.746 234.305 c 85.746 
349.727 l 85.746 352.145 87.711 354.109 90.125 354.109 c 293.871 354.109
 l 296.289 354.109 298.254 352.145 298.254 349.727 c 298.254 234.305 l 298.254
 231.891 296.289 229.922 293.871 229.922 c h
90.125 229.922 m f
290.809 381 m 93.191 381 l 85.777 381 79.746 374.969 79.746 367.555 c 79.746
 360.141 85.777 354.109 93.191 354.109 c 290.809 354.109 l 298.223 354.109
 304.254 360.141 304.254 367.555 c 304.254 374.969 298.223 381 290.809 381
 c h
93.191 360.109 m 89.086 360.109 85.746 363.449 85.746 367.555 c 85.746 
371.66 89.086 375 93.191 375 c 290.809 375 l 294.914 375 298.254 371.66 
298.254 367.555 c 298.254 363.449 294.914 360.109 290.809 360.109 c h
93.191 360.109 m f
149.121 297.852 m 149.164 288.629 156.898 281.133 166.215 281.082 c 170.316
 281.082 174.039 282.434 176.973 284.715 c 178.094 285.648 178.281 287.277
 177.441 288.441 c 176.508 289.605 174.785 289.793 173.715 288.957 c 171.664
 287.277 169.105 286.395 166.215 286.395 c 163 286.395 160.02 287.699 157.828
 289.746 c 155.734 291.891 154.43 294.684 154.43 297.852 c 154.43 301.023
 155.734 303.91 157.828 305.961 c 160.02 308.008 163 309.312 166.215 309.312
 c 169.102 309.312 171.621 308.43 173.715 306.75 c 174.785 305.961 176.508
 306.145 177.441 307.266 c 178.281 308.43 178.094 310.105 176.973 310.992
 c 174.039 313.273 170.312 314.625 166.215 314.625 c 156.898 314.625 149.164
 307.125 149.121 297.852 c h
149.121 297.852 m f
197.379 301.953 m 191.652 301.953 l 191.652 312.062 l 191.652 313.457 190.488
 314.625 189.043 314.625 c 187.645 314.625 186.48 313.457 186.48 312.062
 c 186.48 284.578 l 186.48 283.133 187.645 282.016 189.043 282.016 c 197.379
 282.016 l 202.926 282.016 207.395 286.488 207.395 292.031 c 207.395 297.48
 202.926 301.953 197.379 301.953 c h
191.652 296.781 m 197.379 296.781 l 200.082 296.781 202.18 294.641 202.227
 292.031 c 202.18 289.328 200.082 287.184 197.379 287.184 c 191.652 287.184
 l h
191.652 296.781 m f
227.008 306.938 m 215.691 306.938 l 213.406 312.992 l 212.988 314.016 212.012
 314.625 210.984 314.625 c 210.66 314.625 210.379 314.578 210.102 314.484
 c 208.75 313.973 208.098 312.48 208.566 311.129 c 218.859 283.695 l 219.277
 282.668 220.305 282.016 221.328 282.062 c 222.398 282.016 223.379 282.668
 223.797 283.695 c 234.09 311.129 l 234.555 312.48 233.906 313.973 232.555
 314.484 c 232.32 314.578 231.996 314.625 231.668 314.625 c 230.645 314.625
 229.668 314.016 229.293 312.992 c h
225.098 301.812 m 221.324 291.801 l 217.551 301.812 l h
225.098 301.812 m f
96.031 281.965 m 94.375 281.965 93.031 280.621 93.031 278.965 c 93.031 
260.965 l 93.031 259.309 94.375 257.965 96.031 257.965 c 97.688 257.965 
99.031 259.309 99.031 260.965 c 99.031 278.965 l 99.031 280.621 97.688 281.965
 96.031 281.965 c h
96.031 281.965 m f
Q Q
showpage
%%Trailer
end
%%EOF
