%!PS-Adobe-3.0 EPSF-3.0
%%Creator: cairo 1.16.0 (https://cairographics.org)
%%CreationDate: Fri Jan 10 07:38:48 2020
%%Pages: 1
%%DocumentData: Clean7Bit
%%LanguageLevel: 2
%%BoundingBox: 45 3 339 381
%%EndComments
%%BeginProlog
50 dict begin
/q { gsave } bind def
/Q { grestore } bind def
/cm { 6 array astore concat } bind def
/w { setlinewidth } bind def
/J { setlinecap } bind def
/j { setlinejoin } bind def
/M { setmiterlimit } bind def
/d { setdash } bind def
/m { moveto } bind def
/l { lineto } bind def
/c { curveto } bind def
/h { closepath } bind def
/re { exch dup neg 3 1 roll 5 3 roll moveto 0 rlineto
      0 exch rlineto 0 rlineto closepath } bind def
/S { stroke } bind def
/f { fill } bind def
/f* { eofill } bind def
/n { newpath } bind def
/W { clip } bind def
/W* { eoclip } bind def
/BT { } bind def
/ET { } bind def
/BDC { mark 3 1 roll /BDC pdfmark } bind def
/EMC { mark /EMC pdfmark } bind def
/cairo_store_point { /cairo_point_y exch def /cairo_point_x exch def } def
/Tj { show currentpoint cairo_store_point } bind def
/TJ {
  {
    dup
    type /stringtype eq
    { show } { -0.001 mul 0 cairo_font_matrix dtransform rmoveto } ifelse
  } forall
  currentpoint cairo_store_point
} bind def
/cairo_selectfont { cairo_font_matrix aload pop pop pop 0 0 6 array astore
    cairo_font exch selectfont cairo_point_x cairo_point_y moveto } bind def
/Tf { pop /cairo_font exch def /cairo_font_matrix where
      { pop cairo_selectfont } if } bind def
/Td { matrix translate cairo_font_matrix matrix concatmatrix dup
      /cairo_font_matrix exch def dup 4 get exch 5 get cairo_store_point
      /cairo_font where { pop cairo_selectfont } if } bind def
/Tm { 2 copy 8 2 roll 6 array astore /cairo_font_matrix exch def
      cairo_store_point /cairo_font where { pop cairo_selectfont } if } bind def
/g { setgray } bind def
/rg { setrgbcolor } bind def
/d1 { setcachedevice } bind def
/cairo_data_source {
  CairoDataIndex CairoData length lt
    { CairoData CairoDataIndex get /CairoDataIndex CairoDataIndex 1 add def }
    { () } ifelse
} def
/cairo_flush_ascii85_file { cairo_ascii85_file status { cairo_ascii85_file flushfile } if } def
/cairo_image { image cairo_flush_ascii85_file } def
/cairo_imagemask { imagemask cairo_flush_ascii85_file } def
%%EndProlog
%%BeginSetup
%%EndSetup
%%Page: 1 1
%%BeginPageSetup
%%PageBoundingBox: 45 3 339 381
%%EndPageSetup
q 45 3 294 378 rectclip
1 0 0 -1 0 384 cm q
0.956863 0.937255 0.929412 rg
335.879 378 m 48.121 378 l 48.121 6 l 264.836 6 l 335.879 77.043 l h
335.879 378 m f
1 g
48.121 6 15 372 re f
0.839216 0.819608 0.811765 rg
320.879 62.043 m 320.879 378 l 335.879 378 l 335.879 77.043 l h
320.879 62.043 m f
0.533333 0.321569 0.658824 rg
335.879 77.043 m 264.836 77.043 l 264.836 6 l h
335.879 77.043 m f
0.321569 0.435294 0.666667 rg
48.121 243.801 287.758 134.199 re f
0.439216 0.552941 0.784314 rg
48.121 243.801 15 134.199 re f
0.203922 0.317647 0.54902 rg
320.879 243.801 15 134.199 re f
0.411765 0.0196078 0.537255 rg
335.879 381 m 48.121 381 l 46.469 381 45.121 379.656 45.121 378 c 45.121
 6 l 45.121 4.344 46.469 3 48.121 3 c 264.836 3 l 265.629 3 266.391 3.316
 266.953 3.879 c 337.996 74.922 l 338.559 75.484 338.879 76.246 338.879 
77.043 c 338.879 378 l 338.879 379.656 337.531 381 335.879 381 c h
51.121 375 m 332.879 375 l 332.879 78.285 l 263.594 9 l 51.121 9 l h
51.121 375 m f
60.121 89.07 m 58.469 89.07 57.121 87.727 57.121 86.07 c 57.121 68.07 l
 57.121 66.414 58.469 65.07 60.121 65.07 c 61.777 65.07 63.121 66.414 63.121
 68.07 c 63.121 86.07 l 63.121 87.73 61.781 89.07 60.121 89.07 c h
60.121 89.07 m f
335.879 80.043 m 264.836 80.043 l 263.18 80.043 261.836 78.699 261.836 
77.043 c 261.836 6 l 261.836 4.785 262.566 3.691 263.684 3.227 c 264.809
 2.762 266.094 3.02 266.953 3.879 c 337.996 74.922 l 338.855 75.781 339.113
 77.07 338.648 78.191 c 338.184 79.312 337.09 80.043 335.879 80.043 c h
267.836 74.043 m 328.637 74.043 l 267.836 13.242 l h
267.836 74.043 m f
335.879 381 m 48.121 381 l 46.469 381 45.121 379.656 45.121 378 c 45.121
 243.801 l 45.121 242.145 46.469 240.801 48.121 240.801 c 335.879 240.801
 l 337.531 240.801 338.879 242.145 338.879 243.801 c 338.879 378 l 338.879
 379.656 337.531 381 335.879 381 c h
51.121 375 m 332.879 375 l 332.879 246.801 l 51.121 246.801 l h
51.121 375 m f
0.956863 0.937255 0.929412 rg
102.676 307.508 m 102.773 288.09 119.051 272.305 138.66 272.207 c 147.289
 272.207 155.133 275.051 161.312 279.855 c 163.664 281.816 164.055 285.246
 162.289 287.699 c 160.332 290.148 156.703 290.543 154.449 288.777 c 150.133
 285.246 144.742 283.383 138.66 283.383 c 131.898 283.383 125.621 286.129
 121.012 290.445 c 116.602 294.957 113.855 300.84 113.855 307.508 c 113.855
 314.172 116.598 320.254 121.012 324.566 c 125.621 328.883 131.898 331.629
 138.66 331.629 c 144.742 331.629 150.035 329.766 154.449 326.234 c 156.703
 324.57 160.332 324.961 162.289 327.312 c 164.055 329.766 163.664 333.293
 161.312 335.156 c 155.133 339.961 147.289 342.805 138.66 342.805 c 119.051
 342.805 102.773 327.02 102.676 307.508 c h
102.676 307.508 m f
204.258 316.137 m 192.195 316.137 l 192.195 337.414 l 192.195 340.355 189.742
 342.805 186.703 342.805 c 183.762 342.805 181.312 340.355 181.312 337.414
 c 181.312 279.562 l 181.312 276.523 183.762 274.168 186.703 274.168 c 204.258
 274.168 l 215.926 274.168 225.34 283.582 225.34 295.25 c 225.336 306.723
 215.926 316.137 204.258 316.137 c h
192.195 305.25 m 204.258 305.25 l 209.941 305.25 214.355 300.742 214.453
 295.25 c 214.355 289.562 209.941 285.051 204.258 285.051 c 192.195 285.051
 l h
192.195 305.25 m f
238.473 337.414 m 238.473 279.562 l 238.473 276.621 240.828 274.168 243.867
 274.168 c 246.906 274.168 249.359 276.621 249.359 279.562 c 249.359 331.922
 l 275.93 331.922 l 278.773 331.922 281.324 334.371 281.324 337.414 c 281.324
 340.355 278.773 342.805 275.93 342.805 c 244.164 342.805 l 243.965 342.805
 243.965 342.805 243.965 342.805 c 243.867 342.805 243.867 342.805 243.867
 342.805 c 240.828 342.805 238.473 340.355 238.473 337.414 c h
238.473 337.414 m f
0.988235 0.760784 0.298039 rg
272.266 154.152 m 272.266 127.262 l 257.387 127.262 l 255.656 118.812 252.32
 110.949 247.727 103.992 c 258.262 93.457 l 239.25 74.445 l 228.715 84.977
 l 221.758 80.387 213.895 77.047 205.445 75.32 c 205.445 60.441 l 178.559
 60.441 l 178.559 75.32 l 170.105 77.047 162.246 80.387 155.285 84.977 c
 144.75 74.445 l 125.738 93.457 l 136.273 103.992 l 131.68 110.949 128.34
 118.812 126.613 127.262 c 111.734 127.262 l 111.734 154.152 l 126.613 154.152
 l 128.34 162.602 131.68 170.465 136.273 177.422 c 125.738 187.957 l 144.75
 206.969 l 155.285 196.434 l 162.242 201.027 170.105 204.363 178.555 206.094
 c 178.555 220.973 l 205.441 220.973 l 205.441 206.094 l 213.895 204.363
 221.754 201.027 228.715 196.434 c 239.25 206.969 l 258.262 187.957 l 247.727
 177.422 l 252.32 170.465 255.656 162.602 257.387 154.152 c h
192 180.945 m 169.777 180.945 151.762 162.93 151.762 140.707 c 151.762 
118.484 169.777 100.469 192 100.469 c 214.223 100.469 232.238 118.48 232.238
 140.707 c 232.238 162.93 214.223 180.945 192 180.945 c h
192 180.945 m f
0.411765 0.0196078 0.537255 rg
205.441 223.973 m 178.555 223.973 l 176.898 223.973 175.555 222.629 175.555
 220.973 c 175.555 208.496 l 168.551 206.805 161.895 204.039 155.707 200.258
 c 146.871 209.09 l 145.746 210.215 143.754 210.215 142.629 209.09 c 123.617
 190.078 l 122.445 188.906 122.445 187.008 123.617 185.836 c 132.453 177
 l 128.668 170.812 125.902 164.156 124.211 157.152 c 111.734 157.152 l 110.078
 157.152 108.734 155.809 108.734 154.152 c 108.734 127.262 l 108.734 125.605
 110.078 124.262 111.734 124.262 c 124.211 124.262 l 125.902 117.258 128.664
 110.602 132.449 104.414 c 123.613 95.578 l 123.051 95.016 122.734 94.254
 122.734 93.457 c 122.734 92.664 123.051 91.898 123.613 91.336 c 142.629
 72.324 l 143.754 71.199 145.746 71.199 146.871 72.324 c 155.703 81.16 l
 161.891 77.375 168.551 74.609 175.555 72.918 c 175.555 60.441 l 175.555
 58.785 176.898 57.441 178.555 57.441 c 205.441 57.441 l 207.098 57.441 
208.441 58.785 208.441 60.441 c 208.441 72.918 l 215.445 74.609 222.105 
77.371 228.293 81.16 c 237.129 72.324 l 237.691 71.762 238.453 71.445 239.25
 71.445 c 240.043 71.445 240.809 71.762 241.371 72.324 c 260.383 91.336 
l 260.945 91.898 261.262 92.664 261.262 93.457 c 261.262 94.254 260.945 
95.016 260.383 95.578 c 251.547 104.414 l 255.332 110.602 258.098 117.258
 259.789 124.262 c 272.262 124.262 l 273.918 124.262 275.262 125.605 275.262
 127.262 c 275.262 154.152 l 275.262 155.805 273.918 157.152 272.262 157.152
 c 259.789 157.152 l 258.098 164.152 255.332 170.812 251.547 177 c 260.383
 185.836 l 261.555 187.008 261.555 188.906 260.383 190.078 c 241.371 209.09
 l 240.246 210.215 238.254 210.215 237.129 209.09 c 228.293 200.254 l 222.105
 204.039 215.445 206.805 208.441 208.496 c 208.441 220.969 l 208.441 222.629
 207.098 223.973 205.441 223.973 c h
181.555 217.973 m 202.441 217.973 l 202.441 206.094 l 202.441 204.668 203.445
 203.438 204.844 203.152 c 212.773 201.531 220.25 198.43 227.062 193.934
 c 228.25 193.145 229.828 193.305 230.836 194.316 c 239.25 202.727 l 254.02
 187.957 l 245.605 179.543 l 244.598 178.539 244.441 176.961 245.223 175.77
 c 249.723 168.957 252.824 161.48 254.449 153.551 c 254.73 152.152 255.961
 151.152 257.387 151.152 c 269.266 151.152 l 269.266 130.262 l 257.387 130.262
 l 255.961 130.262 254.73 129.262 254.449 127.863 c 252.824 119.934 249.723
 112.461 245.223 105.645 c 244.441 104.457 244.598 102.879 245.605 101.871
 c 254.02 93.457 l 239.25 78.688 l 230.836 87.102 l 229.828 88.109 228.25
 88.27 227.062 87.484 c 220.246 82.984 212.773 79.883 204.844 78.258 c 203.445
 77.973 202.441 76.746 202.441 75.32 c 202.441 63.441 l 181.555 63.441 l
 181.555 75.32 l 181.555 76.746 180.555 77.973 179.156 78.258 c 171.227 
79.883 163.75 82.984 156.938 87.484 c 155.75 88.266 154.172 88.109 153.164
 87.102 c 144.75 78.688 l 129.98 93.457 l 138.395 101.871 l 139.402 102.879
 139.559 104.457 138.777 105.645 c 134.277 112.461 131.176 119.934 129.551
 127.863 c 129.27 129.262 128.039 130.262 126.613 130.262 c 114.734 130.262
 l 114.734 151.152 l 126.613 151.152 l 128.039 151.152 129.27 152.152 129.551
 153.551 c 131.176 161.48 134.277 168.957 138.777 175.77 c 139.559 176.957
 139.402 178.535 138.395 179.543 c 129.98 187.957 l 144.75 202.727 l 153.164
 194.312 l 154.172 193.305 155.75 193.145 156.938 193.93 c 163.75 198.43
 171.227 201.531 179.156 203.152 c 180.555 203.438 181.555 204.664 181.555
 206.09 c h
192 183.945 m 168.156 183.945 148.762 164.547 148.762 140.707 c 148.762
 116.863 168.156 97.469 192 97.469 c 215.844 97.469 235.238 116.863 235.238
 140.707 c 235.238 164.551 215.844 183.945 192 183.945 c h
192 103.469 m 171.465 103.469 154.762 120.176 154.762 140.707 c 154.762
 161.242 171.465 177.945 192 177.945 c 212.531 177.945 229.238 161.238 229.238
 140.707 c 229.238 120.172 212.531 103.469 192 103.469 c h
192 103.469 m f
0.870588 0.643137 0.180392 rg
246.324 95.734 m 239.922 102.137 l 238.867 103.191 238.633 104.832 239.406
 106.105 c 242.879 111.816 245.523 118.082 247.16 124.75 c 247.52 126.211
 248.797 127.262 250.301 127.262 c 257.387 127.262 l 255.656 118.809 252.32
 110.949 247.727 103.992 c 258.262 93.457 l 239.25 74.445 l 234.422 79.273
 l 246.328 91.18 l 247.586 92.438 247.586 94.477 246.324 95.734 c h
246.324 95.734 m f
262.605 127.262 9.66 26.891 re f
257.387 154.152 m 250.305 154.152 l 248.797 154.152 247.52 155.199 247.164
 156.664 c 245.527 163.328 242.883 169.598 239.41 175.305 c 238.637 176.578
 238.871 178.223 239.922 179.277 c 246.328 185.68 l 247.586 186.938 247.586
 188.973 246.328 190.234 c 234.422 202.141 l 239.25 206.969 l 258.262 187.957
 l 247.727 177.422 l 252.32 170.465 255.656 162.602 257.387 154.152 c h
257.387 154.152 m f
0.988235 0.878431 0.415686 rg
137.676 95.734 m 144.078 102.137 l 145.133 103.191 145.363 104.832 144.594
 106.105 c 141.121 111.816 138.477 118.082 136.84 124.75 c 136.48 126.211
 135.203 127.262 133.699 127.262 c 126.613 127.262 l 128.344 118.809 131.68
 110.949 136.273 103.992 c 125.738 93.457 l 144.75 74.445 l 149.578 79.273
 l 137.676 91.18 l 136.414 92.438 136.414 94.477 137.676 95.734 c h
137.676 95.734 m f
111.734 127.262 9.66 26.891 re f
126.613 154.152 m 133.695 154.152 l 135.203 154.152 136.48 155.199 136.836
 156.664 c 138.473 163.328 141.117 169.598 144.59 175.305 c 145.363 176.578
 145.129 178.223 144.078 179.277 c 137.672 185.68 l 136.414 186.938 136.414
 188.973 137.672 190.234 c 149.578 202.141 l 144.75 206.969 l 125.738 187.957
 l 136.273 177.422 l 131.68 170.465 128.344 162.602 126.613 154.152 c h
126.613 154.152 m f
0.411765 0.0196078 0.537255 rg
205.441 223.973 m 178.555 223.973 l 176.898 223.973 175.555 222.629 175.555
 220.973 c 175.555 208.496 l 168.551 206.805 161.895 204.039 155.707 200.258
 c 146.871 209.09 l 145.746 210.215 143.754 210.215 142.629 209.09 c 123.617
 190.078 l 122.445 188.906 122.445 187.008 123.617 185.836 c 132.453 177
 l 128.668 170.812 125.902 164.156 124.211 157.152 c 111.734 157.152 l 110.078
 157.152 108.734 155.809 108.734 154.152 c 108.734 127.262 l 108.734 125.605
 110.078 124.262 111.734 124.262 c 124.211 124.262 l 125.902 117.258 128.664
 110.602 132.449 104.414 c 123.613 95.578 l 123.051 95.016 122.734 94.254
 122.734 93.457 c 122.734 92.664 123.051 91.898 123.613 91.336 c 142.629
 72.324 l 143.754 71.199 145.746 71.199 146.871 72.324 c 155.703 81.16 l
 161.891 77.375 168.551 74.609 175.555 72.918 c 175.555 60.441 l 175.555
 58.785 176.898 57.441 178.555 57.441 c 205.441 57.441 l 207.098 57.441 
208.441 58.785 208.441 60.441 c 208.441 72.918 l 215.445 74.609 222.105 
77.371 228.293 81.16 c 237.129 72.324 l 237.691 71.762 238.453 71.445 239.25
 71.445 c 240.043 71.445 240.809 71.762 241.371 72.324 c 260.383 91.336 
l 260.945 91.898 261.262 92.664 261.262 93.457 c 261.262 94.254 260.945 
95.016 260.383 95.578 c 251.547 104.414 l 255.332 110.602 258.098 117.258
 259.789 124.262 c 272.262 124.262 l 273.918 124.262 275.262 125.605 275.262
 127.262 c 275.262 154.152 l 275.262 155.805 273.918 157.152 272.262 157.152
 c 259.789 157.152 l 258.098 164.152 255.332 170.812 251.547 177 c 260.383
 185.836 l 261.555 187.008 261.555 188.906 260.383 190.078 c 241.371 209.09
 l 240.246 210.215 238.254 210.215 237.129 209.09 c 228.293 200.254 l 222.105
 204.039 215.445 206.805 208.441 208.496 c 208.441 220.969 l 208.441 222.629
 207.098 223.973 205.441 223.973 c h
181.555 217.973 m 202.441 217.973 l 202.441 206.094 l 202.441 204.668 203.445
 203.438 204.844 203.152 c 212.773 201.531 220.25 198.43 227.062 193.934
 c 228.25 193.145 229.828 193.305 230.836 194.316 c 239.25 202.727 l 254.02
 187.957 l 245.605 179.543 l 244.598 178.539 244.441 176.961 245.223 175.77
 c 249.723 168.957 252.824 161.48 254.449 153.551 c 254.73 152.152 255.961
 151.152 257.387 151.152 c 269.266 151.152 l 269.266 130.262 l 257.387 130.262
 l 255.961 130.262 254.73 129.262 254.449 127.863 c 252.824 119.934 249.723
 112.461 245.223 105.645 c 244.441 104.457 244.598 102.879 245.605 101.871
 c 254.02 93.457 l 239.25 78.688 l 230.836 87.102 l 229.828 88.109 228.25
 88.27 227.062 87.484 c 220.246 82.984 212.773 79.883 204.844 78.258 c 203.445
 77.973 202.441 76.746 202.441 75.32 c 202.441 63.441 l 181.555 63.441 l
 181.555 75.32 l 181.555 76.746 180.555 77.973 179.156 78.258 c 171.227 
79.883 163.75 82.984 156.938 87.484 c 155.75 88.266 154.172 88.109 153.164
 87.102 c 144.75 78.688 l 129.98 93.457 l 138.395 101.871 l 139.402 102.879
 139.559 104.457 138.777 105.645 c 134.277 112.461 131.176 119.934 129.551
 127.863 c 129.27 129.262 128.039 130.262 126.613 130.262 c 114.734 130.262
 l 114.734 151.152 l 126.613 151.152 l 128.039 151.152 129.27 152.152 129.551
 153.551 c 131.176 161.48 134.277 168.957 138.777 175.77 c 139.559 176.957
 139.402 178.535 138.395 179.543 c 129.98 187.957 l 144.75 202.727 l 153.164
 194.312 l 154.172 193.305 155.75 193.145 156.938 193.93 c 163.75 198.43
 171.227 201.531 179.156 203.152 c 180.555 203.438 181.555 204.664 181.555
 206.09 c h
192 183.945 m 168.156 183.945 148.762 164.547 148.762 140.707 c 148.762
 116.863 168.156 97.469 192 97.469 c 215.844 97.469 235.238 116.863 235.238
 140.707 c 235.238 164.551 215.844 183.945 192 183.945 c h
192 103.469 m 171.465 103.469 154.762 120.176 154.762 140.707 c 154.762
 161.242 171.465 177.945 192 177.945 c 212.531 177.945 229.238 161.238 229.238
 140.707 c 229.238 120.172 212.531 103.469 192 103.469 c h
192 103.469 m f
Q Q
showpage
%%Trailer
end
%%EOF
