%!PS-Adobe-3.0 EPSF-3.0
%%Creator: cairo 1.16.0 (https://cairographics.org)
%%CreationDate: Fri Jan 10 07:38:52 2020
%%Pages: 1
%%DocumentData: Clean7Bit
%%LanguageLevel: 2
%%BoundingBox: 38 3 346 381
%%EndComments
%%BeginProlog
50 dict begin
/q { gsave } bind def
/Q { grestore } bind def
/cm { 6 array astore concat } bind def
/w { setlinewidth } bind def
/J { setlinecap } bind def
/j { setlinejoin } bind def
/M { setmiterlimit } bind def
/d { setdash } bind def
/m { moveto } bind def
/l { lineto } bind def
/c { curveto } bind def
/h { closepath } bind def
/re { exch dup neg 3 1 roll 5 3 roll moveto 0 rlineto
      0 exch rlineto 0 rlineto closepath } bind def
/S { stroke } bind def
/f { fill } bind def
/f* { eofill } bind def
/n { newpath } bind def
/W { clip } bind def
/W* { eoclip } bind def
/BT { } bind def
/ET { } bind def
/BDC { mark 3 1 roll /BDC pdfmark } bind def
/EMC { mark /EMC pdfmark } bind def
/cairo_store_point { /cairo_point_y exch def /cairo_point_x exch def } def
/Tj { show currentpoint cairo_store_point } bind def
/TJ {
  {
    dup
    type /stringtype eq
    { show } { -0.001 mul 0 cairo_font_matrix dtransform rmoveto } ifelse
  } forall
  currentpoint cairo_store_point
} bind def
/cairo_selectfont { cairo_font_matrix aload pop pop pop 0 0 6 array astore
    cairo_font exch selectfont cairo_point_x cairo_point_y moveto } bind def
/Tf { pop /cairo_font exch def /cairo_font_matrix where
      { pop cairo_selectfont } if } bind def
/Td { matrix translate cairo_font_matrix matrix concatmatrix dup
      /cairo_font_matrix exch def dup 4 get exch 5 get cairo_store_point
      /cairo_font where { pop cairo_selectfont } if } bind def
/Tm { 2 copy 8 2 roll 6 array astore /cairo_font_matrix exch def
      cairo_store_point /cairo_font where { pop cairo_selectfont } if } bind def
/g { setgray } bind def
/rg { setrgbcolor } bind def
/d1 { setcachedevice } bind def
/cairo_data_source {
  CairoDataIndex CairoData length lt
    { CairoData CairoDataIndex get /CairoDataIndex CairoDataIndex 1 add def }
    { () } ifelse
} def
/cairo_flush_ascii85_file { cairo_ascii85_file status { cairo_ascii85_file flushfile } if } def
/cairo_image { image cairo_flush_ascii85_file } def
/cairo_imagemask { imagemask cairo_flush_ascii85_file } def
%%EndProlog
%%BeginSetup
%%EndSetup
%%Page: 1 1
%%BeginPageSetup
%%PageBoundingBox: 38 3 346 381
%%EndPageSetup
q 38 3 308 378 rectclip
1 0 0 -1 0 384 cm q
0.956863 0.937255 0.929412 rg
313.055 378 m 41.098 378 l 41.098 69.5 l 104.598 6 l 313.055 6 l h
313.055 378 m f
1 g
41.098 69.5 m 41.098 378 l 56.098 378 l 56.098 54.5 l h
41.098 69.5 m f
0.839216 0.819608 0.811765 rg
298.055 6 15 372 re f
0.411765 0.0196078 0.537255 rg
313.055 381 m 41.098 381 l 39.441 381 38.098 379.656 38.098 378 c 38.098
 69.5 l 38.098 68.703 38.414 67.941 38.977 67.379 c 102.477 3.879 l 103.039
 3.316 103.805 3 104.598 3 c 313.055 3 l 314.711 3 316.055 4.344 316.055
 6 c 316.055 378 l 316.055 379.656 314.715 381 313.055 381 c h
44.098 375 m 310.055 375 l 310.055 9 l 105.84 9 l 44.098 70.742 l h
44.098 375 m f
53.098 129.02 m 51.441 129.02 50.098 127.676 50.098 126.02 c 50.098 108.02
 l 50.098 106.363 51.441 105.02 53.098 105.02 c 54.754 105.02 56.098 106.363
 56.098 108.02 c 56.098 126.02 l 56.098 127.676 54.754 129.02 53.098 129.02
 c h
53.098 129.02 m f
196.215 219.93 m 82.941 219.93 l 81.285 219.93 79.941 218.586 79.941 216.93
 c 79.941 215.277 81.285 213.93 82.941 213.93 c 196.215 213.93 l 197.871
 213.93 199.215 215.277 199.215 216.93 c 199.215 218.586 197.871 219.93 
196.215 219.93 c h
196.215 219.93 m f
181.215 275.457 m 82.941 275.457 l 81.285 275.457 79.941 274.113 79.941
 272.457 c 79.941 270.801 81.285 269.457 82.941 269.457 c 181.215 269.457
 l 182.871 269.457 184.215 270.801 184.215 272.457 c 184.215 274.113 182.871
 275.457 181.215 275.457 c h
181.215 275.457 m f
196.215 330.984 m 82.941 330.984 l 81.285 330.984 79.941 329.637 79.941
 327.984 c 79.941 326.328 81.285 324.984 82.941 324.984 c 196.215 324.984
 l 197.871 324.984 199.215 326.328 199.215 327.984 c 199.215 329.637 197.871
 330.984 196.215 330.984 c h
196.215 330.984 m f
0.533333 0.321569 0.658824 rg
104.598 6 m 104.598 69.5 l 41.098 69.5 l h
104.598 6 m f
0.411765 0.0196078 0.537255 rg
104.598 72.5 m 41.098 72.5 l 39.883 72.5 38.789 71.77 38.324 70.648 c 37.859
 69.527 38.117 68.238 38.977 67.379 c 102.477 3.879 l 103.332 3.02 104.625
 2.762 105.746 3.227 c 106.867 3.691 107.598 4.785 107.598 6 c 107.598 69.5
 l 107.598 71.156 106.254 72.5 104.598 72.5 c h
48.34 66.5 m 101.598 66.5 l 101.598 13.242 l h
48.34 66.5 m f
0.321569 0.435294 0.666667 rg
177.078 189.566 m 113.836 189.566 l 95.098 189.566 83.387 169.309 92.754
 153.105 c 124.375 98.41 l 155.996 43.719 l 165.367 27.512 188.789 27.512
 198.156 43.719 c 229.777 98.41 l 261.402 153.105 l 270.77 169.312 259.059
 189.566 240.32 189.566 c h
177.078 189.566 m f
0.203922 0.317647 0.54902 rg
261.398 153.105 m 229.777 98.41 l 198.156 43.719 l 192.633 34.168 182.23
 30.254 172.699 31.961 c 179.34 33.148 185.559 37.066 189.406 43.719 c 221.027
 98.41 l 252.648 153.105 l 262.016 169.312 250.305 189.566 231.566 189.566
 c 240.316 189.566 l 259.059 189.566 270.77 169.312 261.398 153.105 c h
261.398 153.105 m f
0.439216 0.552941 0.784314 rg
92.754 153.105 m 124.375 98.41 l 155.996 43.719 l 161.52 34.168 171.922
 30.254 181.453 31.961 c 174.812 33.148 168.594 37.066 164.746 43.719 c 
133.129 98.41 l 101.504 153.105 l 92.137 169.312 103.848 189.566 122.586
 189.566 c 113.836 189.566 l 95.098 189.566 83.387 169.312 92.754 153.105
 c h
92.754 153.105 m f
0.411765 0.0196078 0.537255 rg
240.32 192.566 m 113.836 192.566 l 103.941 192.566 95.086 187.453 90.145
 178.895 c 85.215 170.348 85.219 160.145 90.156 151.602 c 153.398 42.219
 l 158.34 33.668 167.191 28.566 177.078 28.566 c 186.961 28.566 195.812 
33.668 200.754 42.219 c 263.996 151.602 l 268.934 160.145 268.941 170.348
 264.008 178.895 c 259.07 187.457 250.215 192.566 240.32 192.566 c h
177.078 34.566 m 169.359 34.566 162.453 38.547 158.594 45.219 c 95.352 
154.605 l 91.5 161.27 91.496 169.227 95.344 175.895 c 99.199 182.578 106.113
 186.566 113.836 186.566 c 240.32 186.566 l 248.043 186.566 254.957 182.578
 258.816 175.895 c 262.66 169.227 262.656 161.27 258.805 154.605 c 195.562
 45.219 l 191.703 38.547 184.793 34.562 177.078 34.566 c h
177.078 34.566 m f
0.956863 0.937255 0.929412 rg
170.551 131.398 m 170.551 83.012 l 170.551 79.414 173.543 76.422 177.137
 76.422 c 180.73 76.422 183.605 79.414 183.605 83.012 c 183.605 131.398 
l 183.605 135.113 180.73 137.988 177.137 137.988 c 173.543 137.988 170.551
 135.113 170.551 131.398 c h
177.137 160.266 m 173.543 160.266 170.547 157.391 170.547 153.68 c 170.547
 151.281 l 170.547 147.688 173.543 144.695 177.137 144.695 c 180.73 144.695
 183.605 147.688 183.605 151.281 c 183.605 153.68 l 183.605 157.391 180.73
 160.266 177.137 160.266 c h
177.137 160.266 m f
0.988235 0.760784 0.298039 rg
342.902 284.84 m 342.902 260.074 l 329.199 260.074 l 327.609 252.293 324.535
 245.055 320.305 238.645 c 330.008 228.945 l 312.496 211.434 l 302.793 221.137
 l 296.387 216.906 289.145 213.832 281.363 212.242 c 281.363 198.539 l 256.602
 198.539 l 256.602 212.242 l 248.82 213.832 241.582 216.906 235.172 221.137
 c 225.473 211.434 l 207.961 228.945 l 217.664 238.645 l 213.434 245.055
 210.359 252.293 208.77 260.074 c 195.066 260.074 l 195.066 284.84 l 208.77
 284.84 l 210.359 292.621 213.434 299.859 217.664 306.27 c 207.961 315.969
 l 225.473 333.48 l 235.172 323.777 l 241.582 328.008 248.82 331.082 256.602
 332.672 c 256.602 346.375 l 281.363 346.375 l 281.363 332.672 l 289.148
 331.082 296.387 328.008 302.797 323.777 c 312.496 333.48 l 330.008 315.969
 l 320.305 306.27 l 324.535 299.859 327.609 292.621 329.199 284.84 c h
268.984 309.512 m 248.52 309.512 231.93 292.922 231.93 272.457 c 231.93
 251.992 248.52 235.402 268.984 235.402 c 289.449 235.402 306.039 251.992
 306.039 272.457 c 306.039 292.922 289.449 309.512 268.984 309.512 c h
268.984 309.512 m f
0.411765 0.0196078 0.537255 rg
281.363 349.375 m 256.602 349.375 l 254.949 349.375 253.602 348.031 253.602
 346.375 c 253.602 335.074 l 247.254 333.52 241.215 331.012 235.598 327.598
 c 227.594 335.598 l 226.422 336.77 224.523 336.77 223.352 335.598 c 205.84
 318.09 l 204.668 316.918 204.668 315.02 205.84 313.848 c 213.844 305.844
 l 210.43 300.223 207.922 294.184 206.367 287.836 c 195.066 287.836 l 193.41
 287.836 192.066 286.492 192.066 284.836 c 192.066 260.074 l 192.066 258.418
 193.41 257.074 195.066 257.074 c 206.367 257.074 l 207.922 250.727 210.43
 244.688 213.844 239.066 c 205.84 231.062 l 204.668 229.891 204.668 227.992
 205.84 226.82 c 223.352 209.312 l 223.914 208.75 224.676 208.434 225.473
 208.434 c 226.266 208.434 227.031 208.75 227.594 209.312 c 235.598 217.316
 l 241.215 213.898 247.254 211.391 253.602 209.84 c 253.602 198.535 l 253.602
 196.883 254.949 195.535 256.602 195.535 c 281.363 195.535 l 283.02 195.535
 284.363 196.883 284.363 198.535 c 284.363 209.84 l 290.711 211.395 296.754
 213.898 302.371 217.316 c 310.375 209.312 l 311.5 208.188 313.492 208.184
 314.617 209.312 c 332.129 226.82 l 333.297 227.992 333.297 229.891 332.129
 231.062 c 324.121 239.066 l 327.539 244.688 330.047 250.727 331.598 257.074
 c 342.902 257.074 l 344.559 257.074 345.902 258.418 345.902 260.074 c 345.902
 284.836 l 345.902 286.492 344.559 287.836 342.902 287.836 c 331.598 287.836
 l 330.047 294.184 327.539 300.223 324.121 305.844 c 332.129 313.848 l 333.297
 315.02 333.297 316.918 332.129 318.09 c 314.617 335.598 l 314.055 336.16
 313.293 336.477 312.496 336.477 c 311.703 336.477 310.938 336.16 310.375
 335.598 c 302.371 327.598 l 296.754 331.012 290.715 333.52 284.363 335.074
 c 284.363 346.375 l 284.363 348.031 283.023 349.375 281.363 349.375 c h
259.602 343.375 m 278.363 343.375 l 278.363 332.672 l 278.363 331.246 279.367
 330.02 280.766 329.734 c 288.039 328.246 294.895 325.402 301.145 321.277
 c 302.332 320.488 303.91 320.652 304.918 321.66 c 312.496 329.238 l 325.766
 315.973 l 318.184 308.391 l 317.176 307.383 317.016 305.805 317.801 304.617
 c 321.93 298.367 324.773 291.512 326.262 284.238 c 326.547 282.844 327.777
 281.84 329.199 281.84 c 339.906 281.84 l 339.906 263.078 l 329.199 263.078
 l 327.777 263.078 326.547 262.074 326.262 260.676 c 324.777 253.406 321.93
 246.551 317.801 240.301 c 317.016 239.109 317.176 237.531 318.184 236.527
 c 325.766 228.945 l 312.496 215.68 l 304.918 223.262 l 303.914 224.27 302.332
 224.43 301.145 223.641 c 294.895 219.516 288.039 216.672 280.766 215.184
 c 279.367 214.898 278.363 213.668 278.363 212.242 c 278.363 201.543 l 259.602
 201.543 l 259.602 212.242 l 259.602 213.668 258.602 214.898 257.203 215.184
 c 249.93 216.672 243.07 219.516 236.824 223.641 c 235.633 224.426 234.059
 224.27 233.051 223.262 c 225.469 215.68 l 212.203 228.945 l 219.781 236.527
 l 220.789 237.531 220.949 239.109 220.164 240.301 c 216.039 246.551 213.195
 253.406 211.703 260.68 c 211.418 262.074 210.191 263.078 208.766 263.078
 c 198.062 263.078 l 198.062 281.84 l 208.766 281.84 l 210.191 281.84 211.418
 282.84 211.703 284.238 c 213.191 291.512 216.039 298.367 220.164 304.617
 c 220.949 305.805 220.789 307.383 219.781 308.391 c 212.203 315.973 l 225.469
 329.238 l 233.051 321.66 l 234.059 320.652 235.637 320.492 236.824 321.277
 c 243.074 325.402 249.93 328.246 257.203 329.734 c 258.602 330.02 259.602
 331.246 259.602 332.672 c h
268.984 312.512 m 246.895 312.512 228.926 294.543 228.926 272.457 c 228.926
 250.371 246.895 232.402 268.984 232.402 c 291.07 232.402 309.039 250.371
 309.039 272.457 c 309.039 294.543 291.07 312.512 268.984 312.512 c h
268.984 238.402 m 250.203 238.402 234.926 253.68 234.926 272.457 c 234.926
 291.234 250.203 306.512 268.984 306.512 c 287.762 306.512 303.039 291.234
 303.039 272.457 c 303.039 253.68 287.762 238.402 268.984 238.402 c h
268.984 238.402 m f
0.870588 0.643137 0.180392 rg
319.016 231.039 m 313.117 236.938 l 312.148 237.906 311.93 239.422 312.641
 240.594 c 315.84 245.852 318.273 251.625 319.781 257.762 c 320.113 259.109
 321.289 260.078 322.676 260.078 c 329.199 260.078 l 327.609 252.297 324.535
 245.055 320.305 238.648 c 330.008 228.945 l 312.496 211.434 l 308.051 215.883
 l 319.016 226.848 l 320.172 228.004 320.172 229.883 319.016 231.039 c h
319.016 231.039 m f
329.199 284.84 m 322.676 284.84 l 321.289 284.84 320.113 285.805 319.781
 287.152 c 318.273 293.289 315.84 299.062 312.641 304.32 c 311.93 305.492
 312.145 307.008 313.117 307.977 c 319.016 313.875 l 320.172 315.031 320.172
 316.91 319.016 318.066 c 308.051 329.031 l 312.496 333.48 l 330.008 315.969
 l 320.305 306.27 l 324.535 299.859 327.609 292.621 329.199 284.84 c h
329.199 284.84 m f
0.988235 0.878431 0.415686 rg
218.953 231.039 m 224.852 236.938 l 225.82 237.906 226.039 239.422 225.328
 240.594 c 222.129 245.852 219.695 251.625 218.188 257.762 c 217.855 259.109
 216.68 260.078 215.293 260.078 c 208.77 260.078 l 210.363 252.297 213.434
 245.055 217.664 238.648 c 207.965 228.945 l 225.473 211.434 l 229.922 215.883
 l 218.953 226.848 l 217.797 228.004 217.797 229.883 218.953 231.039 c h
218.953 231.039 m f
208.77 284.84 m 215.293 284.84 l 216.68 284.84 217.855 285.805 218.184 
287.152 c 219.691 293.289 222.129 299.062 225.324 304.32 c 226.039 305.492
 225.82 307.008 224.852 307.977 c 218.953 313.875 l 217.797 315.031 217.797
 316.91 218.953 318.066 c 229.918 329.031 l 225.473 333.48 l 207.961 315.969
 l 217.664 306.27 l 213.434 299.859 210.363 292.621 208.77 284.84 c h
208.77 284.84 m f
0.411765 0.0196078 0.537255 rg
281.363 349.375 m 256.602 349.375 l 254.949 349.375 253.602 348.031 253.602
 346.375 c 253.602 335.074 l 247.254 333.52 241.215 331.012 235.598 327.598
 c 227.594 335.598 l 226.422 336.77 224.523 336.77 223.352 335.598 c 205.84
 318.09 l 204.668 316.918 204.668 315.02 205.84 313.848 c 213.844 305.844
 l 210.43 300.223 207.922 294.184 206.367 287.836 c 195.066 287.836 l 193.41
 287.836 192.066 286.492 192.066 284.836 c 192.066 260.074 l 192.066 258.418
 193.41 257.074 195.066 257.074 c 206.367 257.074 l 207.922 250.727 210.43
 244.688 213.844 239.066 c 205.84 231.062 l 204.668 229.891 204.668 227.992
 205.84 226.82 c 223.352 209.312 l 223.914 208.75 224.676 208.434 225.473
 208.434 c 226.266 208.434 227.031 208.75 227.594 209.312 c 235.598 217.316
 l 241.215 213.898 247.254 211.391 253.602 209.84 c 253.602 198.535 l 253.602
 196.883 254.949 195.535 256.602 195.535 c 281.363 195.535 l 283.02 195.535
 284.363 196.883 284.363 198.535 c 284.363 209.84 l 290.711 211.395 296.754
 213.898 302.371 217.316 c 310.375 209.312 l 311.5 208.188 313.492 208.184
 314.617 209.312 c 332.129 226.82 l 333.297 227.992 333.297 229.891 332.129
 231.062 c 324.121 239.066 l 327.539 244.688 330.047 250.727 331.598 257.074
 c 342.902 257.074 l 344.559 257.074 345.902 258.418 345.902 260.074 c 345.902
 284.836 l 345.902 286.492 344.559 287.836 342.902 287.836 c 331.598 287.836
 l 330.047 294.184 327.539 300.223 324.121 305.844 c 332.129 313.848 l 333.297
 315.02 333.297 316.918 332.129 318.09 c 314.617 335.598 l 314.055 336.16
 313.293 336.477 312.496 336.477 c 311.703 336.477 310.938 336.16 310.375
 335.598 c 302.371 327.598 l 296.754 331.012 290.715 333.52 284.363 335.074
 c 284.363 346.375 l 284.363 348.031 283.023 349.375 281.363 349.375 c h
259.602 343.375 m 278.363 343.375 l 278.363 332.672 l 278.363 331.246 279.367
 330.02 280.766 329.734 c 288.039 328.246 294.895 325.402 301.145 321.277
 c 302.332 320.488 303.91 320.652 304.918 321.66 c 312.496 329.238 l 325.766
 315.973 l 318.184 308.391 l 317.176 307.383 317.016 305.805 317.801 304.617
 c 321.93 298.367 324.773 291.512 326.262 284.238 c 326.547 282.844 327.777
 281.84 329.199 281.84 c 339.906 281.84 l 339.906 263.078 l 329.199 263.078
 l 327.777 263.078 326.547 262.074 326.262 260.676 c 324.777 253.406 321.93
 246.551 317.801 240.301 c 317.016 239.109 317.176 237.531 318.184 236.527
 c 325.766 228.945 l 312.496 215.68 l 304.918 223.262 l 303.914 224.27 302.332
 224.43 301.145 223.641 c 294.895 219.516 288.039 216.672 280.766 215.184
 c 279.367 214.898 278.363 213.668 278.363 212.242 c 278.363 201.543 l 259.602
 201.543 l 259.602 212.242 l 259.602 213.668 258.602 214.898 257.203 215.184
 c 249.93 216.672 243.07 219.516 236.824 223.641 c 235.633 224.426 234.059
 224.27 233.051 223.262 c 225.469 215.68 l 212.203 228.945 l 219.781 236.527
 l 220.789 237.531 220.949 239.109 220.164 240.301 c 216.039 246.551 213.195
 253.406 211.703 260.68 c 211.418 262.074 210.191 263.078 208.766 263.078
 c 198.062 263.078 l 198.062 281.84 l 208.766 281.84 l 210.191 281.84 211.418
 282.84 211.703 284.238 c 213.191 291.512 216.039 298.367 220.164 304.617
 c 220.949 305.805 220.789 307.383 219.781 308.391 c 212.203 315.973 l 225.469
 329.238 l 233.051 321.66 l 234.059 320.652 235.637 320.492 236.824 321.277
 c 243.074 325.402 249.93 328.246 257.203 329.734 c 258.602 330.02 259.602
 331.246 259.602 332.672 c h
268.984 312.512 m 246.895 312.512 228.926 294.543 228.926 272.457 c 228.926
 250.371 246.895 232.402 268.984 232.402 c 291.07 232.402 309.039 250.371
 309.039 272.457 c 309.039 294.543 291.07 312.512 268.984 312.512 c h
268.984 238.402 m 250.203 238.402 234.926 253.68 234.926 272.457 c 234.926
 291.234 250.203 306.512 268.984 306.512 c 287.762 306.512 303.039 291.234
 303.039 272.457 c 303.039 253.68 287.762 238.402 268.984 238.402 c h
268.984 238.402 m f
Q Q
showpage
%%Trailer
end
%%EOF
