%!PS-Adobe-3.0 EPSF-3.0
%%Creator: cairo 1.16.0 (https://cairographics.org)
%%CreationDate: Fri Jan 10 07:38:53 2020
%%Pages: 1
%%DocumentData: Clean7Bit
%%LanguageLevel: 2
%%BoundingBox: 3 3 381 381
%%EndComments
%%BeginProlog
50 dict begin
/q { gsave } bind def
/Q { grestore } bind def
/cm { 6 array astore concat } bind def
/w { setlinewidth } bind def
/J { setlinecap } bind def
/j { setlinejoin } bind def
/M { setmiterlimit } bind def
/d { setdash } bind def
/m { moveto } bind def
/l { lineto } bind def
/c { curveto } bind def
/h { closepath } bind def
/re { exch dup neg 3 1 roll 5 3 roll moveto 0 rlineto
      0 exch rlineto 0 rlineto closepath } bind def
/S { stroke } bind def
/f { fill } bind def
/f* { eofill } bind def
/n { newpath } bind def
/W { clip } bind def
/W* { eoclip } bind def
/BT { } bind def
/ET { } bind def
/BDC { mark 3 1 roll /BDC pdfmark } bind def
/EMC { mark /EMC pdfmark } bind def
/cairo_store_point { /cairo_point_y exch def /cairo_point_x exch def } def
/Tj { show currentpoint cairo_store_point } bind def
/TJ {
  {
    dup
    type /stringtype eq
    { show } { -0.001 mul 0 cairo_font_matrix dtransform rmoveto } ifelse
  } forall
  currentpoint cairo_store_point
} bind def
/cairo_selectfont { cairo_font_matrix aload pop pop pop 0 0 6 array astore
    cairo_font exch selectfont cairo_point_x cairo_point_y moveto } bind def
/Tf { pop /cairo_font exch def /cairo_font_matrix where
      { pop cairo_selectfont } if } bind def
/Td { matrix translate cairo_font_matrix matrix concatmatrix dup
      /cairo_font_matrix exch def dup 4 get exch 5 get cairo_store_point
      /cairo_font where { pop cairo_selectfont } if } bind def
/Tm { 2 copy 8 2 roll 6 array astore /cairo_font_matrix exch def
      cairo_store_point /cairo_font where { pop cairo_selectfont } if } bind def
/g { setgray } bind def
/rg { setrgbcolor } bind def
/d1 { setcachedevice } bind def
/cairo_data_source {
  CairoDataIndex CairoData length lt
    { CairoData CairoDataIndex get /CairoDataIndex CairoDataIndex 1 add def }
    { () } ifelse
} def
/cairo_flush_ascii85_file { cairo_ascii85_file status { cairo_ascii85_file flushfile } if } def
/cairo_image { image cairo_flush_ascii85_file } def
/cairo_imagemask { imagemask cairo_flush_ascii85_file } def
%%EndProlog
%%BeginSetup
%%EndSetup
%%Page: 1 1
%%BeginPageSetup
%%PageBoundingBox: 3 3 381 381
%%EndPageSetup
q 3 3 378 378 rectclip
1 0 0 -1 0 384 cm q
0.988235 0.760784 0.298039 rg
162.312 336.535 m 181.293 355.516 212.18 355.516 231.164 336.535 c 220.262
 325.633 l 207.289 338.605 186.188 338.602 173.215 325.633 c 180.574 318.273
 l 166.707 317.215 l 152.836 316.156 l 153.895 330.027 l 154.953 343.895
 l h
162.312 336.535 m f
346.57 126.914 m 346.57 100.07 324.73 78.23 297.887 78.23 c 297.887 93.648
 l 316.23 93.648 331.152 108.57 331.152 126.914 c 320.746 126.914 l 338.863
 148.023 l 356.98 126.914 l h
346.57 126.914 m f
75.703 93.988 m 48.859 93.988 27.02 115.828 27.02 142.676 c 42.438 142.676
 l 42.438 124.328 57.363 109.406 75.703 109.406 c 75.703 119.816 l 96.812
 101.699 l 86.258 92.641 l 75.703 83.578 l h
75.703 93.988 m f
0.321569 0.435294 0.666667 rg
175.797 97.598 m 175.797 67.051 l 208.352 67.051 l 208.352 97.598 l 231.117
 97.598 l 242.504 97.613 251.723 106.961 251.707 118.348 c 251.707 145.805
 l 132.289 145.805 l 132.289 118.176 l 132.305 106.789 141.602 97.574 152.988
 97.586 c h
175.797 97.598 m f
0.203922 0.317647 0.54902 rg
231.117 97.598 m 220.98 97.598 l 232.367 97.613 241.586 106.953 241.57 
118.34 c 241.57 145.805 l 251.707 145.805 l 251.707 118.348 l 251.723 106.961
 242.504 97.613 231.117 97.598 c h
231.117 97.598 m f
0.439216 0.552941 0.784314 rg
152.988 97.59 m 163.125 97.598 l 151.738 97.582 142.445 106.801 142.43 
118.188 c 142.43 145.805 l 132.289 145.805 l 132.289 118.176 l 132.305 106.793
 141.602 97.574 152.988 97.59 c h
152.988 97.59 m f
0.411765 0.0196078 0.537255 rg
251.711 148.805 m 132.293 148.805 l 130.637 148.805 129.293 147.461 129.293
 145.805 c 129.293 118.18 l 129.301 111.867 131.773 105.938 136.262 101.48
 c 140.734 97.035 146.664 94.59 152.961 94.59 c 152.992 94.59 l 172.797 
94.598 l 172.797 67.051 l 172.797 65.395 174.141 64.051 175.797 64.051 c
 208.352 64.051 l 210.008 64.051 211.352 65.395 211.352 67.051 c 211.352
 94.598 l 231.117 94.598 l 244.145 94.613 254.723 105.27 254.711 118.352
 c 254.711 145.805 l 254.711 147.465 253.363 148.805 251.711 148.805 c h
135.293 142.805 m 248.711 142.805 l 248.711 118.348 l 248.723 108.57 240.828
 100.609 231.117 100.598 c 208.352 100.598 l 206.695 100.598 205.352 99.254
 205.352 97.598 c 205.352 70.051 l 178.797 70.051 l 178.797 97.598 l 178.797
 98.395 178.48 99.156 177.918 99.719 c 177.355 100.281 176.59 100.598 175.797
 100.598 c 175.797 100.598 175.797 100.598 175.793 100.598 c 152.988 100.59
 l 152.98 100.59 152.973 100.59 152.961 100.59 c 148.258 100.59 143.832 
102.414 140.488 105.738 c 137.145 109.062 135.297 113.484 135.289 118.184
 c 135.289 142.805 l h
135.293 142.805 m f
1 0.623529 0.439216 rg
175.797 67.051 m 208.352 67.051 l 208.352 99.785 l 208.352 108.773 201.062
 116.062 192.074 116.062 c 183.086 116.062 175.797 108.777 175.797 99.785
 c h
175.797 67.051 m f
0.411765 0.0196078 0.537255 rg
192.074 119.062 m 181.445 119.062 172.797 110.414 172.797 99.785 c 172.797
 67.051 l 172.797 65.395 174.141 64.051 175.797 64.051 c 208.352 64.051 
l 210.008 64.051 211.352 65.395 211.352 67.051 c 211.352 99.785 l 211.352
 110.414 202.703 119.062 192.074 119.062 c h
178.797 70.051 m 178.797 99.785 l 178.797 107.105 184.754 113.062 192.074
 113.062 c 199.395 113.062 205.352 107.105 205.352 99.785 c 205.352 70.051
 l h
178.797 70.051 m f
1 0.741176 0.556863 rg
159.762 39.188 m 157.457 39.188 l 151.504 39.188 146.676 44.016 146.676
 49.969 c 146.676 55.926 151.504 60.754 157.457 60.754 c 159.762 60.754 
l h
159.762 39.188 m f
0.882353 0.505882 0.321569 rg
226.602 39.188 m 224.297 39.188 l 224.297 60.754 l 226.602 60.754 l 232.559
 60.754 237.387 55.926 237.387 49.969 c 237.383 44.016 232.559 39.188 226.602
 39.188 c h
226.602 39.188 m f
1 0.623529 0.439216 rg
192.031 94.004 m 174.207 94.004 159.762 79.371 159.762 61.316 c 159.762
 38.688 l 159.762 20.633 174.207 6 192.031 6 c 209.852 6 224.297 20.633 
224.297 38.688 c 224.297 61.316 l 224.297 79.367 209.852 94.004 192.031 
94.004 c h
192.031 94.004 m f
0.882353 0.505882 0.321569 rg
192.031 6 m 190.789 6 189.566 6.078 188.363 6.215 c 204.457 8.062 216.965
 21.891 216.965 38.688 c 216.965 61.316 l 216.965 78.109 204.457 91.941 
188.363 93.785 c 189.566 93.926 190.789 94.004 192.031 94.004 c 209.852 
94.004 224.297 79.367 224.297 61.316 c 224.297 38.688 l 224.297 20.633 209.852
 6 192.031 6 c h
192.031 6 m f
1 0.741176 0.556863 rg
192.031 6 m 193.27 6 194.492 6.078 195.695 6.215 c 179.602 8.062 167.094
 21.891 167.094 38.688 c 167.094 61.316 l 167.094 78.109 179.602 91.941 
195.695 93.785 c 194.492 93.926 193.27 94.004 192.031 94.004 c 174.207 94.004
 159.762 79.367 159.762 61.316 c 159.762 38.688 l 159.762 20.633 174.207
 6 192.031 6 c h
192.031 6 m f
0.411765 0.0196078 0.537255 rg
192.031 97.004 m 172.586 97.004 156.762 80.992 156.762 61.316 c 156.762
 38.688 l 156.762 19.008 172.586 3 192.031 3 c 211.477 3 227.297 19.008 
227.297 38.688 c 227.297 61.316 l 227.297 80.992 211.477 97.004 192.031 
97.004 c h
192.031 9 m 175.891 9 162.762 22.316 162.762 38.688 c 162.762 61.316 l 
162.762 77.684 175.891 91.004 192.031 91.004 c 208.168 91.004 221.297 77.684
 221.297 61.316 c 221.297 38.688 l 221.297 22.316 208.168 9 192.031 9 c 
h
192.031 9 m f
159.762 63.754 m 157.457 63.754 l 149.859 63.754 143.676 57.57 143.676 
49.969 c 143.676 42.367 149.859 36.188 157.457 36.188 c 159.762 36.188 l
 161.418 36.188 162.762 37.531 162.762 39.188 c 162.762 60.754 l 162.762
 62.41 161.418 63.754 159.762 63.754 c h
156.762 42.219 m 152.793 42.57 149.676 45.91 149.676 49.969 c 149.676 54.027
 152.793 57.367 156.762 57.723 c h
156.762 42.219 m f
226.602 63.754 m 224.297 63.754 l 222.641 63.754 221.297 62.41 221.297 
60.754 c 221.297 39.188 l 221.297 37.531 222.641 36.188 224.297 36.188 c
 226.602 36.188 l 234.199 36.188 240.383 42.367 240.383 49.969 c 240.383
 57.57 234.203 63.754 226.602 63.754 c h
227.297 42.219 m 227.297 57.723 l 231.266 57.367 234.387 54.027 234.387
 49.973 c 234.387 45.914 231.266 42.57 227.297 42.219 c h
227.297 42.219 m f
0.533333 0.321569 0.658824 rg
49.504 329.793 m 49.504 299.246 l 82.059 299.246 l 82.059 329.793 l 104.824
 329.793 l 116.211 329.805 125.43 339.156 125.418 350.539 c 125.418 378 
l 6 378 l 6 350.371 l 6.016 338.988 15.309 329.77 26.695 329.781 c h
49.504 329.793 m f
0.415686 0.203922 0.541176 rg
104.824 329.793 m 94.688 329.793 l 106.074 329.805 115.293 339.148 115.277
 350.531 c 115.277 378 l 125.414 378 l 125.414 350.543 l 125.43 339.156 
116.211 329.805 104.824 329.793 c h
104.824 329.793 m f
0.65098 0.439216 0.776471 rg
26.695 329.781 m 36.836 329.793 l 25.449 329.777 16.152 338.996 16.137 
350.383 c 16.137 378 l 6 378 l 6 350.371 l 6.016 338.988 15.309 329.766 
26.695 329.781 c h
26.695 329.781 m f
0.411765 0.0196078 0.537255 rg
125.414 381 m 6 381 l 4.344 381 3 379.656 3 378 c 3 350.371 l 3.016 337.359
 13.633 326.781 26.672 326.781 c 26.703 326.781 l 46.504 326.789 l 46.504
 299.246 l 46.504 297.59 47.848 296.246 49.504 296.246 c 82.059 296.246 
l 83.715 296.246 85.059 297.59 85.059 299.246 c 85.059 326.793 l 104.824
 326.793 l 111.137 326.801 117.066 329.285 121.527 333.793 c 125.977 338.285
 128.426 344.234 128.418 350.547 c 128.418 378 l 128.414 379.656 127.074
 381 125.414 381 c h
9 375 m 122.414 375 l 122.414 350.543 l 122.426 340.766 114.535 332.805
 104.82 332.793 c 82.059 332.793 l 80.402 332.793 79.059 331.449 79.059 
329.793 c 79.059 302.246 l 52.504 302.246 l 52.504 329.793 l 52.504 330.59
 52.188 331.352 51.625 331.914 c 51.062 332.477 50.297 332.793 49.504 332.793
 c 49.504 332.793 49.504 332.793 49.5 332.793 c 26.695 332.785 l 26.688 
332.785 26.676 332.785 26.672 332.785 c 16.934 332.785 9.012 340.672 9 350.379
 c h
9 375 m f
1 0.623529 0.439216 rg
49.504 299.246 m 82.059 299.246 l 82.059 331.977 l 82.059 340.969 74.773
 348.258 65.781 348.258 c 56.793 348.258 49.508 340.969 49.508 331.977 c
 49.508 299.246 l h
49.504 299.246 m f
0.411765 0.0196078 0.537255 rg
65.781 351.258 m 55.152 351.258 46.504 342.609 46.504 331.977 c 46.504 
299.246 l 46.504 297.59 47.848 296.246 49.504 296.246 c 82.059 296.246 l
 83.715 296.246 85.059 297.59 85.059 299.246 c 85.059 331.977 l 85.059 342.609
 76.41 351.258 65.781 351.258 c h
52.504 302.246 m 52.504 331.977 l 52.504 339.301 58.461 345.258 65.781 
345.258 c 73.102 345.258 79.059 339.301 79.059 331.977 c 79.059 302.246 
l h
52.504 302.246 m f
1 0.741176 0.556863 rg
33.469 271.379 m 31.164 271.379 l 25.211 271.379 20.383 276.207 20.383 
282.164 c 20.383 288.117 25.211 292.945 31.164 292.945 c 33.469 292.945 
l h
33.469 271.379 m f
0.882353 0.505882 0.321569 rg
100.309 271.379 m 98.004 271.379 l 98.004 292.945 l 100.309 292.945 l 106.266
 292.945 111.094 288.121 111.094 282.164 c 111.094 276.207 106.266 271.379
 100.309 271.379 c h
100.309 271.379 m f
1 0.623529 0.439216 rg
65.738 326.199 m 47.914 326.199 33.469 311.562 33.469 293.512 c 33.469 
270.883 l 33.469 252.828 47.914 238.195 65.738 238.195 c 83.559 238.195 
98.004 252.828 98.004 270.883 c 98.004 293.512 l 98.004 311.562 83.559 326.199
 65.738 326.199 c h
65.738 326.199 m f
0.882353 0.505882 0.321569 rg
65.738 238.195 m 64.496 238.195 63.273 238.273 62.07 238.41 c 78.164 240.254
 90.672 254.086 90.672 270.879 c 90.672 293.508 l 90.672 310.305 78.164 
324.137 62.07 325.98 c 63.277 326.117 64.496 326.195 65.738 326.195 c 83.559
 326.195 98.004 311.562 98.004 293.508 c 98.004 270.879 l 98.004 252.828
 83.559 238.195 65.738 238.195 c h
65.738 238.195 m f
1 0.741176 0.556863 rg
65.738 238.195 m 66.977 238.195 68.199 238.273 69.402 238.41 c 53.309 240.254
 40.805 254.086 40.805 270.879 c 40.805 293.508 l 40.805 310.305 53.309 
324.137 69.402 325.98 c 68.199 326.117 66.977 326.195 65.738 326.195 c 47.914
 326.195 33.469 311.562 33.469 293.508 c 33.469 270.879 l 33.469 252.828
 47.914 238.195 65.738 238.195 c h
65.738 238.195 m f
0.411765 0.0196078 0.537255 rg
65.738 329.199 m 46.293 329.199 30.469 313.188 30.469 293.508 c 30.469 
270.879 l 30.469 251.203 46.289 235.191 65.738 235.191 c 85.184 235.191 
101.004 251.203 101.004 270.879 c 101.004 293.508 l 101.004 313.188 85.184
 329.199 65.738 329.199 c h
65.738 241.195 m 49.598 241.195 36.469 254.512 36.469 270.883 c 36.469 
293.512 l 36.469 309.879 49.598 323.199 65.738 323.199 c 81.875 323.199 
95.004 309.883 95.004 293.512 c 95.004 270.883 l 95.004 254.512 81.875 241.195
 65.738 241.195 c h
65.738 241.195 m f
33.469 295.945 m 31.164 295.945 l 23.566 295.945 17.383 289.766 17.383 
282.164 c 17.383 274.566 23.566 268.383 31.164 268.383 c 33.469 268.383 
l 35.125 268.383 36.469 269.727 36.469 271.383 c 36.469 292.945 l 36.469
 294.602 35.129 295.945 33.469 295.945 c h
30.469 274.41 m 26.504 274.766 23.383 278.105 23.383 282.164 c 23.383 286.223
 26.504 289.562 30.469 289.914 c h
30.469 274.41 m f
100.309 295.945 m 98.004 295.945 l 96.348 295.945 95.004 294.602 95.004
 292.945 c 95.004 271.379 l 95.004 269.723 96.348 268.379 98.004 268.379
 c 100.309 268.379 l 107.91 268.379 114.09 274.562 114.09 282.16 c 114.094
 289.766 107.91 295.945 100.309 295.945 c h
101.004 274.41 m 101.004 289.914 l 104.973 289.562 108.094 286.223 108.094
 282.164 c 108.094 278.105 104.973 274.766 101.004 274.41 c h
101.004 274.41 m f
0.956863 0.937255 0.929412 rg
302.09 329.793 m 302.09 299.246 l 334.641 299.246 l 334.641 329.793 l 357.41
 329.793 l 368.797 329.805 378.012 339.156 378 350.539 c 378 378 l 258.582
 378 l 258.582 350.371 l 258.598 338.988 267.895 329.77 279.281 329.781 
c h
302.09 329.793 m f
0.839216 0.819608 0.811765 rg
357.41 329.793 m 347.27 329.793 l 358.656 329.805 367.875 339.148 367.859
 350.531 c 367.859 378 l 378 378 l 378 350.543 l 378.016 339.156 368.797
 329.805 357.41 329.793 c h
357.41 329.793 m f
1 g
279.281 329.781 m 289.418 329.793 l 278.031 329.777 268.738 338.996 268.723
 350.383 c 268.723 378 l 258.582 378 l 258.582 350.371 l 258.598 338.988
 267.895 329.766 279.281 329.781 c h
279.281 329.781 m f
0.411765 0.0196078 0.537255 rg
378 381 m 258.586 381 l 256.93 381 255.586 379.656 255.586 378 c 255.586
 350.371 l 255.602 337.359 266.219 326.781 279.254 326.781 c 279.285 326.781
 l 299.09 326.789 l 299.09 299.246 l 299.09 297.59 300.434 296.246 302.09
 296.246 c 334.641 296.246 l 336.297 296.246 337.641 297.59 337.641 299.246
 c 337.641 326.793 l 357.41 326.793 l 363.719 326.801 369.648 329.285 374.113
 333.793 c 378.562 338.285 381.008 344.234 381 350.547 c 381 378 l 381 379.656
 379.656 381 378 381 c h
261.586 375 m 375 375 l 375 350.543 l 375.008 345.824 373.176 341.375 369.848
 338.012 c 366.52 334.652 362.102 332.797 357.406 332.793 c 334.641 332.793
 l 332.984 332.793 331.641 331.449 331.641 329.793 c 331.641 302.246 l 305.09
 302.246 l 305.09 329.793 l 305.09 330.59 304.773 331.352 304.211 331.914
 c 303.648 332.477 302.883 332.793 302.09 332.793 c 302.086 332.793 l 279.277
 332.781 l 279.273 332.781 279.262 332.781 279.254 332.781 c 269.52 332.781
 261.598 340.668 261.582 350.375 c 261.582 375 l h
261.586 375 m f
1 0.623529 0.439216 rg
302.09 299.246 m 334.641 299.246 l 334.641 331.977 l 334.641 340.969 327.355
 348.258 318.367 348.258 c 309.375 348.258 302.09 340.969 302.09 331.977
 c h
302.09 299.246 m f
0.411765 0.0196078 0.537255 rg
318.367 351.258 m 307.738 351.258 299.09 342.609 299.09 331.977 c 299.09
 299.246 l 299.09 297.59 300.434 296.246 302.09 296.246 c 334.641 296.246
 l 336.297 296.246 337.641 297.59 337.641 299.246 c 337.641 331.977 l 337.641
 342.609 328.996 351.258 318.367 351.258 c h
305.09 302.246 m 305.09 331.977 l 305.09 339.301 311.047 345.258 318.367
 345.258 c 325.688 345.258 331.645 339.301 331.645 331.977 c 331.645 302.246
 l h
305.09 302.246 m f
1 0.741176 0.556863 rg
286.055 271.379 m 283.75 271.379 l 277.797 271.379 272.969 276.207 272.969
 282.164 c 272.969 288.117 277.797 292.945 283.75 292.945 c 286.055 292.945
 l h
286.055 271.379 m f
0.882353 0.505882 0.321569 rg
352.895 271.379 m 350.59 271.379 l 350.59 292.945 l 352.895 292.945 l 358.848
 292.945 363.676 288.121 363.676 282.164 c 363.676 276.207 358.848 271.379
 352.895 271.379 c h
352.895 271.379 m f
1 0.623529 0.439216 rg
318.324 326.199 m 300.5 326.199 286.055 311.562 286.055 293.512 c 286.055
 270.883 l 286.055 252.828 300.5 238.195 318.324 238.195 c 336.145 238.195
 350.59 252.828 350.59 270.883 c 350.59 293.512 l 350.59 311.562 336.141
 326.199 318.324 326.199 c h
318.324 326.199 m f
0.882353 0.505882 0.321569 rg
318.324 238.195 m 317.082 238.195 315.859 238.273 314.656 238.41 c 330.75
 240.254 343.258 254.086 343.258 270.879 c 343.258 293.508 l 343.258 310.305
 330.75 324.137 314.656 325.98 c 315.859 326.117 317.082 326.195 318.324
 326.195 c 336.145 326.195 350.59 311.562 350.59 293.508 c 350.59 270.879
 l 350.59 252.828 336.141 238.195 318.324 238.195 c h
318.324 238.195 m f
1 0.741176 0.556863 rg
318.324 238.195 m 319.562 238.195 320.785 238.273 321.988 238.41 c 305.898
 240.254 293.391 254.086 293.391 270.879 c 293.391 293.508 l 293.391 310.305
 305.898 324.137 321.988 325.98 c 320.785 326.117 319.562 326.195 318.324
 326.195 c 300.5 326.195 286.055 311.562 286.055 293.508 c 286.055 270.879
 l 286.055 252.828 300.5 238.195 318.324 238.195 c h
318.324 238.195 m f
0.411765 0.0196078 0.537255 rg
318.324 329.199 m 298.875 329.199 283.055 313.188 283.055 293.508 c 283.055
 270.879 l 283.055 251.203 298.875 235.191 318.324 235.191 c 337.77 235.191
 353.59 251.203 353.59 270.879 c 353.59 293.508 l 353.59 313.188 337.77 
329.199 318.324 329.199 c h
318.324 241.195 m 302.184 241.195 289.055 254.512 289.055 270.883 c 289.055
 293.512 l 289.055 309.879 302.184 323.199 318.324 323.199 c 334.461 323.199
 347.59 309.883 347.59 293.512 c 347.59 270.883 l 347.59 254.512 334.461
 241.195 318.324 241.195 c h
318.324 241.195 m f
286.055 295.945 m 283.75 295.945 l 276.152 295.945 269.969 289.766 269.969
 282.164 c 269.969 274.566 276.152 268.383 283.75 268.383 c 286.055 268.383
 l 287.711 268.383 289.055 269.727 289.055 271.383 c 289.055 292.945 l 289.055
 294.602 287.711 295.945 286.055 295.945 c h
283.055 274.41 m 279.086 274.766 275.969 278.105 275.969 282.164 c 275.969
 286.223 279.086 289.562 283.055 289.914 c h
283.055 274.41 m f
352.895 295.945 m 350.59 295.945 l 348.934 295.945 347.59 294.602 347.59
 292.945 c 347.59 271.379 l 347.59 269.723 348.934 268.379 350.59 268.379
 c 352.895 268.379 l 360.492 268.379 366.676 274.562 366.676 282.16 c 366.676
 289.766 360.492 295.945 352.895 295.945 c h
353.59 274.41 m 353.59 289.914 l 357.559 289.562 360.68 286.223 360.68 
282.164 c 360.676 278.105 357.555 274.766 353.59 274.41 c h
353.59 274.41 m f
196.738 353.77 m 184.438 353.77 172.137 349.418 162.371 340.715 c 157.074
 346.016 l 156.246 346.844 155.008 347.113 153.91 346.707 c 152.812 346.301
 152.051 345.289 151.961 344.121 c 149.844 316.383 l 149.777 315.512 150.094
 314.652 150.715 314.035 c 151.332 313.414 152.176 313.098 153.062 313.164
 c 180.801 315.281 l 181.969 315.371 182.977 316.133 183.387 317.23 c 183.793
 318.328 183.523 319.566 182.695 320.391 c 177.559 325.527 l 189.438 335.266
 207.055 334.598 218.141 323.508 c 218.703 322.945 219.465 322.629 220.262
 322.629 c 221.055 322.629 221.82 322.945 222.383 323.508 c 233.281 334.41
 l 234.453 335.582 234.453 337.48 233.281 338.652 c 223.211 348.73 209.973
 353.77 196.738 353.77 c h
162.312 333.531 m 163.078 333.531 163.848 333.824 164.434 334.41 c 181.531
 351.512 208.93 352.195 226.852 336.465 c 220.176 329.785 l 205.941 341.852
 184.52 341.18 171.094 327.75 c 169.922 326.578 169.922 324.68 171.094 323.508
 c 173.836 320.766 l 156.094 319.41 l 157.445 337.156 l 160.191 334.41 l
 160.777 333.828 161.543 333.531 162.312 333.531 c h
162.312 333.531 m f
338.863 151.023 m 337.988 151.023 337.156 150.641 336.586 149.98 c 318.469
 128.871 l 317.703 127.98 317.527 126.727 318.02 125.664 c 318.508 124.598
 319.57 123.914 320.742 123.914 c 328.004 123.914 l 326.496 108.629 313.562
 96.648 297.887 96.648 c 296.23 96.648 294.887 95.305 294.887 93.648 c 294.887
 78.23 l 294.887 76.574 296.23 75.23 297.887 75.23 c 325.379 75.23 347.926
 96.805 349.484 123.914 c 356.977 123.914 l 358.148 123.914 359.215 124.598
 359.703 125.664 c 360.191 126.727 360.016 127.977 359.254 128.871 c 341.137
 149.98 l 340.57 150.641 339.738 151.023 338.863 151.023 c h
327.273 129.914 m 338.863 143.418 l 350.453 129.914 l 346.574 129.914 l
 344.918 129.914 343.574 128.57 343.574 126.914 c 343.574 102.73 324.688
 82.875 300.887 81.328 c 300.887 90.77 l 319.488 92.301 334.156 107.93 334.156
 126.914 c 334.156 128.57 332.812 129.914 331.156 129.914 c h
349.57 126.914 m 349.586 126.914 l h
349.57 126.914 m f
42.438 145.676 m 27.02 145.676 l 25.363 145.676 24.02 144.328 24.02 142.676
 c 24.02 115.184 45.598 92.637 72.707 91.074 c 72.707 83.578 l 72.707 82.41
 73.391 81.344 74.453 80.855 c 75.52 80.363 76.77 80.539 77.66 81.305 c 
98.77 99.422 l 99.434 99.992 99.816 100.824 99.816 101.699 c 99.816 102.574
 99.434 103.406 98.77 103.977 c 77.66 122.094 l 76.77 122.855 75.52 123.031
 74.453 122.543 c 73.387 122.055 72.703 120.988 72.703 119.816 c 72.703 
112.555 l 57.418 114.066 45.438 127 45.438 142.676 c 45.438 144.328 44.094
 145.676 42.438 145.676 c h
30.117 139.676 m 39.562 139.676 l 41.094 121.074 56.719 106.406 75.703 
106.406 c 77.359 106.406 78.703 107.75 78.703 109.406 c 78.703 113.289 l
 92.207 101.699 l 78.703 90.109 l 78.703 93.988 l 78.703 95.645 77.359 96.988
 75.703 96.988 c 51.523 96.988 31.668 115.875 30.117 139.676 c h
75.703 93.988 m 75.719 93.988 l h
75.703 93.988 m f
0.988235 0.760784 0.298039 rg
257.379 235.949 m 257.379 214.051 l 245.258 214.051 l 243.848 207.168 241.133
 200.762 237.391 195.094 c 245.973 186.512 l 230.484 171.027 l 221.902 179.609
 l 216.234 175.867 209.832 173.148 202.949 171.742 c 202.949 159.621 l 181.047
 159.621 l 181.047 171.742 l 174.164 173.148 167.762 175.867 162.094 179.609
 c 153.512 171.027 l 138.027 186.512 l 146.605 195.094 l 142.867 200.762
 140.148 207.168 138.738 214.051 c 126.621 214.051 l 126.621 235.949 l 138.738
 235.949 l 140.148 242.832 142.863 249.238 146.605 254.906 c 138.027 263.488
 l 153.512 278.973 l 162.094 270.391 l 167.762 274.133 174.164 276.852 181.047
 278.258 c 181.047 290.379 l 202.949 290.379 l 202.949 278.258 l 209.832
 276.852 216.234 274.133 221.902 270.391 c 230.484 278.973 l 245.969 263.488
 l 237.387 254.906 l 241.133 249.238 243.848 242.832 245.258 235.949 c h
192 263.789 m 170.578 263.789 153.211 246.422 153.211 225 c 153.211 203.578
 170.578 186.211 192 186.211 c 213.422 186.211 230.789 203.578 230.789 225
 c 230.789 246.422 213.422 263.789 192 263.789 c h
192 263.789 m f
0.411765 0.0196078 0.537255 rg
202.949 293.379 m 181.051 293.379 l 179.395 293.379 178.051 292.035 178.051
 290.379 c 178.051 280.652 l 172.586 279.289 167.379 277.125 162.523 274.207
 c 155.633 281.094 l 154.465 282.266 152.562 282.266 151.391 281.094 c 135.906
 265.605 l 134.734 264.434 134.734 262.535 135.906 261.363 c 142.793 254.477
 l 139.871 249.621 137.711 244.414 136.348 238.949 c 126.621 238.949 l 124.965
 238.949 123.621 237.605 123.621 235.949 c 123.621 214.051 l 123.621 212.395
 124.965 211.051 126.621 211.051 c 136.348 211.051 l 137.711 205.586 139.871
 200.379 142.793 195.523 c 135.906 188.633 l 134.734 187.461 134.734 185.562
 135.906 184.391 c 151.391 168.906 l 152.562 167.734 154.465 167.734 155.633
 168.906 c 162.523 175.793 l 167.379 172.871 172.586 170.711 178.051 169.344
 c 178.051 159.621 l 178.051 157.965 179.395 156.621 181.051 156.621 c 202.949
 156.621 l 204.605 156.621 205.949 157.965 205.949 159.621 c 205.949 169.344
 l 211.414 170.711 216.621 172.871 221.477 175.793 c 228.367 168.906 l 229.539
 167.734 231.438 167.734 232.609 168.906 c 248.094 184.391 l 249.266 185.562
 249.266 187.461 248.094 188.633 c 241.207 195.523 l 244.129 200.379 246.289
 205.586 247.656 211.051 c 257.379 211.051 l 259.035 211.051 260.379 212.395
 260.379 214.051 c 260.379 235.949 l 260.379 237.605 259.035 238.949 257.379
 238.949 c 247.656 238.949 l 246.289 244.414 244.129 249.621 241.207 254.477
 c 248.094 261.367 l 249.266 262.539 249.266 264.438 248.094 265.609 c 232.609
 281.094 l 231.438 282.266 229.539 282.266 228.367 281.094 c 221.477 274.207
 l 216.621 277.129 211.414 279.289 205.949 280.656 c 205.949 290.379 l 205.949
 292.035 204.605 293.379 202.949 293.379 c h
184.051 287.379 m 199.949 287.379 l 199.949 278.258 l 199.949 276.832 200.953
 275.605 202.352 275.32 c 208.738 274.012 214.762 271.512 220.254 267.887
 c 221.445 267.102 223.02 267.262 224.027 268.27 c 230.488 274.73 l 241.734
 263.484 l 235.273 257.023 l 234.266 256.02 234.105 254.441 234.891 253.25
 c 238.512 247.762 241.016 241.738 242.32 235.348 c 242.605 233.949 243.836
 232.949 245.262 232.949 c 254.379 232.949 l 254.379 217.051 l 245.262 217.051
 l 243.836 217.051 242.605 216.047 242.32 214.652 c 241.016 208.262 238.512
 202.238 234.891 196.746 c 234.105 195.559 234.266 193.98 235.273 192.973
 c 241.734 186.512 l 230.488 175.27 l 224.027 181.727 l 223.023 182.734 
221.445 182.898 220.254 182.109 c 214.762 178.484 208.738 175.984 202.352
 174.68 c 200.953 174.395 199.949 173.164 199.949 171.742 c 199.949 162.621
 l 184.051 162.621 l 184.051 171.742 l 184.051 173.164 183.047 174.395 181.652
 174.68 c 175.262 175.984 169.242 178.488 163.746 182.113 c 162.562 182.898
 160.98 182.738 159.973 181.73 c 153.512 175.27 l 142.27 186.516 l 148.727
 192.977 l 149.734 193.98 149.895 195.559 149.109 196.75 c 145.488 202.238
 142.984 208.262 141.68 214.652 c 141.395 216.051 140.164 217.051 138.742
 217.051 c 129.621 217.051 l 129.621 232.949 l 138.742 232.949 l 140.164
 232.949 141.395 233.953 141.68 235.348 c 142.984 241.738 145.488 247.762
 149.109 253.254 c 149.895 254.441 149.734 256.02 148.727 257.027 c 142.27
 263.488 l 153.512 274.73 l 159.973 268.273 l 160.98 267.266 162.562 267.105
 163.746 267.891 c 169.242 271.516 175.262 274.016 181.652 275.32 c 183.047
 275.605 184.051 276.836 184.051 278.262 c h
192 266.789 m 168.957 266.789 150.211 248.043 150.211 225 c 150.211 201.957
 168.957 183.211 192 183.211 c 215.043 183.211 233.789 201.957 233.789 225
 c 233.789 248.043 215.043 266.789 192 266.789 c h
192 189.211 m 172.266 189.211 156.211 205.266 156.211 225 c 156.211 244.734
 172.266 260.789 192 260.789 c 211.734 260.789 227.789 244.734 227.789 225
 c 227.789 205.266 211.734 189.211 192 189.211 c h
192 189.211 m f
0.870588 0.643137 0.180392 rg
236.25 188.367 m 231.035 193.586 l 230.176 194.441 229.984 195.781 230.617
 196.816 c 233.445 201.469 235.598 206.574 236.93 212.004 c 237.223 213.195
 238.262 214.051 239.488 214.051 c 245.262 214.051 l 243.852 207.168 241.137
 200.762 237.395 195.094 c 245.973 186.512 l 230.488 171.027 l 226.555 174.961
 l 236.25 184.66 l 237.273 185.684 237.273 187.344 236.25 188.367 c h
236.25 188.367 m f
249.512 214.051 7.867 21.902 re f
245.258 235.949 m 239.488 235.949 l 238.262 235.949 237.223 236.805 236.93
 237.996 c 235.598 243.426 233.441 248.531 230.613 253.184 c 229.984 254.219
 230.176 255.559 231.031 256.414 c 236.25 261.633 l 237.273 262.656 237.273
 264.316 236.25 265.344 c 226.551 275.039 l 230.484 278.973 l 245.973 263.488
 l 237.391 254.906 l 241.133 249.238 243.852 242.832 245.258 235.949 c h
245.258 235.949 m f
0.988235 0.878431 0.415686 rg
147.75 188.367 m 152.965 193.586 l 153.824 194.441 154.016 195.781 153.383
 196.816 c 150.555 201.469 148.402 206.574 147.07 212.004 c 146.777 213.195
 145.738 214.051 144.512 214.051 c 138.738 214.051 l 140.148 207.168 142.863
 200.762 146.605 195.094 c 138.027 186.512 l 153.512 171.027 l 157.445 174.961
 l 147.75 184.66 l 146.727 185.684 146.727 187.344 147.75 188.367 c h
147.75 188.367 m f
126.621 214.051 7.867 21.902 re f
138.742 235.949 m 144.512 235.949 l 145.738 235.949 146.777 236.805 147.07
 237.996 c 148.402 243.426 150.559 248.531 153.387 253.184 c 154.016 254.219
 153.824 255.559 152.969 256.414 c 147.75 261.633 l 146.727 262.656 146.727
 264.316 147.75 265.344 c 157.449 275.039 l 153.512 278.973 l 138.027 263.488
 l 146.609 254.906 l 142.867 249.238 140.148 242.832 138.742 235.949 c h
138.742 235.949 m f
0.411765 0.0196078 0.537255 rg
202.949 293.379 m 181.051 293.379 l 179.395 293.379 178.051 292.035 178.051
 290.379 c 178.051 280.652 l 172.586 279.289 167.379 277.125 162.523 274.207
 c 155.633 281.094 l 154.465 282.266 152.562 282.266 151.391 281.094 c 135.906
 265.605 l 134.734 264.434 134.734 262.535 135.906 261.363 c 142.793 254.477
 l 139.871 249.621 137.711 244.414 136.348 238.949 c 126.621 238.949 l 124.965
 238.949 123.621 237.605 123.621 235.949 c 123.621 214.051 l 123.621 212.395
 124.965 211.051 126.621 211.051 c 136.348 211.051 l 137.711 205.586 139.871
 200.379 142.793 195.523 c 135.906 188.633 l 134.734 187.461 134.734 185.562
 135.906 184.391 c 151.391 168.906 l 152.562 167.734 154.465 167.734 155.633
 168.906 c 162.523 175.793 l 167.379 172.871 172.586 170.711 178.051 169.344
 c 178.051 159.621 l 178.051 157.965 179.395 156.621 181.051 156.621 c 202.949
 156.621 l 204.605 156.621 205.949 157.965 205.949 159.621 c 205.949 169.344
 l 211.414 170.711 216.621 172.871 221.477 175.793 c 228.367 168.906 l 229.539
 167.734 231.438 167.734 232.609 168.906 c 248.094 184.391 l 249.266 185.562
 249.266 187.461 248.094 188.633 c 241.207 195.523 l 244.129 200.379 246.289
 205.586 247.656 211.051 c 257.379 211.051 l 259.035 211.051 260.379 212.395
 260.379 214.051 c 260.379 235.949 l 260.379 237.605 259.035 238.949 257.379
 238.949 c 247.656 238.949 l 246.289 244.414 244.129 249.621 241.207 254.477
 c 248.094 261.367 l 249.266 262.539 249.266 264.438 248.094 265.609 c 232.609
 281.094 l 231.438 282.266 229.539 282.266 228.367 281.094 c 221.477 274.207
 l 216.621 277.129 211.414 279.289 205.949 280.656 c 205.949 290.379 l 205.949
 292.035 204.605 293.379 202.949 293.379 c h
184.051 287.379 m 199.949 287.379 l 199.949 278.258 l 199.949 276.832 200.953
 275.605 202.352 275.32 c 208.738 274.012 214.762 271.512 220.254 267.887
 c 221.445 267.102 223.02 267.262 224.027 268.27 c 230.488 274.73 l 241.734
 263.484 l 235.273 257.023 l 234.266 256.02 234.105 254.441 234.891 253.25
 c 238.512 247.762 241.016 241.738 242.32 235.348 c 242.605 233.949 243.836
 232.949 245.262 232.949 c 254.379 232.949 l 254.379 217.051 l 245.262 217.051
 l 243.836 217.051 242.605 216.047 242.32 214.652 c 241.016 208.262 238.512
 202.238 234.891 196.746 c 234.105 195.559 234.266 193.98 235.273 192.973
 c 241.734 186.512 l 230.488 175.27 l 224.027 181.727 l 223.023 182.734 
221.445 182.898 220.254 182.109 c 214.762 178.484 208.738 175.984 202.352
 174.68 c 200.953 174.395 199.949 173.164 199.949 171.742 c 199.949 162.621
 l 184.051 162.621 l 184.051 171.742 l 184.051 173.164 183.047 174.395 181.652
 174.68 c 175.262 175.984 169.242 178.488 163.746 182.113 c 162.562 182.898
 160.98 182.738 159.973 181.73 c 153.512 175.27 l 142.27 186.516 l 148.727
 192.977 l 149.734 193.98 149.895 195.559 149.109 196.75 c 145.488 202.238
 142.984 208.262 141.68 214.652 c 141.395 216.051 140.164 217.051 138.742
 217.051 c 129.621 217.051 l 129.621 232.949 l 138.742 232.949 l 140.164
 232.949 141.395 233.953 141.68 235.348 c 142.984 241.738 145.488 247.762
 149.109 253.254 c 149.895 254.441 149.734 256.02 148.727 257.027 c 142.27
 263.488 l 153.512 274.73 l 159.973 268.273 l 160.98 267.266 162.562 267.105
 163.746 267.891 c 169.242 271.516 175.262 274.016 181.652 275.32 c 183.047
 275.605 184.051 276.836 184.051 278.262 c h
192 266.789 m 168.957 266.789 150.211 248.043 150.211 225 c 150.211 201.957
 168.957 183.211 192 183.211 c 215.043 183.211 233.789 201.957 233.789 225
 c 233.789 248.043 215.043 266.789 192 266.789 c h
192 189.211 m 172.266 189.211 156.211 205.266 156.211 225 c 156.211 244.734
 172.266 260.789 192 260.789 c 211.734 260.789 227.789 244.734 227.789 225
 c 227.789 205.266 211.734 189.211 192 189.211 c h
192 189.211 m f
161.938 225 m 161.965 219.133 166.887 214.359 172.812 214.332 c 175.422
 214.332 177.789 215.191 179.656 216.641 c 180.367 217.234 180.488 218.273
 179.953 219.012 c 179.359 219.754 178.266 219.871 177.582 219.34 c 176.277
 218.273 174.648 217.707 172.812 217.707 c 170.766 217.707 168.871 218.539
 167.477 219.84 c 166.145 221.203 165.316 222.984 165.316 225 c 165.316 
227.016 166.145 228.852 167.477 230.156 c 168.871 231.461 170.766 232.289
 172.812 232.289 c 174.648 232.289 176.25 231.727 177.582 230.66 c 178.266
 230.156 179.359 230.273 179.953 230.988 c 180.488 231.727 180.367 232.793
 179.656 233.355 c 177.789 234.809 175.422 235.668 172.812 235.668 c 166.887
 235.668 161.965 230.898 161.938 225 c h
161.938 225 m f
199.422 233.211 m 199.719 234.07 199.246 234.988 198.387 235.285 c 198.27
 235.312 198.031 235.371 197.734 235.371 c 197.734 235.371 197.734 235.371
 197.707 235.371 c 197.41 235.371 196.965 235.312 196.551 235.047 c 196.164
 234.809 195.84 234.422 195.602 234.008 c 195.188 233.148 194.98 232.082
 194.98 230.453 c 194.949 229.887 194.832 229.504 194.625 229.176 c 194.445
 228.852 194.09 228.555 193.734 228.316 c 193.113 227.902 192.34 227.664
 192.074 227.605 c 188.578 227.605 l 188.578 234.039 l 188.578 234.926 187.836
 235.668 186.918 235.668 c 186 235.668 185.285 234.926 185.285 234.039 c
 185.285 216.551 l 185.285 215.633 185.996 214.922 186.918 214.922 c 192.223
 214.922 l 195.75 214.922 198.562 217.766 198.562 221.293 c 198.562 223.25
 197.676 224.969 196.254 226.152 c 196.637 226.449 196.992 226.805 197.289
 227.25 c 197.883 228.109 198.27 229.207 198.27 230.449 c 198.238 231.34
 198.328 231.902 198.387 232.199 c 198.859 232.352 199.246 232.707 199.422
 233.211 c h
195.273 221.297 m 195.273 219.578 193.914 218.215 192.223 218.215 c 188.578
 218.215 l 188.578 224.32 l 192.223 224.32 l 193.91 224.32 195.273 222.957
 195.273 221.297 c h
195.273 221.297 m f
222.062 216.555 m 222.062 234.039 l 222.062 234.93 221.293 235.668 220.402
 235.668 c 219.484 235.668 218.773 234.93 218.773 234.039 c 218.773 221.562
 l 214.504 227.488 l 214.18 227.934 213.703 228.172 213.172 228.172 c 213.113
 228.172 l 212.578 228.172 212.074 227.934 211.75 227.488 c 207.512 221.562
 l 207.512 234.039 l 207.512 234.93 206.77 235.668 205.852 235.668 c 204.961
 235.668 204.223 234.93 204.223 234.039 c 204.223 216.555 l 204.223 215.664
 204.961 214.922 205.852 214.922 c 205.941 214.922 l 206.414 214.922 206.949
 215.16 207.246 215.605 c 213.141 223.785 l 219.039 215.605 l 219.367 215.16
 219.84 214.922 220.375 214.922 c 220.402 214.922 l 221.293 214.953 222.062
 215.664 222.062 216.555 c h
222.062 216.555 m f
142.43 136.496 m 140.773 136.496 139.43 135.152 139.43 133.496 c 139.43
 115.496 l 139.43 113.84 140.773 112.496 142.43 112.496 c 144.086 112.496
 145.43 113.84 145.43 115.496 c 145.43 133.496 l 145.43 135.152 144.086 
136.496 142.43 136.496 c h
142.43 136.496 m f
Q Q
showpage
%%Trailer
end
%%EOF
