%!PS-Adobe-3.0 EPSF-3.0
%%Creator: cairo 1.16.0 (https://cairographics.org)
%%CreationDate: Fri Jan 10 07:38:53 2020
%%Pages: 1
%%DocumentData: Clean7Bit
%%LanguageLevel: 2
%%BoundingBox: 89 3 295 381
%%EndComments
%%BeginProlog
50 dict begin
/q { gsave } bind def
/Q { grestore } bind def
/cm { 6 array astore concat } bind def
/w { setlinewidth } bind def
/J { setlinecap } bind def
/j { setlinejoin } bind def
/M { setmiterlimit } bind def
/d { setdash } bind def
/m { moveto } bind def
/l { lineto } bind def
/c { curveto } bind def
/h { closepath } bind def
/re { exch dup neg 3 1 roll 5 3 roll moveto 0 rlineto
      0 exch rlineto 0 rlineto closepath } bind def
/S { stroke } bind def
/f { fill } bind def
/f* { eofill } bind def
/n { newpath } bind def
/W { clip } bind def
/W* { eoclip } bind def
/BT { } bind def
/ET { } bind def
/BDC { mark 3 1 roll /BDC pdfmark } bind def
/EMC { mark /EMC pdfmark } bind def
/cairo_store_point { /cairo_point_y exch def /cairo_point_x exch def } def
/Tj { show currentpoint cairo_store_point } bind def
/TJ {
  {
    dup
    type /stringtype eq
    { show } { -0.001 mul 0 cairo_font_matrix dtransform rmoveto } ifelse
  } forall
  currentpoint cairo_store_point
} bind def
/cairo_selectfont { cairo_font_matrix aload pop pop pop 0 0 6 array astore
    cairo_font exch selectfont cairo_point_x cairo_point_y moveto } bind def
/Tf { pop /cairo_font exch def /cairo_font_matrix where
      { pop cairo_selectfont } if } bind def
/Td { matrix translate cairo_font_matrix matrix concatmatrix dup
      /cairo_font_matrix exch def dup 4 get exch 5 get cairo_store_point
      /cairo_font where { pop cairo_selectfont } if } bind def
/Tm { 2 copy 8 2 roll 6 array astore /cairo_font_matrix exch def
      cairo_store_point /cairo_font where { pop cairo_selectfont } if } bind def
/g { setgray } bind def
/rg { setrgbcolor } bind def
/d1 { setcachedevice } bind def
/cairo_data_source {
  CairoDataIndex CairoData length lt
    { CairoData CairoDataIndex get /CairoDataIndex CairoDataIndex 1 add def }
    { () } ifelse
} def
/cairo_flush_ascii85_file { cairo_ascii85_file status { cairo_ascii85_file flushfile } if } def
/cairo_image { image cairo_flush_ascii85_file } def
/cairo_imagemask { imagemask cairo_flush_ascii85_file } def
%%EndProlog
%%BeginSetup
%%EndSetup
%%Page: 1 1
%%BeginPageSetup
%%PageBoundingBox: 89 3 295 381
%%EndPageSetup
q 89 3 206 378 rectclip
1 0 0 -1 0 384 cm q
0.533333 0.321569 0.658824 rg
205.121 378 m 189.387 378 177.113 364.383 178.742 348.73 c 191.469 226.434
 l 218.773 226.434 l 231.504 348.73 l 233.133 364.383 220.855 378 205.121
 378 c h
205.121 378 m f
0.411765 0.0196078 0.537255 rg
205.125 381 m 196.777 381 188.781 377.445 183.195 371.242 c 177.605 365.043
 174.895 356.727 175.758 348.422 c 188.488 226.125 l 188.645 224.598 189.934
 223.434 191.469 223.434 c 218.777 223.434 l 220.312 223.434 221.602 224.598
 221.762 226.125 c 234.488 348.422 l 235.352 356.727 232.641 365.043 227.051
 371.242 c 221.465 377.445 213.469 381 205.125 381 c h
194.172 229.434 m 181.727 349.043 l 181.039 355.66 183.195 362.285 187.652
 367.227 c 192.102 372.168 198.473 375 205.125 375 c 211.773 375 218.145
 372.168 222.594 367.227 c 227.051 362.289 229.211 355.66 228.52 349.043
 c 216.074 229.434 l h
194.172 229.434 m f
0.988235 0.760784 0.298039 rg
284.777 116.598 m 303.785 160.555 283.562 211.598 239.605 230.605 c 195.652
 249.617 144.609 229.391 125.598 185.438 c 106.59 141.48 126.812 90.438 
170.77 71.43 c 214.727 52.418 265.77 72.641 284.777 116.598 c h
284.777 116.598 m f
0.870588 0.643137 0.180392 rg
203.109 237.496 m 204.602 237.621 206.109 237.699 207.621 237.75 c 254.344
 236.426 291.82 198.16 291.82 151.117 c 291.82 104.07 254.34 65.805 207.613
 64.48 c 206.105 64.531 204.602 64.613 203.109 64.734 c 247.648 68.367 282.672
 105.641 282.672 151.117 c 282.672 196.594 247.648 233.863 203.109 237.496
 c h
203.109 237.496 m f
0.988235 0.878431 0.415686 rg
207.137 64.734 m 205.641 64.613 204.137 64.531 202.625 64.48 c 155.902 
65.805 118.422 104.07 118.422 151.113 c 118.422 198.16 155.902 236.426 202.629
 237.75 c 204.141 237.699 205.641 237.617 207.137 237.496 c 162.594 233.863
 127.574 196.59 127.574 151.113 c 127.574 105.641 162.594 68.367 207.137
 64.734 c h
207.137 64.734 m f
0.411765 0.0196078 0.537255 rg
205.125 240.812 m 181.164 240.812 158.637 231.484 141.699 214.539 c 106.727
 179.566 106.727 122.664 141.699 87.688 c 176.672 52.715 233.574 52.715 
268.547 87.688 c 285.488 104.629 294.82 127.156 294.82 151.113 c 294.82 
175.074 285.492 197.598 268.547 214.539 c 251.605 231.48 229.082 240.812
 205.125 240.812 c h
205.125 67.457 m 183.691 67.457 162.258 75.617 145.941 91.934 c 113.309
 124.566 113.309 177.664 145.941 210.301 c 161.746 226.109 182.766 234.816
 205.125 234.816 c 227.48 234.816 248.5 226.109 264.309 210.301 c 280.117
 194.492 288.82 173.473 288.82 151.117 c 288.82 128.762 280.117 107.742 
264.309 91.934 c 247.988 75.617 226.555 67.457 205.125 67.457 c h
205.125 67.457 m f
0.956863 0.937255 0.929412 rg
269.082 151.117 m 269.082 186.441 240.445 215.078 205.121 215.078 c 169.797
 215.078 141.16 186.441 141.16 151.117 c 141.16 115.793 169.797 87.156 205.121
 87.156 c 240.445 87.156 269.082 115.793 269.082 151.117 c h
269.082 151.117 m f
0.411765 0.0196078 0.537255 rg
205.125 218.047 m 187.977 218.047 170.828 211.52 157.773 198.465 c 131.664
 172.359 131.664 129.875 157.773 103.766 c 183.883 77.66 226.363 77.656 
252.473 103.766 c 278.582 129.875 278.582 172.359 252.473 198.465 c 239.418
 211.52 222.27 218.047 205.125 218.047 c h
205.125 90.184 m 189.512 90.184 173.902 96.121 162.016 108.008 c 138.246
 131.781 138.246 170.453 162.016 194.223 c 185.785 217.992 224.461 217.992
 248.23 194.223 c 272 170.453 272 131.777 248.23 108.008 c 236.348 96.125
 220.734 90.184 205.125 90.184 c h
205.125 90.184 m f
0.533333 0.321569 0.658824 rg
92.18 77.148 29.902 90.629 re f
136.191 48.816 29.902 118.961 re f
180.199 56.059 29.902 111.719 re f
224.207 6 29.902 161.777 re f
0.415686 0.203922 0.541176 rg
243.066 6.32 11.043 161.457 re f
0.65098 0.439216 0.776471 rg
92.18 77.148 11.043 90.629 re f
0.411765 0.0196078 0.537255 rg
122.082 170.777 m 92.18 170.777 l 90.523 170.777 89.18 169.434 89.18 167.777
 c 89.18 77.148 l 89.18 75.492 90.523 74.148 92.18 74.148 c 122.082 74.148
 l 123.738 74.148 125.082 75.492 125.082 77.148 c 125.082 167.777 l 125.082
 169.434 123.738 170.777 122.082 170.777 c h
95.18 164.777 m 119.082 164.777 l 119.082 80.148 l 95.18 80.148 l h
95.18 164.777 m f
166.094 170.777 m 136.188 170.777 l 134.531 170.777 133.188 169.434 133.188
 167.777 c 133.188 48.816 l 133.188 47.16 134.531 45.816 136.188 45.816 
c 166.09 45.816 l 167.746 45.816 169.09 47.16 169.09 48.816 c 169.09 167.777
 l 169.094 169.434 167.746 170.777 166.094 170.777 c h
139.188 164.777 m 163.09 164.777 l 163.09 51.816 l 139.188 51.816 l h
139.188 164.777 m f
210.102 170.777 m 180.199 170.777 l 178.543 170.777 177.199 169.434 177.199
 167.777 c 177.199 56.059 l 177.199 54.402 178.543 53.059 180.199 53.059
 c 210.102 53.059 l 211.758 53.059 213.102 54.402 213.102 56.059 c 213.102
 167.777 l 213.102 169.434 211.758 170.777 210.102 170.777 c h
183.199 164.777 m 207.102 164.777 l 207.102 59.059 l 183.199 59.059 l h
183.199 164.777 m f
254.109 170.777 m 224.207 170.777 l 222.551 170.777 221.207 169.434 221.207
 167.777 c 221.207 6 l 221.207 4.344 222.551 3 224.207 3 c 254.109 3 l 255.766
 3 257.109 4.344 257.109 6 c 257.109 167.777 l 257.109 169.434 255.766 170.777
 254.109 170.777 c h
227.207 164.777 m 251.109 164.777 l 251.109 9 l 227.207 9 l h
227.207 164.777 m f
0.988235 0.760784 0.298039 rg
167.582 274.184 m 135.066 235.559 l 102.543 274.184 l 121.961 274.184 l
 121.961 326.52 l 148.164 326.52 l 148.164 274.184 l h
167.582 274.184 m f
0.411765 0.0196078 0.537255 rg
148.164 329.52 m 121.961 329.52 l 120.305 329.52 118.961 328.176 118.961
 326.52 c 118.961 277.184 l 102.543 277.184 l 101.375 277.184 100.316 276.508
 99.824 275.449 c 99.332 274.395 99.496 273.145 100.25 272.254 c 132.77 
233.625 l 133.91 232.273 136.219 232.273 137.359 233.625 c 169.879 272.254
 l 170.633 273.145 170.797 274.395 170.305 275.449 c 169.812 276.508 168.75
 277.184 167.586 277.184 c 151.168 277.184 l 151.168 326.52 l 151.164 328.176
 149.824 329.52 148.164 329.52 c h
124.961 323.52 m 145.168 323.52 l 145.168 274.184 l 145.168 272.527 146.512
 271.184 148.168 271.184 c 161.137 271.184 l 135.066 240.215 l 108.992 271.184
 l 121.961 271.184 l 123.617 271.184 124.961 272.527 124.961 274.184 c h
124.961 323.52 m f
103.223 122.039 m 101.566 122.039 100.223 120.695 100.223 119.039 c 100.223
 101.039 l 100.223 99.383 101.566 98.039 103.223 98.039 c 104.879 98.039
 106.223 99.383 106.223 101.039 c 106.223 119.039 l 106.223 120.695 104.879
 122.039 103.223 122.039 c h
103.223 122.039 m f
Q Q
showpage
%%Trailer
end
%%EOF
