%!PS-Adobe-3.0 EPSF-3.0
%%Creator: cairo 1.16.0 (https://cairographics.org)
%%CreationDate: Fri Jan 10 07:38:55 2020
%%Pages: 1
%%DocumentData: Clean7Bit
%%LanguageLevel: 2
%%BoundingBox: 3 26 381 358
%%EndComments
%%BeginProlog
50 dict begin
/q { gsave } bind def
/Q { grestore } bind def
/cm { 6 array astore concat } bind def
/w { setlinewidth } bind def
/J { setlinecap } bind def
/j { setlinejoin } bind def
/M { setmiterlimit } bind def
/d { setdash } bind def
/m { moveto } bind def
/l { lineto } bind def
/c { curveto } bind def
/h { closepath } bind def
/re { exch dup neg 3 1 roll 5 3 roll moveto 0 rlineto
      0 exch rlineto 0 rlineto closepath } bind def
/S { stroke } bind def
/f { fill } bind def
/f* { eofill } bind def
/n { newpath } bind def
/W { clip } bind def
/W* { eoclip } bind def
/BT { } bind def
/ET { } bind def
/BDC { mark 3 1 roll /BDC pdfmark } bind def
/EMC { mark /EMC pdfmark } bind def
/cairo_store_point { /cairo_point_y exch def /cairo_point_x exch def } def
/Tj { show currentpoint cairo_store_point } bind def
/TJ {
  {
    dup
    type /stringtype eq
    { show } { -0.001 mul 0 cairo_font_matrix dtransform rmoveto } ifelse
  } forall
  currentpoint cairo_store_point
} bind def
/cairo_selectfont { cairo_font_matrix aload pop pop pop 0 0 6 array astore
    cairo_font exch selectfont cairo_point_x cairo_point_y moveto } bind def
/Tf { pop /cairo_font exch def /cairo_font_matrix where
      { pop cairo_selectfont } if } bind def
/Td { matrix translate cairo_font_matrix matrix concatmatrix dup
      /cairo_font_matrix exch def dup 4 get exch 5 get cairo_store_point
      /cairo_font where { pop cairo_selectfont } if } bind def
/Tm { 2 copy 8 2 roll 6 array astore /cairo_font_matrix exch def
      cairo_store_point /cairo_font where { pop cairo_selectfont } if } bind def
/g { setgray } bind def
/rg { setrgbcolor } bind def
/d1 { setcachedevice } bind def
/cairo_data_source {
  CairoDataIndex CairoData length lt
    { CairoData CairoDataIndex get /CairoDataIndex CairoDataIndex 1 add def }
    { () } ifelse
} def
/cairo_flush_ascii85_file { cairo_ascii85_file status { cairo_ascii85_file flushfile } if } def
/cairo_image { image cairo_flush_ascii85_file } def
/cairo_imagemask { imagemask cairo_flush_ascii85_file } def
%%EndProlog
%%BeginSetup
%%EndSetup
%%Page: 1 1
%%BeginPageSetup
%%PageBoundingBox: 3 26 381 358
%%EndPageSetup
q 3 26 378 332 rectclip
1 0 0 -1 0 384 cm q
0.411765 0.0196078 0.537255 rg
193.891 293.43 m 143.805 293.43 l 142.148 293.43 140.805 292.086 140.805
 290.43 c 140.805 288.773 142.148 287.43 143.805 287.43 c 193.891 287.43
 l 200.559 287.43 205.984 282.004 205.984 275.332 c 205.984 108.668 l 205.984
 101.996 200.559 96.57 193.891 96.57 c 143.805 96.57 l 142.148 96.57 140.805
 95.227 140.805 93.57 c 140.805 91.914 142.148 90.57 143.805 90.57 c 193.891
 90.57 l 203.867 90.57 211.984 98.688 211.984 108.668 c 211.984 275.332 
l 211.984 285.312 203.867 293.43 193.891 293.43 c h
193.891 293.43 m f
0.956863 0.937255 0.929412 rg
138.543 114.93 m 11.258 114.93 l 8.355 114.93 6 112.578 6 109.672 c 6 77.469
 l 6 74.562 8.355 72.207 11.258 72.207 c 138.543 72.207 l 141.449 72.207
 143.805 74.562 143.805 77.469 c 143.805 109.672 l 143.805 112.578 141.449
 114.93 138.543 114.93 c h
138.543 114.93 m f
138.543 157.656 m 11.258 157.656 l 8.352 157.656 6 155.301 6 152.398 c 
6 120.191 l 6 117.285 8.355 114.93 11.258 114.93 c 138.543 114.93 l 141.449
 114.93 143.805 117.285 143.805 120.191 c 143.805 152.398 l 143.805 155.301
 141.449 157.656 138.543 157.656 c h
138.543 157.656 m f
138.543 72.207 m 11.258 72.207 l 8.355 72.207 6 69.852 6 66.949 c 6 34.742
 l 6 31.84 8.355 29.484 11.258 29.484 c 138.543 29.484 l 141.449 29.484 
143.805 31.84 143.805 34.742 c 143.805 66.949 l 143.805 69.852 141.449 72.207
 138.543 72.207 c h
138.543 72.207 m f
0.839216 0.819608 0.811765 rg
138.543 29.484 m 130.062 29.484 l 132.965 29.484 135.32 31.84 135.32 34.742
 c 135.32 66.949 l 135.32 69.855 132.965 72.207 130.062 72.207 c 138.543
 72.207 l 141.449 72.207 143.805 69.852 143.805 66.949 c 143.805 34.742 
l 143.805 31.836 141.449 29.484 138.543 29.484 c h
138.543 29.484 m f
138.543 72.207 m 130.062 72.207 l 132.965 72.207 135.32 74.562 135.32 77.465
 c 135.32 109.672 l 135.32 112.578 132.965 114.93 130.062 114.93 c 138.543
 114.93 l 141.449 114.93 143.805 112.578 143.805 109.672 c 143.805 77.465
 l 143.805 74.562 141.449 72.207 138.543 72.207 c h
138.543 72.207 m f
138.543 114.93 m 130.062 114.93 l 132.965 114.93 135.32 117.285 135.32 
120.191 c 135.32 152.398 l 135.32 155.301 132.965 157.656 130.062 157.656
 c 138.543 157.656 l 141.449 157.656 143.805 155.301 143.805 152.398 c 143.805
 120.191 l 143.805 117.285 141.449 114.93 138.543 114.93 c h
138.543 114.93 m f
1 g
11.258 157.656 m 19.742 157.656 l 16.836 157.656 14.484 155.301 14.484 
152.398 c 14.484 120.191 l 14.484 117.285 16.836 114.93 19.742 114.93 c 
11.258 114.93 l 8.355 114.93 6 117.285 6 120.191 c 6 152.398 l 6 155.301
 8.355 157.656 11.258 157.656 c h
11.258 157.656 m f
11.258 114.93 m 19.742 114.93 l 16.836 114.93 14.484 112.578 14.484 109.672
 c 14.484 77.465 l 14.484 74.562 16.836 72.207 19.742 72.207 c 11.258 72.207
 l 8.355 72.207 6 74.562 6 77.465 c 6 109.672 l 6 112.578 8.355 114.93 11.258
 114.93 c h
11.258 114.93 m f
11.258 72.207 m 19.742 72.207 l 16.836 72.207 14.484 69.852 14.484 66.949
 c 14.484 34.742 l 14.484 31.84 16.836 29.484 19.742 29.484 c 11.258 29.484
 l 8.355 29.484 6 31.836 6 34.742 c 6 66.949 l 6 69.852 8.355 72.207 11.258
 72.207 c h
11.258 72.207 m f
0.411765 0.0196078 0.537255 rg
138.543 75.207 m 11.258 75.207 l 6.703 75.207 3 71.504 3 66.949 c 3 34.742
 l 3 30.188 6.703 26.484 11.258 26.484 c 138.543 26.484 l 143.098 26.484
 146.805 30.188 146.805 34.742 c 146.805 66.949 l 146.805 71.504 143.098
 75.207 138.543 75.207 c h
11.258 32.484 m 10.016 32.484 9 33.496 9 34.742 c 9 66.949 l 9 68.195 10.016
 69.207 11.258 69.207 c 138.543 69.207 l 139.789 69.207 140.805 68.195 140.805
 66.949 c 140.805 34.742 l 140.805 33.496 139.789 32.484 138.543 32.484 
c h
11.258 32.484 m f
0.321569 0.435294 0.666667 rg
117.348 100.012 m 64.324 100.012 l 60.391 100.012 57.203 96.824 57.203 
92.891 c 57.203 88.961 60.391 85.773 64.324 85.773 c 117.348 85.773 l 121.281
 85.773 124.469 88.961 124.469 92.891 c 124.469 96.824 121.281 100.012 117.348
 100.012 c h
117.348 100.012 m f
0.411765 0.0196078 0.537255 rg
117.348 103.012 m 64.324 103.012 l 58.742 103.012 54.203 98.473 54.203 
92.891 c 54.203 87.312 58.742 82.773 64.324 82.773 c 117.352 82.773 l 122.934
 82.773 127.473 87.312 127.473 92.891 c 127.473 98.473 122.93 103.012 117.348
 103.012 c h
64.324 88.773 m 62.051 88.773 60.203 90.621 60.203 92.891 c 60.203 95.164
 62.051 97.012 64.324 97.012 c 117.352 97.012 l 119.625 97.012 121.473 95.164
 121.473 92.891 c 121.473 90.621 119.625 88.773 117.352 88.773 c h
64.324 88.773 m f
0.533333 0.321569 0.658824 rg
42.574 92.891 m 42.574 96.824 39.387 100.012 35.453 100.012 c 31.52 100.012
 28.332 96.824 28.332 92.891 c 28.332 88.961 31.52 85.773 35.453 85.773 
c 39.387 85.773 42.574 88.961 42.574 92.891 c h
42.574 92.891 m f
0.411765 0.0196078 0.537255 rg
35.457 103.012 m 29.875 103.012 25.336 98.473 25.336 92.891 c 25.336 87.312
 29.875 82.773 35.457 82.773 c 41.035 82.773 45.574 87.312 45.574 92.891
 c 45.574 98.473 41.035 103.012 35.457 103.012 c h
35.457 88.773 m 33.184 88.773 31.336 90.621 31.336 92.891 c 31.336 95.164
 33.184 97.012 35.457 97.012 c 37.727 97.012 39.574 95.164 39.574 92.891
 c 39.574 90.621 37.727 88.773 35.457 88.773 c h
35.457 88.773 m f
0.321569 0.435294 0.666667 rg
117.348 142.738 m 64.324 142.738 l 60.391 142.738 57.203 139.551 57.203
 135.617 c 57.203 131.684 60.391 128.496 64.324 128.496 c 117.348 128.496
 l 121.281 128.496 124.469 131.684 124.469 135.617 c 124.469 139.547 121.281
 142.738 117.348 142.738 c h
117.348 142.738 m f
0.411765 0.0196078 0.537255 rg
117.348 145.738 m 64.324 145.738 l 58.742 145.738 54.203 141.195 54.203
 135.617 c 54.203 130.035 58.742 125.496 64.324 125.496 c 117.352 125.496
 l 122.934 125.496 127.473 130.035 127.473 135.617 c 127.469 141.195 122.93
 145.738 117.348 145.738 c h
64.324 131.496 m 62.051 131.496 60.203 133.344 60.203 135.617 c 60.203 
137.891 62.051 139.738 64.324 139.738 c 117.352 139.738 l 119.625 139.738
 121.473 137.891 121.473 135.617 c 121.473 133.344 119.625 131.496 117.352
 131.496 c h
64.324 131.496 m f
0.533333 0.321569 0.658824 rg
42.574 135.613 m 42.574 139.547 39.387 142.734 35.453 142.734 c 31.52 142.734
 28.332 139.547 28.332 135.613 c 28.332 131.684 31.52 128.496 35.453 128.496
 c 39.387 128.496 42.574 131.684 42.574 135.613 c h
42.574 135.613 m f
0.411765 0.0196078 0.537255 rg
35.457 145.738 m 29.875 145.738 25.336 141.195 25.336 135.617 c 25.336 
130.035 29.875 125.496 35.457 125.496 c 41.035 125.496 45.574 130.035 45.574
 135.617 c 45.574 141.195 41.035 145.738 35.457 145.738 c h
35.457 131.496 m 33.184 131.496 31.336 133.344 31.336 135.617 c 31.336 
137.891 33.184 139.738 35.457 139.738 c 37.727 139.738 39.574 137.891 39.574
 135.617 c 39.574 133.344 37.727 131.496 35.457 131.496 c h
35.457 131.496 m f
0.321569 0.435294 0.666667 rg
117.348 57.289 m 64.324 57.289 l 60.391 57.289 57.203 54.102 57.203 50.168
 c 57.203 46.234 60.391 43.047 64.324 43.047 c 117.348 43.047 l 121.281 
43.047 124.469 46.234 124.469 50.168 c 124.469 54.102 121.281 57.289 117.348
 57.289 c h
117.348 57.289 m f
0.411765 0.0196078 0.537255 rg
117.348 60.289 m 64.324 60.289 l 58.742 60.289 54.203 55.746 54.203 50.168
 c 54.203 44.586 58.742 40.047 64.324 40.047 c 117.352 40.047 l 122.934 
40.047 127.473 44.586 127.473 50.168 c 127.473 55.746 122.93 60.289 117.348
 60.289 c h
64.324 46.047 m 62.051 46.047 60.203 47.895 60.203 50.168 c 60.203 52.441
 62.051 54.289 64.324 54.289 c 117.352 54.289 l 119.625 54.289 121.473 52.441
 121.473 50.168 c 121.473 47.895 119.625 46.047 117.352 46.047 c h
64.324 46.047 m f
0.533333 0.321569 0.658824 rg
42.574 50.168 m 42.574 54.102 39.387 57.289 35.453 57.289 c 31.52 57.289
 28.332 54.102 28.332 50.168 c 28.332 46.234 31.52 43.047 35.453 43.047 
c 39.387 43.047 42.574 46.234 42.574 50.168 c h
42.574 50.168 m f
0.411765 0.0196078 0.537255 rg
35.457 60.289 m 29.875 60.289 25.336 55.746 25.336 50.168 c 25.336 44.586
 29.875 40.047 35.457 40.047 c 41.035 40.047 45.574 44.586 45.574 50.168
 c 45.574 55.746 41.035 60.289 35.457 60.289 c h
35.457 46.047 m 33.184 46.047 31.336 47.895 31.336 50.168 c 31.336 52.441
 33.184 54.289 35.457 54.289 c 37.727 54.289 39.574 52.441 39.574 50.168
 c 39.574 47.895 37.727 46.047 35.457 46.047 c h
35.457 46.047 m f
138.543 117.93 m 11.258 117.93 l 6.703 117.93 3 114.227 3 109.672 c 3 77.469
 l 3 72.914 6.703 69.207 11.258 69.207 c 138.543 69.207 l 143.098 69.207
 146.805 72.914 146.805 77.469 c 146.805 109.676 l 146.805 114.227 143.098
 117.93 138.543 117.93 c h
11.258 75.207 m 10.016 75.207 9 76.223 9 77.469 c 9 109.676 l 9 110.922
 10.016 111.934 11.258 111.934 c 138.543 111.934 l 139.789 111.934 140.805
 110.922 140.805 109.676 c 140.805 77.469 l 140.805 76.223 139.789 75.207
 138.543 75.207 c h
11.258 75.207 m f
138.543 160.656 m 11.258 160.656 l 6.703 160.656 3 156.949 3 152.398 c 
3 120.191 l 3 115.637 6.703 111.934 11.258 111.934 c 138.543 111.934 l 143.098
 111.934 146.805 115.637 146.805 120.191 c 146.805 152.398 l 146.805 156.949
 143.098 160.656 138.543 160.656 c h
11.258 117.93 m 10.016 117.93 9 118.945 9 120.191 c 9 152.395 l 9 153.641
 10.016 154.656 11.258 154.656 c 138.543 154.656 l 139.789 154.656 140.805
 153.641 140.805 152.395 c 140.805 120.191 l 140.805 118.945 139.789 117.93
 138.543 117.93 c h
11.258 117.93 m f
0.956863 0.937255 0.929412 rg
138.543 311.793 m 11.258 311.793 l 8.352 311.793 6 309.438 6 306.535 c 
6 274.328 l 6 271.422 8.355 269.07 11.258 269.07 c 138.543 269.07 l 141.449
 269.07 143.805 271.422 143.805 274.328 c 143.805 306.535 l 143.805 309.438
 141.449 311.793 138.543 311.793 c h
138.543 311.793 m f
138.543 354.516 m 11.258 354.516 l 8.352 354.516 6 352.16 6 349.258 c 6
 317.051 l 6 314.148 8.355 311.793 11.258 311.793 c 138.543 311.793 l 141.449
 311.793 143.805 314.148 143.805 317.051 c 143.805 349.258 l 143.805 352.164
 141.449 354.516 138.543 354.516 c h
138.543 354.516 m f
138.543 269.07 m 11.258 269.07 l 8.352 269.07 6 266.715 6 263.809 c 6 231.602
 l 6 228.699 8.355 226.344 11.258 226.344 c 138.543 226.344 l 141.449 226.344
 143.805 228.699 143.805 231.602 c 143.805 263.809 l 143.805 266.715 141.449
 269.07 138.543 269.07 c h
138.543 269.07 m f
0.839216 0.819608 0.811765 rg
138.543 226.344 m 130.062 226.344 l 132.965 226.344 135.32 228.699 135.32
 231.602 c 135.32 263.809 l 135.32 266.715 132.965 269.07 130.062 269.07
 c 138.543 269.07 l 141.449 269.07 143.805 266.715 143.805 263.809 c 143.805
 231.602 l 143.805 228.699 141.449 226.344 138.543 226.344 c h
138.543 226.344 m f
138.543 269.07 m 130.062 269.07 l 132.965 269.07 135.32 271.422 135.32 
274.328 c 135.32 306.535 l 135.32 309.438 132.965 311.793 130.062 311.793
 c 138.543 311.793 l 141.449 311.793 143.805 309.438 143.805 306.535 c 143.805
 274.328 l 143.805 271.422 141.449 269.07 138.543 269.07 c h
138.543 269.07 m f
138.543 311.793 m 130.062 311.793 l 132.965 311.793 135.32 314.148 135.32
 317.051 c 135.32 349.258 l 135.32 352.164 132.965 354.516 130.062 354.516
 c 138.543 354.516 l 141.449 354.516 143.805 352.164 143.805 349.258 c 143.805
 317.051 l 143.805 314.148 141.449 311.793 138.543 311.793 c h
138.543 311.793 m f
1 g
11.258 354.516 m 19.742 354.516 l 16.836 354.516 14.484 352.16 14.484 349.258
 c 14.484 317.051 l 14.484 314.148 16.836 311.793 19.742 311.793 c 11.258
 311.793 l 8.352 311.793 6 314.148 6 317.051 c 6 349.258 l 6 352.164 8.355
 354.516 11.258 354.516 c h
11.258 354.516 m f
11.258 311.793 m 19.742 311.793 l 16.836 311.793 14.484 309.438 14.484 
306.535 c 14.484 274.328 l 14.484 271.422 16.836 269.07 19.742 269.07 c 
11.258 269.07 l 8.352 269.07 6 271.422 6 274.328 c 6 306.535 l 6 309.438
 8.355 311.793 11.258 311.793 c h
11.258 311.793 m f
11.258 269.07 m 19.742 269.07 l 16.836 269.07 14.484 266.715 14.484 263.809
 c 14.484 231.602 l 14.484 228.699 16.836 226.344 19.742 226.344 c 11.258
 226.344 l 8.352 226.344 6 228.699 6 231.602 c 6 263.809 l 6 266.715 8.355
 269.07 11.258 269.07 c h
11.258 269.07 m f
0.411765 0.0196078 0.537255 rg
138.543 272.07 m 11.258 272.07 l 6.703 272.07 3 268.363 3 263.809 c 3 231.605
 l 3 227.051 6.703 223.344 11.258 223.344 c 138.543 223.344 l 143.098 223.344
 146.805 227.051 146.805 231.605 c 146.805 263.809 l 146.805 268.363 143.098
 272.07 138.543 272.07 c h
11.258 229.344 m 10.016 229.344 9 230.359 9 231.602 c 9 263.809 l 9 265.055
 10.016 266.066 11.258 266.066 c 138.543 266.066 l 139.789 266.066 140.805
 265.055 140.805 263.809 c 140.805 231.602 l 140.805 230.355 139.789 229.344
 138.543 229.344 c h
11.258 229.344 m f
0.321569 0.435294 0.666667 rg
117.348 296.871 m 64.324 296.871 l 60.391 296.871 57.203 293.684 57.203
 289.754 c 57.203 285.82 60.391 282.633 64.324 282.633 c 117.348 282.633
 l 121.281 282.633 124.469 285.82 124.469 289.754 c 124.469 293.684 121.281
 296.871 117.348 296.871 c h
117.348 296.871 m f
0.411765 0.0196078 0.537255 rg
117.348 299.871 m 64.324 299.871 l 58.742 299.871 54.203 295.332 54.203
 289.754 c 54.203 284.172 58.742 279.633 64.324 279.633 c 117.352 279.633
 l 122.934 279.633 127.473 284.172 127.473 289.754 c 127.473 295.332 122.93
 299.871 117.348 299.871 c h
64.324 285.633 m 62.051 285.633 60.203 287.48 60.203 289.754 c 60.203 292.023
 62.051 293.871 64.324 293.871 c 117.352 293.871 l 119.625 293.871 121.473
 292.023 121.473 289.754 c 121.473 287.48 119.625 285.633 117.352 285.633
 c h
64.324 285.633 m f
0.533333 0.321569 0.658824 rg
42.574 289.754 m 42.574 293.684 39.387 296.871 35.453 296.871 c 31.52 296.871
 28.332 293.684 28.332 289.754 c 28.332 285.82 31.52 282.633 35.453 282.633
 c 39.387 282.633 42.574 285.82 42.574 289.754 c h
42.574 289.754 m f
0.411765 0.0196078 0.537255 rg
35.457 299.871 m 29.875 299.871 25.336 295.332 25.336 289.754 c 25.336 
284.172 29.875 279.633 35.457 279.633 c 41.035 279.633 45.574 284.172 45.574
 289.754 c 45.574 295.332 41.035 299.871 35.457 299.871 c h
35.457 285.633 m 33.184 285.633 31.336 287.48 31.336 289.754 c 31.336 292.023
 33.184 293.871 35.457 293.871 c 37.727 293.871 39.574 292.023 39.574 289.754
 c 39.574 287.48 37.727 285.633 35.457 285.633 c h
35.457 285.633 m f
0.321569 0.435294 0.666667 rg
117.348 339.598 m 64.324 339.598 l 60.391 339.598 57.203 336.41 57.203 
332.477 c 57.203 328.543 60.391 325.355 64.324 325.355 c 117.348 325.355
 l 121.281 325.355 124.469 328.543 124.469 332.477 c 124.469 336.41 121.281
 339.598 117.348 339.598 c h
117.348 339.598 m f
0.411765 0.0196078 0.537255 rg
117.348 342.598 m 64.324 342.598 l 58.742 342.598 54.203 338.055 54.203
 332.477 c 54.203 326.898 58.742 322.355 64.324 322.355 c 117.352 322.355
 l 122.934 322.355 127.473 326.898 127.473 332.477 c 127.473 338.055 122.93
 342.598 117.348 342.598 c h
64.324 328.355 m 62.051 328.355 60.203 330.203 60.203 332.477 c 60.203 
334.75 62.051 336.598 64.324 336.598 c 117.352 336.598 l 119.625 336.598
 121.473 334.75 121.473 332.477 c 121.473 330.203 119.625 328.355 117.352
 328.355 c h
64.324 328.355 m f
0.533333 0.321569 0.658824 rg
42.574 332.477 m 42.574 336.41 39.387 339.598 35.453 339.598 c 31.52 339.598
 28.332 336.41 28.332 332.477 c 28.332 328.543 31.52 325.355 35.453 325.355
 c 39.387 325.355 42.574 328.543 42.574 332.477 c h
42.574 332.477 m f
0.411765 0.0196078 0.537255 rg
35.457 342.598 m 29.875 342.598 25.336 338.055 25.336 332.477 c 25.336 
326.898 29.875 322.355 35.457 322.355 c 41.035 322.355 45.574 326.898 45.574
 332.477 c 45.574 338.055 41.035 342.598 35.457 342.598 c h
35.457 328.355 m 33.184 328.355 31.336 330.203 31.336 332.477 c 31.336 
334.75 33.184 336.598 35.457 336.598 c 37.727 336.598 39.574 334.75 39.574
 332.477 c 39.574 330.203 37.727 328.355 35.457 328.355 c h
35.457 328.355 m f
0.321569 0.435294 0.666667 rg
117.348 254.148 m 64.324 254.148 l 60.391 254.148 57.203 250.961 57.203
 247.027 c 57.203 243.094 60.391 239.906 64.324 239.906 c 117.348 239.906
 l 121.281 239.906 124.469 243.094 124.469 247.027 c 124.469 250.961 121.281
 254.148 117.348 254.148 c h
117.348 254.148 m f
0.411765 0.0196078 0.537255 rg
117.348 257.148 m 64.324 257.148 l 58.742 257.148 54.203 252.609 54.203
 247.027 c 54.203 241.449 58.742 236.906 64.324 236.906 c 117.352 236.906
 l 122.934 236.906 127.473 241.449 127.473 247.027 c 127.473 252.609 122.93
 257.148 117.348 257.148 c h
64.324 242.906 m 62.051 242.906 60.203 244.754 60.203 247.027 c 60.203 
249.301 62.051 251.148 64.324 251.148 c 117.352 251.148 l 119.625 251.148
 121.473 249.301 121.473 247.027 c 121.473 244.754 119.625 242.906 117.352
 242.906 c h
64.324 242.906 m f
0.533333 0.321569 0.658824 rg
42.574 247.027 m 42.574 250.961 39.387 254.148 35.453 254.148 c 31.52 254.148
 28.332 250.961 28.332 247.027 c 28.332 243.094 31.52 239.906 35.453 239.906
 c 39.387 239.906 42.574 243.098 42.574 247.027 c h
42.574 247.027 m f
0.411765 0.0196078 0.537255 rg
35.457 257.148 m 29.875 257.148 25.336 252.609 25.336 247.027 c 25.336 
241.449 29.875 236.906 35.457 236.906 c 41.035 236.906 45.574 241.449 45.574
 247.027 c 45.574 252.609 41.035 257.148 35.457 257.148 c h
35.457 242.906 m 33.184 242.906 31.336 244.754 31.336 247.027 c 31.336 
249.301 33.184 251.148 35.457 251.148 c 37.727 251.148 39.574 249.301 39.574
 247.027 c 39.574 244.754 37.727 242.906 35.457 242.906 c h
35.457 242.906 m f
138.543 314.793 m 11.258 314.793 l 6.703 314.793 3 311.09 3 306.535 c 3
 274.328 l 3 269.773 6.703 266.07 11.258 266.07 c 138.543 266.07 l 143.098
 266.07 146.805 269.773 146.805 274.328 c 146.805 306.535 l 146.805 311.09
 143.098 314.793 138.543 314.793 c h
11.258 272.07 m 10.016 272.07 9 273.082 9 274.328 c 9 306.535 l 9 307.781
 10.016 308.793 11.258 308.793 c 138.543 308.793 l 139.789 308.793 140.805
 307.777 140.805 306.535 c 140.805 274.328 l 140.805 273.082 139.789 272.07
 138.543 272.07 c h
11.258 272.07 m f
138.543 357.516 m 11.258 357.516 l 6.703 357.516 3 353.812 3 349.258 c 
3 317.051 l 3 312.496 6.703 308.793 11.258 308.793 c 138.543 308.793 l 143.098
 308.793 146.805 312.496 146.805 317.051 c 146.805 349.258 l 146.805 353.812
 143.098 357.516 138.543 357.516 c h
11.258 314.793 m 10.016 314.793 9 315.805 9 317.051 c 9 349.258 l 9 350.504
 10.016 351.516 11.258 351.516 c 138.543 351.516 l 139.789 351.516 140.805
 350.504 140.805 349.258 c 140.805 317.051 l 140.805 315.805 139.789 314.793
 138.543 314.793 c h
11.258 314.793 m f
0.956863 0.937255 0.929412 rg
255.531 207.621 m 162.445 207.621 l 160.32 207.621 158.598 205.902 158.598
 203.777 c 158.598 180.223 l 158.598 178.098 160.32 176.379 162.445 176.379
 c 255.531 176.379 l 257.652 176.379 259.375 178.098 259.375 180.223 c 259.375
 203.777 l 259.375 205.902 257.652 207.621 255.531 207.621 c h
255.531 207.621 m f
255.531 238.867 m 162.445 238.867 l 160.32 238.867 158.598 237.145 158.598
 235.023 c 158.598 211.469 l 158.598 209.344 160.32 207.621 162.445 207.621
 c 255.531 207.621 l 257.652 207.621 259.375 209.344 259.375 211.469 c 259.375
 235.023 l 259.375 237.145 257.652 238.867 255.531 238.867 c h
255.531 238.867 m f
255.531 176.379 m 162.445 176.379 l 160.32 176.379 158.598 174.656 158.598
 172.531 c 158.598 148.977 l 158.598 146.855 160.32 145.133 162.445 145.133
 c 255.531 145.133 l 257.652 145.133 259.375 146.855 259.375 148.977 c 259.375
 172.531 l 259.375 174.656 257.652 176.379 255.531 176.379 c h
255.531 176.379 m f
0.839216 0.819608 0.811765 rg
255.531 145.133 m 246.305 145.133 l 248.43 145.133 250.152 146.855 250.152
 148.977 c 250.152 172.531 l 250.152 174.656 248.43 176.379 246.305 176.379
 c 255.531 176.379 l 257.652 176.379 259.375 174.656 259.375 172.531 c 259.375
 148.977 l 259.375 146.855 257.652 145.133 255.531 145.133 c h
255.531 145.133 m f
255.531 176.379 m 246.305 176.379 l 248.43 176.379 250.152 178.098 250.152
 180.223 c 250.152 203.777 l 250.152 205.902 248.43 207.621 246.305 207.621
 c 255.531 207.621 l 257.652 207.621 259.375 205.902 259.375 203.777 c 259.375
 180.223 l 259.375 178.098 257.652 176.379 255.531 176.379 c h
255.531 176.379 m f
255.531 207.621 m 246.305 207.621 l 248.43 207.621 250.152 209.344 250.152
 211.469 c 250.152 235.023 l 250.152 237.145 248.43 238.867 246.305 238.867
 c 255.531 238.867 l 257.652 238.867 259.375 237.145 259.375 235.023 c 259.375
 211.469 l 259.375 209.344 257.652 207.621 255.531 207.621 c h
255.531 207.621 m f
1 g
162.445 238.867 m 171.668 238.867 l 169.543 238.867 167.82 237.145 167.82
 235.023 c 167.82 211.469 l 167.82 209.344 169.543 207.621 171.668 207.621
 c 162.445 207.621 l 160.32 207.621 158.598 209.344 158.598 211.469 c 158.598
 235.023 l 158.598 237.145 160.32 238.867 162.445 238.867 c h
162.445 238.867 m f
162.445 207.621 m 171.668 207.621 l 169.543 207.621 167.82 205.902 167.82
 203.777 c 167.82 180.223 l 167.82 178.098 169.543 176.379 171.668 176.379
 c 162.445 176.379 l 160.32 176.379 158.598 178.098 158.598 180.223 c 158.598
 203.777 l 158.598 205.902 160.32 207.621 162.445 207.621 c h
162.445 207.621 m f
162.445 176.379 m 171.668 176.379 l 169.543 176.379 167.82 174.656 167.82
 172.531 c 167.82 148.977 l 167.82 146.855 169.543 145.133 171.668 145.133
 c 162.445 145.133 l 160.32 145.133 158.598 146.855 158.598 148.977 c 158.598
 172.531 l 158.598 174.656 160.32 176.379 162.445 176.379 c h
162.445 176.379 m f
0.411765 0.0196078 0.537255 rg
255.531 179.379 m 162.445 179.379 l 158.668 179.379 155.598 176.309 155.598
 172.531 c 155.598 148.977 l 155.598 145.203 158.672 142.133 162.445 142.133
 c 255.531 142.133 l 259.305 142.133 262.375 145.203 262.375 148.977 c 262.375
 172.531 l 262.375 176.309 259.305 179.379 255.531 179.379 c h
162.445 148.133 m 161.977 148.133 161.598 148.512 161.598 148.977 c 161.598
 172.531 l 161.598 172.996 161.977 173.379 162.445 173.379 c 255.531 173.379
 l 255.996 173.379 256.375 172.996 256.375 172.531 c 256.375 148.977 l 256.375
 148.512 255.996 148.133 255.531 148.133 c h
162.445 148.133 m f
183.152 191.504 m 183.152 194.379 180.82 196.711 177.945 196.711 c 175.066
 196.711 172.734 194.379 172.734 191.504 c 172.734 188.629 175.066 186.297
 177.945 186.297 c 180.82 186.297 183.152 188.629 183.152 191.504 c h
183.152 191.504 m f
183.152 222.75 m 183.152 225.625 180.82 227.957 177.945 227.957 c 175.066
 227.957 172.734 225.625 172.734 222.75 c 172.734 219.871 175.066 217.539
 177.945 217.539 c 180.82 217.543 183.152 219.871 183.152 222.75 c h
183.152 222.75 m f
183.152 160.258 m 183.152 163.133 180.82 165.465 177.945 165.465 c 175.066
 165.465 172.734 163.137 172.734 160.258 c 172.734 157.383 175.066 155.051
 177.945 155.051 c 180.82 155.051 183.152 157.383 183.152 160.258 c h
183.152 160.258 m f
255.531 210.621 m 162.445 210.621 l 158.668 210.621 155.598 207.551 155.598
 203.777 c 155.598 180.223 l 155.598 176.449 158.672 173.379 162.445 173.379
 c 255.531 173.379 l 259.305 173.379 262.375 176.449 262.375 180.223 c 262.375
 203.777 l 262.375 207.551 259.305 210.621 255.531 210.621 c h
162.445 179.379 m 161.977 179.379 161.598 179.758 161.598 180.223 c 161.598
 203.777 l 161.598 204.242 161.977 204.621 162.445 204.621 c 255.531 204.621
 l 255.996 204.621 256.375 204.242 256.375 203.777 c 256.375 180.223 l 256.375
 179.758 255.996 179.379 255.531 179.379 c h
162.445 179.379 m f
255.531 241.867 m 162.445 241.867 l 158.668 241.867 155.598 238.797 155.598
 235.023 c 155.598 211.469 l 155.598 207.691 158.672 204.621 162.445 204.621
 c 255.531 204.621 l 259.305 204.621 262.375 207.691 262.375 211.469 c 262.375
 235.023 l 262.375 238.797 259.305 241.867 255.531 241.867 c h
162.445 210.621 m 161.977 210.621 161.598 211.004 161.598 211.469 c 161.598
 235.023 l 161.598 235.488 161.977 235.867 162.445 235.867 c 255.531 235.867
 l 255.996 235.867 256.375 235.488 256.375 235.023 c 256.375 211.469 l 256.375
 211.004 255.996 210.621 255.531 210.621 c h
162.445 210.621 m f
327.609 148.133 m 325.953 148.133 324.609 146.789 324.609 145.133 c 324.609
 108.668 l 324.609 101.996 319.184 96.57 312.516 96.57 c 193.891 96.57 l
 192.234 96.57 190.891 95.227 190.891 93.57 c 190.891 91.914 192.234 90.57
 193.891 90.57 c 312.516 90.57 l 322.492 90.57 330.609 98.688 330.609 108.668
 c 330.609 145.133 l 330.609 146.789 329.27 148.133 327.609 148.133 c h
327.609 148.133 m f
245.238 163.258 m 196.043 163.258 l 194.387 163.258 193.043 161.914 193.043
 160.258 c 193.043 158.602 194.387 157.258 196.043 157.258 c 245.238 157.258
 l 246.891 157.258 248.238 158.602 248.238 160.258 c 248.238 161.914 246.895
 163.258 245.238 163.258 c h
245.238 163.258 m f
245.238 194.504 m 196.043 194.504 l 194.387 194.504 193.043 193.16 193.043
 191.504 c 193.043 189.848 194.387 188.504 196.043 188.504 c 245.238 188.504
 l 246.891 188.504 248.238 189.848 248.238 191.504 c 248.238 193.16 246.895
 194.504 245.238 194.504 c h
245.238 194.504 m f
245.238 225.75 m 196.043 225.75 l 194.387 225.75 193.043 224.406 193.043
 222.75 c 193.043 221.094 194.387 219.75 196.043 219.75 c 245.238 219.75
 l 246.891 219.75 248.238 221.094 248.238 222.75 c 248.238 224.406 246.895
 225.75 245.238 225.75 c h
245.238 225.75 m f
0.956863 0.937255 0.929412 rg
374.152 207.621 m 281.07 207.621 l 278.945 207.621 277.223 205.902 277.223
 203.777 c 277.223 180.223 l 277.223 178.098 278.945 176.379 281.07 176.379
 c 374.152 176.379 l 376.277 176.379 378 178.098 378 180.223 c 378 203.777
 l 378 205.902 376.277 207.621 374.152 207.621 c h
374.152 207.621 m f
374.152 238.867 m 281.07 238.867 l 278.945 238.867 277.223 237.145 277.223
 235.023 c 277.223 211.469 l 277.223 209.344 278.945 207.621 281.07 207.621
 c 374.152 207.621 l 376.277 207.621 378 209.344 378 211.469 c 378 235.023
 l 378 237.145 376.277 238.867 374.152 238.867 c h
374.152 238.867 m f
374.152 176.379 m 281.07 176.379 l 278.945 176.379 277.223 174.656 277.223
 172.531 c 277.223 148.977 l 277.223 146.855 278.945 145.133 281.07 145.133
 c 374.152 145.133 l 376.277 145.133 378 146.855 378 148.977 c 378 172.531
 l 378 174.656 376.277 176.379 374.152 176.379 c h
374.152 176.379 m f
0.839216 0.819608 0.811765 rg
374.152 145.133 m 364.93 145.133 l 367.055 145.133 368.777 146.855 368.777
 148.977 c 368.777 172.531 l 368.777 174.656 367.055 176.379 364.93 176.379
 c 374.152 176.379 l 376.277 176.379 378 174.656 378 172.531 c 378 148.977
 l 378 146.855 376.277 145.133 374.152 145.133 c h
374.152 145.133 m f
374.152 176.379 m 364.93 176.379 l 367.055 176.379 368.777 178.098 368.777
 180.223 c 368.777 203.777 l 368.777 205.902 367.055 207.621 364.93 207.621
 c 374.152 207.621 l 376.277 207.621 378 205.902 378 203.777 c 378 180.223
 l 378 178.098 376.277 176.379 374.152 176.379 c h
374.152 176.379 m f
374.152 207.621 m 364.93 207.621 l 367.055 207.621 368.777 209.344 368.777
 211.469 c 368.777 235.023 l 368.777 237.145 367.055 238.867 364.93 238.867
 c 374.152 238.867 l 376.277 238.867 378 237.145 378 235.023 c 378 211.469
 l 378 209.344 376.277 207.621 374.152 207.621 c h
374.152 207.621 m f
1 g
281.07 238.867 m 290.293 238.867 l 288.168 238.867 286.445 237.145 286.445
 235.023 c 286.445 211.469 l 286.445 209.344 288.168 207.621 290.293 207.621
 c 281.07 207.621 l 278.945 207.621 277.223 209.344 277.223 211.469 c 277.223
 235.023 l 277.223 237.145 278.941 238.867 281.07 238.867 c h
281.07 238.867 m f
281.07 207.621 m 290.293 207.621 l 288.168 207.621 286.445 205.902 286.445
 203.777 c 286.445 180.223 l 286.445 178.098 288.168 176.379 290.293 176.379
 c 281.07 176.379 l 278.945 176.379 277.223 178.098 277.223 180.223 c 277.223
 203.777 l 277.223 205.902 278.941 207.621 281.07 207.621 c h
281.07 207.621 m f
281.07 176.379 m 290.293 176.379 l 288.168 176.379 286.445 174.656 286.445
 172.531 c 286.445 148.977 l 286.445 146.855 288.168 145.133 290.293 145.133
 c 281.07 145.133 l 278.945 145.133 277.223 146.855 277.223 148.977 c 277.223
 172.531 l 277.223 174.656 278.941 176.379 281.07 176.379 c h
281.07 176.379 m f
0.411765 0.0196078 0.537255 rg
374.152 179.379 m 281.07 179.379 l 277.293 179.379 274.223 176.309 274.223
 172.531 c 274.223 148.977 l 274.223 145.203 277.293 142.133 281.07 142.133
 c 374.152 142.133 l 377.93 142.133 381 145.203 381 148.977 c 381 172.531
 l 381 176.309 377.93 179.379 374.152 179.379 c h
281.07 148.133 m 280.602 148.133 280.223 148.512 280.223 148.977 c 280.223
 172.531 l 280.223 172.996 280.602 173.379 281.07 173.379 c 374.152 173.379
 l 374.621 173.379 375 172.996 375 172.531 c 375 148.977 l 375 148.512 374.621
 148.133 374.152 148.133 c h
281.07 148.133 m f
301.777 191.504 m 301.777 194.379 299.445 196.711 296.566 196.711 c 293.691
 196.711 291.359 194.379 291.359 191.504 c 291.359 188.629 293.691 186.297
 296.566 186.297 c 299.445 186.297 301.777 188.629 301.777 191.504 c h
301.777 191.504 m f
301.777 222.75 m 301.777 225.625 299.445 227.957 296.566 227.957 c 293.691
 227.957 291.359 225.625 291.359 222.75 c 291.359 219.871 293.691 217.539
 296.566 217.539 c 299.445 217.543 301.777 219.871 301.777 222.75 c h
301.777 222.75 m f
301.777 160.258 m 301.777 163.133 299.445 165.465 296.566 165.465 c 293.691
 165.465 291.359 163.137 291.359 160.258 c 291.359 157.383 293.691 155.051
 296.566 155.051 c 299.445 155.051 301.777 157.383 301.777 160.258 c h
301.777 160.258 m f
374.152 210.621 m 281.07 210.621 l 277.293 210.621 274.223 207.551 274.223
 203.777 c 274.223 180.223 l 274.223 176.449 277.293 173.379 281.07 173.379
 c 374.152 173.379 l 377.93 173.379 381 176.449 381 180.223 c 381 203.777
 l 381 207.551 377.93 210.621 374.152 210.621 c h
281.07 179.379 m 280.602 179.379 280.223 179.758 280.223 180.223 c 280.223
 203.777 l 280.223 204.242 280.602 204.621 281.07 204.621 c 374.152 204.621
 l 374.621 204.621 375 204.242 375 203.777 c 375 180.223 l 375 179.758 374.621
 179.379 374.152 179.379 c h
281.07 179.379 m f
374.152 241.867 m 281.07 241.867 l 277.293 241.867 274.223 238.797 274.223
 235.023 c 274.223 211.469 l 274.223 207.691 277.293 204.621 281.07 204.621
 c 374.152 204.621 l 377.93 204.621 381 207.691 381 211.469 c 381 235.023
 l 381 238.797 377.93 241.867 374.152 241.867 c h
281.07 210.621 m 280.602 210.621 280.223 211.004 280.223 211.469 c 280.223
 235.023 l 280.223 235.488 280.602 235.867 281.07 235.867 c 374.152 235.867
 l 374.621 235.867 375 235.488 375 235.023 c 375 211.469 l 375 211.004 374.621
 210.621 374.152 210.621 c h
281.07 210.621 m f
363.859 163.258 m 314.668 163.258 l 313.012 163.258 311.668 161.914 311.668
 160.258 c 311.668 158.602 313.012 157.258 314.668 157.258 c 363.859 157.258
 l 365.516 157.258 366.859 158.602 366.859 160.258 c 366.859 161.914 365.52
 163.258 363.859 163.258 c h
363.859 163.258 m f
363.859 194.504 m 314.668 194.504 l 313.012 194.504 311.668 193.16 311.668
 191.504 c 311.668 189.848 313.012 188.504 314.668 188.504 c 363.859 188.504
 l 365.516 188.504 366.859 189.848 366.859 191.504 c 366.859 193.16 365.52
 194.504 363.859 194.504 c h
363.859 194.504 m f
363.859 225.75 m 314.668 225.75 l 313.012 225.75 311.668 224.406 311.668
 222.75 c 311.668 221.094 313.012 219.75 314.668 219.75 c 363.859 219.75
 l 365.516 219.75 366.859 221.094 366.859 222.75 c 366.859 224.406 365.52
 225.75 363.859 225.75 c h
363.859 225.75 m f
15.984 103.918 m 14.328 103.918 12.984 102.574 12.984 100.918 c 12.984 
82.918 l 12.984 81.262 14.328 79.918 15.984 79.918 c 17.637 79.918 18.984
 81.262 18.984 82.918 c 18.984 100.918 l 18.984 102.574 17.641 103.918 15.984
 103.918 c h
15.984 103.918 m f
Q Q
showpage
%%Trailer
end
%%EOF
