%!PS-Adobe-3.0 EPSF-3.0
%%Creator: cairo 1.16.0 (https://cairographics.org)
%%CreationDate: Fri Jan 10 07:38:56 2020
%%Pages: 1
%%DocumentData: Clean7Bit
%%LanguageLevel: 2
%%BoundingBox: 57 3 327 381
%%EndComments
%%BeginProlog
50 dict begin
/q { gsave } bind def
/Q { grestore } bind def
/cm { 6 array astore concat } bind def
/w { setlinewidth } bind def
/J { setlinecap } bind def
/j { setlinejoin } bind def
/M { setmiterlimit } bind def
/d { setdash } bind def
/m { moveto } bind def
/l { lineto } bind def
/c { curveto } bind def
/h { closepath } bind def
/re { exch dup neg 3 1 roll 5 3 roll moveto 0 rlineto
      0 exch rlineto 0 rlineto closepath } bind def
/S { stroke } bind def
/f { fill } bind def
/f* { eofill } bind def
/n { newpath } bind def
/W { clip } bind def
/W* { eoclip } bind def
/BT { } bind def
/ET { } bind def
/BDC { mark 3 1 roll /BDC pdfmark } bind def
/EMC { mark /EMC pdfmark } bind def
/cairo_store_point { /cairo_point_y exch def /cairo_point_x exch def } def
/Tj { show currentpoint cairo_store_point } bind def
/TJ {
  {
    dup
    type /stringtype eq
    { show } { -0.001 mul 0 cairo_font_matrix dtransform rmoveto } ifelse
  } forall
  currentpoint cairo_store_point
} bind def
/cairo_selectfont { cairo_font_matrix aload pop pop pop 0 0 6 array astore
    cairo_font exch selectfont cairo_point_x cairo_point_y moveto } bind def
/Tf { pop /cairo_font exch def /cairo_font_matrix where
      { pop cairo_selectfont } if } bind def
/Td { matrix translate cairo_font_matrix matrix concatmatrix dup
      /cairo_font_matrix exch def dup 4 get exch 5 get cairo_store_point
      /cairo_font where { pop cairo_selectfont } if } bind def
/Tm { 2 copy 8 2 roll 6 array astore /cairo_font_matrix exch def
      cairo_store_point /cairo_font where { pop cairo_selectfont } if } bind def
/g { setgray } bind def
/rg { setrgbcolor } bind def
/d1 { setcachedevice } bind def
/cairo_data_source {
  CairoDataIndex CairoData length lt
    { CairoData CairoDataIndex get /CairoDataIndex CairoDataIndex 1 add def }
    { () } ifelse
} def
/cairo_flush_ascii85_file { cairo_ascii85_file status { cairo_ascii85_file flushfile } if } def
/cairo_image { image cairo_flush_ascii85_file } def
/cairo_imagemask { imagemask cairo_flush_ascii85_file } def
%%EndProlog
%%BeginSetup
%%EndSetup
%%Page: 1 1
%%BeginPageSetup
%%PageBoundingBox: 57 3 327 381
%%EndPageSetup
q 57 3 270 378 rectclip
1 0 0 -1 0 384 cm q
0.956863 0.937255 0.929412 rg
313.254 296.602 m 70.746 296.602 l 65.215 296.602 60.727 292.113 60.727
 286.582 c 60.727 225.223 l 60.727 219.688 65.215 215.203 70.746 215.203
 c 313.254 215.203 l 318.785 215.203 323.273 219.688 323.273 225.223 c 323.273
 286.582 l 323.273 292.113 318.785 296.602 313.254 296.602 c h
313.254 296.602 m f
313.254 378 m 70.746 378 l 65.215 378 60.727 373.512 60.727 367.98 c 60.727
 306.621 l 60.727 301.086 65.215 296.602 70.746 296.602 c 313.254 296.602
 l 318.785 296.602 323.273 301.086 323.273 306.621 c 323.273 367.98 l 323.273
 373.512 318.785 378 313.254 378 c h
313.254 378 m f
313.254 215.203 m 70.746 215.203 l 65.215 215.203 60.727 210.719 60.727
 205.184 c 60.727 143.824 l 60.727 138.289 65.215 133.805 70.746 133.805
 c 313.254 133.805 l 318.785 133.805 323.273 138.289 323.273 143.824 c 323.273
 205.184 l 323.273 210.719 318.785 215.203 313.254 215.203 c h
313.254 215.203 m f
0.839216 0.819608 0.811765 rg
313.254 133.805 m 297.09 133.805 l 302.625 133.805 307.113 138.289 307.113
 143.824 c 307.113 205.184 l 307.113 210.719 302.625 215.203 297.09 215.203
 c 313.254 215.203 l 318.785 215.203 323.273 210.719 323.273 205.184 c 323.273
 143.824 l 323.273 138.289 318.785 133.805 313.254 133.805 c h
313.254 133.805 m f
313.254 215.203 m 297.09 215.203 l 302.625 215.203 307.113 219.691 307.113
 225.223 c 307.113 286.582 l 307.113 292.117 302.625 296.602 297.09 296.602
 c 313.254 296.602 l 318.785 296.602 323.273 292.117 323.273 286.582 c 323.273
 225.223 l 323.273 219.688 318.785 215.203 313.254 215.203 c h
313.254 215.203 m f
313.254 296.602 m 297.09 296.602 l 302.625 296.602 307.113 301.086 307.113
 306.621 c 307.113 367.98 l 307.113 373.512 302.625 378 297.09 378 c 313.254
 378 l 318.785 378 323.273 373.512 323.273 367.98 c 323.273 306.621 l 323.273
 301.086 318.785 296.602 313.254 296.602 c h
313.254 296.602 m f
1 g
70.746 378 m 86.91 378 l 81.375 378 76.887 373.512 76.887 367.98 c 76.887
 306.621 l 76.887 301.086 81.375 296.602 86.91 296.602 c 70.746 296.602 
l 65.215 296.602 60.727 301.086 60.727 306.621 c 60.727 367.98 l 60.727 
373.512 65.215 378 70.746 378 c h
70.746 378 m f
70.746 296.602 m 86.91 296.602 l 81.375 296.602 76.887 292.113 76.887 286.582
 c 76.887 225.223 l 76.887 219.688 81.375 215.203 86.91 215.203 c 70.746
 215.203 l 65.215 215.203 60.727 219.688 60.727 225.223 c 60.727 286.582
 l 60.727 292.117 65.215 296.602 70.746 296.602 c h
70.746 296.602 m f
70.746 215.203 m 86.91 215.203 l 81.375 215.203 76.887 210.719 76.887 205.184
 c 76.887 143.824 l 76.887 138.289 81.375 133.805 86.91 133.805 c 70.746
 133.805 l 65.215 133.805 60.727 138.289 60.727 143.824 c 60.727 205.184
 l 60.727 210.719 65.215 215.203 70.746 215.203 c h
70.746 215.203 m f
0.411765 0.0196078 0.537255 rg
313.254 218.203 m 70.746 218.203 l 63.57 218.203 57.727 212.359 57.727 
205.184 c 57.727 143.824 l 57.727 136.645 63.57 130.805 70.746 130.805 c
 313.254 130.805 l 320.43 130.805 326.273 136.645 326.273 143.824 c 326.273
 205.184 l 326.273 212.363 320.43 218.203 313.254 218.203 c h
70.746 136.805 m 66.879 136.805 63.727 139.953 63.727 143.824 c 63.727 
205.184 l 63.727 209.055 66.879 212.203 70.746 212.203 c 313.254 212.203
 l 317.121 212.203 320.273 209.055 320.273 205.184 c 320.273 143.824 l 320.273
 139.953 317.121 136.805 313.254 136.805 c h
70.746 136.805 m f
76.887 179.469 m 75.234 179.469 73.887 178.125 73.887 176.469 c 73.887 
159.004 l 73.887 157.348 75.234 156.004 76.887 156.004 c 78.543 156.004 
79.887 157.348 79.887 159.004 c 79.887 176.469 l 79.887 178.125 78.543 179.469
 76.887 179.469 c h
76.887 179.469 m f
0.321569 0.435294 0.666667 rg
272.871 268.176 m 171.844 268.176 l 164.352 268.176 158.277 262.102 158.277
 254.609 c 158.277 247.117 164.352 241.043 171.844 241.043 c 272.871 241.043
 l 280.363 241.043 286.438 247.117 286.438 254.609 c 286.438 262.102 280.363
 268.176 272.871 268.176 c h
272.871 268.176 m f
0.411765 0.0196078 0.537255 rg
272.871 271.176 m 171.844 271.176 l 162.711 271.176 155.277 263.746 155.277
 254.609 c 155.277 245.477 162.711 238.043 171.844 238.043 c 272.871 238.043
 l 282.008 238.043 289.438 245.477 289.438 254.609 c 289.438 263.742 282.008
 271.176 272.871 271.176 c h
171.844 244.043 m 166.02 244.043 161.277 248.785 161.277 254.609 c 161.277
 260.438 166.02 265.176 171.844 265.176 c 272.871 265.176 l 278.699 265.176
 283.438 260.438 283.438 254.609 c 283.438 248.785 278.699 244.043 272.871
 244.043 c h
171.844 244.043 m f
0.533333 0.321569 0.658824 rg
124.695 254.609 m 124.695 262.102 118.621 268.176 111.129 268.176 c 103.637
 268.176 97.562 262.102 97.562 254.609 c 97.562 247.117 103.637 241.043 
111.129 241.043 c 118.621 241.043 124.695 247.117 124.695 254.609 c h
124.695 254.609 m f
0.411765 0.0196078 0.537255 rg
111.129 271.176 m 101.992 271.176 94.562 263.746 94.562 254.609 c 94.562
 245.477 101.992 238.043 111.129 238.043 c 120.266 238.043 127.695 245.477
 127.695 254.609 c 127.695 263.746 120.266 271.176 111.129 271.176 c h
111.129 244.043 m 105.301 244.043 100.562 248.785 100.562 254.609 c 100.562
 260.438 105.301 265.176 111.129 265.176 c 116.953 265.176 121.695 260.438
 121.695 254.609 c 121.695 248.785 116.953 244.043 111.129 244.043 c h
111.129 244.043 m f
0.321569 0.435294 0.666667 rg
272.871 349.574 m 171.844 349.574 l 164.352 349.574 158.277 343.5 158.277
 336.008 c 158.277 328.516 164.352 322.441 171.844 322.441 c 272.871 322.441
 l 280.363 322.441 286.438 328.516 286.438 336.008 c 286.438 343.5 280.363
 349.574 272.871 349.574 c h
272.871 349.574 m f
0.411765 0.0196078 0.537255 rg
272.871 352.574 m 171.844 352.574 l 162.711 352.574 155.277 345.145 155.277
 336.008 c 155.277 326.875 162.711 319.441 171.844 319.441 c 272.871 319.441
 l 282.008 319.441 289.438 326.875 289.438 336.008 c 289.438 345.141 282.008
 352.574 272.871 352.574 c h
171.844 325.441 m 166.02 325.441 161.277 330.18 161.277 336.008 c 161.277
 341.832 166.02 346.574 171.844 346.574 c 272.871 346.574 l 278.699 346.574
 283.438 341.832 283.438 336.008 c 283.438 330.18 278.699 325.441 272.871
 325.441 c h
171.844 325.441 m f
0.533333 0.321569 0.658824 rg
124.695 336.008 m 124.695 343.5 118.621 349.574 111.129 349.574 c 103.637
 349.574 97.562 343.5 97.562 336.008 c 97.562 328.516 103.637 322.441 111.129
 322.441 c 118.621 322.441 124.695 328.516 124.695 336.008 c h
124.695 336.008 m f
0.411765 0.0196078 0.537255 rg
111.129 352.574 m 101.992 352.574 94.562 345.145 94.562 336.008 c 94.562
 326.875 101.992 319.441 111.129 319.441 c 120.266 319.441 127.695 326.875
 127.695 336.008 c 127.695 345.141 120.266 352.574 111.129 352.574 c h
111.129 325.441 m 105.301 325.441 100.562 330.18 100.562 336.008 c 100.562
 341.832 105.301 346.574 111.129 346.574 c 116.953 346.574 121.695 341.832
 121.695 336.008 c 121.695 330.18 116.953 325.441 111.129 325.441 c h
111.129 325.441 m f
0.321569 0.435294 0.666667 rg
272.871 186.777 m 171.844 186.777 l 164.352 186.777 158.277 180.703 158.277
 173.211 c 158.277 165.719 164.352 159.645 171.844 159.645 c 272.871 159.645
 l 280.363 159.645 286.438 165.719 286.438 173.211 c 286.438 180.703 280.363
 186.777 272.871 186.777 c h
272.871 186.777 m f
0.411765 0.0196078 0.537255 rg
272.871 189.777 m 171.844 189.777 l 162.711 189.777 155.277 182.348 155.277
 173.211 c 155.277 164.078 162.711 156.648 171.844 156.648 c 272.871 156.648
 l 282.008 156.648 289.438 164.078 289.438 173.211 c 289.438 182.348 282.008
 189.777 272.871 189.777 c h
171.844 162.645 m 166.02 162.645 161.277 167.387 161.277 173.211 c 161.277
 179.035 166.02 183.777 171.844 183.777 c 272.871 183.777 l 278.699 183.777
 283.438 179.035 283.438 173.211 c 283.438 167.387 278.699 162.645 272.871
 162.645 c h
171.844 162.645 m f
0.533333 0.321569 0.658824 rg
124.695 173.211 m 124.695 180.703 118.621 186.777 111.129 186.777 c 103.637
 186.777 97.562 180.703 97.562 173.211 c 97.562 165.719 103.637 159.645 
111.129 159.645 c 118.621 159.645 124.695 165.719 124.695 173.211 c h
124.695 173.211 m f
0.411765 0.0196078 0.537255 rg
111.129 189.777 m 101.992 189.777 94.562 182.348 94.562 173.211 c 94.562
 164.078 101.992 156.648 111.129 156.648 c 120.266 156.648 127.695 164.078
 127.695 173.211 c 127.695 182.348 120.266 189.777 111.129 189.777 c h
111.129 162.645 m 105.301 162.645 100.562 167.387 100.562 173.211 c 100.562
 179.035 105.301 183.777 111.129 183.777 c 116.953 183.777 121.695 179.035
 121.695 173.211 c 121.695 167.387 116.953 162.645 111.129 162.645 c h
111.129 162.645 m f
313.254 299.602 m 70.746 299.602 l 63.57 299.602 57.727 293.762 57.727 
286.582 c 57.727 225.223 l 57.727 218.043 63.57 212.203 70.746 212.203 c
 313.254 212.203 l 320.43 212.203 326.273 218.043 326.273 225.223 c 326.273
 286.582 l 326.273 293.762 320.43 299.602 313.254 299.602 c h
70.746 218.203 m 66.879 218.203 63.727 221.352 63.727 225.223 c 63.727 
286.582 l 63.727 290.453 66.879 293.602 70.746 293.602 c 313.254 293.602
 l 317.121 293.602 320.273 290.449 320.273 286.582 c 320.273 225.223 l 320.273
 221.352 317.121 218.203 313.254 218.203 c h
70.746 218.203 m f
313.254 381 m 70.746 381 l 63.57 381 57.727 375.16 57.727 367.98 c 57.727
 306.621 l 57.727 299.441 63.57 293.602 70.746 293.602 c 313.254 293.602
 l 320.43 293.602 326.273 299.441 326.273 306.621 c 326.273 367.98 l 326.273
 375.16 320.43 381 313.254 381 c h
70.746 299.602 m 66.879 299.602 63.727 302.75 63.727 306.621 c 63.727 367.98
 l 63.727 371.852 66.879 375 70.746 375 c 313.254 375 l 317.121 375 320.273
 371.852 320.273 367.98 c 320.273 306.621 l 320.273 302.75 317.121 299.602
 313.254 299.602 c h
70.746 299.602 m f
0.988235 0.760784 0.298039 rg
265.918 36.656 m 306.762 77.5 306.762 143.719 265.918 184.562 c 225.078
 225.406 158.855 225.406 118.016 184.562 c 77.172 143.719 77.172 77.5 118.016
 36.656 c 158.855 -4.188 225.078 -4.188 265.918 36.656 c h
265.918 36.656 m f
0.956863 0.937255 0.929412 rg
248.43 110.602 m 250.258 108.492 251.973 106.359 253.527 104.211 c 273.574
 76.547 262.281 56.98 228.297 60.512 c 225.66 60.785 222.957 61.203 220.215
 61.734 c 219.301 59.094 218.312 56.543 217.227 54.121 c 203.297 22.926 
180.703 22.926 166.77 54.121 c 165.684 56.543 164.699 59.094 163.785 61.734
 c 161.043 61.203 158.336 60.785 155.699 60.512 c 121.719 56.98 110.422 
76.547 130.469 104.211 c 132.027 106.359 133.742 108.488 135.57 110.602 
c 133.738 112.711 132.027 114.844 130.469 116.992 c 110.422 144.656 121.715
 164.223 155.699 160.691 c 158.34 160.418 161.043 159.996 163.785 159.469
 c 164.695 162.109 165.684 164.66 166.77 167.082 c 180.703 198.277 203.293
 198.277 217.227 167.082 c 218.312 164.66 219.297 162.109 220.215 159.469
 c 222.957 159.996 225.66 160.418 228.297 160.691 c 262.281 164.223 273.574
 144.656 253.527 116.992 c 251.973 114.844 250.254 112.711 248.43 110.602
 c h
248.43 110.602 m f
0.870588 0.643137 0.180392 rg
192 6 m 189.461 6 186.953 6.121 184.461 6.301 c 238.707 10.168 281.523 
55.371 281.523 110.602 c 281.523 165.832 238.707 211.035 184.461 214.902
 c 186.953 215.078 189.461 215.203 192 215.203 c 249.77 215.203 296.602 
168.371 296.602 110.602 c 296.602 52.832 249.77 6 192 6 c h
192 6 m f
0.988235 0.878431 0.415686 rg
192 215.203 m 194.539 215.203 197.047 215.082 199.539 214.902 c 145.293
 211.035 102.477 165.836 102.477 110.602 c 102.477 55.371 145.293 10.172
 199.539 6.301 c 197.047 6.121 194.539 6 192 6 c 134.23 6 87.398 52.832 
87.398 110.602 c 87.398 168.371 134.23 215.203 192 215.203 c h
192 215.203 m f
0.411765 0.0196078 0.537255 rg
192 218.203 m 132.668 218.203 84.398 169.934 84.398 110.602 c 84.398 51.27
 132.668 3 192 3 c 251.332 3 299.602 51.27 299.602 110.602 c 299.602 169.934
 251.332 218.203 192 218.203 c h
192 9 m 135.977 9 90.398 54.578 90.398 110.602 c 90.398 166.621 135.977
 212.203 192 212.203 c 248.023 212.203 293.602 166.625 293.602 110.602 c
 293.602 54.578 248.023 9 192 9 c h
192 9 m f
148.137 164.102 m 134.555 164.102 124.781 159.93 120.227 152.039 c 114.836
 142.699 117.609 129.629 128.043 115.23 c 148.492 87.012 193.328 61.129 
227.988 57.527 c 245.672 55.691 258.383 59.824 263.773 69.164 c 269.168 
78.504 266.391 91.574 255.957 105.973 c 235.512 134.191 190.676 160.074 
156.012 163.676 c 153.266 163.961 150.637 164.102 148.137 164.102 c h
235.77 63.105 m 233.504 63.105 231.113 63.234 228.609 63.496 c 195.418 
66.941 152.484 91.73 132.898 118.754 c 124.07 130.938 121.344 141.977 125.426
 149.039 c 129.504 156.102 140.43 159.258 155.391 157.707 c 188.586 154.258
 231.52 129.469 251.102 102.449 c 259.934 90.266 262.656 79.227 258.578 
72.16 c 255.18 66.281 247.039 63.105 235.77 63.105 c h
235.77 63.105 m f
235.863 164.102 m 233.363 164.102 230.734 163.961 227.988 163.676 c 193.328
 160.074 148.488 134.188 128.043 105.969 c 117.609 91.574 114.832 78.504
 120.227 69.16 c 125.617 59.82 138.324 55.688 156.012 57.527 c 190.672 61.125
 235.508 87.012 255.957 115.23 c 266.391 129.625 269.164 142.699 263.773
 152.039 c 259.219 159.93 249.445 164.102 235.863 164.102 c h
148.23 63.105 m 136.961 63.105 128.82 66.281 125.422 72.164 c 121.344 79.227
 124.07 90.266 132.898 102.449 c 152.484 129.473 195.418 154.262 228.609
 157.707 c 243.566 159.262 254.5 156.105 258.578 149.039 c 262.656 141.977
 259.93 130.938 251.102 118.754 c 231.52 91.73 188.586 66.945 155.391 63.496
 c 152.887 63.234 150.496 63.105 148.23 63.105 c h
148.23 63.105 m f
192 193.477 m 181.215 193.477 171.281 184.539 164.031 168.305 c 149.82 
136.488 149.82 84.715 164.031 52.895 c 171.281 36.664 181.215 27.723 192
 27.723 c 202.785 27.723 212.719 36.664 219.969 52.895 c 234.18 84.715 234.18
 136.488 219.969 168.305 c 212.719 184.539 202.785 193.477 192 193.477 c
 h
192 33.723 m 183.844 33.723 175.648 41.605 169.508 55.344 c 155.898 85.812
 155.898 135.391 169.508 165.859 c 175.648 179.598 183.844 187.477 192 187.477
 c 200.156 187.477 208.352 179.598 214.492 165.859 c 228.102 135.391 228.102
 85.812 214.492 55.344 c 208.352 41.605 200.156 33.723 192 33.723 c h
192 33.723 m f
0.533333 0.321569 0.658824 rg
207.18 110.602 m 207.18 118.984 200.383 125.781 192 125.781 c 183.617 125.781
 176.82 118.984 176.82 110.602 c 176.82 102.219 183.617 95.422 192 95.422
 c 200.383 95.422 207.18 102.219 207.18 110.602 c h
207.18 110.602 m f
0.411765 0.0196078 0.537255 rg
192 128.781 m 181.977 128.781 173.82 120.625 173.82 110.602 c 173.82 100.578
 181.977 92.418 192 92.418 c 202.023 92.418 210.18 100.578 210.18 110.602
 c 210.18 120.625 202.023 128.781 192 128.781 c h
192 98.422 m 185.281 98.422 179.82 103.887 179.82 110.602 c 179.82 117.32
 185.285 122.781 192 122.781 c 198.715 122.781 204.18 117.316 204.18 110.602
 c 204.18 103.887 198.719 98.422 192 98.422 c h
192 98.422 m f
Q Q
showpage
%%Trailer
end
%%EOF
