%!PS-Adobe-3.0 EPSF-3.0
%%Creator: cairo 1.16.0 (https://cairographics.org)
%%CreationDate: Fri Jan 10 07:38:57 2020
%%Pages: 1
%%DocumentData: Clean7Bit
%%LanguageLevel: 2
%%BoundingBox: 19 3 365 381
%%EndComments
%%BeginProlog
50 dict begin
/q { gsave } bind def
/Q { grestore } bind def
/cm { 6 array astore concat } bind def
/w { setlinewidth } bind def
/J { setlinecap } bind def
/j { setlinejoin } bind def
/M { setmiterlimit } bind def
/d { setdash } bind def
/m { moveto } bind def
/l { lineto } bind def
/c { curveto } bind def
/h { closepath } bind def
/re { exch dup neg 3 1 roll 5 3 roll moveto 0 rlineto
      0 exch rlineto 0 rlineto closepath } bind def
/S { stroke } bind def
/f { fill } bind def
/f* { eofill } bind def
/n { newpath } bind def
/W { clip } bind def
/W* { eoclip } bind def
/BT { } bind def
/ET { } bind def
/BDC { mark 3 1 roll /BDC pdfmark } bind def
/EMC { mark /EMC pdfmark } bind def
/cairo_store_point { /cairo_point_y exch def /cairo_point_x exch def } def
/Tj { show currentpoint cairo_store_point } bind def
/TJ {
  {
    dup
    type /stringtype eq
    { show } { -0.001 mul 0 cairo_font_matrix dtransform rmoveto } ifelse
  } forall
  currentpoint cairo_store_point
} bind def
/cairo_selectfont { cairo_font_matrix aload pop pop pop 0 0 6 array astore
    cairo_font exch selectfont cairo_point_x cairo_point_y moveto } bind def
/Tf { pop /cairo_font exch def /cairo_font_matrix where
      { pop cairo_selectfont } if } bind def
/Td { matrix translate cairo_font_matrix matrix concatmatrix dup
      /cairo_font_matrix exch def dup 4 get exch 5 get cairo_store_point
      /cairo_font where { pop cairo_selectfont } if } bind def
/Tm { 2 copy 8 2 roll 6 array astore /cairo_font_matrix exch def
      cairo_store_point /cairo_font where { pop cairo_selectfont } if } bind def
/g { setgray } bind def
/rg { setrgbcolor } bind def
/d1 { setcachedevice } bind def
/cairo_data_source {
  CairoDataIndex CairoData length lt
    { CairoData CairoDataIndex get /CairoDataIndex CairoDataIndex 1 add def }
    { () } ifelse
} def
/cairo_flush_ascii85_file { cairo_ascii85_file status { cairo_ascii85_file flushfile } if } def
/cairo_image { image cairo_flush_ascii85_file } def
/cairo_imagemask { imagemask cairo_flush_ascii85_file } def
%%EndProlog
%%BeginSetup
%%EndSetup
%%Page: 1 1
%%BeginPageSetup
%%PageBoundingBox: 19 3 365 381
%%EndPageSetup
q 19 3 346 378 rectclip
1 0 0 -1 0 384 cm q
0.533333 0.321569 0.658824 rg
287.715 82.562 m 199.309 82.562 l 155.102 159.129 l 199.309 235.691 l 287.715
 235.691 l 331.922 159.129 l h
287.715 82.562 m f
0.988235 0.760784 0.298039 rg
155.102 159.129 m 66.695 159.129 l 22.492 235.691 l 66.695 312.254 l 155.102
 312.254 l 199.309 235.691 l h
155.102 159.129 m f
0.321569 0.435294 0.666667 rg
155.102 6 m 66.695 6 l 22.492 82.562 l 66.695 159.129 l 155.102 159.129
 l 199.309 82.562 l h
155.102 6 m f
0.415686 0.203922 0.541176 rg
287.715 82.562 m 272.715 82.562 l 316.922 159.129 l 272.715 235.691 l 287.715
 235.691 l 331.922 159.129 l h
287.715 82.562 m f
0.988235 0.878431 0.415686 rg
81.695 159.129 m 66.695 159.129 l 22.492 235.691 l 66.695 312.254 l 81.695
 312.254 l 37.492 235.691 l h
81.695 159.129 m f
0.439216 0.552941 0.784314 rg
81.695 6 m 66.695 6 l 22.492 82.562 l 66.695 159.129 l 81.695 159.129 l
 37.492 82.562 l h
81.695 6 m f
0.411765 0.0196078 0.537255 rg
155.102 315.254 m 66.695 315.254 l 65.625 315.254 64.633 314.684 64.098
 313.754 c 19.895 237.191 l 19.359 236.262 19.359 235.121 19.895 234.191
 c 64.098 157.629 l 64.633 156.699 65.625 156.129 66.695 156.129 c 155.102
 156.129 l 156.176 156.129 157.164 156.699 157.699 157.629 c 201.906 234.191
 l 202.441 235.121 202.441 236.262 201.906 237.191 c 157.699 313.754 l 157.164
 314.684 156.176 315.254 155.102 315.254 c h
68.426 309.254 m 153.371 309.254 l 195.84 235.691 l 153.371 162.129 l 68.426
 162.129 l 25.957 235.691 l h
68.426 309.254 m f
155.102 162.129 m 66.695 162.129 l 65.625 162.129 64.633 161.555 64.098
 160.629 c 19.895 84.062 l 19.359 83.133 19.359 81.992 19.895 81.062 c 64.098
 4.5 l 64.633 3.57 65.625 3 66.695 3 c 155.102 3 l 156.176 3 157.164 3.57
 157.699 4.5 c 201.906 81.062 l 202.441 81.992 202.441 83.133 201.906 84.062
 c 157.699 160.625 l 157.164 161.555 156.176 162.129 155.102 162.129 c h
68.426 156.129 m 153.371 156.129 l 195.84 82.566 l 153.371 9 l 68.426 9
 l 25.957 82.562 l h
68.426 156.129 m f
287.715 238.691 m 199.309 238.691 l 198.238 238.691 197.246 238.117 196.711
 237.191 c 152.508 160.629 l 151.973 159.699 151.973 158.555 152.508 157.629
 c 196.711 81.066 l 197.246 80.137 198.238 79.566 199.309 79.566 c 287.715
 79.566 l 288.785 79.566 289.777 80.137 290.312 81.066 c 334.52 157.629 
l 335.055 158.555 335.055 159.699 334.52 160.629 c 290.312 237.191 l 289.777
 238.117 288.785 238.691 287.715 238.691 c h
201.039 232.691 m 285.984 232.691 l 328.453 159.129 l 285.984 85.566 l 
201.039 85.566 l 158.566 159.129 l h
201.039 232.691 m f
0.533333 0.321569 0.658824 rg
285.996 378 m 272.293 378 261.602 366.137 263.02 352.508 c 274.105 245.988
 l 297.887 245.988 l 308.973 352.508 l 310.391 366.137 299.699 378 285.996
 378 c h
285.996 378 m f
0.411765 0.0196078 0.537255 rg
285.996 381 m 278.617 381 271.551 377.855 266.609 372.375 c 261.668 366.891
 259.273 359.539 260.035 352.195 c 271.121 245.68 l 271.281 244.152 272.57
 242.988 274.105 242.988 c 297.887 242.988 l 299.426 242.988 300.711 244.152
 300.871 245.68 c 311.957 352.195 l 312.719 359.539 310.324 366.891 305.383
 372.375 c 300.441 377.855 293.375 381 285.996 381 c h
276.809 248.988 m 266.004 352.816 l 265.414 358.473 267.262 364.133 271.066
 368.355 c 274.871 372.578 280.312 375 285.996 375 c 291.68 375 297.121 
372.578 300.93 368.355 c 304.734 364.133 306.578 358.473 305.992 352.816
 c 295.184 248.988 l h
276.809 248.988 m f
0.988235 0.760784 0.298039 rg
361.508 180.387 m 361.508 222.094 327.699 255.898 285.996 255.898 c 244.293
 255.898 210.484 222.094 210.484 180.387 c 210.484 138.684 244.293 104.879
 285.996 104.879 c 327.699 104.879 361.508 138.684 361.508 180.387 c h
361.508 180.387 m f
0.870588 0.643137 0.180392 rg
284.242 255.625 m 285.543 255.73 286.855 255.801 288.172 255.848 c 328.867
 254.691 361.508 221.363 361.508 180.387 c 361.508 139.414 328.863 106.082
 288.168 104.93 c 286.852 104.977 285.543 105.047 284.242 105.152 c 323.035
 108.316 353.539 140.777 353.539 180.387 c 353.539 219.996 323.035 252.461
 284.242 255.625 c h
284.242 255.625 m f
0.988235 0.878431 0.415686 rg
287.75 105.152 m 286.449 105.047 285.137 104.977 283.82 104.93 c 243.125
 106.086 210.484 139.414 210.484 180.387 c 210.484 221.363 243.125 254.695
 283.824 255.848 c 285.141 255.801 286.449 255.73 287.746 255.625 c 248.953
 252.461 218.449 220 218.449 180.387 c 218.453 140.781 248.957 108.316 287.75
 105.152 c h
287.75 105.152 m f
0.411765 0.0196078 0.537255 rg
285.996 258.863 m 265.891 258.863 245.785 251.211 230.48 235.906 c 199.867
 205.293 199.867 155.484 230.48 124.871 c 261.094 94.262 310.902 94.258 
341.516 124.871 c 356.344 139.699 364.512 159.418 364.512 180.387 c 364.512
 201.359 356.344 221.074 341.516 235.906 c 326.207 251.211 306.102 258.863
 285.996 258.863 c h
285.996 107.91 m 267.426 107.91 248.863 114.977 234.723 129.113 c 206.449
 157.387 206.449 203.391 234.723 231.664 c 248.859 245.797 267.43 252.867
 285.996 252.867 c 304.57 252.867 323.133 245.801 337.273 231.664 c 350.969
 217.965 358.512 199.758 358.512 180.387 c 358.512 161.02 350.969 142.809
 337.273 129.113 c 323.137 114.98 304.562 107.91 285.996 107.91 c h
285.996 107.91 m f
0.956863 0.937255 0.929412 rg
341.707 180.387 m 341.707 211.156 316.766 236.098 285.996 236.098 c 255.227
 236.098 230.285 211.156 230.285 180.387 c 230.285 149.621 255.227 124.68
 285.996 124.68 c 316.766 124.68 341.707 149.621 341.707 180.387 c h
341.707 180.387 m f
0.411765 0.0196078 0.537255 rg
285.996 239.07 m 270.965 239.07 255.93 233.348 244.484 221.902 c 233.395
 210.812 227.289 196.07 227.289 180.387 c 227.289 164.707 233.395 149.961
 244.484 138.875 c 267.375 115.984 304.621 115.984 327.512 138.875 c 350.402
 161.766 350.402 199.012 327.512 221.902 c 316.066 233.348 301.031 239.07
 285.996 239.07 c h
285.996 127.68 m 271.918 127.68 258.684 133.16 248.727 143.117 c 238.77
 153.07 233.289 166.309 233.289 180.387 c 233.289 194.469 238.77 207.703
 248.727 217.66 c 269.277 238.211 302.715 238.211 323.27 217.66 c 343.82
 197.109 343.82 163.668 323.27 143.117 c 313.312 133.16 300.078 127.68 285.996
 127.68 c h
285.996 127.68 m f
290.426 186.363 m 290.426 192.434 l 290.426 195.047 288.461 197.012 285.848
 197.012 c 283.422 197.012 281.273 195.051 281.273 192.434 c 281.273 182.723
 l 281.273 182.629 281.367 182.629 281.367 182.535 c 281.273 182.445 281.273
 182.445 281.273 182.348 c 281.273 179.922 283.422 177.773 285.848 177.773
 c 291.73 177.773 296.492 173.105 296.492 167.316 c 296.492 161.434 291.73
 156.859 285.848 156.859 c 282.02 156.859 278.656 158.91 276.883 161.992
 c 275.574 164.234 272.773 164.98 270.535 163.676 c 268.387 162.367 267.641
 159.66 268.945 157.418 c 272.309 151.629 278.656 147.707 285.848 147.707
 c 296.68 147.707 305.551 156.484 305.551 167.316 c 305.551 176.559 299.109
 184.309 290.426 186.363 c h
290.426 206.812 m 290.426 208.492 l 290.426 211.109 288.461 213.07 285.848
 213.07 c 283.422 213.07 281.273 211.109 281.273 208.492 c 281.273 206.812
 l 281.273 204.293 283.422 202.238 285.848 202.238 c 288.465 202.238 290.426
 204.293 290.426 206.812 c h
290.426 206.812 m f
0.533333 0.321569 0.658824 rg
99.191 277.418 m 99.191 255.348 l 122.715 255.348 l 122.715 277.418 l 139.168
 277.418 l 147.395 277.43 154.055 284.184 154.047 292.414 c 154.047 312.254
 l 67.754 312.254 l 67.754 292.289 l 67.766 284.062 74.48 277.402 82.707
 277.41 c h
99.191 277.418 m f
0.411765 0.0196078 0.537255 rg
154.043 315.254 m 67.754 315.254 l 66.098 315.254 64.754 313.91 64.754 
312.254 c 64.754 292.289 l 64.766 282.426 72.812 274.41 82.691 274.41 c 
82.715 274.41 l 96.191 274.414 l 96.191 255.344 l 96.191 253.688 97.535 
252.344 99.191 252.344 c 122.715 252.344 l 124.371 252.344 125.715 253.688
 125.715 255.344 c 125.715 274.418 l 139.168 274.418 l 143.949 274.422 148.445
 276.309 151.828 279.723 c 155.199 283.129 157.051 287.637 157.047 292.414
 c 157.047 312.254 l 157.043 313.91 155.703 315.254 154.043 315.254 c h
70.754 309.254 m 151.043 309.254 l 151.043 292.414 l 151.047 289.223 149.812
 286.215 147.562 283.945 c 145.312 281.676 142.332 280.422 139.16 280.418
 c 122.715 280.418 l 121.059 280.418 119.715 279.074 119.715 277.418 c 119.715
 258.344 l 102.191 258.344 l 102.191 277.418 l 102.191 278.215 101.875 278.977
 101.312 279.539 c 100.75 280.102 99.984 280.418 99.191 280.418 c 99.191
 280.418 99.191 280.418 99.188 280.418 c 82.707 280.41 l 82.703 280.41 82.699
 280.41 82.695 280.41 c 76.117 280.41 70.762 285.738 70.754 292.293 c h
70.754 309.254 m f
1 0.623529 0.439216 rg
99.191 255.348 m 122.715 255.348 l 122.715 279 l 122.715 285.496 117.449
 290.762 110.953 290.762 c 104.457 290.762 99.191 285.496 99.191 279 c h
99.191 255.348 m f
0.411765 0.0196078 0.537255 rg
110.953 293.762 m 102.812 293.762 96.191 287.141 96.191 279 c 96.191 255.344
 l 96.191 253.688 97.535 252.344 99.191 252.344 c 122.715 252.344 l 124.371
 252.344 125.715 253.688 125.715 255.344 c 125.715 279 l 125.715 287.141
 119.094 293.762 110.953 293.762 c h
102.191 258.344 m 102.191 279 l 102.191 283.832 106.121 287.762 110.953
 287.762 c 115.781 287.762 119.715 283.828 119.715 279 c 119.715 258.344
 l h
102.191 258.344 m f
1 0.741176 0.556863 rg
87.605 235.211 m 85.941 235.211 l 81.637 235.211 78.148 238.699 78.148 
243.004 c 78.148 247.305 81.637 250.797 85.941 250.797 c 87.605 250.797 
l h
87.605 235.211 m f
0.882353 0.505882 0.321569 rg
135.902 235.211 m 134.238 235.211 l 134.238 250.793 l 135.902 250.793 l
 140.207 250.793 143.695 247.305 143.695 243 c 143.695 238.699 140.207 235.211
 135.902 235.211 c h
135.902 235.211 m f
1 0.623529 0.439216 rg
110.922 274.82 m 98.043 274.82 87.602 264.246 87.602 251.199 c 87.602 234.848
 l 87.602 221.805 98.043 211.227 110.922 211.227 c 123.797 211.227 134.238
 221.805 134.238 234.848 c 134.238 251.199 l 134.238 264.246 123.797 274.82
 110.922 274.82 c h
110.922 274.82 m f
0.411765 0.0196078 0.537255 rg
110.922 277.82 m 96.41 277.82 84.602 265.879 84.602 251.199 c 84.602 234.848
 l 84.602 220.172 96.41 208.23 110.922 208.23 c 125.43 208.23 137.238 220.172
 137.238 234.848 c 137.238 251.199 l 137.238 265.879 125.434 277.82 110.922
 277.82 c h
110.922 214.23 m 99.719 214.23 90.602 223.48 90.602 234.848 c 90.602 251.199
 l 90.602 262.57 99.719 271.82 110.922 271.82 c 122.125 271.82 131.238 262.57
 131.238 251.199 c 131.238 234.848 l 131.238 223.48 122.125 214.23 110.922
 214.23 c h
110.922 214.23 m f
87.602 253.793 m 85.941 253.793 l 79.988 253.793 75.148 248.953 75.148 
243 c 75.148 237.051 79.988 232.211 85.941 232.211 c 87.602 232.211 l 89.258
 232.211 90.602 233.555 90.602 235.211 c 90.602 250.793 l 90.602 252.453
 89.262 253.793 87.602 253.793 c h
84.602 238.398 m 82.609 238.977 81.148 240.824 81.148 243 c 81.148 245.18
 82.609 247.023 84.602 247.602 c h
84.602 238.398 m f
135.902 253.793 m 134.238 253.793 l 132.582 253.793 131.238 252.449 131.238
 250.793 c 131.238 235.211 l 131.238 233.555 132.582 232.211 134.238 232.211
 c 135.902 232.211 l 141.852 232.211 146.695 237.051 146.695 243 c 146.695
 248.953 141.852 253.793 135.902 253.793 c h
137.238 238.398 m 137.238 247.605 l 139.234 247.027 140.695 245.18 140.695
 243.004 c 140.695 240.824 139.234 238.977 137.238 238.398 c h
137.238 238.398 m f
0.956863 0.937255 0.929412 rg
99.191 124.293 m 99.191 102.219 l 122.715 102.219 l 122.715 124.293 l 139.168
 124.293 l 147.395 124.301 154.055 131.059 154.047 139.285 c 154.047 159.129
 l 67.754 159.129 l 67.754 139.164 l 67.766 130.934 74.48 124.273 82.707
 124.285 c h
99.191 124.293 m f
0.411765 0.0196078 0.537255 rg
154.043 162.129 m 67.754 162.129 l 66.098 162.129 64.754 160.785 64.754
 159.129 c 64.754 139.164 l 64.766 129.297 72.812 121.285 82.691 121.285
 c 82.715 121.285 l 96.191 121.289 l 96.191 102.219 l 96.191 100.562 97.535
 99.219 99.191 99.219 c 122.715 99.219 l 124.371 99.219 125.715 100.562 
125.715 102.219 c 125.715 121.293 l 139.168 121.293 l 143.949 121.297 148.445
 123.18 151.828 126.594 c 155.199 130 157.051 134.508 157.047 139.289 c 
157.047 159.125 l 157.043 160.785 155.703 162.129 154.043 162.129 c h
70.754 156.129 m 151.043 156.129 l 151.043 139.285 l 151.047 136.094 149.812
 133.09 147.562 130.816 c 145.312 128.547 142.332 127.293 139.16 127.293
 c 122.715 127.293 l 121.059 127.293 119.715 125.949 119.715 124.293 c 119.715
 105.219 l 102.191 105.219 l 102.191 124.293 l 102.191 125.09 101.875 125.852
 101.312 126.414 c 100.75 126.977 99.984 127.293 99.191 127.293 c 99.191
 127.293 99.191 127.293 99.188 127.293 c 82.707 127.285 l 82.703 127.285
 82.699 127.285 82.695 127.285 c 76.117 127.285 70.762 132.609 70.754 139.164
 c h
70.754 156.129 m f
1 0.623529 0.439216 rg
99.191 102.219 m 122.715 102.219 l 122.715 125.871 l 122.715 132.367 117.449
 137.633 110.953 137.633 c 104.457 137.633 99.191 132.367 99.191 125.871
 c h
99.191 102.219 m f
0.411765 0.0196078 0.537255 rg
110.953 140.633 m 102.812 140.633 96.191 134.012 96.191 125.871 c 96.191
 102.219 l 96.191 100.562 97.535 99.219 99.191 99.219 c 122.715 99.219 l
 124.371 99.219 125.715 100.562 125.715 102.219 c 125.715 125.871 l 125.715
 134.012 119.094 140.633 110.953 140.633 c h
102.191 105.219 m 102.191 125.871 l 102.191 130.703 106.121 134.633 110.953
 134.633 c 115.781 134.633 119.715 130.703 119.715 125.871 c 119.715 105.219
 l h
102.191 105.219 m f
1 0.741176 0.556863 rg
87.605 82.082 m 85.941 82.082 l 81.637 82.082 78.148 85.57 78.148 89.875
 c 78.148 94.18 81.637 97.668 85.941 97.668 c 87.605 97.668 l h
87.605 82.082 m f
0.882353 0.505882 0.321569 rg
135.902 82.082 m 134.238 82.082 l 134.238 97.668 l 135.902 97.668 l 140.207
 97.668 143.695 94.176 143.695 89.875 c 143.695 85.57 140.207 82.082 135.902
 82.082 c h
135.902 82.082 m f
1 0.623529 0.439216 rg
110.922 121.695 m 98.043 121.695 87.602 111.117 87.602 98.074 c 87.602 
81.723 l 87.602 68.676 98.043 58.102 110.922 58.102 c 123.797 58.102 134.238
 68.676 134.238 81.723 c 134.238 98.074 l 134.238 111.117 123.797 121.695
 110.922 121.695 c h
110.922 121.695 m f
0.411765 0.0196078 0.537255 rg
110.922 124.695 m 96.41 124.695 84.602 112.754 84.602 98.074 c 84.602 81.723
 l 84.602 67.043 96.41 55.102 110.922 55.102 c 125.43 55.102 137.238 67.043
 137.238 81.723 c 137.238 98.074 l 137.238 112.754 125.434 124.695 110.922
 124.695 c h
110.922 61.102 m 99.719 61.102 90.602 70.352 90.602 81.723 c 90.602 98.074
 l 90.602 109.445 99.719 118.695 110.922 118.695 c 122.125 118.695 131.238
 109.445 131.238 98.074 c 131.238 81.723 l 131.238 70.352 122.125 61.102
 110.922 61.102 c h
110.922 61.102 m f
87.602 100.668 m 85.941 100.668 l 79.988 100.668 75.148 95.824 75.148 89.875
 c 75.148 83.922 79.988 79.082 85.941 79.082 c 87.602 79.082 l 89.258 79.082
 90.602 80.426 90.602 82.082 c 90.602 97.668 l 90.602 99.324 89.262 100.668
 87.602 100.668 c h
84.602 85.273 m 82.609 85.852 81.148 87.695 81.148 89.875 c 81.148 92.051
 82.609 93.898 84.602 94.477 c h
84.602 85.273 m f
135.902 100.668 m 134.238 100.668 l 132.582 100.668 131.238 99.324 131.238
 97.668 c 131.238 82.082 l 131.238 80.426 132.582 79.082 134.238 79.082 
c 135.902 79.082 l 141.852 79.082 146.695 83.922 146.695 89.875 c 146.695
 95.824 141.852 100.668 135.902 100.668 c h
137.238 85.273 m 137.238 94.477 l 139.234 93.898 140.695 92.055 140.695
 89.875 c 140.695 87.699 139.234 85.852 137.238 85.273 c h
137.238 85.273 m f
44.703 73.062 m 44.195 73.062 43.68 72.934 43.207 72.66 c 41.773 71.832
 41.281 69.996 42.109 68.562 c 49.645 55.512 l 50.473 54.078 52.305 53.586
 53.742 54.414 c 55.176 55.242 55.668 57.078 54.84 58.512 c 47.305 71.562
 l 46.75 72.527 45.742 73.062 44.703 73.062 c h
44.703 73.062 m f
Q Q
showpage
%%Trailer
end
%%EOF
