%!PS-Adobe-3.0 EPSF-3.0
%%Creator: cairo 1.16.0 (https://cairographics.org)
%%CreationDate: Fri Jan 10 07:38:59 2020
%%Pages: 1
%%DocumentData: Clean7Bit
%%LanguageLevel: 2
%%BoundingBox: 3 44 381 340
%%EndComments
%%BeginProlog
50 dict begin
/q { gsave } bind def
/Q { grestore } bind def
/cm { 6 array astore concat } bind def
/w { setlinewidth } bind def
/J { setlinecap } bind def
/j { setlinejoin } bind def
/M { setmiterlimit } bind def
/d { setdash } bind def
/m { moveto } bind def
/l { lineto } bind def
/c { curveto } bind def
/h { closepath } bind def
/re { exch dup neg 3 1 roll 5 3 roll moveto 0 rlineto
      0 exch rlineto 0 rlineto closepath } bind def
/S { stroke } bind def
/f { fill } bind def
/f* { eofill } bind def
/n { newpath } bind def
/W { clip } bind def
/W* { eoclip } bind def
/BT { } bind def
/ET { } bind def
/BDC { mark 3 1 roll /BDC pdfmark } bind def
/EMC { mark /EMC pdfmark } bind def
/cairo_store_point { /cairo_point_y exch def /cairo_point_x exch def } def
/Tj { show currentpoint cairo_store_point } bind def
/TJ {
  {
    dup
    type /stringtype eq
    { show } { -0.001 mul 0 cairo_font_matrix dtransform rmoveto } ifelse
  } forall
  currentpoint cairo_store_point
} bind def
/cairo_selectfont { cairo_font_matrix aload pop pop pop 0 0 6 array astore
    cairo_font exch selectfont cairo_point_x cairo_point_y moveto } bind def
/Tf { pop /cairo_font exch def /cairo_font_matrix where
      { pop cairo_selectfont } if } bind def
/Td { matrix translate cairo_font_matrix matrix concatmatrix dup
      /cairo_font_matrix exch def dup 4 get exch 5 get cairo_store_point
      /cairo_font where { pop cairo_selectfont } if } bind def
/Tm { 2 copy 8 2 roll 6 array astore /cairo_font_matrix exch def
      cairo_store_point /cairo_font where { pop cairo_selectfont } if } bind def
/g { setgray } bind def
/rg { setrgbcolor } bind def
/d1 { setcachedevice } bind def
/cairo_data_source {
  CairoDataIndex CairoData length lt
    { CairoData CairoDataIndex get /CairoDataIndex CairoDataIndex 1 add def }
    { () } ifelse
} def
/cairo_flush_ascii85_file { cairo_ascii85_file status { cairo_ascii85_file flushfile } if } def
/cairo_image { image cairo_flush_ascii85_file } def
/cairo_imagemask { imagemask cairo_flush_ascii85_file } def
%%EndProlog
%%BeginSetup
%%EndSetup
%%Page: 1 1
%%BeginPageSetup
%%PageBoundingBox: 3 44 381 340
%%EndPageSetup
q 3 44 378 296 rectclip
1 0 0 -1 0 384 cm q
0.956863 0.937255 0.929412 rg
364.727 286.977 m 19.273 286.977 l 11.941 286.977 6 281.035 6 273.703 c
 6 61.008 l 6 53.676 11.941 47.734 19.273 47.734 c 364.727 47.734 l 372.059
 47.734 378 53.676 378 61.008 c 378 273.703 l 378 281.035 372.059 286.977
 364.727 286.977 c h
364.727 286.977 m f
0.839216 0.819608 0.811765 rg
364.727 47.734 m 349.727 47.734 l 357.059 47.734 363 53.676 363 61.008 
c 363 273.703 l 363 281.035 357.059 286.977 349.727 286.977 c 364.727 286.977
 l 372.059 286.977 378 281.035 378 273.703 c 378 61.008 l 378 53.676 372.059
 47.734 364.727 47.734 c h
364.727 47.734 m f
1 g
19.273 286.977 m 34.273 286.977 l 26.941 286.977 21 281.035 21 273.703 
c 21 61.008 l 21 53.676 26.941 47.734 34.273 47.734 c 19.273 47.734 l 11.941
 47.734 6 53.676 6 61.008 c 6 273.703 l 6 281.035 11.941 286.977 19.273 
286.977 c h
19.273 286.977 m f
0.321569 0.435294 0.666667 rg
313.352 336.266 m 70.648 336.266 l 70.648 318.484 l 70.648 311.152 76.59
 305.211 83.922 305.211 c 300.078 305.211 l 307.41 305.211 313.352 311.152
 313.352 318.484 c h
313.352 336.266 m f
0.203922 0.317647 0.54902 rg
300.078 305.211 m 285.078 305.211 l 292.41 305.211 298.352 311.152 298.352
 318.484 c 298.352 336.27 l 313.352 336.27 l 313.352 318.484 l 313.352 311.152
 307.41 305.211 300.078 305.211 c h
300.078 305.211 m f
0.439216 0.552941 0.784314 rg
83.922 305.211 m 98.922 305.211 l 91.59 305.211 85.648 311.152 85.648 318.484
 c 85.648 336.27 l 70.648 336.27 l 70.648 318.484 l 70.648 311.152 76.59
 305.211 83.922 305.211 c h
83.922 305.211 m f
0.203922 0.317647 0.54902 rg
120.754 286.977 142.488 18.234 re f
0.411765 0.0196078 0.537255 rg
18 103.539 m 16.344 103.539 15 102.195 15 100.539 c 15 82.539 l 15 80.883
 16.344 79.539 18 79.539 c 19.656 79.539 21 80.883 21 82.539 c 21 100.539
 l 21 102.195 19.656 103.539 18 103.539 c h
18 103.539 m f
313.352 339.266 m 70.648 339.266 l 68.992 339.266 67.648 337.922 67.648
 336.266 c 67.648 318.484 l 67.648 309.512 74.949 302.211 83.926 302.211
 c 300.078 302.211 l 309.051 302.211 316.355 309.512 316.355 318.484 c 316.355
 336.266 l 316.352 337.922 315.008 339.266 313.352 339.266 c h
73.648 333.266 m 310.352 333.266 l 310.352 318.484 l 310.352 312.82 305.742
 308.211 300.078 308.211 c 83.922 308.211 l 78.258 308.211 73.648 312.82
 73.648 318.484 c h
73.648 333.266 m f
263.246 308.211 m 120.754 308.211 l 119.098 308.211 117.754 306.867 117.754
 305.211 c 117.754 286.977 l 117.754 285.324 119.098 283.977 120.754 283.977
 c 263.246 283.977 l 264.902 283.977 266.246 285.324 266.246 286.977 c 266.246
 305.211 l 266.246 306.867 264.902 308.211 263.246 308.211 c h
123.754 302.211 m 260.246 302.211 l 260.246 289.977 l 123.754 289.977 l
 h
123.754 302.211 m f
364.727 289.977 m 19.273 289.977 l 10.301 289.977 3 282.676 3 273.699 c
 3 61.008 l 3 52.035 10.301 44.734 19.273 44.734 c 364.727 44.734 l 373.699
 44.734 381 52.035 381 61.008 c 381 273.703 l 381 282.676 373.699 289.977
 364.727 289.977 c h
19.273 50.734 m 13.609 50.734 9 55.34 9 61.008 c 9 273.703 l 9 279.367 
13.609 283.977 19.273 283.977 c 364.727 283.977 l 370.391 283.977 375 279.367
 375 273.703 c 375 61.008 l 375 55.344 370.391 50.734 364.727 50.734 c h
19.273 50.734 m f
0.533333 0.321569 0.658824 rg
253.988 244.777 m 130.012 244.777 l 88.137 244.777 54.195 210.836 54.195
 168.961 c 54.195 127.09 88.137 93.145 130.012 93.145 c 253.992 93.145 l
 295.863 93.145 329.805 127.09 329.805 168.961 c 329.805 210.836 295.863
 244.777 253.988 244.777 c h
253.988 244.777 m f
0.415686 0.203922 0.541176 rg
253.988 93.148 m 240.488 93.148 l 282.363 93.148 316.305 127.09 316.305
 168.965 c 316.305 210.836 282.363 244.777 240.488 244.777 c 253.988 244.777
 l 295.863 244.777 329.805 210.836 329.805 168.965 c 329.805 127.09 295.863
 93.148 253.988 93.148 c h
253.988 93.148 m f
0.65098 0.439216 0.776471 rg
130.012 244.777 m 143.512 244.777 l 101.637 244.777 67.695 210.836 67.695
 168.961 c 67.695 127.09 101.637 93.145 143.512 93.145 c 130.012 93.145 
l 88.137 93.145 54.195 127.09 54.195 168.961 c 54.195 210.836 88.137 244.777
 130.012 244.777 c h
130.012 244.777 m f
0.411765 0.0196078 0.537255 rg
253.988 247.777 m 130.012 247.777 l 86.551 247.777 51.195 212.422 51.195
 168.965 c 51.195 125.504 86.551 90.148 130.012 90.148 c 253.988 90.148 
l 297.449 90.148 332.805 125.504 332.805 168.965 c 332.805 212.422 297.449
 247.777 253.988 247.777 c h
130.012 96.148 m 89.859 96.148 57.195 128.812 57.195 168.965 c 57.195 209.113
 89.859 241.777 130.012 241.777 c 253.988 241.777 l 294.141 241.777 326.805
 209.113 326.805 168.965 c 326.805 128.812 294.141 96.148 253.988 96.148
 c h
130.012 96.148 m f
0.956863 0.937255 0.929412 rg
138.227 187.773 m 112.785 187.773 l 107.652 201.383 l 106.711 203.688 104.512
 205.047 102.207 205.047 c 101.477 205.047 100.848 204.945 100.219 204.734
 c 97.184 203.582 95.719 200.23 96.766 197.195 c 119.906 135.523 l 120.848
 133.223 123.152 131.754 125.457 131.859 c 127.863 131.754 130.062 133.223
 131.004 135.523 c 154.145 197.195 l 155.191 200.23 153.723 203.582 150.688
 204.734 c 150.164 204.945 149.43 205.047 148.699 205.047 c 146.395 205.047
 144.195 203.688 143.359 201.383 c h
133.934 176.258 m 125.453 153.742 l 116.973 176.258 l h
133.934 176.258 m f
168.496 199.289 m 168.496 137.516 l 168.496 134.27 171.008 131.754 174.254
 131.754 c 186.609 131.754 l 206.816 131.754 223.152 148.195 223.152 168.297
 c 223.152 188.609 206.816 205.047 186.609 205.047 c 174.254 205.047 l 171.008
 205.047 168.496 202.43 168.496 199.289 c h
180.117 193.426 m 186.609 193.426 l 200.43 193.32 211.527 182.223 211.527
 168.297 c 211.527 154.582 200.426 143.379 186.609 143.379 c 180.117 143.379
 l h
180.117 193.426 m f
231.555 186.828 m 233.438 184.527 236.895 184.211 239.199 186.098 c 243.805
 189.867 251.762 194.262 259.195 194.16 c 264.43 194.16 269.141 192.59 272.281
 190.285 c 275.426 187.98 276.785 185.363 276.785 182.746 c 276.785 181.383
 276.473 180.445 275.84 179.395 c 275.211 178.348 274.27 177.301 272.699
 176.254 c 269.664 174.266 264.531 172.484 258.355 171.332 c 258.148 171.332
 l 253.223 170.391 248.617 169.137 244.641 167.25 c 240.66 165.367 237.207
 162.75 234.902 159.086 c 233.332 156.57 232.496 153.641 232.496 150.496
 c 232.496 144.215 236.055 138.77 240.871 135.211 c 245.793 131.652 252.18
 129.66 258.984 129.66 c 269.035 129.66 276.473 134.582 281.812 138.039 
c 284.219 139.715 284.953 143.062 283.277 145.473 c 281.707 147.984 278.355
 148.719 275.844 147.043 c 270.504 143.484 265.371 140.34 258.984 140.34
 c 254.273 140.34 250.086 141.809 247.258 143.902 c 244.434 145.996 243.281
 148.301 243.281 150.496 c 243.281 151.754 243.488 152.594 244.016 153.43
 c 244.539 154.27 245.477 155.211 246.84 156.152 c 249.562 158.035 254.273
 159.711 259.926 160.758 c 260.137 160.758 l 265.477 161.805 270.398 163.168
 274.586 165.156 c 278.879 167.25 282.648 169.973 285.059 173.848 c 286.629
 176.359 287.57 179.5 287.57 182.746 c 287.57 189.445 283.797 195.207 278.562
 198.977 c 273.434 202.746 266.629 204.945 259.195 204.945 c 247.887 204.84
 238.359 199.184 232.391 194.477 c 230.09 192.59 229.773 189.133 231.555
 186.828 c h
231.555 186.828 m f
0.988235 0.760784 0.298039 rg
323.82 242.184 m 313.391 275.004 l 299.234 239.223 l 285.078 203.445 l 
320.859 217.602 l 356.637 231.758 l h
323.82 242.184 m f
0.411765 0.0196078 0.537255 rg
313.391 278.004 m 312.164 278.004 311.055 277.258 310.602 276.109 c 282.289
 204.547 l 281.848 203.434 282.109 202.168 282.957 201.324 c 283.801 200.477
 285.066 200.215 286.18 200.656 c 357.738 228.969 l 358.922 229.434 359.68
 230.594 359.637 231.863 c 359.594 233.129 358.754 234.234 357.543 234.617
 c 326.207 244.578 l 316.246 275.914 l 315.863 277.125 314.762 277.961 313.492
 278.008 c 313.461 278.004 313.422 278.004 313.391 278.004 c h
290.414 208.781 m 313.078 266.07 l 320.957 241.277 l 321.254 240.348 321.98
 239.621 322.91 239.324 c 347.703 231.445 l h
290.414 208.781 m f
Q Q
showpage
%%Trailer
end
%%EOF
