%!PS-Adobe-3.0 EPSF-3.0
%%Creator: cairo 1.16.0 (https://cairographics.org)
%%CreationDate: Fri Jan 10 07:38:59 2020
%%Pages: 1
%%DocumentData: Clean7Bit
%%LanguageLevel: 2
%%BoundingBox: 3 44 381 340
%%EndComments
%%BeginProlog
50 dict begin
/q { gsave } bind def
/Q { grestore } bind def
/cm { 6 array astore concat } bind def
/w { setlinewidth } bind def
/J { setlinecap } bind def
/j { setlinejoin } bind def
/M { setmiterlimit } bind def
/d { setdash } bind def
/m { moveto } bind def
/l { lineto } bind def
/c { curveto } bind def
/h { closepath } bind def
/re { exch dup neg 3 1 roll 5 3 roll moveto 0 rlineto
      0 exch rlineto 0 rlineto closepath } bind def
/S { stroke } bind def
/f { fill } bind def
/f* { eofill } bind def
/n { newpath } bind def
/W { clip } bind def
/W* { eoclip } bind def
/BT { } bind def
/ET { } bind def
/BDC { mark 3 1 roll /BDC pdfmark } bind def
/EMC { mark /EMC pdfmark } bind def
/cairo_store_point { /cairo_point_y exch def /cairo_point_x exch def } def
/Tj { show currentpoint cairo_store_point } bind def
/TJ {
  {
    dup
    type /stringtype eq
    { show } { -0.001 mul 0 cairo_font_matrix dtransform rmoveto } ifelse
  } forall
  currentpoint cairo_store_point
} bind def
/cairo_selectfont { cairo_font_matrix aload pop pop pop 0 0 6 array astore
    cairo_font exch selectfont cairo_point_x cairo_point_y moveto } bind def
/Tf { pop /cairo_font exch def /cairo_font_matrix where
      { pop cairo_selectfont } if } bind def
/Td { matrix translate cairo_font_matrix matrix concatmatrix dup
      /cairo_font_matrix exch def dup 4 get exch 5 get cairo_store_point
      /cairo_font where { pop cairo_selectfont } if } bind def
/Tm { 2 copy 8 2 roll 6 array astore /cairo_font_matrix exch def
      cairo_store_point /cairo_font where { pop cairo_selectfont } if } bind def
/g { setgray } bind def
/rg { setrgbcolor } bind def
/d1 { setcachedevice } bind def
/cairo_data_source {
  CairoDataIndex CairoData length lt
    { CairoData CairoDataIndex get /CairoDataIndex CairoDataIndex 1 add def }
    { () } ifelse
} def
/cairo_flush_ascii85_file { cairo_ascii85_file status { cairo_ascii85_file flushfile } if } def
/cairo_image { image cairo_flush_ascii85_file } def
/cairo_imagemask { imagemask cairo_flush_ascii85_file } def
%%EndProlog
%%BeginSetup
%%EndSetup
%%Page: 1 1
%%BeginPageSetup
%%PageBoundingBox: 3 44 381 340
%%EndPageSetup
q 3 44 378 296 rectclip
1 0 0 -1 0 384 cm q
0.956863 0.937255 0.929412 rg
364.727 286.977 m 19.273 286.977 l 11.941 286.977 6 281.035 6 273.703 c
 6 61.008 l 6 53.676 11.941 47.734 19.273 47.734 c 364.727 47.734 l 372.059
 47.734 378 53.676 378 61.008 c 378 273.703 l 378 281.035 372.059 286.977
 364.727 286.977 c h
364.727 286.977 m f
0.839216 0.819608 0.811765 rg
364.727 47.734 m 349.727 47.734 l 357.059 47.734 363 53.676 363 61.008 
c 363 273.703 l 363 281.035 357.059 286.977 349.727 286.977 c 364.727 286.977
 l 372.059 286.977 378 281.035 378 273.703 c 378 61.008 l 378 53.676 372.059
 47.734 364.727 47.734 c h
364.727 47.734 m f
1 g
19.273 286.977 m 34.273 286.977 l 26.941 286.977 21 281.035 21 273.703 
c 21 61.008 l 21 53.676 26.941 47.734 34.273 47.734 c 19.273 47.734 l 11.941
 47.734 6 53.676 6 61.008 c 6 273.703 l 6 281.035 11.941 286.977 19.273 
286.977 c h
19.273 286.977 m f
0.321569 0.435294 0.666667 rg
313.352 336.266 m 70.648 336.266 l 70.648 318.484 l 70.648 311.152 76.59
 305.211 83.922 305.211 c 300.078 305.211 l 307.41 305.211 313.352 311.152
 313.352 318.484 c h
313.352 336.266 m f
0.203922 0.317647 0.54902 rg
300.078 305.211 m 285.078 305.211 l 292.41 305.211 298.352 311.152 298.352
 318.484 c 298.352 336.27 l 313.352 336.27 l 313.352 318.484 l 313.352 311.152
 307.41 305.211 300.078 305.211 c h
300.078 305.211 m f
0.439216 0.552941 0.784314 rg
83.922 305.211 m 98.922 305.211 l 91.59 305.211 85.648 311.152 85.648 318.484
 c 85.648 336.27 l 70.648 336.27 l 70.648 318.484 l 70.648 311.152 76.59
 305.211 83.922 305.211 c h
83.922 305.211 m f
0.203922 0.317647 0.54902 rg
120.754 286.977 142.488 18.234 re f
0.411765 0.0196078 0.537255 rg
18 103.539 m 16.344 103.539 15 102.195 15 100.539 c 15 82.539 l 15 80.883
 16.344 79.539 18 79.539 c 19.656 79.539 21 80.883 21 82.539 c 21 100.539
 l 21 102.195 19.656 103.539 18 103.539 c h
18 103.539 m f
313.352 339.266 m 70.648 339.266 l 68.992 339.266 67.648 337.922 67.648
 336.266 c 67.648 318.484 l 67.648 309.512 74.949 302.211 83.922 302.211
 c 300.078 302.211 l 309.051 302.211 316.352 309.512 316.352 318.484 c 316.352
 336.266 l 316.352 337.926 315.008 339.266 313.352 339.266 c h
73.648 333.266 m 310.352 333.266 l 310.352 318.484 l 310.352 312.82 305.742
 308.211 300.078 308.211 c 83.922 308.211 l 78.258 308.211 73.648 312.82
 73.648 318.484 c h
73.648 333.266 m f
263.246 308.211 m 120.754 308.211 l 119.098 308.211 117.754 306.867 117.754
 305.211 c 117.754 286.977 l 117.754 285.324 119.098 283.977 120.754 283.977
 c 263.242 283.977 l 264.898 283.977 266.242 285.324 266.242 286.977 c 266.242
 305.211 l 266.246 306.867 264.902 308.211 263.246 308.211 c h
123.754 302.211 m 260.242 302.211 l 260.242 289.977 l 123.754 289.977 l
 h
123.754 302.211 m f
364.727 289.977 m 19.273 289.977 l 10.301 289.977 3 282.676 3 273.703 c
 3 61.008 l 3 52.035 10.301 44.734 19.273 44.734 c 364.727 44.734 l 373.699
 44.734 381 52.035 381 61.008 c 381 273.703 l 381 282.676 373.699 289.977
 364.727 289.977 c h
19.273 50.734 m 13.609 50.734 9 55.344 9 61.008 c 9 273.703 l 9 279.367
 13.609 283.977 19.273 283.977 c 364.727 283.977 l 370.391 283.977 375 279.367
 375 273.703 c 375 61.008 l 375 55.344 370.391 50.734 364.727 50.734 c h
19.273 50.734 m f
0.321569 0.435294 0.666667 rg
172.742 212.109 m 172.742 175.805 l 211.434 175.805 l 211.434 212.109 l
 246.367 212.109 l 259.902 212.129 270.859 223.242 270.84 236.773 c 270.84
 286.977 l 113.16 286.977 l 113.16 236.574 l 113.176 223.039 124.227 212.082
 137.758 212.102 c h
172.742 212.109 m f
1 0.623529 0.439216 rg
172.742 203.32 m 191.906 227.16 l 211.434 203.32 l 211.434 175.805 l 172.742
 175.805 l h
172.742 203.32 m f
0.203922 0.317647 0.54902 rg
246.367 212.109 m 236.273 212.109 l 249.809 212.129 260.762 223.23 260.746
 236.762 c 260.746 286.977 l 270.84 286.977 l 270.84 236.773 l 270.859 223.242
 259.902 212.129 246.367 212.109 c h
246.367 212.109 m f
0.439216 0.552941 0.784314 rg
137.758 212.102 m 147.852 212.109 l 134.32 212.094 123.273 223.051 123.254
 236.582 c 123.254 286.977 l 113.16 286.977 l 113.16 236.57 l 113.176 223.039
 124.227 212.082 137.758 212.102 c h
137.758 212.102 m f
0.411765 0.0196078 0.537255 rg
143.598 289.117 m 141.945 289.117 140.598 287.773 140.598 286.117 c 140.598
 263.75 l 140.598 262.094 141.945 260.75 143.598 260.75 c 145.254 260.75
 146.598 262.094 146.598 263.75 c 146.598 286.117 l 146.598 287.773 145.254
 289.117 143.598 289.117 c h
143.598 289.117 m f
240.402 289.117 m 238.746 289.117 237.402 287.773 237.402 286.117 c 237.402
 263.75 l 237.402 262.094 238.746 260.75 240.402 260.75 c 242.055 260.75
 243.402 262.094 243.402 263.75 c 243.402 286.117 l 243.402 287.773 242.059
 289.117 240.402 289.117 c h
240.402 289.117 m f
270.84 289.977 m 113.16 289.977 l 111.504 289.977 110.16 288.633 110.16
 286.977 c 110.16 236.57 l 110.18 221.414 122.543 209.102 137.727 209.102
 c 137.762 209.102 l 169.738 209.109 l 169.738 175.805 l 169.738 174.148
 171.082 172.805 172.738 172.805 c 211.43 172.805 l 213.086 172.805 214.43
 174.148 214.43 175.805 c 214.43 209.113 l 246.367 209.113 l 253.715 209.121
 260.617 212.016 265.816 217.266 c 271 222.496 273.848 229.43 273.84 236.781
 c 273.84 286.98 l 273.84 288.633 272.496 289.977 270.84 289.977 c h
116.16 283.977 m 267.84 283.977 l 267.84 236.773 l 267.848 231.012 265.617
 225.586 261.555 221.484 c 257.492 217.383 252.098 215.117 246.363 215.109
 c 211.434 215.109 l 209.777 215.109 208.434 213.766 208.434 212.109 c 208.434
 178.805 l 175.738 178.805 l 175.738 212.109 l 175.738 212.906 175.422 213.668
 174.859 214.23 c 174.297 214.793 173.535 215.109 172.738 215.109 c 137.758
 215.098 l 137.746 215.098 137.738 215.098 137.727 215.098 c 125.844 215.098
 116.172 224.727 116.16 236.574 c h
116.16 283.977 m f
0.988235 0.760784 0.298039 rg
227.684 104.699 m 227.684 103.223 l 227.684 97.027 223.918 91.715 218.551
 89.445 c 212.434 86.855 206.488 83.875 201.059 80.055 c 192.012 73.688 
l 192.012 73.672 l 192 73.676 l 191.988 73.668 l 191.988 73.684 l 182.941
 80.051 l 177.512 83.875 171.566 86.855 165.449 89.441 c 160.082 91.711 
156.316 97.027 156.316 103.219 c 156.316 104.695 l 147.598 104.695 140.727
 112.129 141.41 120.82 c 143.957 153.258 l 240.047 153.258 l 242.594 120.82
 l 243.273 112.129 236.402 104.699 227.684 104.699 c h
227.684 104.699 m f
0.870588 0.643137 0.180392 rg
227.684 104.699 m 227.684 103.223 l 227.684 97.027 223.918 91.715 218.551
 89.445 c 212.434 86.855 206.488 83.875 201.059 80.055 c 192.023 73.695 
l 195.547 80.922 204.184 86.859 210.293 89.445 c 215.66 91.715 219.426 97.027
 219.426 103.223 c 219.426 104.023 220.043 104.691 220.844 104.766 c 228.879
 105.516 234.98 112.605 234.332 120.82 c 231.785 153.258 l 240.043 153.258
 l 242.59 120.82 l 243.273 112.129 236.402 104.699 227.684 104.699 c h
227.684 104.699 m f
0.988235 0.878431 0.415686 rg
156.316 104.699 m 156.316 103.223 l 156.316 97.027 160.082 91.715 165.449
 89.445 c 171.566 86.855 177.512 83.875 182.941 80.055 c 191.973 73.695 
l 188.449 80.922 179.816 86.859 173.703 89.445 c 168.336 91.715 164.574 
97.027 164.574 103.223 c 164.574 104.023 163.957 104.691 163.156 104.766
 c 155.121 105.516 149.02 112.605 149.664 120.82 c 152.211 153.258 l 143.953
 153.258 l 141.406 120.82 l 140.727 112.129 147.598 104.699 156.316 104.699
 c h
156.316 104.699 m f
0.411765 0.0196078 0.537255 rg
240.043 156.258 m 143.957 156.258 l 142.391 156.258 141.09 155.055 140.965
 153.496 c 138.418 121.059 l 138.027 116.082 139.746 111.129 143.133 107.465
 c 145.848 104.531 149.465 102.602 153.359 101.945 c 153.832 95.234 158.016
 89.332 164.281 86.68 c 171.176 83.766 176.559 80.879 181.215 77.598 c 190.113
 71.336 l 190.273 71.211 190.445 71.094 190.633 71 c 191.148 70.742 191.711
 70.641 192.262 70.688 c 192.641 70.719 193.012 70.82 193.359 70.996 c 193.551
 71.094 193.73 71.211 193.895 71.34 c 202.785 77.598 l 207.441 80.879 212.82
 83.762 219.719 86.68 c 225.984 89.332 230.164 95.234 230.637 101.945 c 
234.531 102.598 238.152 104.531 240.863 107.465 c 244.25 111.125 245.969
 116.082 245.578 121.055 c 243.031 153.496 l 242.91 155.055 241.609 156.258
 240.043 156.258 c h
146.73 150.258 m 237.27 150.258 l 239.602 120.586 l 239.863 117.227 238.75
 114.012 236.461 111.535 c 234.172 109.062 231.055 107.699 227.684 107.699
 c 226.027 107.699 224.684 106.355 224.684 104.699 c 224.684 103.223 l 224.684
 98.406 221.816 94.082 217.383 92.207 c 210.082 89.117 204.348 86.035 199.332
 82.504 c 192 77.344 l 184.668 82.504 l 179.652 86.035 173.918 89.117 166.617
 92.203 c 162.18 94.082 159.316 98.406 159.316 103.219 c 159.316 104.695
 l 159.316 106.352 157.973 107.695 156.316 107.695 c 152.945 107.695 149.828
 109.059 147.539 111.535 c 145.25 114.012 144.137 117.227 144.398 120.586
 c h
146.73 150.258 m f
1 0.741176 0.556863 rg
153.684 142.684 m 150.945 142.684 l 143.867 142.684 138.129 148.422 138.129
 155.5 c 138.129 162.578 143.867 168.316 150.945 168.316 c 153.684 168.316
 l h
153.684 142.684 m f
0.882353 0.505882 0.321569 rg
233.125 142.684 m 230.387 142.684 l 230.387 168.316 l 233.125 168.316 l
 240.203 168.316 245.941 162.582 245.941 155.504 c 245.941 148.422 240.203
 142.684 233.125 142.684 c h
233.125 142.684 m f
1 0.623529 0.439216 rg
192.035 207.84 m 170.855 207.84 153.684 190.445 153.684 168.988 c 153.684
 142.094 l 153.684 120.637 170.855 103.242 192.035 103.242 c 213.219 103.242
 230.387 120.637 230.387 142.094 c 230.387 168.988 l 230.387 190.445 213.219
 207.84 192.035 207.84 c h
192.035 207.84 m f
0.882353 0.505882 0.321569 rg
192.035 103.242 m 190.562 103.242 189.109 103.336 187.676 103.5 c 206.805
 105.691 221.672 122.129 221.672 142.094 c 221.672 168.988 l 221.672 188.949
 206.805 205.391 187.676 207.582 c 189.109 207.746 190.559 207.84 192.035
 207.84 c 213.219 207.84 230.387 190.445 230.387 168.988 c 230.387 142.094
 l 230.387 120.637 213.219 103.242 192.035 103.242 c h
192.035 103.242 m f
1 0.741176 0.556863 rg
192.035 103.242 m 193.512 103.242 194.961 103.336 196.395 103.5 c 177.266
 105.691 162.402 122.129 162.402 142.094 c 162.402 168.988 l 162.402 188.949
 177.266 205.391 196.395 207.582 c 194.961 207.746 193.508 207.84 192.035
 207.84 c 170.855 207.84 153.684 190.445 153.684 168.988 c 153.684 142.094
 l 153.684 120.637 170.855 103.242 192.035 103.242 c h
192.035 103.242 m f
0.411765 0.0196078 0.537255 rg
192.035 210.84 m 169.234 210.84 150.684 192.066 150.684 168.988 c 150.684
 142.094 l 150.684 119.016 169.234 100.242 192.035 100.242 c 214.836 100.242
 233.387 119.016 233.387 142.094 c 233.387 168.988 l 233.387 192.066 214.836
 210.84 192.035 210.84 c h
192.035 106.242 m 172.543 106.242 156.684 122.324 156.684 142.094 c 156.684
 168.988 l 156.684 188.754 172.543 204.84 192.035 204.84 c 211.531 204.84
 227.387 188.754 227.387 168.988 c 227.387 142.094 l 227.387 122.324 211.531
 106.242 192.035 106.242 c h
192.035 106.242 m f
153.684 171.316 m 150.945 171.316 l 142.223 171.316 135.129 164.223 135.129
 155.504 c 135.129 146.781 142.223 139.688 150.945 139.688 c 153.684 139.688
 l 155.34 139.688 156.684 141.031 156.684 142.688 c 156.684 168.316 l 156.684
 169.973 155.34 171.316 153.684 171.316 c h
150.684 145.688 m 145.391 145.828 141.129 150.176 141.129 155.504 c 141.129
 160.828 145.391 165.176 150.684 165.316 c h
150.684 145.688 m f
233.125 171.316 m 230.387 171.316 l 228.73 171.316 227.387 169.973 227.387
 168.316 c 227.387 142.688 l 227.387 141.031 228.73 139.688 230.387 139.688
 c 233.125 139.688 l 241.848 139.688 248.941 146.781 248.941 155.504 c 248.941
 164.223 241.848 171.316 233.125 171.316 c h
233.387 145.688 m 233.387 165.312 l 238.68 165.176 242.941 160.824 242.941
 155.5 c 242.941 150.176 238.68 145.828 233.387 145.688 c h
233.387 145.688 m f
0.956863 0.937255 0.929412 rg
211.434 203.32 m 191.906 227.16 l 213.855 243.281 l 219.695 212.109 l h
211.434 203.32 m f
172.742 203.32 m 191.906 227.16 l 170.141 243.281 l 164.305 212.105 l h
172.742 203.32 m f
0.411765 0.0196078 0.537255 rg
213.855 246.281 m 213.227 246.281 212.605 246.082 212.082 245.699 c 190.133
 229.578 l 189.469 229.09 189.035 228.352 188.93 227.535 c 188.828 226.719
 189.066 225.895 189.586 225.258 c 209.113 201.418 l 209.66 200.75 210.469
 200.352 211.332 200.32 c 212.207 200.316 213.027 200.637 213.621 201.266
 c 221.883 210.055 l 222.539 210.75 222.82 211.719 222.645 212.66 c 216.809
 243.832 l 216.617 244.844 215.918 245.691 214.961 246.07 c 214.602 246.211
 214.227 246.281 213.855 246.281 c h
196.23 226.613 m 211.785 238.039 l 216.465 213.055 l 211.59 207.867 l h
196.23 226.613 m f
170.145 246.281 m 169.773 246.281 169.402 246.215 169.047 246.074 c 168.086
 245.695 167.387 244.848 167.195 243.832 c 161.355 212.656 l 161.176 211.707
 161.469 210.727 162.141 210.027 c 170.578 201.242 l 171.176 200.617 172.02
 200.281 172.875 200.32 c 173.734 200.359 174.539 200.766 175.078 201.441
 c 194.246 225.277 l 194.758 225.914 194.988 226.734 194.883 227.539 c 194.781
 228.352 194.352 229.082 193.695 229.57 c 171.93 245.691 l 171.406 246.078
 170.777 246.281 170.145 246.281 c h
167.535 213.07 m 172.211 238.016 l 187.613 226.605 l 172.543 207.859 l 
h
167.535 213.07 m f
0.988235 0.760784 0.298039 rg
311.246 166.902 m 334.094 144.059 334.094 107.016 311.246 84.172 c 288.402
 61.328 251.359 61.328 228.516 84.172 c 208.113 104.578 205.945 136.297 
221.992 159.121 c 220.566 164.434 l 216.754 178.668 l 230.988 174.852 l 
236.301 173.43 l 259.121 189.473 290.844 187.309 311.246 166.902 c h
311.246 166.902 m f
0.956863 0.937255 0.929412 rg
235.055 133.992 m 240.758 133.992 l 240.758 110.875 l 235.055 110.875 l
 228.668 110.875 223.492 116.051 223.492 122.434 c 223.496 128.816 228.668
 133.992 235.055 133.992 c h
235.055 133.992 m f
273.281 109.254 m 303.32 93.336 l 303.32 151.527 l 273.281 135.609 l h
273.281 109.254 m f
257.02 168.23 m 254.223 168.23 251.953 165.965 251.953 163.164 c 251.953
 126.113 l 262.086 126.113 l 262.086 163.164 l 262.086 165.965 259.816 168.23
 257.02 168.23 c h
257.02 168.23 m f
0.411765 0.0196078 0.537255 rg
257.02 171.23 m 252.57 171.23 248.953 167.613 248.953 163.164 c 248.953
 126.113 l 248.953 124.457 250.297 123.113 251.953 123.113 c 262.086 123.113
 l 263.742 123.113 265.086 124.457 265.086 126.113 c 265.086 163.164 l 265.086
 167.613 261.469 171.23 257.02 171.23 c h
254.953 129.113 m 254.953 163.164 l 254.953 164.305 255.879 165.23 257.02
 165.23 c 258.156 165.23 259.086 164.305 259.086 163.164 c 259.086 129.113
 l h
254.953 129.113 m f
0.533333 0.321569 0.658824 rg
268.5 139.648 m 245.539 139.648 l 242.898 139.648 240.758 137.508 240.758
 134.867 c 240.758 109.996 l 240.758 107.355 242.898 105.215 245.539 105.215
 c 268.5 105.215 l 271.141 105.215 273.281 107.355 273.281 109.996 c 273.281
 134.863 l 273.281 137.508 271.141 139.648 268.5 139.648 c h
268.5 139.648 m f
0.956863 0.937255 0.929412 rg
305.387 128.676 m 303.32 128.676 l 303.32 116.188 l 305.387 116.188 l 308.836
 116.188 311.633 118.984 311.633 122.43 c 311.633 125.879 308.836 128.676
 305.387 128.676 c h
305.387 128.676 m f
0.411765 0.0196078 0.537255 rg
305.387 131.676 m 303.32 131.676 l 301.664 131.676 300.32 130.332 300.32
 128.676 c 300.32 116.188 l 300.32 114.531 301.664 113.188 303.32 113.188
 c 305.387 113.188 l 310.484 113.188 314.633 117.336 314.633 122.434 c 314.633
 127.531 310.484 131.676 305.387 131.676 c h
306.32 119.324 m 306.32 125.539 l 307.656 125.137 308.633 123.898 308.633
 122.434 c 308.633 120.969 307.656 119.727 306.32 119.324 c h
306.32 119.324 m f
303.32 154.527 m 302.84 154.527 302.355 154.41 301.914 154.176 c 271.875
 138.258 l 270.895 137.738 270.281 136.719 270.281 135.609 c 270.281 109.254
 l 270.281 108.141 270.895 107.125 271.875 106.602 c 301.914 90.684 l 302.844
 90.191 303.969 90.223 304.867 90.766 c 305.77 91.309 306.32 92.285 306.32
 93.336 c 306.32 151.527 l 306.32 152.578 305.77 153.555 304.867 154.094
 c 304.395 154.383 303.855 154.527 303.32 154.527 c h
276.281 133.805 m 300.32 146.543 l 300.32 98.32 l 276.281 111.059 l h
276.281 133.805 m f
240.758 136.992 m 235.055 136.992 l 227.023 136.992 220.492 130.461 220.492
 122.434 c 220.492 114.406 227.023 107.875 235.055 107.875 c 240.758 107.875
 l 242.414 107.875 243.758 109.219 243.758 110.875 c 243.758 133.992 l 243.758
 135.648 242.414 136.992 240.758 136.992 c h
235.055 113.875 m 230.336 113.875 226.492 117.715 226.492 122.434 c 226.492
 127.152 230.336 130.992 235.055 130.992 c 237.758 130.992 l 237.758 113.875
 l h
235.055 113.875 m f
268.5 142.648 m 245.539 142.648 l 241.25 142.648 237.758 139.156 237.758
 134.867 c 237.758 109.996 l 237.758 105.707 241.246 102.215 245.539 102.215
 c 268.5 102.215 l 272.793 102.215 276.281 105.707 276.281 109.996 c 276.281
 134.867 l 276.281 139.156 272.789 142.648 268.5 142.648 c h
245.539 108.219 m 244.559 108.219 243.758 109.016 243.758 110 c 243.758
 134.867 l 243.758 135.852 244.559 136.648 245.539 136.648 c 268.5 136.648
 l 269.484 136.648 270.281 135.852 270.281 134.867 c 270.281 109.996 l 270.281
 109.016 269.484 108.215 268.5 108.215 c 245.539 108.215 l h
245.539 108.219 m f
269.883 187.078 m 258.051 187.078 246.156 183.66 235.738 176.684 c 217.531
 181.562 l 216.496 181.84 215.391 181.543 214.633 180.785 c 213.875 180.027
 213.578 178.922 213.855 177.887 c 218.734 159.676 l 202.422 135.32 205.547
 102.895 226.391 82.047 c 250.371 58.07 289.387 58.07 313.363 82.047 c 337.344
 106.027 337.344 145.043 313.363 169.023 c 301.438 180.953 285.715 187.078
 269.883 187.078 c h
236.297 170.43 m 236.91 170.43 237.512 170.617 238.023 170.973 c 260.105
 186.496 290.012 183.895 309.125 164.785 c 330.762 143.145 330.762 107.934
 309.125 86.297 c 287.484 64.656 252.277 64.656 230.637 86.297 c 211.523
 105.406 208.918 135.309 224.445 157.398 c 224.957 158.125 225.117 159.039
 224.887 159.898 c 220.996 174.426 l 235.52 170.531 l 235.777 170.461 236.035
 170.43 236.297 170.43 c h
236.297 170.43 m f
Q Q
showpage
%%Trailer
end
%%EOF
