%!PS-Adobe-3.0 EPSF-3.0
%%Creator: cairo 1.16.0 (https://cairographics.org)
%%CreationDate: Fri Jan 10 07:39:01 2020
%%Pages: 1
%%DocumentData: Clean7Bit
%%LanguageLevel: 2
%%BoundingBox: 3 19 381 365
%%EndComments
%%BeginProlog
50 dict begin
/q { gsave } bind def
/Q { grestore } bind def
/cm { 6 array astore concat } bind def
/w { setlinewidth } bind def
/J { setlinecap } bind def
/j { setlinejoin } bind def
/M { setmiterlimit } bind def
/d { setdash } bind def
/m { moveto } bind def
/l { lineto } bind def
/c { curveto } bind def
/h { closepath } bind def
/re { exch dup neg 3 1 roll 5 3 roll moveto 0 rlineto
      0 exch rlineto 0 rlineto closepath } bind def
/S { stroke } bind def
/f { fill } bind def
/f* { eofill } bind def
/n { newpath } bind def
/W { clip } bind def
/W* { eoclip } bind def
/BT { } bind def
/ET { } bind def
/BDC { mark 3 1 roll /BDC pdfmark } bind def
/EMC { mark /EMC pdfmark } bind def
/cairo_store_point { /cairo_point_y exch def /cairo_point_x exch def } def
/Tj { show currentpoint cairo_store_point } bind def
/TJ {
  {
    dup
    type /stringtype eq
    { show } { -0.001 mul 0 cairo_font_matrix dtransform rmoveto } ifelse
  } forall
  currentpoint cairo_store_point
} bind def
/cairo_selectfont { cairo_font_matrix aload pop pop pop 0 0 6 array astore
    cairo_font exch selectfont cairo_point_x cairo_point_y moveto } bind def
/Tf { pop /cairo_font exch def /cairo_font_matrix where
      { pop cairo_selectfont } if } bind def
/Td { matrix translate cairo_font_matrix matrix concatmatrix dup
      /cairo_font_matrix exch def dup 4 get exch 5 get cairo_store_point
      /cairo_font where { pop cairo_selectfont } if } bind def
/Tm { 2 copy 8 2 roll 6 array astore /cairo_font_matrix exch def
      cairo_store_point /cairo_font where { pop cairo_selectfont } if } bind def
/g { setgray } bind def
/rg { setrgbcolor } bind def
/d1 { setcachedevice } bind def
/cairo_data_source {
  CairoDataIndex CairoData length lt
    { CairoData CairoDataIndex get /CairoDataIndex CairoDataIndex 1 add def }
    { () } ifelse
} def
/cairo_flush_ascii85_file { cairo_ascii85_file status { cairo_ascii85_file flushfile } if } def
/cairo_image { image cairo_flush_ascii85_file } def
/cairo_imagemask { imagemask cairo_flush_ascii85_file } def
%%EndProlog
%%BeginSetup
%%EndSetup
%%Page: 1 1
%%BeginPageSetup
%%PageBoundingBox: 3 19 381 365
%%EndPageSetup
q 3 19 378 346 rectclip
1 0 0 -1 0 384 cm q
0.321569 0.435294 0.666667 rg
318.891 277.219 m 127.184 277.219 l 110.254 277.219 95.828 264.93 93.137
 248.211 c 68.074 92.484 l 378 92.484 l 352.938 248.211 l 350.25 264.93 
335.82 277.219 318.891 277.219 c h
318.891 277.219 m f
0.203922 0.317647 0.54902 rg
363 92.484 m 337.938 248.211 l 335.25 264.926 320.82 277.219 303.891 277.219
 c 318.891 277.219 l 335.824 277.219 350.25 264.93 352.938 248.211 c 378
 92.484 l h
363 92.484 m f
0.439216 0.552941 0.784314 rg
83.074 92.484 m 108.137 248.211 l 110.824 264.926 125.254 277.219 142.184
 277.219 c 127.184 277.219 l 110.25 277.219 95.824 264.93 93.137 248.211
 c 68.074 92.484 l h
83.074 92.484 m f
0.321569 0.435294 0.666667 rg
168.168 331.668 m 168.168 348.359 154.637 361.891 137.945 361.891 c 121.254
 361.891 107.727 348.359 107.727 331.668 c 107.727 314.98 121.254 301.449
 137.945 301.449 c 154.637 301.449 168.168 314.98 168.168 331.668 c h
168.168 331.668 m f
0.411765 0.0196078 0.537255 rg
137.945 364.891 m 119.629 364.891 104.727 349.984 104.727 331.668 c 104.727
 313.352 119.629 298.449 137.945 298.449 c 156.266 298.449 171.168 313.352
 171.168 331.668 c 171.168 349.988 156.266 364.891 137.945 364.891 c h
137.945 304.449 m 122.938 304.449 110.727 316.66 110.727 331.668 c 110.727
 346.676 122.938 358.887 137.945 358.887 c 152.953 358.887 165.168 346.676
 165.168 331.668 c 165.168 316.66 152.953 304.449 137.945 304.449 c h
137.945 304.449 m f
0.321569 0.435294 0.666667 rg
338.348 331.668 m 338.348 348.359 324.82 361.891 308.129 361.891 c 291.438
 361.891 277.906 348.359 277.906 331.668 c 277.906 314.98 291.438 301.449
 308.129 301.449 c 324.82 301.449 338.348 314.98 338.348 331.668 c h
338.348 331.668 m f
0.411765 0.0196078 0.537255 rg
308.129 364.891 m 289.809 364.891 274.906 349.984 274.906 331.668 c 274.906
 313.352 289.809 298.449 308.129 298.449 c 326.445 298.449 341.348 313.352
 341.348 331.668 c 341.348 349.988 326.445 364.891 308.129 364.891 c h
308.129 304.449 m 293.121 304.449 280.906 316.66 280.906 331.668 c 280.906
 346.676 293.121 358.887 308.129 358.887 c 323.137 358.887 335.348 346.676
 335.348 331.668 c 335.348 316.66 323.137 304.449 308.129 304.449 c h
308.129 304.449 m f
68.07 95.488 m 66.637 95.488 65.367 94.453 65.117 92.992 c 55.543 36.953
 l 54.367 30.09 48.465 25.109 41.504 25.109 c 6 25.109 l 4.344 25.109 3 
23.766 3 22.109 c 3 20.453 4.344 19.109 6 19.109 c 41.504 19.109 l 51.398
 19.109 59.789 26.188 61.453 35.941 c 71.031 91.98 l 71.312 93.613 70.215
 95.164 68.578 95.441 c 68.41 95.473 68.238 95.488 68.07 95.488 c h
68.07 95.488 m f
318.891 280.219 m 127.184 280.219 l 108.68 280.219 93.117 266.957 90.176
 248.691 c 65.113 92.961 l 64.973 92.094 65.223 91.211 65.793 90.539 c 66.363
 89.871 67.195 89.484 68.074 89.484 c 378 89.484 l 378.879 89.484 379.715
 89.871 380.281 90.539 c 380.852 91.211 381.102 92.094 380.961 92.961 c 
355.898 248.691 l 352.961 266.961 337.398 280.219 318.891 280.219 c h
71.598 95.484 m 96.098 247.734 l 98.566 263.082 111.641 274.219 127.184
 274.219 c 318.891 274.219 l 334.434 274.219 347.508 263.082 349.977 247.734
 c 374.48 95.484 l h
71.598 95.484 m f
308.129 304.449 m 137.945 304.449 l 136.289 304.449 134.945 303.105 134.945
 301.449 c 134.945 299.793 136.289 298.449 137.945 298.449 c 308.129 298.449
 l 309.785 298.449 311.129 299.793 311.129 301.449 c 311.129 303.105 309.785
 304.449 308.129 304.449 c h
308.129 304.449 m f
0.988235 0.760784 0.298039 rg
326.34 170.738 m 326.34 136.133 l 307.188 136.133 l 304.965 125.258 300.672
 115.137 294.758 106.184 c 308.316 92.625 l 283.848 68.152 l 270.289 81.711
 l 261.332 75.801 251.215 71.508 240.336 69.281 c 240.336 50.133 l 205.734
 50.133 l 205.734 69.285 l 194.855 71.508 184.738 75.801 175.781 81.715 
c 162.223 68.156 l 137.758 92.625 l 151.316 106.184 l 145.402 115.137 141.109
 125.258 138.887 136.133 c 119.734 136.133 l 119.734 170.738 l 138.887 170.738
 l 141.109 181.617 145.402 191.734 151.316 200.691 c 137.758 214.246 l 162.227
 238.719 l 175.785 225.16 l 184.742 231.07 194.859 235.363 205.734 237.59
 c 205.734 256.738 l 240.34 256.738 l 240.34 237.59 l 251.219 235.363 261.336
 231.07 270.289 225.16 c 283.848 238.719 l 308.32 214.246 l 294.762 200.691
 l 300.672 191.734 304.965 181.617 307.191 170.738 c h
223.035 212.855 m 190.223 212.855 163.617 186.254 163.617 153.434 c 163.617
 120.621 190.219 94.016 223.035 94.016 c 255.852 94.016 282.457 120.621 
282.457 153.434 c 282.457 186.25 255.852 212.855 223.035 212.855 c h
223.035 212.855 m f
0.870588 0.643137 0.180392 rg
292.953 95.555 m 284.715 103.797 l 283.359 105.148 283.055 107.266 284.051
 108.902 c 288.52 116.25 291.926 124.32 294.031 132.898 c 294.492 134.781
 296.133 136.133 298.074 136.133 c 307.191 136.133 l 304.965 125.254 300.672
 115.137 294.758 106.184 c 308.316 92.625 l 283.848 68.152 l 277.633 74.371
 l 292.957 89.695 l 294.574 91.312 294.574 93.938 292.953 95.555 c h
292.953 95.555 m f
313.906 136.133 12.434 34.605 re f
307.191 170.738 m 298.074 170.738 l 296.133 170.738 294.492 172.09 294.031
 173.973 c 291.922 182.551 288.52 190.617 284.051 197.965 c 283.055 199.602
 283.359 201.719 284.715 203.074 c 292.957 211.316 l 294.574 212.934 294.574
 215.559 292.957 217.176 c 277.633 232.5 l 283.848 238.715 l 308.316 214.246
 l 294.758 200.688 l 300.672 191.73 304.965 181.613 307.191 170.738 c h
307.191 170.738 m f
0.988235 0.878431 0.415686 rg
153.121 95.555 m 161.359 103.797 l 162.715 105.148 163.02 107.266 162.023
 108.902 c 157.555 116.25 154.152 124.32 152.043 132.898 c 151.582 134.781
 149.941 136.133 148.004 136.133 c 138.887 136.133 l 141.109 125.254 145.402
 115.137 151.316 106.184 c 137.758 92.625 l 162.227 68.152 l 168.441 74.371
 l 153.121 89.695 l 151.5 91.312 151.5 93.938 153.121 95.555 c h
153.121 95.555 m f
119.734 136.133 12.434 34.605 re f
138.887 170.738 m 148.004 170.738 l 149.941 170.738 151.582 172.09 152.043
 173.973 c 154.152 182.551 157.555 190.617 162.023 197.965 c 163.02 199.602
 162.715 201.719 161.359 203.074 c 153.117 211.316 l 151.5 212.934 151.5
 215.559 153.117 217.176 c 168.441 232.5 l 162.227 238.715 l 137.758 214.246
 l 151.316 200.688 l 145.402 191.73 141.109 181.613 138.887 170.738 c h
138.887 170.738 m f
0.411765 0.0196078 0.537255 rg
92.195 152.188 m 90.75 152.188 89.477 151.137 89.238 149.664 c 86.34 131.664
 l 86.078 130.027 87.191 128.488 88.828 128.227 c 90.469 127.965 92.004 
129.074 92.266 130.711 c 95.16 148.711 l 95.426 150.348 94.312 151.887 92.676
 152.148 c 92.516 152.176 92.355 152.188 92.195 152.188 c h
92.195 152.188 m f
240.34 259.738 m 205.734 259.738 l 204.078 259.738 202.734 258.395 202.734
 256.738 c 202.734 240 l 193.348 237.809 184.441 234.109 176.199 228.984
 c 164.348 240.836 l 163.18 242.008 161.277 242.008 160.105 240.836 c 135.637
 216.367 l 135.074 215.805 134.758 215.043 134.758 214.246 c 134.758 213.453
 135.074 212.688 135.637 212.125 c 147.488 200.273 l 142.363 192.031 138.664
 183.125 136.473 173.738 c 119.734 173.738 l 118.078 173.738 116.734 172.395
 116.734 170.738 c 116.734 136.133 l 116.734 134.477 118.078 133.133 119.734
 133.133 c 136.473 133.133 l 138.664 123.746 142.359 114.84 147.488 106.598
 c 135.637 94.746 l 135.074 94.184 134.758 93.422 134.758 92.625 c 134.758
 91.832 135.074 91.066 135.637 90.504 c 160.105 66.035 l 161.277 64.863 
163.176 64.863 164.348 66.035 c 176.199 77.887 l 184.441 72.762 193.348 
69.062 202.734 66.871 c 202.734 50.133 l 202.734 48.477 204.078 47.133 205.734
 47.133 c 240.336 47.133 l 241.992 47.133 243.336 48.477 243.336 50.133 
c 243.336 66.867 l 252.723 69.059 261.633 72.758 269.875 77.883 c 281.727
 66.031 l 282.895 64.863 284.797 64.863 285.969 66.031 c 310.438 90.504 
l 311 91.066 311.316 91.828 311.316 92.625 c 311.316 93.418 311 94.184 310.438
 94.746 c 298.586 106.598 l 303.711 114.836 307.41 123.742 309.602 133.133
 c 326.336 133.133 l 327.992 133.133 329.336 134.477 329.336 136.133 c 329.336
 170.734 l 329.336 172.391 327.992 173.734 326.336 173.734 c 309.602 173.734
 l 307.41 183.125 303.711 192.031 298.586 200.273 c 310.438 212.125 l 311
 212.688 311.316 213.449 311.316 214.246 c 311.316 215.039 311 215.805 310.438
 216.367 c 285.969 240.836 l 284.797 242.004 282.898 242.004 281.727 240.836
 c 269.875 228.984 l 261.633 234.109 252.723 237.809 243.336 240 c 243.336
 256.734 l 243.34 258.395 241.996 259.738 240.34 259.738 c h
208.734 253.738 m 237.34 253.738 l 237.34 237.59 l 237.34 236.164 238.34
 234.934 239.738 234.648 c 250.051 232.539 259.773 228.504 268.637 222.652
 c 269.824 221.871 271.402 222.027 272.41 223.035 c 283.848 234.473 l 304.074
 214.246 l 292.637 202.809 l 291.629 201.805 291.469 200.227 292.254 199.035
 c 298.102 190.176 302.141 180.453 304.25 170.137 c 304.535 168.742 305.762
 167.738 307.188 167.738 c 323.34 167.738 l 323.34 139.133 l 307.188 139.133
 l 305.762 139.133 304.535 138.133 304.25 136.734 c 302.141 126.422 298.105
 116.695 292.254 107.84 c 291.469 106.648 291.629 105.07 292.637 104.062
 c 304.074 92.625 l 283.848 72.402 l 272.41 83.84 l 271.402 84.848 269.824
 85.008 268.637 84.219 c 259.773 78.371 250.055 74.336 239.738 72.227 c 
238.34 71.941 237.34 70.711 237.34 69.285 c 237.34 53.133 l 208.734 53.133
 l 208.734 69.285 l 208.734 70.707 207.734 71.938 206.336 72.223 c 196.023
 74.332 186.301 78.367 177.438 84.219 c 176.25 85.004 174.672 84.844 173.664
 83.836 c 162.227 72.398 l 142 92.625 l 153.438 104.062 l 154.445 105.07
 154.605 106.648 153.82 107.836 c 147.969 116.695 143.934 126.422 141.824
 136.734 c 141.539 138.129 140.312 139.133 138.887 139.133 c 122.734 139.133
 l 122.734 167.738 l 138.887 167.738 l 140.309 167.738 141.539 168.738 141.824
 170.137 c 143.934 180.449 147.969 190.172 153.82 199.035 c 154.602 200.223
 154.445 201.801 153.438 202.809 c 142 214.246 l 162.227 234.473 l 173.664
 223.035 l 174.668 222.027 176.246 221.867 177.438 222.652 c 186.297 228.504
 196.023 232.539 206.336 234.648 c 207.73 234.934 208.734 236.16 208.734
 237.586 c h
223.035 215.852 m 188.617 215.852 160.617 187.852 160.617 153.434 c 160.617
 119.016 188.617 91.016 223.035 91.016 c 257.457 91.016 285.457 119.016 
285.457 153.434 c 285.457 187.855 257.457 215.852 223.035 215.852 c h
223.035 97.016 m 191.926 97.016 166.617 122.324 166.617 153.434 c 166.617
 184.543 191.926 209.852 223.035 209.852 c 254.148 209.852 279.457 184.543
 279.457 153.434 c 279.457 122.324 254.148 97.016 223.035 97.016 c h
223.035 97.016 m f
0.956863 0.937255 0.929412 rg
316.57 323.156 m 321.27 327.855 321.27 335.477 316.57 340.18 c 311.871 
344.879 304.25 344.879 299.551 340.18 c 294.848 335.477 294.848 327.855 
299.551 323.156 c 304.25 318.457 311.871 318.457 316.57 323.156 c h
316.57 323.156 m f
0.411765 0.0196078 0.537255 rg
308.129 346.707 m 299.836 346.707 293.09 339.961 293.09 331.668 c 293.09
 323.379 299.836 316.633 308.129 316.633 c 316.422 316.633 323.164 323.379
 323.164 331.668 c 323.164 339.961 316.422 346.707 308.129 346.707 c h
308.129 322.633 m 303.145 322.633 299.09 326.688 299.09 331.668 c 299.09
 336.652 303.145 340.707 308.129 340.707 c 313.113 340.707 317.164 336.652
 317.164 331.668 c 317.164 326.688 313.113 322.633 308.129 322.633 c h
308.129 322.633 m f
0.956863 0.937255 0.929412 rg
149 327.172 m 151.531 333.324 148.602 340.363 142.453 342.895 c 136.301
 345.426 129.262 342.496 126.73 336.348 c 124.199 330.195 127.129 323.156
 133.277 320.625 c 139.43 318.094 146.469 321.023 149 327.172 c h
149 327.172 m f
0.411765 0.0196078 0.537255 rg
137.758 346.707 m 129.465 346.707 122.719 339.961 122.719 331.668 c 122.719
 323.379 129.465 316.633 137.758 316.633 c 146.051 316.633 152.793 323.379
 152.793 331.668 c 152.793 339.961 146.051 346.707 137.758 346.707 c h
137.758 322.633 m 132.773 322.633 128.719 326.688 128.719 331.668 c 128.719
 336.652 132.773 340.707 137.758 340.707 c 142.738 340.707 146.793 336.652
 146.793 331.668 c 146.793 326.688 142.742 322.633 137.758 322.633 c h
137.758 322.633 m f
Q Q
showpage
%%Trailer
end
%%EOF
