%!PS-Adobe-3.0 EPSF-3.0
%%Creator: cairo 1.16.0 (https://cairographics.org)
%%CreationDate: Fri Jan 10 07:39:02 2020
%%Pages: 1
%%DocumentData: Clean7Bit
%%LanguageLevel: 2
%%BoundingBox: 64 3 320 381
%%EndComments
%%BeginProlog
50 dict begin
/q { gsave } bind def
/Q { grestore } bind def
/cm { 6 array astore concat } bind def
/w { setlinewidth } bind def
/J { setlinecap } bind def
/j { setlinejoin } bind def
/M { setmiterlimit } bind def
/d { setdash } bind def
/m { moveto } bind def
/l { lineto } bind def
/c { curveto } bind def
/h { closepath } bind def
/re { exch dup neg 3 1 roll 5 3 roll moveto 0 rlineto
      0 exch rlineto 0 rlineto closepath } bind def
/S { stroke } bind def
/f { fill } bind def
/f* { eofill } bind def
/n { newpath } bind def
/W { clip } bind def
/W* { eoclip } bind def
/BT { } bind def
/ET { } bind def
/BDC { mark 3 1 roll /BDC pdfmark } bind def
/EMC { mark /EMC pdfmark } bind def
/cairo_store_point { /cairo_point_y exch def /cairo_point_x exch def } def
/Tj { show currentpoint cairo_store_point } bind def
/TJ {
  {
    dup
    type /stringtype eq
    { show } { -0.001 mul 0 cairo_font_matrix dtransform rmoveto } ifelse
  } forall
  currentpoint cairo_store_point
} bind def
/cairo_selectfont { cairo_font_matrix aload pop pop pop 0 0 6 array astore
    cairo_font exch selectfont cairo_point_x cairo_point_y moveto } bind def
/Tf { pop /cairo_font exch def /cairo_font_matrix where
      { pop cairo_selectfont } if } bind def
/Td { matrix translate cairo_font_matrix matrix concatmatrix dup
      /cairo_font_matrix exch def dup 4 get exch 5 get cairo_store_point
      /cairo_font where { pop cairo_selectfont } if } bind def
/Tm { 2 copy 8 2 roll 6 array astore /cairo_font_matrix exch def
      cairo_store_point /cairo_font where { pop cairo_selectfont } if } bind def
/g { setgray } bind def
/rg { setrgbcolor } bind def
/d1 { setcachedevice } bind def
/cairo_data_source {
  CairoDataIndex CairoData length lt
    { CairoData CairoDataIndex get /CairoDataIndex CairoDataIndex 1 add def }
    { () } ifelse
} def
/cairo_flush_ascii85_file { cairo_ascii85_file status { cairo_ascii85_file flushfile } if } def
/cairo_image { image cairo_flush_ascii85_file } def
/cairo_imagemask { imagemask cairo_flush_ascii85_file } def
%%EndProlog
%%BeginSetup
%%EndSetup
%%Page: 1 1
%%BeginPageSetup
%%PageBoundingBox: 64 3 320 381
%%EndPageSetup
q 64 3 256 378 rectclip
1 0 0 -1 0 384 cm q
0.956863 0.937255 0.929412 rg
301.406 378 m 82.594 378 l 74.309 378 67.594 371.285 67.594 363 c 67.594
 21 l 67.594 12.715 74.309 6 82.594 6 c 301.406 6 l 309.691 6 316.406 12.715
 316.406 21 c 316.406 363 l 316.406 371.285 309.691 378 301.406 378 c h
301.406 378 m f
0.839216 0.819608 0.811765 rg
301.406 6 m 286.406 6 l 294.691 6 301.406 12.715 301.406 21 c 301.406 363
 l 301.406 371.285 294.691 378 286.406 378 c 301.406 378 l 309.691 378 316.406
 371.285 316.406 363 c 316.406 21 l 316.406 12.715 309.691 6 301.406 6 c
 h
301.406 6 m f
1 g
82.594 378 m 97.594 378 l 89.309 378 82.594 371.285 82.594 363 c 82.594
 21 l 82.594 12.715 89.309 6 97.594 6 c 82.594 6 l 74.309 6 67.594 12.715
 67.594 21 c 67.594 363 l 67.594 371.285 74.309 378 82.594 378 c h
82.594 378 m f
0.411765 0.0196078 0.537255 rg
301.406 381 m 82.594 381 l 72.668 381 64.594 372.926 64.594 363 c 64.594
 21 l 64.594 11.074 72.668 3 82.594 3 c 301.41 3 l 311.336 3 319.41 11.074
 319.41 21 c 319.41 363 l 319.406 372.926 311.336 381 301.406 381 c h
82.594 9 m 75.977 9 70.594 14.383 70.594 21 c 70.594 363 l 70.594 369.617
 75.977 375 82.594 375 c 301.41 375 l 308.023 375 313.41 369.617 313.41 
363 c 313.41 21 l 313.41 14.383 308.023 9 301.41 9 c h
82.594 9 m f
0.321569 0.435294 0.666667 rg
239.777 41.418 m 144.219 41.418 l 138.195 41.418 132.758 37.812 130.41 
32.266 c 119.285 6 l 264.715 6 l 253.59 32.266 l 251.242 37.812 245.801 
41.418 239.777 41.418 c h
239.777 41.418 m f
0.411765 0.0196078 0.537255 rg
82.594 63.496 m 80.938 63.496 79.594 62.152 79.594 60.496 c 79.594 42.496
 l 79.594 40.84 80.938 39.496 82.594 39.496 c 84.25 39.496 85.594 40.84 
85.594 42.496 c 85.594 60.496 l 85.594 62.152 84.25 63.496 82.594 63.496
 c h
82.594 63.496 m f
239.781 44.418 m 144.219 44.418 l 136.977 44.418 130.473 40.105 127.645
 33.438 c 116.523 7.172 l 116.129 6.242 116.227 5.18 116.785 4.344 c 117.34
 3.504 118.277 3 119.281 3 c 264.715 3 l 265.723 3 266.66 3.504 267.215 
4.344 c 267.773 5.184 267.871 6.246 267.477 7.172 c 256.352 33.438 l 253.527
 40.105 247.023 44.418 239.781 44.418 c h
123.812 9 m 133.172 31.094 l 135.055 35.543 139.391 38.414 144.219 38.414
 c 239.777 38.414 l 244.605 38.414 248.941 35.539 250.828 31.094 c 260.188
 9 l h
123.812 9 m f
0.533333 0.321569 0.658824 rg
112.301 117.785 159.395 148.324 re f
0.411765 0.0196078 0.537255 rg
271.699 269.109 m 112.301 269.109 l 110.645 269.109 109.301 267.766 109.301
 266.109 c 109.301 117.785 l 109.301 116.129 110.645 114.785 112.301 114.785
 c 271.699 114.785 l 273.355 114.785 274.699 116.129 274.699 117.785 c 274.699
 266.109 l 274.699 267.766 273.355 269.109 271.699 269.109 c h
115.301 263.109 m 268.699 263.109 l 268.699 120.785 l 115.301 120.785 l
 h
115.301 263.109 m f
0.956863 0.937255 0.929412 rg
135.566 117.785 112.867 101.797 re f
0.411765 0.0196078 0.537255 rg
248.434 222.582 m 135.566 222.582 l 133.91 222.582 132.566 221.238 132.566
 219.582 c 132.566 117.785 l 132.566 116.129 133.91 114.785 135.566 114.785
 c 248.434 114.785 l 250.09 114.785 251.434 116.129 251.434 117.785 c 251.434
 219.582 l 251.434 221.238 250.09 222.582 248.434 222.582 c h
138.566 216.582 m 245.434 216.582 l 245.434 120.785 l 138.566 120.785 l
 h
138.566 216.582 m f
0.533333 0.321569 0.658824 rg
114.523 157.445 m 103.824 157.445 95.152 148.773 95.152 138.078 c 95.152
 132.199 l 133.891 132.199 l 133.891 138.078 l 133.891 148.773 125.219 157.445
 114.523 157.445 c h
114.523 157.445 m f
153.262 157.445 m 142.562 157.445 133.891 148.773 133.891 138.078 c 133.891
 132.199 l 172.629 132.199 l 172.629 138.078 l 172.629 148.773 163.957 157.445
 153.262 157.445 c h
153.262 157.445 m f
192 157.445 m 181.301 157.445 172.629 148.773 172.629 138.078 c 172.629
 132.199 l 211.371 132.199 l 211.371 138.078 l 211.371 148.773 202.699 157.445
 192 157.445 c h
192 157.445 m f
230.738 157.445 m 220.039 157.445 211.371 148.773 211.371 138.078 c 211.371
 132.199 l 250.109 132.199 l 250.109 138.078 l 250.109 148.773 241.438 157.445
 230.738 157.445 c h
230.738 157.445 m f
269.477 157.445 m 258.781 157.445 250.109 148.773 250.109 138.078 c 250.109
 132.199 l 288.848 132.199 l 288.848 138.078 l 288.848 148.773 280.176 157.445
 269.477 157.445 c h
269.477 157.445 m f
261.621 84.594 m 122.379 84.594 l 115.566 84.594 109.52 88.957 107.371 
95.426 c 95.152 132.199 l 288.848 132.199 l 276.629 95.426 l 274.48 88.957
 268.434 84.594 261.621 84.594 c h
261.621 84.594 m f
0.411765 0.0196078 0.537255 rg
288.848 135.199 m 95.152 135.199 l 94.188 135.199 93.285 134.734 92.719
 133.953 c 92.156 133.172 92 132.168 92.305 131.254 c 104.523 94.477 l 107.086
 86.77 114.262 81.594 122.383 81.594 c 261.621 81.594 l 269.742 81.594 276.918
 86.773 279.477 94.477 c 291.699 131.254 l 292 132.168 291.848 133.172 291.285
 133.953 c 290.719 134.734 289.812 135.199 288.848 135.199 c h
99.309 129.199 m 284.691 129.199 l 273.781 96.371 l 272.039 91.121 267.152
 87.594 261.621 87.594 c 122.379 87.594 l 116.848 87.594 111.961 91.121 
110.219 96.371 c h
99.309 129.199 m f
114.523 160.445 m 102.188 160.445 92.152 150.41 92.152 138.078 c 92.152
 132.199 l 92.152 130.543 93.496 129.199 95.152 129.199 c 133.891 129.199
 l 135.547 129.199 136.891 130.543 136.891 132.199 c 136.891 138.078 l 136.891
 150.41 126.855 160.445 114.523 160.445 c h
98.152 135.199 m 98.152 138.078 l 98.152 147.102 105.496 154.445 114.523
 154.445 c 123.547 154.445 130.891 147.102 130.891 138.078 c 130.891 135.199
 l h
98.152 135.199 m f
153.262 160.445 m 140.926 160.445 130.891 150.41 130.891 138.078 c 130.891
 132.199 l 130.891 130.543 132.234 129.199 133.891 129.199 c 172.629 129.199
 l 174.285 129.199 175.629 130.543 175.629 132.199 c 175.629 138.078 l 175.629
 150.41 165.594 160.445 153.262 160.445 c h
136.891 135.199 m 136.891 138.078 l 136.891 147.102 144.234 154.445 153.262
 154.445 c 162.285 154.445 169.629 147.102 169.629 138.078 c 169.629 135.199
 l h
136.891 135.199 m f
192 160.445 m 179.664 160.445 169.629 150.41 169.629 138.078 c 169.629 
132.199 l 169.629 130.543 170.973 129.199 172.629 129.199 c 211.371 129.199
 l 213.027 129.199 214.371 130.543 214.371 132.199 c 214.371 138.078 l 214.371
 150.41 204.336 160.445 192 160.445 c h
175.629 135.199 m 175.629 138.078 l 175.629 147.102 182.973 154.445 192
 154.445 c 201.027 154.445 208.371 147.102 208.371 138.078 c 208.371 135.199
 l h
175.629 135.199 m f
230.738 160.445 m 218.406 160.445 208.371 150.41 208.371 138.078 c 208.371
 132.199 l 208.371 130.543 209.715 129.199 211.371 129.199 c 250.109 129.199
 l 251.766 129.199 253.109 130.543 253.109 132.199 c 253.109 138.078 l 253.109
 150.41 243.074 160.445 230.738 160.445 c h
214.371 135.199 m 214.371 138.078 l 214.371 147.102 221.715 154.445 230.738
 154.445 c 239.766 154.445 247.109 147.102 247.109 138.078 c 247.109 135.199
 l h
214.371 135.199 m f
269.477 160.445 m 257.145 160.445 247.109 150.41 247.109 138.078 c 247.109
 132.199 l 247.109 130.543 248.453 129.199 250.109 129.199 c 288.848 129.199
 l 290.504 129.199 291.848 130.543 291.848 132.199 c 291.848 138.078 l 291.848
 150.41 281.812 160.445 269.477 160.445 c h
253.109 135.199 m 253.109 138.078 l 253.109 147.102 260.453 154.445 269.477
 154.445 c 278.504 154.445 285.848 147.102 285.848 138.078 c 285.848 135.199
 l h
253.109 135.199 m f
0.988235 0.760784 0.298039 rg
248.559 252.316 m 248.559 233.371 l 238.074 233.371 l 236.859 227.418 234.508
 221.879 231.27 216.973 c 238.695 209.551 l 225.297 196.152 l 217.871 203.574
 l 212.969 200.34 207.43 197.988 201.473 196.77 c 201.473 186.285 l 182.527
 186.285 l 182.527 196.77 l 176.574 197.988 171.031 200.34 166.129 203.574
 c 158.707 196.152 l 145.309 209.551 l 152.73 216.973 l 149.496 221.879 
147.141 227.418 145.926 233.371 c 135.441 233.371 l 135.441 252.316 l 145.926
 252.316 l 147.141 258.273 149.492 263.812 152.73 268.715 c 145.309 276.141
 l 158.707 289.539 l 166.129 282.113 l 171.031 285.352 176.574 287.703 182.527
 288.918 c 182.527 299.406 l 201.473 299.406 l 201.473 288.918 l 207.43 
287.703 212.969 285.352 217.871 282.113 c 225.297 289.539 l 238.695 276.141
 l 231.27 268.715 l 234.508 263.812 236.859 258.273 238.074 252.316 c h
192 275.379 m 174.031 275.379 159.465 260.812 159.465 242.844 c 159.465
 224.879 174.031 210.312 192 210.312 c 209.969 210.312 224.535 224.879 224.535
 242.844 c 224.535 260.812 209.969 275.379 192 275.379 c h
192 275.379 m f
0.411765 0.0196078 0.537255 rg
201.473 302.406 m 182.527 302.406 l 180.871 302.406 179.527 301.062 179.527
 299.406 c 179.527 291.309 l 174.973 290.141 170.629 288.336 166.559 285.926
 c 160.824 291.66 l 159.652 292.832 157.754 292.832 156.582 291.66 c 143.184
 278.262 l 142.012 277.094 142.012 275.191 143.184 274.023 c 148.918 268.285
 l 146.508 264.219 144.703 259.875 143.535 255.32 c 135.438 255.32 l 133.781
 255.32 132.438 253.977 132.438 252.32 c 132.438 233.371 l 132.438 231.719
 133.781 230.371 135.438 230.371 c 143.535 230.371 l 144.703 225.82 146.508
 221.477 148.918 217.406 c 143.184 211.672 l 142.012 210.5 142.012 208.602
 143.184 207.43 c 156.582 194.031 l 157.754 192.859 159.652 192.859 160.824
 194.031 c 166.559 199.766 l 170.629 197.355 174.973 195.551 179.527 194.383
 c 179.527 186.285 l 179.527 184.629 180.871 183.285 182.527 183.285 c 201.473
 183.285 l 203.129 183.285 204.473 184.629 204.473 186.285 c 204.473 194.383
 l 209.023 195.551 213.371 197.355 217.438 199.766 c 223.176 194.031 l 224.348
 192.859 226.246 192.859 227.418 194.031 c 240.816 207.43 l 241.984 208.602
 241.984 210.5 240.816 211.672 c 235.078 217.406 l 237.492 221.477 239.297
 225.816 240.461 230.371 c 248.559 230.371 l 250.215 230.371 251.559 231.719
 251.559 233.371 c 251.559 252.32 l 251.559 253.977 250.215 255.32 248.559
 255.32 c 240.461 255.32 l 239.297 259.875 237.492 264.219 235.078 268.285
 c 240.816 274.023 l 241.984 275.191 241.984 277.094 240.816 278.262 c 227.418
 291.66 l 226.246 292.832 224.348 292.832 223.176 291.66 c 217.438 285.926
 l 213.371 288.336 209.027 290.141 204.473 291.309 c 204.473 299.406 l 204.473
 301.062 203.129 302.406 201.473 302.406 c h
185.527 296.406 m 198.473 296.406 l 198.473 288.922 l 198.473 287.496 199.477
 286.266 200.875 285.984 c 206.348 284.863 211.512 282.719 216.219 279.613
 c 217.41 278.824 218.984 278.988 219.996 279.996 c 225.297 285.297 l 234.453
 276.141 l 229.152 270.84 l 228.141 269.832 227.984 268.254 228.77 267.066
 c 231.875 262.359 234.02 257.195 235.137 251.723 c 235.422 250.324 236.652
 249.32 238.078 249.32 c 245.562 249.32 l 245.562 236.375 l 238.078 236.375
 l 236.652 236.375 235.422 235.371 235.137 233.973 c 234.02 228.496 231.875
 223.336 228.77 218.629 c 227.984 217.441 228.141 215.863 229.152 214.855
 c 234.453 209.555 l 225.297 200.398 l 219.996 205.699 l 218.988 206.711
 217.414 206.871 216.219 206.082 c 211.512 202.977 206.348 200.832 200.875
 199.715 c 199.477 199.43 198.473 198.199 198.473 196.773 c 198.473 189.289
 l 185.527 189.289 l 185.527 196.773 l 185.527 198.199 184.527 199.43 183.129
 199.715 c 177.652 200.832 172.488 202.977 167.781 206.082 c 166.59 206.871
 165.016 206.711 164.008 205.699 c 158.703 200.398 l 149.547 209.555 l 154.852
 214.855 l 155.859 215.863 156.02 217.441 155.234 218.629 c 152.129 223.336
 149.984 228.496 148.863 233.973 c 148.578 235.371 147.348 236.375 145.926
 236.375 c 138.441 236.375 l 138.441 249.32 l 145.926 249.32 l 147.348 249.32
 148.578 250.324 148.863 251.723 c 149.984 257.195 152.129 262.359 155.234
 267.066 c 156.02 268.254 155.859 269.832 154.852 270.84 c 149.547 276.141
 l 158.703 285.297 l 164.008 279.996 l 165.016 278.988 166.59 278.824 167.781
 279.613 c 172.488 282.719 177.652 284.863 183.129 285.984 c 184.527 286.266
 185.527 287.496 185.527 288.922 c h
192 278.379 m 172.406 278.379 156.465 262.438 156.465 242.844 c 156.465
 223.25 172.406 207.312 192 207.312 c 211.594 207.312 227.535 223.25 227.535
 242.844 c 227.535 262.438 211.594 278.379 192 278.379 c h
192 213.312 m 175.715 213.312 162.465 226.559 162.465 242.844 c 162.465
 259.129 175.715 272.379 192 272.379 c 208.285 272.379 221.535 259.129 221.535
 242.844 c 221.535 226.559 208.285 213.312 192 213.312 c h
192 213.312 m f
Q Q
showpage
%%Trailer
end
%%EOF
