%!PS-Adobe-3.0 EPSF-3.0
%%Creator: cairo 1.16.0 (https://cairographics.org)
%%CreationDate: Fri Jan 10 07:39:02 2020
%%Pages: 1
%%DocumentData: Clean7Bit
%%LanguageLevel: 2
%%BoundingBox: 18 3 366 381
%%EndComments
%%BeginProlog
50 dict begin
/q { gsave } bind def
/Q { grestore } bind def
/cm { 6 array astore concat } bind def
/w { setlinewidth } bind def
/J { setlinecap } bind def
/j { setlinejoin } bind def
/M { setmiterlimit } bind def
/d { setdash } bind def
/m { moveto } bind def
/l { lineto } bind def
/c { curveto } bind def
/h { closepath } bind def
/re { exch dup neg 3 1 roll 5 3 roll moveto 0 rlineto
      0 exch rlineto 0 rlineto closepath } bind def
/S { stroke } bind def
/f { fill } bind def
/f* { eofill } bind def
/n { newpath } bind def
/W { clip } bind def
/W* { eoclip } bind def
/BT { } bind def
/ET { } bind def
/BDC { mark 3 1 roll /BDC pdfmark } bind def
/EMC { mark /EMC pdfmark } bind def
/cairo_store_point { /cairo_point_y exch def /cairo_point_x exch def } def
/Tj { show currentpoint cairo_store_point } bind def
/TJ {
  {
    dup
    type /stringtype eq
    { show } { -0.001 mul 0 cairo_font_matrix dtransform rmoveto } ifelse
  } forall
  currentpoint cairo_store_point
} bind def
/cairo_selectfont { cairo_font_matrix aload pop pop pop 0 0 6 array astore
    cairo_font exch selectfont cairo_point_x cairo_point_y moveto } bind def
/Tf { pop /cairo_font exch def /cairo_font_matrix where
      { pop cairo_selectfont } if } bind def
/Td { matrix translate cairo_font_matrix matrix concatmatrix dup
      /cairo_font_matrix exch def dup 4 get exch 5 get cairo_store_point
      /cairo_font where { pop cairo_selectfont } if } bind def
/Tm { 2 copy 8 2 roll 6 array astore /cairo_font_matrix exch def
      cairo_store_point /cairo_font where { pop cairo_selectfont } if } bind def
/g { setgray } bind def
/rg { setrgbcolor } bind def
/d1 { setcachedevice } bind def
/cairo_data_source {
  CairoDataIndex CairoData length lt
    { CairoData CairoDataIndex get /CairoDataIndex CairoDataIndex 1 add def }
    { () } ifelse
} def
/cairo_flush_ascii85_file { cairo_ascii85_file status { cairo_ascii85_file flushfile } if } def
/cairo_image { image cairo_flush_ascii85_file } def
/cairo_imagemask { imagemask cairo_flush_ascii85_file } def
%%EndProlog
%%BeginSetup
%%EndSetup
%%Page: 1 1
%%BeginPageSetup
%%PageBoundingBox: 18 3 366 381
%%EndPageSetup
q 18 3 348 378 rectclip
1 0 0 -1 0 384 cm q
0.321569 0.435294 0.666667 rg
346.074 191.832 m 346.074 276.789 276.957 345.906 192 345.906 c 192 331.383
 l 171.816 343.039 l 151.629 354.691 l 171.816 366.344 l 192 378 l 192 362.805
 l 286.273 362.805 362.973 286.105 362.973 191.832 c h
346.074 191.832 m f
212.184 17.652 m 192 6 l 192 20.859 l 97.727 20.859 21.027 97.559 21.027
 191.832 c 37.926 191.832 l 37.926 106.875 107.043 37.758 192 37.758 c 192
 52.617 l 212.184 40.961 l 232.371 29.309 l h
212.184 17.652 m f
0.411765 0.0196078 0.537255 rg
192 381 m 191.484 381 190.965 380.867 190.5 380.598 c 150.129 357.289 l
 149.199 356.754 148.629 355.762 148.629 354.691 c 148.629 353.621 149.199
 352.629 150.129 352.094 c 190.5 328.785 l 191.43 328.25 192.57 328.25 193.5
 328.785 c 194.43 329.32 195 330.312 195 331.383 c 195 342.879 l 276.926
 341.277 343.074 274.133 343.074 191.832 c 343.074 190.176 344.418 188.832
 346.074 188.832 c 362.973 188.832 l 364.629 188.832 365.973 190.176 365.973
 191.832 c 365.973 286.758 289.551 364.176 195 365.781 c 195 378 l 195 379.07
 194.43 380.062 193.5 380.598 c 193.035 380.867 192.516 381 192 381 c h
157.629 354.691 m 189 372.805 l 189 362.805 l 189 361.148 190.344 359.805
 192 359.805 c 283.621 359.805 358.344 286.078 359.945 194.832 c 349.047
 194.832 l 347.438 280.062 277.605 348.906 192 348.906 c 190.344 348.906
 189 347.562 189 345.906 c 189 336.582 l h
157.629 354.691 m f
37.926 194.832 m 21.027 194.832 l 19.371 194.832 18.027 193.488 18.027 
191.832 c 18.027 96.906 94.449 19.488 189 17.883 c 189 6 l 189 4.93 189.57
 3.938 190.5 3.402 c 191.43 2.867 192.57 2.867 193.5 3.402 c 233.871 26.711
 l 234.801 27.246 235.371 28.238 235.371 29.309 c 235.371 30.379 234.801
 31.371 233.871 31.906 c 193.5 55.215 l 192.57 55.75 191.43 55.75 190.5 
55.215 c 189.57 54.68 189 53.688 189 52.617 c 189 40.785 l 107.074 42.387
 40.926 109.531 40.926 191.832 c 40.926 193.488 39.582 194.832 37.926 194.832
 c h
24.055 188.832 m 34.953 188.832 l 36.562 103.602 106.395 34.758 192 34.758
 c 193.656 34.758 195 36.102 195 37.758 c 195 47.418 l 226.371 29.309 l 
210.684 20.254 l 195 11.195 l 195 20.859 l 195 22.512 193.656 23.859 192
 23.859 c 100.379 23.859 25.656 97.586 24.055 188.832 c h
24.055 188.832 m f
0.533333 0.321569 0.658824 rg
313.195 166.512 m 327.133 233.41 284.203 298.945 217.305 312.883 c 150.402
 326.824 84.871 283.891 70.93 216.992 c 56.988 150.094 99.922 84.559 166.82
 70.621 c 233.719 56.68 299.254 99.609 313.195 166.512 c h
313.195 166.512 m f
0.415686 0.203922 0.541176 rg
192 68.102 m 189.535 68.102 187.09 68.195 184.66 68.336 c 249.574 72.137
 301.051 125.965 301.051 191.832 c 301.051 257.699 249.574 311.527 184.66
 315.328 c 187.09 315.469 189.535 315.562 192 315.562 c 260.336 315.562 
315.73 260.164 315.73 191.832 c 315.73 123.496 260.336 68.102 192 68.102
 c h
192 68.102 m f
0.65098 0.439216 0.776471 rg
192 315.562 m 194.465 315.562 196.91 315.469 199.34 315.324 c 134.426 311.527
 82.949 257.699 82.949 191.832 c 82.949 125.961 134.426 72.137 199.34 68.336
 c 196.91 68.191 194.465 68.102 192 68.102 c 123.664 68.102 68.27 123.496
 68.27 191.832 c 68.27 260.164 123.664 315.562 192 315.562 c h
192 315.562 m f
0.411765 0.0196078 0.537255 rg
192 318.578 m 175.34 318.578 159.871 305.09 148.441 280.602 c 137.352 256.84
 131.246 225.316 131.246 191.832 c 131.246 158.348 137.352 126.824 148.441
 103.062 c 159.871 78.574 175.34 65.086 192 65.086 c 208.66 65.086 224.129
 78.574 235.559 103.062 c 246.648 126.824 252.754 158.348 252.754 191.832
 c 252.754 225.316 246.648 256.84 235.559 280.602 c 224.129 305.09 208.66
 318.578 192 318.578 c h
192 71.086 m 177.805 71.086 164.27 83.344 153.879 105.602 c 143.152 128.582
 137.246 159.207 137.246 191.832 c 137.246 224.457 143.152 255.082 153.879
 278.062 c 164.266 300.32 177.805 312.578 192 312.578 c 206.195 312.578 
219.73 300.32 230.121 278.062 c 240.848 255.082 246.754 224.457 246.754 
191.832 c 246.754 159.207 240.848 128.582 230.121 105.602 c 219.73 83.344
 206.195 71.086 192 71.086 c h
192 71.086 m f
192 318.562 m 122.121 318.562 65.27 261.711 65.27 191.832 c 65.27 121.953
 122.121 65.102 192 65.102 c 261.879 65.102 318.73 121.953 318.73 191.832
 c 318.73 261.711 261.879 318.562 192 318.562 c h
192 71.102 m 125.43 71.102 71.27 125.262 71.27 191.832 c 71.27 258.402 
125.43 312.562 192 312.562 c 258.57 312.562 312.73 258.402 312.73 191.832
 c 312.73 125.262 258.57 71.102 192 71.102 c h
192 71.102 m f
314.715 194.832 m 69.285 194.832 l 67.629 194.832 66.285 193.488 66.285
 191.832 c 66.285 190.176 67.629 188.832 69.285 188.832 c 314.715 188.832
 l 316.371 188.832 317.715 190.176 317.715 191.832 c 317.715 193.488 316.371
 194.832 314.715 194.832 c h
314.715 194.832 m f
192 146.402 m 151.875 146.402 113.766 137.27 90.055 121.965 c 88.664 121.066
 88.262 119.211 89.16 117.816 c 90.059 116.426 91.918 116.023 93.309 116.922
 c 116.09 131.625 152.98 140.402 192 140.402 c 231.02 140.402 267.914 131.625
 290.691 116.926 c 292.082 116.023 293.941 116.426 294.84 117.82 c 295.738
 119.211 295.34 121.066 293.945 121.965 c 270.238 137.266 232.125 146.402
 192 146.402 c h
192 146.402 m f
292.312 267.219 m 291.758 267.219 291.195 267.066 290.691 266.738 c 267.91
 252.039 231.02 243.262 192 243.262 c 152.98 243.262 116.086 252.039 93.309
 266.738 c 91.914 267.641 90.059 267.238 89.16 265.844 c 88.262 264.453 
88.66 262.598 90.055 261.699 c 113.762 246.395 151.871 237.258 192 237.258
 c 232.125 237.258 270.234 246.395 293.941 261.699 c 295.336 262.598 295.734
 264.453 294.836 265.844 c 294.266 266.734 293.301 267.219 292.312 267.219
 c h
292.312 267.219 m f
192 317.547 m 190.344 317.547 189 316.203 189 314.547 c 189 69.117 l 189
 67.461 190.344 66.117 192 66.117 c 193.656 66.117 195 67.461 195 69.117
 c 195 314.547 l 195 316.203 193.656 317.547 192 317.547 c h
192 317.547 m f
0.956863 0.937255 0.929412 rg
226.758 247.602 m 157.246 247.602 l 153.395 247.602 150.273 244.48 150.273
 240.633 c 150.273 143.031 l 150.273 139.18 153.395 136.059 157.246 136.059
 c 226.758 136.059 l 230.605 136.059 233.727 139.18 233.727 143.031 c 233.727
 240.633 l 233.727 244.48 230.605 247.602 226.758 247.602 c h
226.758 247.602 m f
0.411765 0.0196078 0.537255 rg
226.754 250.602 m 157.246 250.602 l 151.746 250.602 147.273 246.129 147.273
 240.633 c 147.273 143.031 l 147.273 137.531 151.746 133.059 157.246 133.059
 c 226.758 133.059 l 232.254 133.059 236.727 137.535 236.727 143.031 c 236.727
 240.633 l 236.727 246.129 232.254 250.602 226.754 250.602 c h
157.246 139.059 m 155.055 139.059 153.273 140.844 153.273 143.031 c 153.273
 240.633 l 153.273 242.82 155.055 244.602 157.246 244.602 c 226.758 244.602
 l 228.945 244.602 230.727 242.82 230.727 240.633 c 230.727 143.031 l 230.727
 140.84 228.945 139.059 226.758 139.059 c h
157.246 139.059 m f
218.496 158.098 m 165.504 158.098 l 163.848 158.098 162.504 156.754 162.504
 155.098 c 162.504 153.441 163.848 152.098 165.504 152.098 c 218.496 152.098
 l 220.152 152.098 221.496 153.441 221.496 155.098 c 221.496 156.754 220.152
 158.098 218.496 158.098 c h
218.496 158.098 m f
218.496 182.586 m 165.504 182.586 l 163.848 182.586 162.504 181.242 162.504
 179.586 c 162.504 177.93 163.848 176.586 165.504 176.586 c 218.496 176.586
 l 220.152 176.586 221.496 177.93 221.496 179.586 c 221.496 181.242 220.152
 182.586 218.496 182.586 c h
218.496 182.586 m f
218.496 207.074 m 165.504 207.074 l 163.848 207.074 162.504 205.73 162.504
 204.074 c 162.504 202.418 163.848 201.074 165.504 201.074 c 218.496 201.074
 l 220.152 201.074 221.496 202.418 221.496 204.074 c 221.496 205.73 220.152
 207.074 218.496 207.074 c h
218.496 207.074 m f
218.496 231.562 m 165.504 231.562 l 163.848 231.562 162.504 230.219 162.504
 228.562 c 162.504 226.906 163.848 225.562 165.504 225.562 c 218.496 225.562
 l 220.152 225.562 221.496 226.906 221.496 228.562 c 221.496 230.219 220.152
 231.562 218.496 231.562 c h
218.496 231.562 m f
84.574 178.145 m 84.449 178.145 84.32 178.137 84.195 178.121 c 82.551 177.91
 81.387 176.41 81.594 174.77 c 82.379 168.543 83.613 162.348 85.266 156.348
 c 85.703 154.754 87.352 153.809 88.953 154.254 c 90.551 154.691 91.488 
156.344 91.047 157.941 c 89.473 163.664 88.293 169.578 87.543 175.52 c 87.355
 177.035 86.062 178.145 84.574 178.145 c h
84.574 178.145 m f
Q Q
showpage
%%Trailer
end
%%EOF
