%!PS-Adobe-3.0 EPSF-3.0
%%Creator: cairo 1.16.0 (https://cairographics.org)
%%CreationDate: Fri Jan 10 07:39:03 2020
%%Pages: 1
%%DocumentData: Clean7Bit
%%LanguageLevel: 2
%%BoundingBox: 3 44 381 340
%%EndComments
%%BeginProlog
50 dict begin
/q { gsave } bind def
/Q { grestore } bind def
/cm { 6 array astore concat } bind def
/w { setlinewidth } bind def
/J { setlinecap } bind def
/j { setlinejoin } bind def
/M { setmiterlimit } bind def
/d { setdash } bind def
/m { moveto } bind def
/l { lineto } bind def
/c { curveto } bind def
/h { closepath } bind def
/re { exch dup neg 3 1 roll 5 3 roll moveto 0 rlineto
      0 exch rlineto 0 rlineto closepath } bind def
/S { stroke } bind def
/f { fill } bind def
/f* { eofill } bind def
/n { newpath } bind def
/W { clip } bind def
/W* { eoclip } bind def
/BT { } bind def
/ET { } bind def
/BDC { mark 3 1 roll /BDC pdfmark } bind def
/EMC { mark /EMC pdfmark } bind def
/cairo_store_point { /cairo_point_y exch def /cairo_point_x exch def } def
/Tj { show currentpoint cairo_store_point } bind def
/TJ {
  {
    dup
    type /stringtype eq
    { show } { -0.001 mul 0 cairo_font_matrix dtransform rmoveto } ifelse
  } forall
  currentpoint cairo_store_point
} bind def
/cairo_selectfont { cairo_font_matrix aload pop pop pop 0 0 6 array astore
    cairo_font exch selectfont cairo_point_x cairo_point_y moveto } bind def
/Tf { pop /cairo_font exch def /cairo_font_matrix where
      { pop cairo_selectfont } if } bind def
/Td { matrix translate cairo_font_matrix matrix concatmatrix dup
      /cairo_font_matrix exch def dup 4 get exch 5 get cairo_store_point
      /cairo_font where { pop cairo_selectfont } if } bind def
/Tm { 2 copy 8 2 roll 6 array astore /cairo_font_matrix exch def
      cairo_store_point /cairo_font where { pop cairo_selectfont } if } bind def
/g { setgray } bind def
/rg { setrgbcolor } bind def
/d1 { setcachedevice } bind def
/cairo_data_source {
  CairoDataIndex CairoData length lt
    { CairoData CairoDataIndex get /CairoDataIndex CairoDataIndex 1 add def }
    { () } ifelse
} def
/cairo_flush_ascii85_file { cairo_ascii85_file status { cairo_ascii85_file flushfile } if } def
/cairo_image { image cairo_flush_ascii85_file } def
/cairo_imagemask { imagemask cairo_flush_ascii85_file } def
%%EndProlog
%%BeginSetup
%%EndSetup
%%Page: 1 1
%%BeginPageSetup
%%PageBoundingBox: 3 44 381 340
%%EndPageSetup
q 3 44 378 296 rectclip
1 0 0 -1 0 384 cm q
0.956863 0.937255 0.929412 rg
364.727 286.977 m 19.273 286.977 l 11.941 286.977 6 281.035 6 273.703 c
 6 61.008 l 6 53.676 11.941 47.734 19.273 47.734 c 364.727 47.734 l 372.059
 47.734 378 53.676 378 61.008 c 378 273.703 l 378 281.035 372.059 286.977
 364.727 286.977 c h
364.727 286.977 m f
0.839216 0.819608 0.811765 rg
364.727 47.734 m 349.727 47.734 l 357.059 47.734 363 53.676 363 61.008 
c 363 273.703 l 363 281.035 357.059 286.977 349.727 286.977 c 364.727 286.977
 l 372.059 286.977 378 281.035 378 273.703 c 378 61.008 l 378 53.676 372.059
 47.734 364.727 47.734 c h
364.727 47.734 m f
1 g
19.273 286.977 m 34.273 286.977 l 26.941 286.977 21 281.035 21 273.703 
c 21 61.008 l 21 53.676 26.941 47.734 34.273 47.734 c 19.273 47.734 l 11.941
 47.734 6 53.676 6 61.008 c 6 273.703 l 6 281.035 11.941 286.977 19.273 
286.977 c h
19.273 286.977 m f
0.321569 0.435294 0.666667 rg
313.352 336.266 m 70.648 336.266 l 70.648 318.484 l 70.648 311.152 76.59
 305.211 83.922 305.211 c 300.078 305.211 l 307.41 305.211 313.352 311.152
 313.352 318.484 c h
313.352 336.266 m f
0.203922 0.317647 0.54902 rg
300.078 305.211 m 285.078 305.211 l 292.41 305.211 298.352 311.152 298.352
 318.484 c 298.352 336.266 l 313.352 336.266 l 313.352 318.484 l 313.352
 311.152 307.41 305.211 300.078 305.211 c h
300.078 305.211 m f
0.439216 0.552941 0.784314 rg
83.922 305.211 m 98.922 305.211 l 91.59 305.211 85.648 311.152 85.648 318.484
 c 85.648 336.266 l 70.648 336.266 l 70.648 318.484 l 70.648 311.152 76.59
 305.211 83.922 305.211 c h
83.922 305.211 m f
0.203922 0.317647 0.54902 rg
120.754 286.977 142.488 18.234 re f
0.411765 0.0196078 0.537255 rg
18 103.539 m 16.344 103.539 15 102.195 15 100.539 c 15 82.539 l 15 80.883
 16.344 79.539 18 79.539 c 19.656 79.539 21 80.883 21 82.539 c 21 100.539
 l 21 102.195 19.656 103.539 18 103.539 c h
18 103.539 m f
313.352 339.266 m 70.648 339.266 l 68.992 339.266 67.648 337.922 67.648
 336.266 c 67.648 318.484 l 67.648 309.512 74.949 302.211 83.926 302.211
 c 300.078 302.211 l 309.051 302.211 316.355 309.512 316.355 318.484 c 316.355
 336.266 l 316.352 337.926 315.008 339.266 313.352 339.266 c h
73.648 333.266 m 310.352 333.266 l 310.352 318.484 l 310.352 312.82 305.742
 308.211 300.078 308.211 c 83.922 308.211 l 78.258 308.211 73.648 312.82
 73.648 318.484 c h
73.648 333.266 m f
263.246 308.211 m 120.754 308.211 l 119.098 308.211 117.754 306.867 117.754
 305.211 c 117.754 286.977 l 117.754 285.324 119.098 283.977 120.754 283.977
 c 263.246 283.977 l 264.902 283.977 266.246 285.324 266.246 286.977 c 266.246
 305.211 l 266.246 306.867 264.902 308.211 263.246 308.211 c h
123.754 302.211 m 260.246 302.211 l 260.246 289.977 l 123.754 289.977 l
 h
123.754 302.211 m f
364.727 289.977 m 19.273 289.977 l 10.301 289.977 3 282.676 3 273.703 c
 3 61.008 l 3 52.035 10.301 44.734 19.273 44.734 c 364.727 44.734 l 373.699
 44.734 381 52.035 381 61.008 c 381 273.703 l 381 282.676 373.699 289.977
 364.727 289.977 c h
19.273 50.734 m 13.609 50.734 9 55.344 9 61.008 c 9 273.703 l 9 279.367
 13.609 283.977 19.273 283.977 c 364.727 283.977 l 370.391 283.977 375 279.367
 375 273.703 c 375 61.008 l 375 55.344 370.391 50.734 364.727 50.734 c h
19.273 50.734 m f
0.988235 0.760784 0.298039 rg
49.492 80.004 132.273 132.27 re f
0.411765 0.0196078 0.537255 rg
181.766 215.273 m 49.492 215.273 l 47.84 215.273 46.492 213.93 46.492 212.273
 c 46.492 80 l 46.492 78.344 47.84 77 49.492 77 c 181.766 77 l 183.422 77
 184.766 78.344 184.766 80 c 184.766 212.273 l 184.766 213.93 183.422 215.273
 181.766 215.273 c h
52.492 209.273 m 178.766 209.273 l 178.766 83 l 52.492 83 l h
52.492 209.273 m f
0.533333 0.321569 0.658824 rg
348.586 196.945 m 348.586 232.02 320.152 260.453 285.078 260.453 c 250 
260.453 221.566 232.02 221.566 196.945 c 221.566 161.867 250 133.434 285.078
 133.434 c 320.152 133.434 348.586 161.867 348.586 196.945 c h
348.586 196.945 m f
0.411765 0.0196078 0.537255 rg
285.078 263.453 m 248.402 263.453 218.566 233.617 218.566 196.945 c 218.566
 160.27 248.402 130.434 285.078 130.434 c 321.75 130.434 351.586 160.273
 351.586 196.945 c 351.586 233.617 321.75 263.453 285.078 263.453 c h
285.078 136.434 m 251.711 136.434 224.566 163.578 224.566 196.945 c 224.566
 230.309 251.711 257.453 285.078 257.453 c 318.441 257.453 345.586 230.309
 345.586 196.945 c 345.586 163.578 318.441 136.434 285.078 136.434 c h
285.078 136.434 m f
0.321569 0.435294 0.666667 rg
192 99.516 m 120.672 151.34 l 147.918 235.191 l 236.082 235.191 l 263.328
 151.34 l h
192 99.516 m f
0.411765 0.0196078 0.537255 rg
236.086 238.191 m 147.914 238.191 l 146.617 238.191 145.461 237.355 145.062
 236.121 c 117.816 152.266 l 117.414 151.031 117.855 149.676 118.906 148.914
 c 190.238 97.09 l 191.289 96.324 192.711 96.324 193.766 97.09 c 265.094
 148.914 l 266.148 149.676 266.586 151.031 266.184 152.266 c 238.941 236.121
 l 238.535 237.355 237.383 238.191 236.086 238.191 c h
150.094 232.191 m 233.902 232.191 l 259.801 152.484 l 192 103.227 l 124.199
 152.488 l h
150.094 232.191 m f
Q Q
showpage
%%Trailer
end
%%EOF
