%!PS-Adobe-3.0 EPSF-3.0
%%Creator: cairo 1.16.0 (https://cairographics.org)
%%CreationDate: Fri Jan 10 07:39:04 2020
%%Pages: 1
%%DocumentData: Clean7Bit
%%LanguageLevel: 2
%%BoundingBox: 3 44 381 340
%%EndComments
%%BeginProlog
50 dict begin
/q { gsave } bind def
/Q { grestore } bind def
/cm { 6 array astore concat } bind def
/w { setlinewidth } bind def
/J { setlinecap } bind def
/j { setlinejoin } bind def
/M { setmiterlimit } bind def
/d { setdash } bind def
/m { moveto } bind def
/l { lineto } bind def
/c { curveto } bind def
/h { closepath } bind def
/re { exch dup neg 3 1 roll 5 3 roll moveto 0 rlineto
      0 exch rlineto 0 rlineto closepath } bind def
/S { stroke } bind def
/f { fill } bind def
/f* { eofill } bind def
/n { newpath } bind def
/W { clip } bind def
/W* { eoclip } bind def
/BT { } bind def
/ET { } bind def
/BDC { mark 3 1 roll /BDC pdfmark } bind def
/EMC { mark /EMC pdfmark } bind def
/cairo_store_point { /cairo_point_y exch def /cairo_point_x exch def } def
/Tj { show currentpoint cairo_store_point } bind def
/TJ {
  {
    dup
    type /stringtype eq
    { show } { -0.001 mul 0 cairo_font_matrix dtransform rmoveto } ifelse
  } forall
  currentpoint cairo_store_point
} bind def
/cairo_selectfont { cairo_font_matrix aload pop pop pop 0 0 6 array astore
    cairo_font exch selectfont cairo_point_x cairo_point_y moveto } bind def
/Tf { pop /cairo_font exch def /cairo_font_matrix where
      { pop cairo_selectfont } if } bind def
/Td { matrix translate cairo_font_matrix matrix concatmatrix dup
      /cairo_font_matrix exch def dup 4 get exch 5 get cairo_store_point
      /cairo_font where { pop cairo_selectfont } if } bind def
/Tm { 2 copy 8 2 roll 6 array astore /cairo_font_matrix exch def
      cairo_store_point /cairo_font where { pop cairo_selectfont } if } bind def
/g { setgray } bind def
/rg { setrgbcolor } bind def
/d1 { setcachedevice } bind def
/cairo_data_source {
  CairoDataIndex CairoData length lt
    { CairoData CairoDataIndex get /CairoDataIndex CairoDataIndex 1 add def }
    { () } ifelse
} def
/cairo_flush_ascii85_file { cairo_ascii85_file status { cairo_ascii85_file flushfile } if } def
/cairo_image { image cairo_flush_ascii85_file } def
/cairo_imagemask { imagemask cairo_flush_ascii85_file } def
%%EndProlog
%%BeginSetup
%%EndSetup
%%Page: 1 1
%%BeginPageSetup
%%PageBoundingBox: 3 44 381 340
%%EndPageSetup
q 3 44 378 296 rectclip
1 0 0 -1 0 384 cm q
0.956863 0.937255 0.929412 rg
364.727 286.977 m 19.273 286.977 l 11.941 286.977 6 281.035 6 273.703 c
 6 61.008 l 6 53.676 11.941 47.734 19.273 47.734 c 364.727 47.734 l 372.059
 47.734 378 53.676 378 61.008 c 378 273.703 l 378 281.035 372.059 286.977
 364.727 286.977 c h
364.727 286.977 m f
0.839216 0.819608 0.811765 rg
364.727 47.734 m 349.727 47.734 l 357.059 47.734 363 53.676 363 61.008 
c 363 273.703 l 363 281.035 357.059 286.977 349.727 286.977 c 364.727 286.977
 l 372.059 286.977 378 281.035 378 273.703 c 378 61.008 l 378 53.676 372.059
 47.734 364.727 47.734 c h
364.727 47.734 m f
1 g
19.273 286.977 m 34.273 286.977 l 26.941 286.977 21 281.035 21 273.703 
c 21 61.008 l 21 53.676 26.941 47.734 34.273 47.734 c 19.273 47.734 l 11.941
 47.734 6 53.676 6 61.008 c 6 273.703 l 6 281.035 11.941 286.977 19.273 
286.977 c h
19.273 286.977 m f
0.321569 0.435294 0.666667 rg
313.352 336.266 m 70.648 336.266 l 70.648 318.484 l 70.648 311.152 76.59
 305.211 83.922 305.211 c 300.078 305.211 l 307.41 305.211 313.352 311.152
 313.352 318.484 c h
313.352 336.266 m f
0.203922 0.317647 0.54902 rg
300.078 305.211 m 285.078 305.211 l 292.41 305.211 298.352 311.152 298.352
 318.484 c 298.352 336.27 l 313.352 336.27 l 313.352 318.484 l 313.352 311.152
 307.41 305.211 300.078 305.211 c h
300.078 305.211 m f
0.439216 0.552941 0.784314 rg
83.922 305.211 m 98.922 305.211 l 91.59 305.211 85.648 311.152 85.648 318.484
 c 85.648 336.27 l 70.648 336.27 l 70.648 318.484 l 70.648 311.152 76.59
 305.211 83.922 305.211 c h
83.922 305.211 m f
0.203922 0.317647 0.54902 rg
120.754 286.977 142.488 18.234 re f
0.411765 0.0196078 0.537255 rg
18 103.539 m 16.344 103.539 15 102.195 15 100.539 c 15 82.539 l 15 80.883
 16.344 79.539 18 79.539 c 19.656 79.539 21 80.883 21 82.539 c 21 100.539
 l 21 102.195 19.656 103.539 18 103.539 c h
18 103.539 m f
313.352 339.266 m 70.648 339.266 l 68.992 339.266 67.648 337.922 67.648
 336.266 c 67.648 318.484 l 67.648 309.512 74.949 302.211 83.926 302.211
 c 300.078 302.211 l 309.051 302.211 316.355 309.512 316.355 318.484 c 316.355
 336.266 l 316.352 337.926 315.008 339.266 313.352 339.266 c h
73.648 333.266 m 310.352 333.266 l 310.352 318.484 l 310.352 312.82 305.742
 308.211 300.078 308.211 c 83.922 308.211 l 78.258 308.211 73.648 312.82
 73.648 318.484 c h
73.648 333.266 m f
263.246 308.211 m 120.754 308.211 l 119.098 308.211 117.754 306.867 117.754
 305.211 c 117.754 286.977 l 117.754 285.324 119.098 283.977 120.754 283.977
 c 263.246 283.977 l 264.902 283.977 266.246 285.324 266.246 286.977 c 266.246
 305.211 l 266.246 306.867 264.902 308.211 263.246 308.211 c h
123.754 302.211 m 260.246 302.211 l 260.246 289.977 l 123.754 289.977 l
 h
123.754 302.211 m f
364.727 289.977 m 19.273 289.977 l 10.301 289.977 3 282.676 3 273.703 c
 3 61.008 l 3 52.035 10.301 44.734 19.273 44.734 c 364.727 44.734 l 373.699
 44.734 381 52.035 381 61.008 c 381 273.703 l 381 282.676 373.699 289.977
 364.727 289.977 c h
19.273 50.734 m 13.609 50.734 9 55.344 9 61.008 c 9 273.703 l 9 279.367
 13.609 283.977 19.273 283.977 c 364.727 283.977 l 370.391 283.977 375 279.367
 375 273.703 c 375 61.008 l 375 55.344 370.391 50.734 364.727 50.734 c h
19.273 50.734 m f
0.533333 0.321569 0.658824 rg
162.215 157.254 m 162.215 118.023 130.41 86.219 91.176 86.219 c 51.941 
86.219 20.137 118.023 20.137 157.254 c 20.137 192.297 45.516 221.391 78.891
 227.211 c 82.227 232.996 l 91.176 248.492 l 100.121 232.996 l 103.461 227.211
 l 136.836 221.391 162.215 192.297 162.215 157.254 c h
162.215 157.254 m f
0.411765 0.0196078 0.537255 rg
91.176 251.492 m 90.102 251.492 89.113 250.922 88.578 249.992 c 76.984 
229.914 l 42.219 223.176 17.137 192.844 17.137 157.258 c 17.137 116.43 50.352
 83.219 91.176 83.219 c 132 83.219 165.215 116.43 165.215 157.258 c 165.215
 192.844 140.129 223.176 105.367 229.914 c 93.773 249.992 l 93.238 250.922
 92.25 251.492 91.176 251.492 c h
91.176 89.219 m 53.656 89.219 23.137 119.742 23.137 157.258 c 23.137 190.395
 46.801 218.57 79.406 224.258 c 80.281 224.41 81.047 224.945 81.492 225.715
 c 91.176 242.492 l 100.863 225.715 l 101.309 224.945 102.07 224.41 102.945
 224.258 c 135.551 218.57 159.215 190.395 159.215 157.258 c 159.215 119.742
 128.691 89.219 91.176 89.219 c h
91.176 89.219 m f
0.533333 0.321569 0.658824 rg
363.863 157.254 m 363.863 118.023 332.059 86.219 292.824 86.219 c 253.59
 86.219 221.785 118.023 221.785 157.254 c 221.785 192.297 247.164 221.391
 280.539 227.211 c 283.879 232.996 l 292.824 248.492 l 301.77 232.996 l 
305.109 227.211 l 338.484 221.391 363.863 192.297 363.863 157.254 c h
363.863 157.254 m f
0.411765 0.0196078 0.537255 rg
292.824 251.492 m 291.75 251.492 290.762 250.922 290.227 249.992 c 278.633
 229.914 l 243.871 223.176 218.785 192.844 218.785 157.258 c 218.785 116.43
 252 83.219 292.824 83.219 c 333.648 83.219 366.863 116.43 366.863 157.258
 c 366.863 192.844 341.777 223.176 307.016 229.914 c 295.422 249.992 l 294.887
 250.922 293.898 251.492 292.824 251.492 c h
292.824 89.219 m 255.309 89.219 224.785 119.742 224.785 157.258 c 224.785
 190.395 248.449 218.57 281.055 224.258 c 281.934 224.41 282.695 224.945
 283.141 225.715 c 292.824 242.492 l 302.512 225.715 l 302.957 224.945 303.719
 224.41 304.598 224.258 c 337.199 218.57 360.867 190.395 360.867 157.258
 c 360.863 119.742 330.344 89.219 292.824 89.219 c h
292.824 89.219 m f
0.988235 0.760784 0.298039 rg
263.039 157.254 m 263.039 118.023 231.234 86.219 192 86.219 c 152.766 86.219
 120.961 118.023 120.961 157.254 c 120.961 192.297 146.34 221.391 179.715
 227.211 c 183.055 232.996 l 192 248.492 l 200.945 232.996 l 204.285 227.211
 l 237.66 221.391 263.039 192.297 263.039 157.254 c h
263.039 157.254 m f
0.411765 0.0196078 0.537255 rg
192 251.492 m 190.926 251.492 189.938 250.922 189.402 249.992 c 177.809
 229.914 l 143.047 223.176 117.965 192.844 117.965 157.258 c 117.965 116.43
 151.176 83.219 192 83.219 c 232.824 83.219 266.035 116.43 266.035 157.258
 c 266.035 192.844 240.953 223.176 206.191 229.914 c 194.598 249.992 l 194.062
 250.922 193.074 251.492 192 251.492 c h
192 89.219 m 154.484 89.219 123.965 119.742 123.965 157.258 c 123.965 190.391
 147.629 218.57 180.23 224.258 c 181.105 224.41 181.867 224.945 182.316 
225.715 c 192 242.492 l 201.688 225.715 l 202.133 224.945 202.895 224.41
 203.77 224.258 c 236.371 218.57 260.039 190.391 260.039 157.258 c 260.035
 119.742 229.516 89.219 192 89.219 c h
192 89.219 m f
131.832 155.109 m 131.832 154.215 132.184 153.355 132.812 152.719 c 140.754
 144.664 l 141.551 143.902 142.852 143.902 143.613 144.664 c 144.406 145.457
 144.406 146.727 143.613 147.52 c 136.086 155.109 l 143.613 162.699 l 144.406
 163.523 144.406 164.762 143.613 165.555 c 143.199 165.938 142.723 166.125
 142.215 166.125 c 141.672 166.125 141.164 165.938 140.754 165.555 c 132.812
 157.5 l 132.184 156.867 131.832 156.008 131.832 155.109 c h
131.832 155.109 m f
152.309 164.477 m 152.309 145.742 l 152.309 144.758 153.07 143.996 154.059
 143.996 c 155.043 143.996 155.836 144.758 155.836 145.742 c 155.836 153.363
 l 164.059 153.363 l 164.059 145.742 l 164.059 144.758 164.82 143.996 165.805
 143.996 c 166.789 143.996 167.582 144.758 167.582 145.742 c 167.582 164.477
 l 167.582 165.461 166.789 166.223 165.805 166.223 c 164.82 166.223 164.059
 165.461 164.059 164.477 c 164.059 156.855 l 155.836 156.855 l 155.836 164.477
 l 155.836 165.461 155.043 166.223 154.059 166.223 c 153.074 166.223 152.309
 165.461 152.309 164.477 c h
152.309 164.477 m f
188.414 147.52 m 183.363 147.52 l 183.363 164.477 l 183.363 165.461 182.602
 166.223 181.617 166.223 c 180.664 166.223 179.871 165.461 179.871 164.477
 c 179.871 147.52 l 174.852 147.52 l 173.871 147.52 173.105 146.695 173.105
 145.742 c 173.105 144.758 173.867 143.996 174.852 143.996 c 188.41 143.996
 l 189.363 143.996 190.16 144.758 190.16 145.742 c 190.16 146.695 189.367
 147.52 188.414 147.52 c h
188.414 147.52 m f
214.512 145.742 m 214.512 164.477 l 214.512 165.43 213.684 166.223 212.734
 166.223 c 211.75 166.223 210.988 165.43 210.988 164.477 c 210.988 151.109
 l 206.414 157.461 l 206.066 157.938 205.559 158.191 204.984 158.191 c 204.922
 158.191 l 204.352 158.191 203.812 157.938 203.461 157.461 c 198.922 151.109
 l 198.922 164.477 l 198.922 165.43 198.129 166.223 197.145 166.223 c 196.191
 166.223 195.395 165.43 195.395 164.477 c 195.395 145.742 l 195.395 144.789
 196.191 143.996 197.145 143.996 c 197.238 143.996 l 197.746 143.996 198.316
 144.254 198.637 144.727 c 204.957 153.492 l 211.277 144.727 l 211.625 144.254
 212.133 143.996 212.703 143.996 c 212.734 143.996 l 213.688 144.027 214.512
 144.789 214.512 145.742 c h
214.512 145.742 m f
222.195 164.477 m 222.195 145.742 l 222.195 144.789 222.957 143.996 223.941
 143.996 c 224.926 143.996 225.719 144.789 225.719 145.742 c 225.719 162.699
 l 234.324 162.699 l 235.246 162.699 236.07 163.492 236.07 164.477 c 236.07
 165.43 235.246 166.223 234.324 166.223 c 224.035 166.223 l 223.973 166.223
 223.973 166.223 223.973 166.223 c 223.941 166.223 223.941 166.223 223.941
 166.223 c 222.957 166.223 222.195 165.43 222.195 164.477 c h
222.195 164.477 m f
252.168 155.109 m 252.168 156.008 251.816 156.867 251.188 157.504 c 243.246
 165.559 l 242.863 165.938 242.324 166.129 241.816 166.129 c 241.277 166.129
 240.801 165.938 240.387 165.559 c 239.594 164.766 239.594 163.527 240.387
 162.699 c 247.914 155.113 l 240.387 147.523 l 239.594 146.73 239.594 145.461
 240.387 144.664 c 241.148 143.902 242.449 143.902 243.246 144.664 c 251.188
 152.723 l 251.816 153.355 252.168 154.215 252.168 155.109 c h
252.168 155.109 m f
0.956863 0.937255 0.929412 rg
33.898 161.688 m 33.898 161.258 33.957 160.102 33.957 159.609 c 33.957 
157.504 33.207 156.551 31.246 156.496 c 30.32 156.438 29.773 155.891 29.773
 155.109 c 29.773 154.332 30.32 153.781 31.246 153.727 c 33.207 153.641 
33.957 152.715 33.957 150.582 c 33.957 150.09 33.898 148.938 33.898 148.504
 c 33.898 145.707 35.082 143.918 39.555 142.938 c 40.449 142.734 41.141 
143.281 41.141 144.121 c 41.141 144.812 40.68 145.188 40.336 145.305 c 37.535
 146.168 37.133 147.062 37.133 149.023 c 37.133 149.602 37.191 150.555 37.191
 151.16 c 37.191 153.41 36.094 154.508 34.191 155.113 c 36.121 155.746 37.191
 156.816 37.191 159.066 c 37.191 159.672 37.133 160.621 37.133 161.199 c
 37.133 163.16 37.535 164.055 40.336 164.922 c 40.68 165.035 41.141 165.41
 41.141 166.105 c 41.141 166.941 40.449 167.488 39.555 167.289 c 35.082 
166.305 33.898 164.516 33.898 161.688 c h
33.898 161.688 m f
43.562 155.109 m 43.594 149.398 48.383 144.754 54.152 144.723 c 56.691 
144.723 59 145.562 60.816 146.977 c 61.508 147.555 61.625 148.562 61.105
 149.281 c 60.527 150.004 59.457 150.121 58.797 149.602 c 57.527 148.562
 55.941 148.016 54.148 148.016 c 52.16 148.016 50.312 148.824 48.957 150.09
 c 47.66 151.418 46.852 153.148 46.852 155.113 c 46.852 157.074 47.656 158.863
 48.957 160.133 c 50.312 161.402 52.16 162.211 54.148 162.211 c 55.941 162.211
 57.496 161.664 58.797 160.621 c 59.457 160.133 60.527 160.246 61.105 160.941
 c 61.621 161.66 61.508 162.699 60.816 163.246 c 59 164.66 56.691 165.496
 54.152 165.496 c 48.383 165.496 43.594 160.852 43.562 155.109 c h
43.562 155.109 m f
66.066 160.492 m 66.582 159.855 67.535 159.77 68.172 160.289 c 69.441 161.328
 71.633 162.539 73.68 162.512 c 75.121 162.512 76.422 162.078 77.289 161.441
 c 78.152 160.809 78.527 160.086 78.527 159.363 c 78.527 158.988 78.441 
158.73 78.27 158.441 c 78.094 158.152 77.836 157.863 77.402 157.574 c 76.566
 157.027 75.152 156.535 73.449 156.219 c 73.395 156.219 l 72.039 155.961
 70.766 155.613 69.672 155.094 c 68.574 154.574 67.625 153.852 66.988 152.844
 c 66.555 152.152 66.324 151.344 66.324 150.477 c 66.324 148.746 67.305 
147.246 68.633 146.266 c 69.988 145.285 71.75 144.738 73.625 144.738 c 76.395
 144.738 78.441 146.094 79.914 147.047 c 80.578 147.508 80.781 148.43 80.32
 149.094 c 79.887 149.789 78.965 149.988 78.273 149.527 c 76.801 148.547
 75.387 147.68 73.625 147.68 c 72.328 147.68 71.172 148.086 70.395 148.66
 c 69.613 149.238 69.297 149.875 69.297 150.48 c 69.297 150.828 69.355 151.059
 69.5 151.285 c 69.645 151.52 69.906 151.777 70.281 152.035 c 71.031 152.555
 72.328 153.02 73.887 153.305 c 73.941 153.305 l 75.414 153.594 76.77 153.969
 77.922 154.52 c 79.105 155.094 80.145 155.844 80.809 156.91 c 81.242 157.602
 81.5 158.469 81.5 159.363 c 81.5 161.211 80.465 162.797 79.02 163.836 c
 77.605 164.875 75.73 165.48 73.684 165.48 c 70.566 165.453 67.941 163.895
 66.297 162.594 c 65.66 162.078 65.574 161.125 66.066 160.492 c h
66.066 160.492 m f
85.016 160.492 m 85.535 159.855 86.488 159.77 87.121 160.289 c 88.395 161.328
 90.586 162.539 92.633 162.512 c 94.074 162.512 95.375 162.078 96.238 161.441
 c 97.105 160.809 97.48 160.086 97.48 159.363 c 97.48 158.988 97.395 158.73
 97.223 158.441 c 97.047 158.152 96.789 157.863 96.355 157.574 c 95.52 157.027
 94.105 156.535 92.402 156.219 c 92.348 156.219 l 90.988 155.961 89.719 
155.613 88.625 155.094 c 87.531 154.574 86.578 153.852 85.941 152.844 c 
85.508 152.152 85.277 151.344 85.277 150.477 c 85.277 148.746 86.258 147.246
 87.586 146.266 c 88.941 145.285 90.703 144.738 92.578 144.738 c 95.348 
144.738 97.398 146.094 98.867 147.047 c 99.531 147.508 99.73 148.43 99.273
 149.094 c 98.84 149.789 97.914 149.988 97.223 149.527 c 95.754 148.547 
94.34 147.68 92.578 147.68 c 91.281 147.68 90.125 148.086 89.348 148.66 
c 88.566 149.238 88.25 149.875 88.25 150.48 c 88.25 150.828 88.305 151.059
 88.449 151.285 c 88.598 151.52 88.855 151.777 89.23 152.035 c 89.98 152.555
 91.281 153.02 92.836 153.305 c 92.895 153.305 l 94.363 153.594 95.723 153.969
 96.875 154.52 c 98.055 155.094 99.098 155.844 99.758 156.91 c 100.191 157.602
 100.453 158.469 100.453 159.363 c 100.453 161.211 99.414 162.797 97.973
 163.836 c 96.555 164.875 94.68 165.48 92.633 165.48 c 89.52 165.453 86.895
 163.895 85.246 162.594 c 84.613 162.078 84.527 161.125 85.016 160.492 c
 h
85.016 160.492 m f
110.664 148.504 m 110.664 148.934 110.605 150.09 110.605 150.582 c 110.605
 152.715 111.383 153.641 113.348 153.723 c 114.238 153.781 114.789 154.332
 114.789 155.109 c 114.789 155.887 114.238 156.438 113.348 156.492 c 111.383
 156.551 110.605 157.504 110.605 159.609 c 110.605 160.098 110.664 161.254
 110.664 161.688 c 110.664 164.516 109.48 166.301 105.008 167.281 c 104.113
 167.484 103.422 166.938 103.422 166.098 c 103.422 165.406 103.883 165.031
 104.258 164.914 c 107.027 164.051 107.43 163.156 107.43 161.195 c 107.43
 160.617 107.375 159.664 107.375 159.059 c 107.375 156.809 108.473 155.715
 110.375 155.109 c 108.441 154.473 107.375 153.406 107.375 151.156 c 107.375
 150.551 107.43 149.598 107.43 149.02 c 107.43 147.059 107.027 146.164 104.258
 145.301 c 103.883 145.184 103.422 144.809 103.422 144.117 c 103.422 143.277
 104.113 142.73 105.008 142.934 c 109.48 143.914 110.664 145.707 110.664
 148.504 c h
110.664 148.504 m f
275.121 155.109 m 275.121 154.215 275.473 153.359 276.098 152.723 c 284.027
 144.68 l 284.82 143.918 286.121 143.918 286.883 144.68 c 287.672 145.473
 287.672 146.742 286.883 147.535 c 279.367 155.113 l 286.883 162.691 l 287.672
 163.516 287.672 164.75 286.883 165.543 c 286.469 165.926 285.992 166.113
 285.484 166.113 c 284.949 166.113 284.441 165.926 284.027 165.543 c 276.098
 157.5 l 275.473 156.863 275.121 156.004 275.121 155.109 c h
275.121 155.109 m f
297.246 159.676 m 297.816 161.418 299.465 162.688 301.398 162.688 c 303.809
 162.688 305.777 160.723 305.777 158.344 c 305.777 145.758 l 305.777 144.777
 306.57 144.012 307.551 144.012 c 308.504 144.012 309.297 144.773 309.297
 145.758 c 309.297 158.344 l 309.297 162.688 305.746 166.207 301.402 166.207
 c 297.914 166.207 294.934 163.926 293.918 160.754 c 293.602 159.801 294.141
 158.82 295.027 158.566 c 295.977 158.25 296.961 158.758 297.246 159.676
 c h
297.246 159.676 m f
313.699 161.023 m 314.27 160.324 315.316 160.23 316.016 160.801 c 317.41
 161.941 319.82 163.273 322.074 163.242 c 323.656 163.242 325.086 162.77
 326.035 162.07 c 326.988 161.371 327.398 160.582 327.398 159.789 c 327.398
 159.375 327.305 159.09 327.113 158.773 c 326.922 158.457 326.637 158.141
 326.16 157.824 c 325.242 157.219 323.691 156.68 321.82 156.332 c 321.758
 156.332 l 320.266 156.047 318.871 155.668 317.664 155.098 c 316.461 154.527
 315.414 153.734 314.715 152.625 c 314.242 151.863 313.988 150.977 313.988
 150.023 c 313.988 148.121 315.066 146.473 316.523 145.395 c 318.016 144.316
 319.949 143.715 322.008 143.715 c 325.055 143.715 327.305 145.207 328.922
 146.25 c 329.648 146.758 329.871 147.773 329.363 148.504 c 328.887 149.262
 327.871 149.484 327.113 148.977 c 325.496 147.898 323.941 146.949 322.008
 146.949 c 320.578 146.949 319.312 147.395 318.457 148.027 c 317.602 148.66
 317.25 149.359 317.25 150.027 c 317.25 150.406 317.316 150.66 317.473 150.914
 c 317.633 151.168 317.918 151.453 318.328 151.738 c 319.156 152.309 320.582
 152.816 322.293 153.133 c 322.355 153.133 l 323.973 153.453 325.465 153.863
 326.73 154.465 c 328.031 155.102 329.172 155.922 329.902 157.098 c 330.379
 157.855 330.664 158.809 330.664 159.793 c 330.664 161.82 329.523 163.566
 327.938 164.707 c 326.383 165.848 324.324 166.512 322.07 166.512 c 318.648
 166.48 315.762 164.77 313.953 163.344 c 313.254 162.766 313.164 161.723
 313.699 161.023 c h
313.699 161.023 m f
347.625 155.109 m 347.625 156.004 347.27 156.863 346.645 157.5 c 338.715
 165.543 l 338.336 165.922 337.797 166.113 337.285 166.113 c 336.75 166.113
 336.273 165.922 335.859 165.543 c 335.066 164.75 335.066 163.512 335.859
 162.688 c 343.375 155.109 l 335.859 147.531 l 335.066 146.738 335.066 145.473
 335.859 144.68 c 336.621 143.918 337.922 143.918 338.711 144.68 c 346.641
 152.723 l 347.27 153.359 347.625 154.215 347.625 155.109 c h
347.625 155.109 m f
Q Q
showpage
%%Trailer
end
%%EOF
