%!PS-Adobe-3.0 EPSF-3.0
%%Creator: cairo 1.16.0 (https://cairographics.org)
%%CreationDate: Fri Jan 10 07:39:04 2020
%%Pages: 1
%%DocumentData: Clean7Bit
%%LanguageLevel: 2
%%BoundingBox: 50 3 334 381
%%EndComments
%%BeginProlog
50 dict begin
/q { gsave } bind def
/Q { grestore } bind def
/cm { 6 array astore concat } bind def
/w { setlinewidth } bind def
/J { setlinecap } bind def
/j { setlinejoin } bind def
/M { setmiterlimit } bind def
/d { setdash } bind def
/m { moveto } bind def
/l { lineto } bind def
/c { curveto } bind def
/h { closepath } bind def
/re { exch dup neg 3 1 roll 5 3 roll moveto 0 rlineto
      0 exch rlineto 0 rlineto closepath } bind def
/S { stroke } bind def
/f { fill } bind def
/f* { eofill } bind def
/n { newpath } bind def
/W { clip } bind def
/W* { eoclip } bind def
/BT { } bind def
/ET { } bind def
/BDC { mark 3 1 roll /BDC pdfmark } bind def
/EMC { mark /EMC pdfmark } bind def
/cairo_store_point { /cairo_point_y exch def /cairo_point_x exch def } def
/Tj { show currentpoint cairo_store_point } bind def
/TJ {
  {
    dup
    type /stringtype eq
    { show } { -0.001 mul 0 cairo_font_matrix dtransform rmoveto } ifelse
  } forall
  currentpoint cairo_store_point
} bind def
/cairo_selectfont { cairo_font_matrix aload pop pop pop 0 0 6 array astore
    cairo_font exch selectfont cairo_point_x cairo_point_y moveto } bind def
/Tf { pop /cairo_font exch def /cairo_font_matrix where
      { pop cairo_selectfont } if } bind def
/Td { matrix translate cairo_font_matrix matrix concatmatrix dup
      /cairo_font_matrix exch def dup 4 get exch 5 get cairo_store_point
      /cairo_font where { pop cairo_selectfont } if } bind def
/Tm { 2 copy 8 2 roll 6 array astore /cairo_font_matrix exch def
      cairo_store_point /cairo_font where { pop cairo_selectfont } if } bind def
/g { setgray } bind def
/rg { setrgbcolor } bind def
/d1 { setcachedevice } bind def
/cairo_data_source {
  CairoDataIndex CairoData length lt
    { CairoData CairoDataIndex get /CairoDataIndex CairoDataIndex 1 add def }
    { () } ifelse
} def
/cairo_flush_ascii85_file { cairo_ascii85_file status { cairo_ascii85_file flushfile } if } def
/cairo_image { image cairo_flush_ascii85_file } def
/cairo_imagemask { imagemask cairo_flush_ascii85_file } def
%%EndProlog
%%BeginSetup
%%EndSetup
%%Page: 1 1
%%BeginPageSetup
%%PageBoundingBox: 50 3 334 381
%%EndPageSetup
q 50 3 284 378 rectclip
1 0 0 -1 0 384 cm q
0.321569 0.435294 0.666667 rg
329.156 134.887 m 222.508 295.32 l 222.508 344.121 l 161.492 378 l 161.492
 295.32 l 54.844 134.887 l h
329.156 134.887 m f
0.439216 0.552941 0.784314 rg
173.332 371.426 m 173.332 295.32 l 66.684 134.887 l 54.844 134.887 l 161.492
 295.32 l 161.492 378 l h
173.332 371.426 m f
0.203922 0.317647 0.54902 rg
317.316 134.887 m 210.668 295.32 l 210.668 350.695 l 222.508 344.121 l 
222.508 295.32 l 329.156 134.887 l h
317.316 134.887 m f
0.411765 0.0196078 0.537255 rg
161.492 381 m 160.965 381 160.438 380.863 159.969 380.586 c 159.055 380.047
 158.492 379.062 158.492 378 c 158.492 296.223 l 52.344 136.547 l 51.73 
135.625 51.676 134.441 52.199 133.469 c 52.719 132.492 53.734 131.887 54.844
 131.887 c 329.16 131.887 l 330.266 131.887 331.281 132.492 331.805 133.469
 c 332.324 134.441 332.27 135.625 331.656 136.547 c 225.512 296.223 l 225.512
 344.121 l 225.512 345.211 224.918 346.215 223.965 346.746 c 162.949 380.621
 l 162.496 380.875 161.992 381 161.492 381 c h
60.438 137.887 m 163.988 293.656 l 164.316 294.148 164.488 294.727 164.488
 295.32 c 164.488 372.902 l 219.508 342.355 l 219.508 295.32 l 219.508 294.727
 219.68 294.148 220.008 293.656 c 323.559 137.887 l h
60.438 137.887 m f
0.988235 0.760784 0.298039 rg
271.195 98.457 m 271.195 71.93 l 256.512 71.93 l 254.809 63.59 251.516 
55.836 246.984 48.969 c 257.379 38.574 l 238.621 19.816 l 228.227 30.211
 l 221.359 25.676 213.605 22.387 205.266 20.68 c 205.266 6 l 178.738 6 l
 178.738 20.68 l 170.398 22.387 162.641 25.676 155.777 30.211 c 145.383 
19.816 l 126.621 38.574 l 137.016 48.969 l 132.484 55.836 129.191 63.594
 127.488 71.93 c 112.805 71.93 l 112.805 98.461 l 127.488 98.461 l 129.191
 106.797 132.484 114.555 137.016 121.422 c 126.621 131.816 l 145.379 150.574
 l 155.773 140.18 l 162.641 144.711 170.395 148.004 178.734 149.711 c 178.734
 164.391 l 205.262 164.391 l 205.262 149.711 l 213.602 148.004 221.359 144.711
 228.223 140.18 c 238.617 150.574 l 257.375 131.816 l 246.98 121.422 l 251.516
 114.555 254.805 106.797 256.512 98.461 c 271.195 98.461 l h
192 124.895 m 170.074 124.895 152.297 107.121 152.297 85.195 c 152.297 
63.266 170.074 45.492 192 45.492 c 213.926 45.492 231.703 63.266 231.703
 85.195 c 231.703 107.121 213.926 124.895 192 124.895 c h
192 124.895 m f
0.411765 0.0196078 0.537255 rg
205.266 167.391 m 178.734 167.391 l 177.078 167.391 175.734 166.047 175.734
 164.391 c 175.734 152.113 l 168.84 150.441 162.289 147.723 156.195 144 
c 147.504 152.695 l 146.379 153.82 144.387 153.82 143.262 152.695 c 124.5
 133.938 l 123.938 133.375 123.621 132.609 123.621 131.816 c 123.621 131.02
 123.938 130.258 124.5 129.695 c 133.195 121 l 129.473 114.906 126.75 108.355
 125.082 101.461 c 112.805 101.461 l 111.148 101.461 109.805 100.117 109.805
 98.461 c 109.805 71.93 l 109.805 70.273 111.148 68.93 112.805 68.93 c 125.082
 68.93 l 126.75 62.039 129.473 55.484 133.195 49.391 c 124.5 40.695 l 123.938
 40.133 123.621 39.371 123.621 38.574 c 123.621 37.781 123.938 37.016 124.5
 36.453 c 143.258 17.695 l 143.82 17.133 144.586 16.816 145.379 16.816 c
 146.176 16.816 146.938 17.133 147.5 17.695 c 156.195 26.391 l 162.285 22.668
 168.84 19.945 175.734 18.277 c 175.734 6 l 175.734 4.344 177.078 3 178.734
 3 c 205.262 3 l 206.918 3 208.262 4.344 208.262 6 c 208.262 18.277 l 215.16
 19.945 221.711 22.668 227.801 26.391 c 236.496 17.695 l 237.664 16.523 
239.566 16.523 240.738 17.695 c 259.5 36.453 l 260.672 37.625 260.672 39.523
 259.5 40.695 c 250.805 49.391 l 254.527 55.48 257.25 62.035 258.918 68.93
 c 271.195 68.93 l 272.852 68.93 274.195 70.273 274.195 71.93 c 274.195 
98.457 l 274.195 100.113 272.852 101.457 271.195 101.457 c 258.918 101.457
 l 257.25 108.355 254.527 114.906 250.805 121 c 259.5 129.691 l 260.672 
130.863 260.672 132.762 259.5 133.934 c 240.742 152.695 l 239.617 153.82
 237.625 153.82 236.5 152.695 c 227.805 144 l 221.711 147.723 215.16 150.441
 208.266 152.113 c 208.266 164.391 l 208.266 166.047 206.922 167.391 205.266
 167.391 c h
181.734 161.391 m 202.266 161.391 l 202.266 149.711 l 202.266 148.285 203.266
 147.055 204.664 146.77 c 212.484 145.172 219.852 142.113 226.57 137.676
 c 227.762 136.895 229.34 137.051 230.348 138.059 c 238.617 146.332 l 253.133
 131.816 l 244.863 123.543 l 243.852 122.535 243.695 120.957 244.48 119.77
 c 248.914 113.051 251.973 105.68 253.574 97.859 c 253.859 96.465 255.086
 95.461 256.512 95.461 c 268.191 95.461 l 268.191 74.93 l 256.512 74.93 
l 255.086 74.93 253.859 73.93 253.574 72.531 c 251.973 64.711 248.914 57.34
 244.48 50.625 c 243.695 49.434 243.852 47.855 244.863 46.848 c 253.133 
38.574 l 238.617 24.059 l 230.344 32.332 l 229.34 33.34 227.762 33.5 226.57
 32.715 c 219.852 28.281 212.484 25.219 204.66 23.621 c 203.266 23.336 202.262
 22.105 202.262 20.684 c 202.262 9 l 181.734 9 l 181.734 20.68 l 181.734
 22.105 180.73 23.336 179.336 23.617 c 171.516 25.219 164.145 28.277 157.426
 32.715 c 156.238 33.496 154.66 33.34 153.652 32.332 c 145.379 24.059 l 
130.863 38.574 l 139.137 46.848 l 140.145 47.855 140.301 49.434 139.52 50.625
 c 135.082 57.344 132.023 64.715 130.426 72.531 c 130.141 73.93 128.91 74.93
 127.488 74.93 c 115.805 74.93 l 115.805 95.461 l 127.488 95.461 l 128.91
 95.461 130.141 96.461 130.426 97.859 c 132.023 105.68 135.082 113.051 139.52
 119.766 c 140.301 120.957 140.145 122.535 139.137 123.543 c 130.863 131.816
 l 145.379 146.332 l 153.652 138.059 l 154.66 137.051 156.238 136.891 157.426
 137.676 c 164.145 142.113 171.516 145.172 179.336 146.77 c 180.73 147.055
 181.734 148.281 181.734 149.707 c h
192 127.895 m 168.453 127.895 149.297 108.738 149.297 85.195 c 149.297 
61.648 168.453 42.492 192 42.492 c 215.547 42.492 234.703 61.648 234.703
 85.195 c 234.703 108.742 215.547 127.895 192 127.895 c h
192 48.492 m 171.762 48.492 155.297 64.957 155.297 85.195 c 155.297 105.434
 171.762 121.895 192 121.895 c 212.238 121.895 228.703 105.434 228.703 85.195
 c 228.703 64.957 212.238 48.492 192 48.492 c h
192 48.492 m f
0.870588 0.643137 0.180392 rg
245.602 40.82 m 239.281 47.141 l 238.246 48.176 238.012 49.801 238.777 
51.055 c 242.203 56.691 244.809 62.875 246.426 69.449 c 246.781 70.895 248.039
 71.93 249.523 71.93 c 256.512 71.93 l 254.809 63.59 251.516 55.836 246.984
 48.969 c 257.379 38.574 l 238.621 19.816 l 233.855 24.582 l 245.602 36.328
 l 246.84 37.57 246.84 39.582 245.602 40.82 c h
245.602 40.82 m f
261.664 71.93 9.531 26.527 re f
256.512 98.457 m 249.523 98.457 l 248.039 98.457 246.781 99.496 246.426
 100.938 c 244.809 107.516 242.203 113.699 238.777 119.332 c 238.012 120.59
 238.246 122.211 239.281 123.246 c 245.602 129.566 l 246.84 130.805 246.84
 132.816 245.602 134.059 c 233.852 145.805 l 238.617 150.57 l 257.379 131.812
 l 246.984 121.418 l 251.516 114.555 254.809 106.797 256.512 98.457 c h
256.512 98.457 m f
0.988235 0.878431 0.415686 rg
138.398 40.82 m 144.719 47.141 l 145.754 48.176 145.988 49.801 145.223 
51.055 c 141.797 56.691 139.191 62.875 137.574 69.449 c 137.219 70.895 135.961
 71.93 134.477 71.93 c 127.488 71.93 l 129.191 63.59 132.484 55.836 137.016
 48.969 c 126.621 38.574 l 145.379 19.816 l 150.145 24.582 l 138.398 36.328
 l 137.16 37.57 137.16 39.582 138.398 40.82 c h
138.398 40.82 m f
112.805 71.93 9.531 26.527 re f
127.488 98.457 m 134.477 98.457 l 135.961 98.457 137.219 99.496 137.574
 100.938 c 139.191 107.516 141.797 113.699 145.223 119.332 c 145.988 120.59
 145.754 122.211 144.719 123.246 c 138.398 129.566 l 137.16 130.805 137.16
 132.816 138.398 134.059 c 150.148 145.805 l 145.383 150.57 l 126.621 131.812
 l 137.016 121.418 l 132.484 114.555 129.191 106.797 127.488 98.457 c h
127.488 98.457 m f
0.411765 0.0196078 0.537255 rg
205.266 167.391 m 178.734 167.391 l 177.078 167.391 175.734 166.047 175.734
 164.391 c 175.734 152.113 l 168.84 150.441 162.289 147.723 156.195 144 
c 147.504 152.695 l 146.379 153.82 144.387 153.82 143.262 152.695 c 124.5
 133.938 l 123.938 133.375 123.621 132.609 123.621 131.816 c 123.621 131.02
 123.938 130.258 124.5 129.695 c 133.195 121 l 129.473 114.906 126.75 108.355
 125.082 101.461 c 112.805 101.461 l 111.148 101.461 109.805 100.117 109.805
 98.461 c 109.805 71.93 l 109.805 70.273 111.148 68.93 112.805 68.93 c 125.082
 68.93 l 126.75 62.039 129.473 55.484 133.195 49.391 c 124.5 40.695 l 123.938
 40.133 123.621 39.371 123.621 38.574 c 123.621 37.781 123.938 37.016 124.5
 36.453 c 143.258 17.695 l 143.82 17.133 144.586 16.816 145.379 16.816 c
 146.176 16.816 146.938 17.133 147.5 17.695 c 156.195 26.391 l 162.285 22.668
 168.84 19.945 175.734 18.277 c 175.734 6 l 175.734 4.344 177.078 3 178.734
 3 c 205.262 3 l 206.918 3 208.262 4.344 208.262 6 c 208.262 18.277 l 215.16
 19.945 221.711 22.668 227.801 26.391 c 236.496 17.695 l 237.664 16.523 
239.566 16.523 240.738 17.695 c 259.5 36.453 l 260.672 37.625 260.672 39.523
 259.5 40.695 c 250.805 49.391 l 254.527 55.48 257.25 62.035 258.918 68.93
 c 271.195 68.93 l 272.852 68.93 274.195 70.273 274.195 71.93 c 274.195 
98.457 l 274.195 100.113 272.852 101.457 271.195 101.457 c 258.918 101.457
 l 257.25 108.355 254.527 114.906 250.805 121 c 259.5 129.691 l 260.672 
130.863 260.672 132.762 259.5 133.934 c 240.742 152.695 l 239.617 153.82
 237.625 153.82 236.5 152.695 c 227.805 144 l 221.711 147.723 215.16 150.441
 208.266 152.113 c 208.266 164.391 l 208.266 166.047 206.922 167.391 205.266
 167.391 c h
181.734 161.391 m 202.266 161.391 l 202.266 149.711 l 202.266 148.285 203.266
 147.055 204.664 146.77 c 212.484 145.172 219.852 142.113 226.57 137.676
 c 227.762 136.895 229.34 137.051 230.348 138.059 c 238.617 146.332 l 253.133
 131.816 l 244.863 123.543 l 243.852 122.535 243.695 120.957 244.48 119.77
 c 248.914 113.051 251.973 105.68 253.574 97.859 c 253.859 96.465 255.086
 95.461 256.512 95.461 c 268.191 95.461 l 268.191 74.93 l 256.512 74.93 
l 255.086 74.93 253.859 73.93 253.574 72.531 c 251.973 64.711 248.914 57.34
 244.48 50.625 c 243.695 49.434 243.852 47.855 244.863 46.848 c 253.133 
38.574 l 238.617 24.059 l 230.344 32.332 l 229.34 33.34 227.762 33.5 226.57
 32.715 c 219.852 28.281 212.484 25.219 204.66 23.621 c 203.266 23.336 202.262
 22.105 202.262 20.684 c 202.262 9 l 181.734 9 l 181.734 20.68 l 181.734
 22.105 180.73 23.336 179.336 23.617 c 171.516 25.219 164.145 28.277 157.426
 32.715 c 156.238 33.496 154.66 33.34 153.652 32.332 c 145.379 24.059 l 
130.863 38.574 l 139.137 46.848 l 140.145 47.855 140.301 49.434 139.52 50.625
 c 135.082 57.344 132.023 64.715 130.426 72.531 c 130.141 73.93 128.91 74.93
 127.488 74.93 c 115.805 74.93 l 115.805 95.461 l 127.488 95.461 l 128.91
 95.461 130.141 96.461 130.426 97.859 c 132.023 105.68 135.082 113.051 139.52
 119.766 c 140.301 120.957 140.145 122.535 139.137 123.543 c 130.863 131.816
 l 145.379 146.332 l 153.652 138.059 l 154.66 137.051 156.238 136.891 157.426
 137.676 c 164.145 142.113 171.516 145.172 179.336 146.77 c 180.73 147.055
 181.734 148.281 181.734 149.707 c h
192 127.895 m 168.453 127.895 149.297 108.738 149.297 85.195 c 149.297 
61.648 168.453 42.492 192 42.492 c 215.547 42.492 234.703 61.648 234.703
 85.195 c 234.703 108.742 215.547 127.895 192 127.895 c h
192 48.492 m 171.762 48.492 155.297 64.957 155.297 85.195 c 155.297 105.434
 171.762 121.895 192 121.895 c 212.238 121.895 228.703 105.434 228.703 85.195
 c 228.703 64.957 212.238 48.492 192 48.492 c h
192 48.492 m f
104.082 191.914 m 103.113 191.914 102.16 191.445 101.582 190.578 c 92.906
 177.527 l 91.992 176.148 92.367 174.285 93.742 173.367 c 95.129 172.449
 96.988 172.828 97.902 174.203 c 106.578 187.254 l 107.496 188.633 107.121
 190.496 105.742 191.414 c 105.23 191.754 104.652 191.914 104.082 191.914
 c h
104.082 191.914 m f
0.988235 0.760784 0.298039 rg
330.617 66.914 m 318.715 52.777 l 306.816 38.641 l 294.91 52.777 l 283.012
 66.914 l 297.223 66.914 l 297.223 105.219 l 316.402 105.219 l 316.402 66.914
 l h
330.617 66.914 m f
0.411765 0.0196078 0.537255 rg
316.402 108.219 m 297.223 108.219 l 295.566 108.219 294.223 106.875 294.223
 105.219 c 294.223 69.914 l 283.012 69.914 l 281.844 69.914 280.785 69.238
 280.293 68.18 c 279.801 67.121 279.965 65.875 280.719 64.98 c 304.52 36.707
 l 305.66 35.355 307.969 35.352 309.109 36.707 c 332.914 64.98 l 333.664
 65.875 333.832 67.121 333.34 68.18 c 332.848 69.238 331.785 69.914 330.621
 69.914 c 319.406 69.914 l 319.406 105.219 l 319.402 106.875 318.062 108.219
 316.402 108.219 c h
300.223 102.219 m 313.402 102.219 l 313.402 66.914 l 313.402 65.258 314.746
 63.914 316.402 63.914 c 324.168 63.914 l 306.816 43.297 l 289.461 63.914
 l 297.223 63.914 l 298.879 63.914 300.223 65.258 300.223 66.914 c h
300.223 102.219 m f
0.988235 0.760784 0.298039 rg
100.988 66.914 m 89.09 52.777 l 77.184 38.641 l 65.285 52.777 l 53.383 
66.914 l 67.598 66.914 l 67.598 105.219 l 86.777 105.219 l 86.777 66.914
 l h
100.988 66.914 m f
0.411765 0.0196078 0.537255 rg
86.777 108.219 m 67.598 108.219 l 65.941 108.219 64.598 106.875 64.598 
105.219 c 64.598 69.914 l 53.383 69.914 l 52.215 69.914 51.156 69.238 50.664
 68.18 c 50.172 67.121 50.34 65.875 51.09 64.98 c 74.895 36.707 l 75.465
 36.031 76.305 35.641 77.188 35.641 c 78.074 35.641 78.914 36.031 79.484
 36.707 c 103.285 64.98 l 104.035 65.875 104.203 67.121 103.711 68.18 c 
103.219 69.238 102.156 69.914 100.992 69.914 c 89.781 69.914 l 89.781 105.219
 l 89.777 106.875 88.434 108.219 86.777 108.219 c h
70.598 102.219 m 83.777 102.219 l 83.777 66.914 l 83.777 65.258 85.121 
63.914 86.777 63.914 c 94.539 63.914 l 77.184 43.297 l 59.832 63.914 l 67.598
 63.914 l 69.254 63.914 70.598 65.258 70.598 66.914 c h
70.598 102.219 m f
Q Q
showpage
%%Trailer
end
%%EOF
