%!PS-Adobe-3.0 EPSF-3.0
%%Creator: cairo 1.16.0 (https://cairographics.org)
%%CreationDate: Fri Jan 10 07:39:05 2020
%%Pages: 1
%%DocumentData: Clean7Bit
%%LanguageLevel: 2
%%BoundingBox: 3 3 381 381
%%EndComments
%%BeginProlog
50 dict begin
/q { gsave } bind def
/Q { grestore } bind def
/cm { 6 array astore concat } bind def
/w { setlinewidth } bind def
/J { setlinecap } bind def
/j { setlinejoin } bind def
/M { setmiterlimit } bind def
/d { setdash } bind def
/m { moveto } bind def
/l { lineto } bind def
/c { curveto } bind def
/h { closepath } bind def
/re { exch dup neg 3 1 roll 5 3 roll moveto 0 rlineto
      0 exch rlineto 0 rlineto closepath } bind def
/S { stroke } bind def
/f { fill } bind def
/f* { eofill } bind def
/n { newpath } bind def
/W { clip } bind def
/W* { eoclip } bind def
/BT { } bind def
/ET { } bind def
/BDC { mark 3 1 roll /BDC pdfmark } bind def
/EMC { mark /EMC pdfmark } bind def
/cairo_store_point { /cairo_point_y exch def /cairo_point_x exch def } def
/Tj { show currentpoint cairo_store_point } bind def
/TJ {
  {
    dup
    type /stringtype eq
    { show } { -0.001 mul 0 cairo_font_matrix dtransform rmoveto } ifelse
  } forall
  currentpoint cairo_store_point
} bind def
/cairo_selectfont { cairo_font_matrix aload pop pop pop 0 0 6 array astore
    cairo_font exch selectfont cairo_point_x cairo_point_y moveto } bind def
/Tf { pop /cairo_font exch def /cairo_font_matrix where
      { pop cairo_selectfont } if } bind def
/Td { matrix translate cairo_font_matrix matrix concatmatrix dup
      /cairo_font_matrix exch def dup 4 get exch 5 get cairo_store_point
      /cairo_font where { pop cairo_selectfont } if } bind def
/Tm { 2 copy 8 2 roll 6 array astore /cairo_font_matrix exch def
      cairo_store_point /cairo_font where { pop cairo_selectfont } if } bind def
/g { setgray } bind def
/rg { setrgbcolor } bind def
/d1 { setcachedevice } bind def
/cairo_data_source {
  CairoDataIndex CairoData length lt
    { CairoData CairoDataIndex get /CairoDataIndex CairoDataIndex 1 add def }
    { () } ifelse
} def
/cairo_flush_ascii85_file { cairo_ascii85_file status { cairo_ascii85_file flushfile } if } def
/cairo_image { image cairo_flush_ascii85_file } def
/cairo_imagemask { imagemask cairo_flush_ascii85_file } def
%%EndProlog
%%BeginSetup
%%EndSetup
%%Page: 1 1
%%BeginPageSetup
%%PageBoundingBox: 3 3 381 381
%%EndPageSetup
q 3 3 378 378 rectclip
1 0 0 -1 0 384 cm q
0.411765 0.0196078 0.537255 rg
49.699 195 m 17.766 195 l 16.113 195 14.766 193.656 14.766 192 c 14.766
 190.344 16.113 189 17.766 189 c 49.699 189 l 51.355 189 52.699 190.344 
52.699 192 c 52.699 193.656 51.359 195 49.699 195 c h
49.699 195 m f
366.234 195 m 334.301 195 l 332.645 195 331.301 193.656 331.301 192 c 331.301
 190.344 332.645 189 334.301 189 c 366.234 189 l 367.887 189 369.234 190.344
 369.234 192 c 369.234 193.656 367.887 195 366.234 195 c h
366.234 195 m f
192 52.699 m 190.344 52.699 189 51.355 189 49.699 c 189 17.766 l 189 16.113
 190.344 14.766 192 14.766 c 193.656 14.766 195 16.113 195 17.766 c 195 
49.699 l 195 51.359 193.656 52.699 192 52.699 c h
192 52.699 m f
192 369.234 m 190.344 369.234 189 367.887 189 366.234 c 189 334.301 l 189
 332.645 190.344 331.301 192 331.301 c 193.656 331.301 195 332.645 195 334.301
 c 195 366.234 l 195 367.887 193.656 369.234 192 369.234 c h
192 369.234 m f
68.801 318.199 m 68.031 318.199 67.262 317.91 66.68 317.32 c 65.508 316.152
 65.508 314.25 66.68 313.078 c 89.258 290.5 l 90.43 289.328 92.332 289.328
 93.5 290.5 c 94.672 291.672 94.672 293.57 93.5 294.742 c 70.922 317.32 
l 70.336 317.906 69.566 318.199 68.801 318.199 c h
68.801 318.199 m f
292.621 94.379 m 291.852 94.379 291.086 94.086 290.5 93.5 c 289.328 92.328
 289.328 90.43 290.5 89.258 c 313.078 66.68 l 314.25 65.508 316.152 65.508
 317.32 66.68 c 318.492 67.848 318.492 69.75 317.32 70.922 c 294.742 93.5
 l 294.156 94.086 293.387 94.379 292.621 94.379 c h
292.621 94.379 m f
91.379 94.379 m 90.613 94.379 89.844 94.086 89.258 93.5 c 66.68 70.922 
l 65.508 69.75 65.508 67.848 66.68 66.68 c 67.848 65.508 69.75 65.508 70.922
 66.68 c 93.5 89.258 l 94.672 90.43 94.672 92.328 93.5 93.5 c 92.914 94.086
 92.148 94.379 91.379 94.379 c h
91.379 94.379 m f
315.199 318.199 m 314.434 318.199 313.664 317.91 313.078 317.32 c 290.5
 294.742 l 289.328 293.57 289.328 291.672 290.5 290.5 c 291.668 289.328 
293.57 289.328 294.742 290.5 c 317.32 313.078 l 318.492 314.25 318.492 316.152
 317.32 317.32 c 316.738 317.906 315.969 318.199 315.199 318.199 c h
315.199 318.199 m f
0.321569 0.435294 0.666667 rg
203.766 17.766 m 203.766 24.266 198.5 29.535 192 29.535 c 185.5 29.535 
180.234 24.266 180.234 17.766 c 180.234 11.27 185.5 6 192 6 c 198.5 6 203.766
 11.27 203.766 17.766 c h
203.766 17.766 m f
203.766 366.234 m 203.766 372.73 198.5 378 192 378 c 185.5 378 180.234 
372.73 180.234 366.234 c 180.234 359.734 185.5 354.465 192 354.465 c 198.5
 354.465 203.766 359.734 203.766 366.234 c h
203.766 366.234 m f
29.535 192 m 29.535 198.5 24.266 203.766 17.766 203.766 c 11.27 203.766
 6 198.5 6 192 c 6 185.5 11.27 180.234 17.766 180.234 c 24.266 180.234 29.535
 185.5 29.535 192 c h
29.535 192 m f
378 192 m 378 198.5 372.73 203.766 366.234 203.766 c 359.734 203.766 354.465
 198.5 354.465 192 c 354.465 185.5 359.734 180.234 366.234 180.234 c 372.73
 180.234 378 185.5 378 192 c h
378 192 m f
80.566 68.801 m 80.566 75.297 75.297 80.566 68.801 80.566 c 62.301 80.566
 57.031 75.297 57.031 68.801 c 57.031 62.301 62.301 57.031 68.801 57.031
 c 75.297 57.031 80.566 62.301 80.566 68.801 c h
80.566 68.801 m f
326.969 315.199 m 326.969 321.699 321.699 326.969 315.199 326.969 c 308.703
 326.969 303.434 321.699 303.434 315.199 c 303.434 308.703 308.703 303.434
 315.199 303.434 c 321.699 303.434 326.969 308.703 326.969 315.199 c h
326.969 315.199 m f
80.566 315.199 m 80.566 321.699 75.297 326.969 68.801 326.969 c 62.301 
326.969 57.031 321.699 57.031 315.199 c 57.031 308.703 62.301 303.434 68.801
 303.434 c 75.297 303.434 80.566 308.703 80.566 315.199 c h
80.566 315.199 m f
326.969 68.801 m 326.969 75.297 321.699 80.566 315.199 80.566 c 308.703
 80.566 303.434 75.297 303.434 68.801 c 303.434 62.301 308.703 57.031 315.199
 57.031 c 321.699 57.031 326.969 62.301 326.969 68.801 c h
326.969 68.801 m f
0.988235 0.760784 0.298039 rg
332.742 215.574 m 332.742 168.426 l 306.652 168.426 l 303.621 153.609 297.77
 139.824 289.715 127.621 c 308.188 109.152 l 274.852 75.812 l 256.379 94.285
 l 244.176 86.23 230.391 80.379 215.574 77.348 c 215.574 51.258 l 168.43
 51.258 l 168.43 77.348 l 153.609 80.379 139.824 86.23 127.625 94.285 c 
109.152 75.812 l 75.812 109.152 l 94.285 127.621 l 86.23 139.824 80.379 
153.609 77.348 168.426 c 51.258 168.426 l 51.258 215.574 l 77.348 215.574
 l 80.379 230.391 86.23 244.176 94.285 256.379 c 75.812 274.848 l 109.152
 308.188 l 127.621 289.715 l 139.824 297.77 153.609 303.621 168.426 306.652
 c 168.426 332.742 l 215.574 332.742 l 215.574 306.652 l 230.391 303.621
 244.176 297.77 256.379 289.715 c 274.848 308.188 l 308.184 274.848 l 289.715
 256.379 l 297.77 244.176 303.617 230.391 306.648 215.574 c h
192 271.961 m 147.84 271.961 112.039 236.16 112.039 192 c 112.039 147.84
 147.84 112.039 192 112.039 c 236.16 112.039 271.961 147.84 271.961 192 
c 271.961 236.16 236.16 271.961 192 271.961 c h
192 271.961 m f
0.870588 0.643137 0.180392 rg
287.258 113.145 m 276.027 124.371 l 274.184 126.215 273.77 129.098 275.129
 131.328 c 281.215 141.344 285.852 152.332 288.723 164.02 c 289.352 166.586
 291.59 168.426 294.23 168.426 c 306.648 168.426 l 303.617 153.609 297.77
 139.824 289.715 127.621 c 308.188 109.152 l 274.848 75.812 l 266.379 84.281
 l 287.258 105.16 l 289.461 107.363 289.461 110.938 287.258 113.145 c h
287.258 113.145 m f
315.801 168.426 16.938 47.148 re f
306.648 215.574 m 294.23 215.574 l 291.59 215.574 289.352 217.414 288.723
 219.98 c 285.852 231.668 281.215 242.656 275.129 252.672 c 273.77 254.902
 274.184 257.785 276.027 259.629 c 287.258 270.859 l 289.461 273.062 289.461
 276.637 287.258 278.844 c 266.379 299.719 l 274.848 308.188 l 308.188 274.852
 l 289.715 256.379 l 297.77 244.176 303.621 230.391 306.648 215.574 c h
306.648 215.574 m f
0.988235 0.878431 0.415686 rg
96.742 113.145 m 107.973 124.371 l 109.816 126.215 110.23 129.098 108.871
 131.328 c 102.785 141.344 98.148 152.332 95.277 164.02 c 94.648 166.586
 92.41 168.426 89.77 168.426 c 77.352 168.426 l 80.383 153.609 86.23 139.824
 94.285 127.621 c 75.812 109.152 l 109.152 75.812 l 117.621 84.281 l 96.742
 105.16 l 94.539 107.363 94.539 110.938 96.742 113.145 c h
96.742 113.145 m f
51.258 168.426 16.941 47.148 re f
77.352 215.574 m 89.77 215.574 l 92.41 215.574 94.648 217.414 95.277 219.98
 c 98.148 231.668 102.785 242.656 108.871 252.672 c 110.23 254.902 109.816
 257.785 107.973 259.629 c 96.742 270.859 l 94.539 273.062 94.539 276.637
 96.742 278.844 c 117.621 299.719 l 109.152 308.188 l 75.812 274.852 l 94.285
 256.379 l 86.23 244.176 80.379 230.391 77.352 215.574 c h
77.352 215.574 m f
0.411765 0.0196078 0.537255 rg
68.199 204 m 66.543 204 65.199 202.656 65.199 201 c 65.199 183 l 65.199
 181.344 66.543 180 68.199 180 c 69.852 180 71.199 181.344 71.199 183 c 
71.199 201 l 71.199 202.656 69.852 204 68.199 204 c h
68.199 204 m f
215.574 335.742 m 168.426 335.742 l 166.77 335.742 165.426 334.398 165.426
 332.742 c 165.426 309.074 l 152.164 306.078 139.605 300.863 128.031 293.551
 c 111.273 310.309 l 110.148 311.434 108.156 311.434 107.031 310.309 c 73.691
 276.969 l 72.52 275.801 72.52 273.898 73.691 272.727 c 90.449 255.969 l
 83.137 244.395 77.922 231.836 74.926 218.574 c 51.258 218.574 l 49.602 
218.574 48.258 217.227 48.258 215.574 c 48.258 168.426 l 48.258 166.77 49.602
 165.426 51.258 165.426 c 74.926 165.426 l 77.922 152.164 83.137 139.605
 90.449 128.031 c 73.691 111.273 l 72.52 110.102 72.52 108.199 73.691 107.031
 c 107.031 73.691 l 108.156 72.566 110.148 72.566 111.273 73.691 c 128.031
 90.449 l 139.609 83.137 152.168 77.922 165.426 74.926 c 165.426 51.258 
l 165.426 49.602 166.773 48.258 168.426 48.258 c 215.574 48.258 l 217.23
 48.258 218.574 49.602 218.574 51.258 c 218.574 74.926 l 231.836 77.922 
244.395 83.137 255.969 90.449 c 272.73 73.691 l 273.898 72.52 275.801 72.52
 276.973 73.691 c 310.309 107.031 l 310.871 107.594 311.188 108.355 311.188
 109.152 c 311.188 109.945 310.871 110.711 310.309 111.273 c 293.551 128.031
 l 300.863 139.605 306.078 152.164 309.074 165.426 c 332.742 165.426 l 334.398
 165.426 335.742 166.773 335.742 168.426 c 335.742 215.574 l 335.742 217.23
 334.398 218.574 332.742 218.574 c 309.074 218.574 l 306.078 231.836 300.863
 244.395 293.551 255.969 c 310.309 272.73 l 310.871 273.293 311.188 274.055
 311.188 274.852 c 311.188 275.645 310.871 276.41 310.309 276.973 c 276.973
 310.309 l 276.41 310.871 275.645 311.188 274.852 311.188 c 274.055 311.188
 273.293 310.871 272.73 310.309 c 255.969 293.551 l 244.391 300.863 231.832
 306.078 218.574 309.074 c 218.574 332.742 l 218.574 334.398 217.23 335.742
 215.574 335.742 c h
171.426 329.742 m 212.574 329.742 l 212.574 306.652 l 212.574 305.227 213.574
 303.996 214.973 303.711 c 229.16 300.809 242.535 295.258 254.727 287.211
 c 255.914 286.43 257.492 286.586 258.5 287.594 c 274.848 303.945 l 303.945
 274.852 l 287.594 258.5 l 286.586 257.492 286.426 255.914 287.211 254.727
 c 295.254 242.539 300.809 229.164 303.711 214.973 c 303.996 213.578 305.223
 212.574 306.648 212.574 c 329.738 212.574 l 329.738 171.43 l 306.648 171.43
 l 305.223 171.43 303.996 170.426 303.711 169.031 c 300.809 154.84 295.254
 141.465 287.211 129.277 c 286.426 128.09 286.586 126.512 287.594 125.504
 c 303.945 109.152 l 274.848 80.059 l 258.496 96.41 l 257.488 97.418 255.914
 97.578 254.723 96.793 c 242.535 88.746 229.16 83.195 214.973 80.293 c 213.574
 80.008 212.574 78.777 212.574 77.352 c 212.574 54.258 l 171.426 54.258 
l 171.426 77.348 l 171.426 78.773 170.426 80.004 169.027 80.289 c 154.84
 83.191 141.465 88.742 129.277 96.789 c 128.09 97.574 126.512 97.414 125.504
 96.406 c 109.152 80.055 l 80.055 109.152 l 96.406 125.504 l 97.414 126.508
 97.574 128.086 96.789 129.277 c 88.742 141.465 83.191 154.836 80.289 169.027
 c 80.004 170.426 78.777 171.426 77.352 171.426 c 54.258 171.426 l 54.258
 212.574 l 77.348 212.574 l 78.773 212.574 80.004 213.574 80.289 214.973
 c 83.191 229.16 88.742 242.535 96.789 254.723 c 97.57 255.91 97.414 257.488
 96.406 258.496 c 80.055 274.848 l 109.148 303.941 l 125.5 287.594 l 126.504
 286.586 128.082 286.426 129.273 287.211 c 141.461 295.254 154.836 300.809
 169.027 303.711 c 170.422 303.996 171.426 305.223 171.426 306.648 c h
192 274.961 m 146.258 274.961 109.039 237.742 109.039 192 c 109.039 146.258
 146.254 109.039 192 109.039 c 237.746 109.039 274.961 146.258 274.961 192
 c 274.961 237.742 237.742 274.961 192 274.961 c h
192 115.039 m 149.562 115.039 115.039 149.562 115.039 192 c 115.039 234.438
 149.562 268.961 192 268.961 c 234.438 268.961 268.961 234.438 268.961 192
 c 268.961 149.562 234.438 115.039 192 115.039 c h
192 115.039 m f
192 32.535 m 183.855 32.535 177.234 25.91 177.234 17.766 c 177.234 9.625
 183.855 3 192 3 c 200.145 3 206.766 9.625 206.766 17.766 c 206.766 25.91
 200.145 32.535 192 32.535 c h
192 9 m 187.164 9 183.234 12.934 183.234 17.766 c 183.234 22.602 187.164
 26.535 192 26.535 c 196.836 26.535 200.766 22.602 200.766 17.766 c 200.766
 12.934 196.836 9 192 9 c h
192 9 m f
192 381 m 183.855 381 177.234 374.375 177.234 366.234 c 177.234 358.09 
183.859 351.465 192 351.465 c 200.141 351.465 206.766 358.09 206.766 366.234
 c 206.766 374.375 200.145 381 192 381 c h
192 357.465 m 187.164 357.465 183.234 361.398 183.234 366.234 c 183.234
 371.066 187.164 375 192 375 c 196.836 375 200.766 371.066 200.766 366.234
 c 200.766 361.398 196.836 357.465 192 357.465 c h
192 357.465 m f
17.766 206.766 m 9.625 206.766 3 200.145 3 192 c 3 183.855 9.625 177.234
 17.766 177.234 c 25.91 177.234 32.535 183.859 32.535 192 c 32.535 200.141
 25.91 206.766 17.766 206.766 c h
17.766 183.234 m 12.934 183.234 9 187.164 9 192 c 9 196.836 12.934 200.766
 17.766 200.766 c 22.602 200.766 26.535 196.836 26.535 192 c 26.535 187.164
 22.602 183.234 17.766 183.234 c h
17.766 183.234 m f
366.234 206.766 m 358.09 206.766 351.465 200.141 351.465 192 c 351.465 
183.859 358.09 177.234 366.234 177.234 c 374.375 177.234 381 183.855 381
 192 c 381 200.145 374.375 206.766 366.234 206.766 c h
366.234 183.234 m 361.398 183.234 357.465 187.164 357.465 192 c 357.465
 196.836 361.398 200.766 366.234 200.766 c 371.066 200.766 375 196.836 375
 192 c 375 187.164 371.066 183.234 366.234 183.234 c h
366.234 183.234 m f
68.801 83.559 m 65.016 83.559 61.234 82.121 58.359 79.242 c 55.566 76.453
 54.031 72.742 54.031 68.801 c 54.031 64.855 55.566 61.148 58.359 58.359
 c 61.145 55.57 64.855 54.031 68.801 54.031 c 72.742 54.031 76.453 55.57
 79.242 58.359 c 84.996 64.117 84.996 73.484 79.242 79.242 c 76.363 82.121
 72.582 83.559 68.801 83.559 c h
68.801 60.031 m 66.457 60.031 64.254 60.945 62.598 62.598 c 60.945 64.254
 60.031 66.457 60.031 68.801 c 60.031 71.141 60.945 73.344 62.598 75 c 66.02
 78.414 71.578 78.418 75 75 c 78.418 71.578 78.418 66.02 75 62.598 c 73.344
 60.945 71.141 60.031 68.801 60.031 c h
68.801 60.031 m f
315.199 329.969 m 311.258 329.969 307.547 328.434 304.758 325.641 c 299.004
 319.887 299.004 310.516 304.758 304.758 c 310.52 299 319.887 299 325.645
 304.758 c 328.434 307.547 329.969 311.258 329.969 315.199 c 329.969 319.145
 328.434 322.852 325.645 325.641 c 322.855 328.434 319.145 329.969 315.199
 329.969 c h
315.199 306.438 m 312.957 306.438 310.711 307.293 309 309 c 305.582 312.422
 305.582 317.98 309 321.402 c 310.656 323.055 312.859 323.969 315.199 323.969
 c 317.543 323.969 319.746 323.055 321.402 321.402 c 323.055 319.746 323.969
 317.543 323.969 315.199 c 323.969 312.859 323.055 310.656 321.402 309 c
 319.691 307.293 317.445 306.438 315.199 306.438 c h
315.199 306.438 m f
68.801 329.969 m 64.855 329.969 61.145 328.434 58.355 325.641 c 55.566 
322.855 54.031 319.145 54.031 315.199 c 54.031 311.258 55.566 307.547 58.359
 304.758 c 64.113 299.004 73.484 299.004 79.242 304.758 c 85 310.52 85 319.887
 79.242 325.645 c 76.453 328.434 72.742 329.969 68.801 329.969 c h
68.801 306.438 m 66.555 306.438 64.309 307.293 62.598 309 c 60.945 310.656
 60.031 312.859 60.031 315.199 c 60.031 317.543 60.945 319.746 62.598 321.402
 c 64.254 323.055 66.457 323.969 68.801 323.969 c 71.141 323.969 73.344 
323.055 75 321.402 c 78.418 317.98 78.418 312.422 75 309 c 73.289 307.293
 71.043 306.438 68.801 306.438 c h
68.801 306.438 m f
315.199 83.559 m 311.418 83.559 307.637 82.121 304.758 79.242 c 299.004
 73.484 299.004 64.117 304.758 58.359 c 307.547 55.57 311.258 54.031 315.199
 54.031 c 319.145 54.031 322.855 55.57 325.645 58.359 c 328.434 61.148 329.969
 64.855 329.969 68.801 c 329.969 72.742 328.434 76.453 325.641 79.242 c 
322.766 82.121 318.984 83.559 315.199 83.559 c h
315.199 60.031 m 312.859 60.031 310.656 60.945 309 62.598 c 305.582 66.02
 305.582 71.578 309 75 c 312.422 78.418 317.98 78.418 321.402 75 c 323.055
 73.344 323.969 71.141 323.969 68.801 c 323.969 66.457 323.055 64.258 321.402
 62.602 c 319.746 60.945 317.543 60.031 315.199 60.031 c h
315.199 60.031 m f
0.321569 0.435294 0.666667 rg
243.223 258.223 m 140.777 258.223 l 132.492 258.223 125.777 251.508 125.777
 243.223 c 125.777 140.777 l 125.777 132.492 132.492 125.777 140.777 125.777
 c 243.227 125.777 l 251.508 125.777 258.227 132.492 258.227 140.777 c 258.227
 243.227 l 258.223 251.508 251.508 258.223 243.223 258.223 c h
243.223 258.223 m f
0.203922 0.317647 0.54902 rg
243.223 125.777 m 232.723 125.777 l 241.008 125.777 247.723 132.492 247.723
 140.777 c 247.723 243.227 l 247.723 251.508 241.008 258.227 232.723 258.227
 c 243.223 258.227 l 251.508 258.227 258.223 251.508 258.223 243.227 c 258.223
 140.777 l 258.223 132.492 251.508 125.777 243.223 125.777 c h
243.223 125.777 m f
0.439216 0.552941 0.784314 rg
140.777 258.223 m 151.277 258.223 l 142.992 258.223 136.277 251.508 136.277
 243.223 c 136.277 140.777 l 136.277 132.492 142.992 125.777 151.277 125.777
 c 140.777 125.777 l 132.492 125.777 125.777 132.492 125.777 140.777 c 125.777
 243.227 l 125.777 251.508 132.492 258.223 140.777 258.223 c h
140.777 258.223 m f
0.956863 0.937255 0.929412 rg
228.73 237.496 m 155.27 237.496 l 150.43 237.496 146.508 233.57 146.508
 228.73 c 146.508 155.27 l 146.508 150.43 150.43 146.508 155.27 146.508 
c 228.73 146.508 l 233.57 146.508 237.496 150.43 237.496 155.27 c 237.496
 228.73 l 237.496 233.57 233.57 237.496 228.73 237.496 c h
228.73 237.496 m f
0.411765 0.0196078 0.537255 rg
243.223 261.223 m 140.777 261.223 l 130.852 261.223 122.777 253.148 122.777
 243.223 c 122.777 140.777 l 122.777 130.852 130.852 122.777 140.777 122.777
 c 243.227 122.777 l 253.152 122.777 261.227 130.852 261.227 140.777 c 261.227
 243.227 l 261.223 253.148 253.148 261.223 243.223 261.223 c h
140.777 128.777 m 134.16 128.777 128.777 134.16 128.777 140.777 c 128.777
 243.227 l 128.777 249.84 134.16 255.227 140.777 255.227 c 243.227 255.227
 l 249.84 255.227 255.227 249.84 255.227 243.227 c 255.227 140.777 l 255.227
 134.16 249.84 128.777 243.227 128.777 c h
140.777 128.777 m f
228.73 240.496 m 155.27 240.496 l 148.781 240.496 143.504 235.215 143.504
 228.73 c 143.504 155.27 l 143.504 148.781 148.785 143.504 155.27 143.504
 c 228.73 143.504 l 235.219 143.504 240.496 148.785 240.496 155.27 c 240.496
 228.73 l 240.496 235.219 235.219 240.496 228.73 240.496 c h
155.27 149.504 m 152.09 149.504 149.504 152.09 149.504 155.27 c 149.504
 228.73 l 149.504 231.91 152.09 234.496 155.27 234.496 c 228.73 234.496 
l 231.91 234.496 234.496 231.91 234.496 228.73 c 234.496 155.27 l 234.496
 152.09 231.91 149.504 228.73 149.504 c h
155.27 149.504 m f
188.723 204.461 m 172.359 204.461 l 169.059 213.215 l 168.453 214.699 167.035
 215.574 165.555 215.574 c 165.086 215.574 164.68 215.504 164.277 215.371
 c 162.324 214.629 161.379 212.477 162.055 210.523 c 176.938 170.852 l 177.543
 169.371 179.023 168.426 180.508 168.496 c 182.055 168.426 183.469 169.371
 184.074 170.852 c 198.961 210.523 l 199.633 212.477 198.691 214.629 196.738
 215.371 c 196.398 215.504 195.93 215.574 195.461 215.574 c 193.977 215.574
 192.562 214.699 192.023 213.215 c h
185.965 197.051 m 180.512 182.57 l 175.055 197.051 l h
185.965 197.051 m f
208.684 172.133 m 208.684 170.043 210.301 168.426 212.387 168.426 c 214.41
 168.426 216.16 170.043 216.16 172.133 c 216.16 211.867 l 216.16 213.953
 214.41 215.574 212.387 215.574 c 210.301 215.574 208.684 213.953 208.684
 211.867 c h
208.684 172.133 m f
Q Q
showpage
%%Trailer
end
%%EOF
