%!PS-Adobe-3.0 EPSF-3.0
%%Creator: cairo 1.16.0 (https://cairographics.org)
%%CreationDate: Fri Jan 10 07:39:06 2020
%%Pages: 1
%%DocumentData: Clean7Bit
%%LanguageLevel: 2
%%BoundingBox: 3 3 381 381
%%EndComments
%%BeginProlog
50 dict begin
/q { gsave } bind def
/Q { grestore } bind def
/cm { 6 array astore concat } bind def
/w { setlinewidth } bind def
/J { setlinecap } bind def
/j { setlinejoin } bind def
/M { setmiterlimit } bind def
/d { setdash } bind def
/m { moveto } bind def
/l { lineto } bind def
/c { curveto } bind def
/h { closepath } bind def
/re { exch dup neg 3 1 roll 5 3 roll moveto 0 rlineto
      0 exch rlineto 0 rlineto closepath } bind def
/S { stroke } bind def
/f { fill } bind def
/f* { eofill } bind def
/n { newpath } bind def
/W { clip } bind def
/W* { eoclip } bind def
/BT { } bind def
/ET { } bind def
/BDC { mark 3 1 roll /BDC pdfmark } bind def
/EMC { mark /EMC pdfmark } bind def
/cairo_store_point { /cairo_point_y exch def /cairo_point_x exch def } def
/Tj { show currentpoint cairo_store_point } bind def
/TJ {
  {
    dup
    type /stringtype eq
    { show } { -0.001 mul 0 cairo_font_matrix dtransform rmoveto } ifelse
  } forall
  currentpoint cairo_store_point
} bind def
/cairo_selectfont { cairo_font_matrix aload pop pop pop 0 0 6 array astore
    cairo_font exch selectfont cairo_point_x cairo_point_y moveto } bind def
/Tf { pop /cairo_font exch def /cairo_font_matrix where
      { pop cairo_selectfont } if } bind def
/Td { matrix translate cairo_font_matrix matrix concatmatrix dup
      /cairo_font_matrix exch def dup 4 get exch 5 get cairo_store_point
      /cairo_font where { pop cairo_selectfont } if } bind def
/Tm { 2 copy 8 2 roll 6 array astore /cairo_font_matrix exch def
      cairo_store_point /cairo_font where { pop cairo_selectfont } if } bind def
/g { setgray } bind def
/rg { setrgbcolor } bind def
/d1 { setcachedevice } bind def
/cairo_data_source {
  CairoDataIndex CairoData length lt
    { CairoData CairoDataIndex get /CairoDataIndex CairoDataIndex 1 add def }
    { () } ifelse
} def
/cairo_flush_ascii85_file { cairo_ascii85_file status { cairo_ascii85_file flushfile } if } def
/cairo_image { image cairo_flush_ascii85_file } def
/cairo_imagemask { imagemask cairo_flush_ascii85_file } def
%%EndProlog
%%BeginSetup
%%EndSetup
%%Page: 1 1
%%BeginPageSetup
%%PageBoundingBox: 3 3 381 381
%%EndPageSetup
q 3 3 378 378 rectclip
1 0 0 -1 0 384 cm q
0.411765 0.0196078 0.537255 rg
74.871 312.129 m 74.105 312.129 73.336 311.836 72.75 311.25 c 71.578 310.078
 71.578 308.18 72.75 307.008 c 307.008 72.75 l 308.176 71.578 310.078 71.578
 311.25 72.75 c 312.422 73.922 312.422 75.82 311.25 76.992 c 76.992 311.25
 l 76.406 311.836 75.641 312.129 74.871 312.129 c h
74.871 312.129 m f
309.129 312.129 m 308.359 312.129 307.59 311.836 307.008 311.25 c 72.75
 76.992 l 71.578 75.82 71.578 73.922 72.75 72.75 c 73.922 71.578 75.82 71.578
 76.992 72.75 c 311.25 307.008 l 312.422 308.18 312.422 310.078 311.25 311.25
 c 310.664 311.836 309.895 312.129 309.129 312.129 c h
309.129 312.129 m f
0.988235 0.760784 0.298039 rg
313.809 289.477 m 324.75 292.062 331.52 303.027 328.934 313.965 c 326.348
 324.902 315.383 331.672 304.445 329.086 c 293.508 326.504 286.738 315.539
 289.324 304.602 c 291.91 293.664 302.871 286.891 313.809 289.477 c h
313.809 289.477 m f
0.533333 0.321569 0.658824 rg
79.551 55.105 m 90.488 57.691 97.262 68.652 94.676 79.59 c 92.09 90.531
 81.125 97.301 70.188 94.715 c 59.25 92.129 52.48 81.168 55.066 70.227 c
 57.652 59.289 68.613 52.52 79.551 55.105 c h
79.551 55.105 m f
0.956863 0.937255 0.929412 rg
89.223 294.715 m 97.168 302.66 97.168 315.547 89.223 323.496 c 81.273 331.441
 68.387 331.441 60.441 323.496 c 52.492 315.547 52.492 302.66 60.441 294.715
 c 68.387 286.766 81.273 286.766 89.223 294.715 c h
89.223 294.715 m f
0.321569 0.435294 0.666667 rg
323.477 60.504 m 331.426 68.453 331.426 81.34 323.477 89.285 c 315.531 
97.234 302.645 97.234 294.695 89.285 c 286.75 81.34 286.75 68.453 294.695
 60.504 c 302.645 52.559 315.531 52.559 323.477 60.504 c h
323.477 60.504 m f
0.870588 0.643137 0.180392 rg
309.129 288.773 m 307.992 288.773 306.887 288.891 305.805 289.066 c 315.461
 290.66 322.832 299.023 322.832 309.129 c 322.832 319.234 315.461 327.598
 305.805 329.191 c 306.887 329.367 307.996 329.484 309.129 329.484 c 320.371
 329.484 329.484 320.371 329.484 309.129 c 329.484 297.887 320.371 288.773
 309.129 288.773 c h
309.129 288.773 m f
0.203922 0.317647 0.54902 rg
309.129 54.516 m 307.992 54.516 306.887 54.633 305.805 54.812 c 315.461
 56.402 322.832 64.766 322.832 74.871 c 322.832 84.977 315.461 93.34 305.805
 94.934 c 306.887 95.109 307.996 95.227 309.129 95.227 c 320.371 95.227 
329.484 86.113 329.484 74.871 c 329.484 63.629 320.371 54.516 309.129 54.516
 c h
309.129 54.516 m f
0.65098 0.439216 0.776471 rg
74.871 95.227 m 76.008 95.227 77.113 95.109 78.199 94.934 c 68.543 93.34
 61.168 84.977 61.168 74.871 c 61.168 64.766 68.543 56.402 78.199 54.812
 c 77.113 54.633 76.008 54.516 74.871 54.516 c 63.629 54.516 54.516 63.633
 54.516 74.871 c 54.516 86.113 63.629 95.227 74.871 95.227 c h
74.871 95.227 m f
1 g
74.871 329.484 m 76.008 329.484 77.113 329.367 78.199 329.188 c 68.543 
327.598 61.168 319.234 61.168 309.129 c 61.168 299.023 68.543 290.66 78.199
 289.066 c 77.113 288.891 76.008 288.773 74.871 288.773 c 63.629 288.773
 54.516 297.887 54.516 309.129 c 54.516 320.371 63.629 329.484 74.871 329.484
 c h
74.871 329.484 m f
0.411765 0.0196078 0.537255 rg
74.871 98.227 m 61.996 98.227 51.516 87.75 51.516 74.871 c 51.516 61.992
 61.996 51.516 74.871 51.516 c 87.75 51.516 98.227 61.992 98.227 74.871 
c 98.227 87.75 87.75 98.227 74.871 98.227 c h
74.871 57.516 m 65.301 57.516 57.516 65.301 57.516 74.871 c 57.516 84.441
 65.301 92.227 74.871 92.227 c 84.441 92.227 92.227 84.441 92.227 74.871
 c 92.227 65.301 84.441 57.516 74.871 57.516 c h
74.871 57.516 m f
74.871 332.484 m 61.996 332.484 51.516 322.008 51.516 309.129 c 51.516 
296.25 61.996 285.773 74.871 285.773 c 87.75 285.773 98.227 296.25 98.227
 309.129 c 98.227 322.008 87.75 332.484 74.871 332.484 c h
74.871 291.773 m 65.301 291.773 57.516 299.559 57.516 309.129 c 57.516 
318.699 65.301 326.484 74.871 326.484 c 84.441 326.484 92.227 318.699 92.227
 309.129 c 92.227 299.559 84.441 291.773 74.871 291.773 c h
74.871 291.773 m f
309.129 98.227 m 296.25 98.227 285.773 87.75 285.773 74.871 c 285.773 61.992
 296.25 51.516 309.129 51.516 c 322.008 51.516 332.484 61.992 332.484 74.871
 c 332.484 87.75 322.008 98.227 309.129 98.227 c h
309.129 57.516 m 299.559 57.516 291.773 65.301 291.773 74.871 c 291.773
 84.441 299.559 92.227 309.129 92.227 c 318.699 92.227 326.484 84.441 326.484
 74.871 c 326.484 65.301 318.699 57.516 309.129 57.516 c h
309.129 57.516 m f
309.129 332.484 m 296.25 332.484 285.773 322.008 285.773 309.129 c 285.773
 296.25 296.25 285.773 309.129 285.773 c 322.008 285.773 332.484 296.25 
332.484 309.129 c 332.484 322.008 322.008 332.484 309.129 332.484 c h
309.129 291.773 m 299.559 291.773 291.773 299.559 291.773 309.129 c 291.773
 318.699 299.559 326.484 309.129 326.484 c 318.699 326.484 326.484 318.699
 326.484 309.129 c 326.484 299.559 318.699 291.773 309.129 291.773 c h
309.129 291.773 m f
192 360.645 m 190.344 360.645 189 359.301 189 357.645 c 189 26.355 l 189
 24.699 190.344 23.355 192 23.355 c 193.656 23.355 195 24.699 195 26.355
 c 195 357.645 l 195 359.301 193.656 360.645 192 360.645 c h
192 360.645 m f
357.645 195 m 26.355 195 l 24.699 195 23.355 193.656 23.355 192 c 23.355
 190.344 24.699 189 26.355 189 c 357.645 189 l 359.301 189 360.645 190.344
 360.645 192 c 360.645 193.656 359.301 195 357.645 195 c h
357.645 195 m f
0.988235 0.760784 0.298039 rg
378 192 m 378 203.242 368.887 212.355 357.645 212.355 c 346.402 212.355
 337.289 203.242 337.289 192 c 337.289 180.758 346.402 171.645 357.645 171.645
 c 368.887 171.645 378 180.758 378 192 c h
378 192 m f
0.533333 0.321569 0.658824 rg
46.711 192 m 46.711 203.242 37.598 212.355 26.355 212.355 c 15.113 212.355
 6 203.242 6 192 c 6 180.758 15.113 171.645 26.355 171.645 c 37.598 171.645
 46.711 180.758 46.711 192 c h
46.711 192 m f
0.956863 0.937255 0.929412 rg
212.355 357.645 m 212.355 368.887 203.242 378 192 378 c 180.758 378 171.645
 368.887 171.645 357.645 c 171.645 346.402 180.758 337.289 192 337.289 c
 203.242 337.289 212.355 346.402 212.355 357.645 c h
212.355 357.645 m f
0.321569 0.435294 0.666667 rg
193.496 6.07 m 204.703 6.926 213.098 16.703 212.242 27.914 c 211.391 39.121
 201.609 47.516 190.402 46.66 c 179.195 45.805 170.801 36.027 171.656 24.82
 c 172.512 13.609 182.289 5.219 193.496 6.07 c h
193.496 6.07 m f
0.870588 0.643137 0.180392 rg
357.645 171.645 m 356.508 171.645 355.402 171.762 354.32 171.941 c 363.977
 173.531 371.348 181.895 371.348 192 c 371.348 202.105 363.977 210.469 354.32
 212.062 c 355.402 212.238 356.508 212.355 357.645 212.355 c 368.887 212.355
 378 203.242 378 192 c 378 180.762 368.887 171.645 357.645 171.645 c h
357.645 171.645 m f
0.65098 0.439216 0.776471 rg
26.355 212.355 m 27.492 212.355 28.598 212.238 29.68 212.059 c 20.023 210.469
 12.652 202.105 12.652 192 c 12.652 181.895 20.023 173.531 29.684 171.941
 c 28.598 171.762 27.492 171.645 26.355 171.645 c 15.113 171.645 6 180.758
 6 192 c 6 203.242 15.113 212.355 26.355 212.355 c h
26.355 212.355 m f
0.411765 0.0196078 0.537255 rg
26.355 215.355 m 13.477 215.355 3 204.879 3 192 c 3 179.121 13.477 168.645
 26.355 168.645 c 39.234 168.645 49.711 179.121 49.711 192 c 49.711 204.879
 39.234 215.355 26.355 215.355 c h
26.355 174.645 m 16.785 174.645 9 182.43 9 192 c 9 201.57 16.785 209.355
 26.355 209.355 c 35.926 209.355 43.711 201.57 43.711 192 c 43.711 182.43
 35.926 174.645 26.355 174.645 c h
26.355 174.645 m f
192 380.988 m 186.02 380.988 180.039 378.711 175.484 374.16 c 166.379 365.051
 166.379 350.234 175.484 341.129 c 184.59 332.023 199.41 332.023 208.516
 341.129 c 217.621 350.234 217.621 365.051 208.516 374.16 c 203.961 378.711
 197.98 380.988 192 380.988 c h
192 340.297 m 187.555 340.297 183.109 341.988 179.727 345.371 c 172.961
 352.137 172.961 363.148 179.727 369.918 c 186.492 376.68 197.504 376.68
 204.273 369.918 c 211.039 363.148 211.039 352.137 204.273 345.371 c 200.891
 341.988 196.445 340.297 192 340.297 c h
192 340.297 m f
192 49.711 m 179.121 49.711 168.645 39.234 168.645 26.355 c 168.645 13.48
 179.121 3 192 3 c 204.879 3 215.355 13.477 215.355 26.355 c 215.355 39.234
 204.879 49.711 192 49.711 c h
192 9 m 182.43 9 174.645 16.785 174.645 26.355 c 174.645 35.926 182.43 
43.711 192 43.711 c 201.57 43.711 209.355 35.926 209.355 26.355 c 209.355
 16.785 201.57 9 192 9 c h
192 9 m f
357.645 215.355 m 344.766 215.355 334.289 204.879 334.289 192 c 334.289
 179.121 344.766 168.645 357.645 168.645 c 370.523 168.645 381 179.121 381
 192 c 381 204.879 370.523 215.355 357.645 215.355 c h
357.645 174.645 m 348.074 174.645 340.289 182.43 340.289 192 c 340.289 
201.57 348.074 209.355 357.645 209.355 c 367.215 209.355 375 201.57 375 
192 c 375 182.43 367.215 174.645 357.645 174.645 c h
357.645 174.645 m f
0.533333 0.321569 0.658824 rg
114.223 135.82 155.555 144.75 re f
0.415686 0.203922 0.541176 rg
259.277 135.82 10.5 144.75 re f
0.65098 0.439216 0.776471 rg
114.223 135.82 10.5 144.75 re f
0.411765 0.0196078 0.537255 rg
269.777 283.57 m 114.223 283.57 l 112.566 283.57 111.223 282.227 111.223
 280.57 c 111.223 135.82 l 111.223 134.164 112.566 132.82 114.223 132.82
 c 269.777 132.82 l 271.434 132.82 272.777 134.164 272.777 135.82 c 272.777
 280.57 l 272.777 282.227 271.434 283.57 269.777 283.57 c h
117.223 277.57 m 266.777 277.57 l 266.777 138.82 l 117.223 138.82 l h
117.223 277.57 m f
0.956863 0.937255 0.929412 rg
136.926 135.82 110.148 99.344 re f
0.411765 0.0196078 0.537255 rg
247.074 238.164 m 136.926 238.164 l 135.27 238.164 133.926 236.82 133.926
 235.164 c 133.926 135.82 l 133.926 134.164 135.27 132.82 136.926 132.82
 c 247.074 132.82 l 248.73 132.82 250.074 134.164 250.074 135.82 c 250.074
 235.164 l 250.074 236.82 248.73 238.164 247.074 238.164 c h
139.926 232.164 m 244.074 232.164 l 244.074 138.82 l 139.926 138.82 l h
139.926 232.164 m f
0.533333 0.321569 0.658824 rg
267.613 174.523 m 257.172 174.523 248.711 166.062 248.711 155.621 c 248.711
 149.887 l 286.516 149.887 l 286.516 155.621 l 286.516 166.062 278.055 174.523
 267.613 174.523 c h
267.613 174.523 m f
154.195 174.523 m 143.754 174.523 135.289 166.062 135.289 155.621 c 135.289
 149.887 l 173.098 149.887 l 173.098 155.621 l 173.098 166.062 164.633 174.523
 154.195 174.523 c h
154.195 174.523 m f
192 174.523 m 181.559 174.523 173.098 166.062 173.098 155.621 c 173.098
 149.887 l 210.902 149.887 l 210.902 155.621 l 210.902 166.062 202.441 174.523
 192 174.523 c h
192 174.523 m f
229.805 174.523 m 219.367 174.523 210.902 166.062 210.902 155.621 c 210.902
 149.887 l 248.711 149.887 l 248.711 155.621 l 248.711 166.062 240.246 174.523
 229.805 174.523 c h
229.805 174.523 m f
0.411765 0.0196078 0.537255 rg
154.195 177.523 m 142.117 177.523 132.289 167.699 132.289 155.621 c 132.289
 149.887 l 132.289 148.23 133.633 146.887 135.289 146.887 c 173.098 146.887
 l 174.754 146.887 176.098 148.23 176.098 149.887 c 176.098 155.621 l 176.098
 167.699 166.273 177.523 154.195 177.523 c h
138.289 152.887 m 138.289 155.621 l 138.289 164.391 145.422 171.523 154.195
 171.523 c 162.965 171.523 170.098 164.391 170.098 155.621 c 170.098 152.887
 l h
138.289 152.887 m f
192 177.523 m 179.922 177.523 170.098 167.699 170.098 155.621 c 170.098
 149.887 l 170.098 148.23 171.441 146.887 173.098 146.887 c 210.902 146.887
 l 212.559 146.887 213.902 148.23 213.902 149.887 c 213.902 155.621 l 213.902
 167.699 204.078 177.523 192 177.523 c h
176.098 152.887 m 176.098 155.621 l 176.098 164.391 183.23 171.523 192 
171.523 c 200.77 171.523 207.902 164.391 207.902 155.621 c 207.902 152.887
 l h
176.098 152.887 m f
229.805 177.523 m 217.727 177.523 207.902 167.699 207.902 155.621 c 207.902
 149.887 l 207.902 148.23 209.246 146.887 210.902 146.887 c 248.711 146.887
 l 250.367 146.887 251.711 148.23 251.711 149.887 c 251.711 155.621 l 251.711
 167.699 241.883 177.523 229.805 177.523 c h
213.902 152.887 m 213.902 155.621 l 213.902 164.391 221.035 171.523 229.805
 171.523 c 238.574 171.523 245.711 164.391 245.711 155.621 c 245.711 152.887
 l h
213.902 152.887 m f
267.613 177.523 m 255.535 177.523 245.711 167.699 245.711 155.621 c 245.711
 149.887 l 245.711 148.23 247.055 146.887 248.711 146.887 c 286.516 146.887
 l 288.172 146.887 289.516 148.23 289.516 149.887 c 289.516 155.621 l 289.516
 167.699 279.691 177.523 267.613 177.523 c h
251.711 152.887 m 251.711 155.621 l 251.711 164.391 258.844 171.523 267.613
 171.523 c 276.383 171.523 283.516 164.391 283.516 155.621 c 283.516 152.887
 l h
251.711 152.887 m f
0.533333 0.321569 0.658824 rg
259.945 103.43 m 124.055 103.43 l 117.406 103.43 111.504 107.688 109.406
 113.996 c 97.48 149.887 l 286.516 149.887 l 274.59 113.996 l 272.496 107.688
 266.594 103.43 259.945 103.43 c h
259.945 103.43 m f
116.387 174.523 m 105.945 174.523 97.484 166.062 97.484 155.621 c 97.484
 149.887 l 135.289 149.887 l 135.289 155.621 l 135.289 166.062 126.828 174.523
 116.387 174.523 c h
116.387 174.523 m f
0.415686 0.203922 0.541176 rg
274.516 149.887 m 274.516 155.621 l 274.516 163.961 269.109 171.027 261.613
 173.535 c 263.5 174.168 265.512 174.523 267.613 174.523 c 278.055 174.523
 286.516 166.062 286.516 155.621 c 286.516 149.887 l h
274.516 149.887 m f
0.65098 0.439216 0.776471 rg
109.484 149.887 m 109.484 155.621 l 109.484 163.961 114.891 171.027 122.387
 173.535 c 120.5 174.168 118.488 174.523 116.387 174.523 c 105.945 174.523
 97.484 166.062 97.484 155.621 c 97.484 149.887 l h
109.484 149.887 m f
0.415686 0.203922 0.541176 rg
274.59 113.996 m 272.496 107.688 266.594 103.43 259.945 103.43 c 247.945
 103.43 l 254.594 103.43 260.496 107.688 262.59 113.996 c 274.516 149.887
 l 286.516 149.887 l h
274.59 113.996 m f
0.65098 0.439216 0.776471 rg
109.41 113.996 m 111.504 107.688 117.406 103.43 124.059 103.43 c 136.059
 103.43 l 129.406 103.43 123.504 107.688 121.41 113.996 c 109.484 149.887
 l 97.484 149.887 l h
109.41 113.996 m f
0.411765 0.0196078 0.537255 rg
286.516 152.887 m 97.484 152.887 l 96.52 152.887 95.613 152.422 95.051 
151.641 c 94.488 150.859 94.332 149.855 94.637 148.941 c 106.559 113.051
 l 109.07 105.5 116.102 100.426 124.055 100.426 c 259.945 100.426 l 267.898
 100.426 274.93 105.5 277.441 113.051 c 289.363 148.941 l 289.668 149.852
 289.512 150.859 288.949 151.641 c 288.387 152.426 287.48 152.887 286.516
 152.887 c h
101.641 146.887 m 282.359 146.887 l 271.746 114.941 l 270.055 109.848 265.312
 106.43 259.945 106.43 c 124.055 106.43 l 118.688 106.43 113.949 109.848
 112.254 114.941 c h
101.641 146.887 m f
116.387 177.523 m 104.309 177.523 94.484 167.699 94.484 155.621 c 94.484
 149.887 l 94.484 148.23 95.828 146.887 97.484 146.887 c 135.289 146.887
 l 136.945 146.887 138.289 148.23 138.289 149.887 c 138.289 155.621 l 138.289
 167.699 128.465 177.523 116.387 177.523 c h
100.484 152.887 m 100.484 155.621 l 100.484 164.391 107.617 171.523 116.387
 171.523 c 125.156 171.523 132.289 164.391 132.289 155.621 c 132.289 152.887
 l h
100.484 152.887 m f
124.723 208.016 m 123.066 208.016 121.723 206.672 121.723 205.016 c 121.723
 187.016 l 121.723 185.359 123.066 184.016 124.723 184.016 c 126.379 184.016
 127.723 185.359 127.723 187.016 c 127.723 205.016 l 127.723 206.672 126.379
 208.016 124.723 208.016 c h
124.723 208.016 m f
Q Q
showpage
%%Trailer
end
%%EOF
