%!PS-Adobe-3.0 EPSF-3.0
%%Creator: cairo 1.16.0 (https://cairographics.org)
%%CreationDate: Fri Jan 10 07:39:08 2020
%%Pages: 1
%%DocumentData: Clean7Bit
%%LanguageLevel: 2
%%BoundingBox: 44 3 340 381
%%EndComments
%%BeginProlog
50 dict begin
/q { gsave } bind def
/Q { grestore } bind def
/cm { 6 array astore concat } bind def
/w { setlinewidth } bind def
/J { setlinecap } bind def
/j { setlinejoin } bind def
/M { setmiterlimit } bind def
/d { setdash } bind def
/m { moveto } bind def
/l { lineto } bind def
/c { curveto } bind def
/h { closepath } bind def
/re { exch dup neg 3 1 roll 5 3 roll moveto 0 rlineto
      0 exch rlineto 0 rlineto closepath } bind def
/S { stroke } bind def
/f { fill } bind def
/f* { eofill } bind def
/n { newpath } bind def
/W { clip } bind def
/W* { eoclip } bind def
/BT { } bind def
/ET { } bind def
/BDC { mark 3 1 roll /BDC pdfmark } bind def
/EMC { mark /EMC pdfmark } bind def
/cairo_store_point { /cairo_point_y exch def /cairo_point_x exch def } def
/Tj { show currentpoint cairo_store_point } bind def
/TJ {
  {
    dup
    type /stringtype eq
    { show } { -0.001 mul 0 cairo_font_matrix dtransform rmoveto } ifelse
  } forall
  currentpoint cairo_store_point
} bind def
/cairo_selectfont { cairo_font_matrix aload pop pop pop 0 0 6 array astore
    cairo_font exch selectfont cairo_point_x cairo_point_y moveto } bind def
/Tf { pop /cairo_font exch def /cairo_font_matrix where
      { pop cairo_selectfont } if } bind def
/Td { matrix translate cairo_font_matrix matrix concatmatrix dup
      /cairo_font_matrix exch def dup 4 get exch 5 get cairo_store_point
      /cairo_font where { pop cairo_selectfont } if } bind def
/Tm { 2 copy 8 2 roll 6 array astore /cairo_font_matrix exch def
      cairo_store_point /cairo_font where { pop cairo_selectfont } if } bind def
/g { setgray } bind def
/rg { setrgbcolor } bind def
/d1 { setcachedevice } bind def
/cairo_data_source {
  CairoDataIndex CairoData length lt
    { CairoData CairoDataIndex get /CairoDataIndex CairoDataIndex 1 add def }
    { () } ifelse
} def
/cairo_flush_ascii85_file { cairo_ascii85_file status { cairo_ascii85_file flushfile } if } def
/cairo_image { image cairo_flush_ascii85_file } def
/cairo_imagemask { imagemask cairo_flush_ascii85_file } def
%%EndProlog
%%BeginSetup
%%EndSetup
%%Page: 1 1
%%BeginPageSetup
%%PageBoundingBox: 44 3 340 381
%%EndPageSetup
q 44 3 296 378 rectclip
1 0 0 -1 0 384 cm q
0.988235 0.760784 0.298039 rg
252.492 42.242 m 267.273 42.242 278.922 54.84 277.762 69.574 c 273.445 
124.566 l 110.555 124.566 l 106.238 69.574 l 105.082 54.84 116.727 42.242
 131.508 42.242 c 131.508 39.738 l 131.508 39.215 131.523 38.691 131.555
 38.176 c 132.281 26.234 142.086 16.828 153.996 15.746 c 261.348 6 l h
252.492 42.242 m f
0.870588 0.643137 0.180392 rg
253.176 42.277 m 261.973 46.938 267.762 56.715 266.934 67.668 c 262.617
 124.566 l 273.445 124.566 l 277.766 69.574 l 278.902 55.07 267.629 42.664
 253.176 42.277 c h
253.176 42.277 m f
0.988235 0.878431 0.415686 rg
130.824 42.277 m 122.027 46.938 116.238 56.715 117.066 67.668 c 121.383
 124.566 l 110.555 124.566 l 106.238 69.574 l 105.098 55.07 116.371 42.664
 130.824 42.277 c h
130.824 42.277 m f
0.411765 0.0196078 0.537255 rg
273.445 127.566 m 110.555 127.566 l 108.988 127.566 107.688 126.363 107.562
 124.801 c 103.246 69.809 l 102.629 61.957 105.344 54.133 110.691 48.348
 c 115.359 43.301 121.727 40.129 128.508 39.402 c 128.516 38.93 128.531 
38.457 128.559 37.992 c 129.359 24.836 140.18 13.988 153.723 12.758 c 261.078
 3.012 l 262.031 2.934 262.988 3.309 263.621 4.043 c 264.254 4.777 264.492
 5.773 264.262 6.711 c 256.25 39.496 l 262.746 40.371 268.812 43.488 273.305
 48.348 c 278.656 54.129 281.367 61.953 280.754 69.809 c 276.434 124.801
 l 276.312 126.363 275.012 127.566 273.445 127.566 c h
113.328 121.566 m 270.672 121.566 l 274.773 69.344 l 275.266 63.059 273.18
 57.051 268.902 52.422 c 264.621 47.793 258.797 45.246 252.492 45.246 c 
251.57 45.246 250.699 44.82 250.133 44.098 c 249.562 43.371 249.359 42.426
 249.578 41.531 c 257.438 9.367 l 154.266 18.734 l 143.648 19.699 135.172
 28.137 134.547 38.359 c 134.52 38.816 134.508 39.277 134.508 39.738 c 134.508
 42.246 l 134.508 43.902 133.164 45.246 131.508 45.246 c 125.203 45.246 
119.375 47.793 115.098 52.422 c 110.816 57.051 108.734 63.059 109.227 69.344
 c h
113.328 121.566 m f
0.321569 0.435294 0.666667 rg
156.703 240.797 m 156.703 174.262 l 227.613 174.262 l 227.613 240.797 l
 291.637 240.797 l 316.438 240.828 336.516 261.195 336.484 285.996 c 336.484
 378 l 47.516 378 l 47.516 285.625 l 47.547 260.824 67.793 240.742 92.594
 240.777 c h
156.703 240.797 m f
1 0.623529 0.439216 rg
156.703 248.25 m 156.703 267.652 172.43 283.375 191.828 283.375 c 192.488
 283.375 l 211.887 283.375 227.613 267.648 227.613 248.25 c 227.613 174.262
 l 156.703 174.262 l h
156.703 248.25 m f
0.411765 0.0196078 0.537255 rg
192.492 286.375 m 191.832 286.375 l 170.809 286.375 153.703 269.273 153.703
 248.25 c 153.703 174.262 l 153.703 172.605 155.051 171.262 156.703 171.262
 c 227.613 171.262 l 229.27 171.262 230.613 172.605 230.613 174.262 c 230.613
 248.25 l 230.613 269.273 213.512 286.375 192.492 286.375 c h
159.703 177.262 m 159.703 248.25 l 159.703 265.965 174.117 280.375 191.832
 280.375 c 192.492 280.375 l 210.203 280.375 224.617 265.965 224.617 248.25
 c 224.617 177.262 l h
159.703 177.262 m f
0.203922 0.317647 0.54902 rg
291.637 240.797 m 275.883 240.797 l 300.684 240.828 320.766 261.176 320.734
 285.973 c 320.734 378 l 336.484 378 l 336.484 285.996 l 336.516 261.195
 316.438 240.828 291.637 240.797 c h
291.637 240.797 m f
0.439216 0.552941 0.784314 rg
92.594 240.777 m 108.348 240.797 l 83.547 240.766 63.297 260.844 63.266
 285.645 c 63.266 378 l 47.516 378 l 47.516 285.625 l 47.547 260.824 67.793
 240.742 92.594 240.777 c h
92.594 240.777 m f
0.411765 0.0196078 0.537255 rg
103.301 379.422 m 101.645 379.422 100.301 378.078 100.301 376.422 c 100.301
 335.43 l 100.301 333.777 101.645 332.43 103.301 332.43 c 104.957 332.43
 106.301 333.777 106.301 335.43 c 106.301 376.422 l 106.301 378.082 104.957
 379.422 103.301 379.422 c h
103.301 379.422 m f
280.699 379.422 m 279.043 379.422 277.699 378.078 277.699 376.422 c 277.699
 335.43 l 277.699 333.777 279.043 332.43 280.699 332.43 c 282.355 332.43
 283.699 333.777 283.699 335.43 c 283.699 376.422 l 283.699 378.082 282.355
 379.422 280.699 379.422 c h
280.699 379.422 m f
336.484 381 m 47.516 381 l 45.859 381 44.516 379.656 44.516 378 c 44.516
 285.625 l 44.531 272.828 49.551 260.805 58.652 251.762 c 67.727 242.742
 79.758 237.777 92.535 237.777 c 92.598 237.777 l 153.703 237.797 l 153.703
 174.266 l 153.703 172.609 155.051 171.266 156.703 171.266 c 227.613 171.266
 l 229.27 171.266 230.613 172.609 230.613 174.266 c 230.613 237.797 l 291.637
 237.797 l 304.426 237.816 316.453 242.855 325.508 251.996 c 334.539 261.117
 339.504 273.195 339.484 286 c 339.484 378 l 339.484 379.656 338.145 381
 336.484 381 c h
50.516 375 m 333.484 375 l 333.484 285.996 l 333.5 274.777 329.152 264.207
 321.242 256.215 c 313.324 248.223 302.809 243.809 291.633 243.797 c 227.613
 243.797 l 225.957 243.797 224.613 242.453 224.613 240.797 c 224.613 177.262
 l 159.703 177.262 l 159.703 240.797 l 159.703 241.59 159.387 242.355 158.824
 242.918 c 158.262 243.48 157.5 243.797 156.703 243.797 c 92.594 243.777
 l 92.574 243.777 92.559 243.777 92.539 243.777 c 81.352 243.777 70.824 
248.121 62.883 256.016 c 54.922 263.926 50.527 274.441 50.516 285.629 c 
h
50.516 375 m f
1 0.741176 0.556863 rg
121.781 113.566 m 116.762 113.566 l 103.789 113.566 93.273 124.082 93.273
 137.055 c 93.273 150.027 103.789 160.539 116.762 160.539 c 121.781 160.539
 l h
121.781 113.566 m f
0.882353 0.505882 0.321569 rg
267.367 113.566 m 262.352 113.566 l 262.352 160.539 l 267.367 160.539 l
 280.34 160.539 290.855 150.027 290.855 137.055 c 290.855 124.082 280.34
 113.566 267.367 113.566 c h
267.367 113.566 m f
1 0.623529 0.439216 rg
192.066 232.965 m 153.25 232.965 121.781 201.09 121.781 161.77 c 121.781
 112.48 l 121.781 73.156 153.246 41.281 192.066 41.281 c 230.883 41.281 
262.352 73.156 262.352 112.48 c 262.352 161.77 l 262.352 201.09 230.883 
232.965 192.066 232.965 c h
192.066 232.965 m f
0.882353 0.505882 0.321569 rg
192.066 41.281 m 189.363 41.281 186.703 41.449 184.078 41.75 c 219.133 
45.77 246.375 75.895 246.375 112.477 c 246.375 161.766 l 246.375 198.352
 219.133 228.477 184.078 232.492 c 186.703 232.797 189.363 232.965 192.066
 232.965 c 230.883 232.965 262.352 201.09 262.352 161.766 c 262.352 112.477
 l 262.352 73.156 230.883 41.281 192.066 41.281 c h
192.066 41.281 m f
1 0.741176 0.556863 rg
192.066 41.281 m 194.766 41.281 197.43 41.449 200.055 41.75 c 165 45.77
 137.754 75.895 137.754 112.477 c 137.754 161.766 l 137.754 198.352 165 
228.477 200.055 232.492 c 197.43 232.797 194.77 232.965 192.066 232.965 
c 153.25 232.965 121.781 201.09 121.781 161.766 c 121.781 112.477 l 121.781
 73.156 153.246 41.281 192.066 41.281 c h
192.066 41.281 m f
0.411765 0.0196078 0.537255 rg
192.066 235.965 m 151.656 235.965 118.781 202.684 118.781 161.77 c 118.781
 112.48 l 118.781 71.566 151.656 38.281 192.066 38.281 c 232.473 38.281 
265.352 71.566 265.352 112.48 c 265.352 161.77 l 265.352 202.68 232.473 
235.965 192.066 235.965 c h
192.066 44.281 m 154.965 44.281 124.781 74.875 124.781 112.48 c 124.781
 161.77 l 124.781 199.371 154.965 229.965 192.066 229.965 c 229.168 229.965
 259.352 199.371 259.352 161.77 c 259.352 112.48 l 259.352 74.875 229.168
 44.281 192.066 44.281 c h
192.066 44.281 m f
121.781 163.539 m 116.762 163.539 l 102.156 163.539 90.273 151.656 90.273
 137.055 c 90.273 122.449 102.156 110.566 116.762 110.566 c 121.781 110.566
 l 123.438 110.566 124.781 111.91 124.781 113.566 c 124.781 160.539 l 124.781
 162.199 123.438 163.539 121.781 163.539 c h
116.762 116.566 m 105.465 116.566 96.273 125.758 96.273 137.055 c 96.273
 148.352 105.465 157.539 116.762 157.539 c 118.781 157.539 l 118.781 116.566
 l h
116.762 116.566 m f
267.367 163.539 m 262.352 163.539 l 260.695 163.539 259.352 162.195 259.352
 160.539 c 259.352 113.566 l 259.352 111.91 260.695 110.566 262.352 110.566
 c 267.367 110.566 l 281.973 110.566 293.855 122.449 293.855 137.055 c 293.855
 151.656 281.973 163.539 267.367 163.539 c h
265.352 157.539 m 267.367 157.539 l 278.664 157.539 287.855 148.352 287.855
 137.055 c 287.855 125.758 278.664 116.566 267.367 116.566 c 265.352 116.566
 l h
265.352 157.539 m f
63.266 327.379 m 61.609 327.379 60.266 326.035 60.266 324.379 c 60.266 
305.465 l 60.266 303.809 61.609 302.465 63.266 302.465 c 64.922 302.465 
66.266 303.809 66.266 305.465 c 66.266 324.379 l 66.266 326.035 64.922 327.379
 63.266 327.379 c h
63.266 327.379 m f
0.956863 0.937255 0.929412 rg
151.359 340.902 m 132.129 340.902 l 128.254 351.188 l 127.539 352.926 125.879
 353.957 124.137 353.957 c 123.586 353.957 123.109 353.879 122.637 353.723
 c 120.34 352.852 119.234 350.32 120.023 348.023 c 137.512 301.414 l 138.227
 299.672 139.965 298.566 141.707 298.645 c 143.527 298.566 145.188 299.676
 145.902 301.414 c 163.391 348.023 l 164.18 350.32 163.074 352.852 160.777
 353.723 c 160.383 353.879 159.828 353.957 159.273 353.957 c 157.531 353.957
 155.871 352.93 155.238 351.188 c h
148.117 332.195 m 141.707 315.18 l 135.297 332.195 l h
148.117 332.195 m f
174.234 349.605 m 174.234 302.918 l 174.234 300.465 176.133 298.566 178.586
 298.566 c 187.926 298.566 l 203.199 298.566 215.543 310.988 215.543 326.18
 c 215.543 341.535 203.199 353.957 187.926 353.957 c 178.586 353.957 l 176.133
 353.957 174.234 351.98 174.234 349.605 c h
183.02 345.176 m 187.926 345.176 l 198.371 345.098 206.758 336.707 206.758
 326.184 c 206.758 315.816 198.367 307.348 187.926 307.348 c 183.02 307.348
 l h
183.02 345.176 m f
221.895 340.188 m 223.32 338.449 225.93 338.211 227.672 339.633 c 231.152
 342.484 237.164 345.809 242.785 345.727 c 246.742 345.727 250.301 344.539
 252.676 342.801 c 255.051 341.059 256.078 339.082 256.078 337.102 c 256.078
 336.074 255.84 335.359 255.367 334.57 c 254.891 333.777 254.18 332.988 
252.992 332.199 c 250.695 330.691 246.82 329.348 242.152 328.477 c 241.992
 328.477 l 238.273 327.766 234.793 326.816 231.785 325.391 c 228.777 323.969
 226.164 321.988 224.426 319.223 c 223.238 317.32 222.605 315.105 222.605
 312.73 c 222.605 307.984 225.297 303.867 228.938 301.176 c 232.656 298.488
 237.48 296.984 242.625 296.984 c 250.223 296.984 255.84 300.703 259.875
 303.316 c 261.699 304.582 262.25 307.113 260.984 308.934 c 259.797 310.832
 257.266 311.387 255.367 310.121 c 251.332 307.43 247.453 305.055 242.625
 305.055 c 239.066 305.055 235.902 306.164 233.762 307.746 c 231.629 309.328
 230.758 311.07 230.758 312.73 c 230.758 313.684 230.914 314.316 231.309
 314.949 c 231.707 315.582 232.418 316.293 233.445 317.004 c 235.504 318.43
 239.066 319.695 243.336 320.488 c 243.496 320.488 l 247.531 321.277 251.25
 322.305 254.418 323.812 c 257.66 325.395 260.508 327.453 262.328 330.379
 c 263.516 332.277 264.227 334.652 264.227 337.105 c 264.227 342.168 261.379
 346.52 257.422 349.371 c 253.543 352.219 248.398 353.879 242.781 353.879
 c 234.234 353.801 227.035 349.527 222.523 345.969 c 220.785 344.539 220.547
 341.93 221.895 340.188 c h
221.895 340.188 m f
0.988235 0.760784 0.298039 rg
235.566 36.367 m 148.434 36.367 l 118.488 77.539 l 121.926 118.715 l 140.211
 81.168 l 145.09 73.309 153.008 67.824 162.082 66.02 c 181.832 62.09 202.164
 62.09 221.914 66.02 c 230.988 67.824 238.906 73.309 243.785 81.168 c 262.203
 118.715 l 265.508 77.539 l h
235.566 36.367 m f
0.411765 0.0196078 0.537255 rg
121.926 121.715 m 121.746 121.715 121.559 121.699 121.375 121.664 c 120.047
 121.414 119.051 120.309 118.938 118.965 c 116.617 91.141 l 116.477 89.488
 117.703 88.039 119.355 87.902 c 120.996 87.762 122.457 88.992 122.598 90.645
 c 124.012 107.59 l 137.52 79.855 l 137.566 79.766 137.613 79.676 137.668
 79.586 c 142.965 71.055 151.648 65.035 161.5 63.074 c 181.738 59.051 202.266
 59.051 222.504 63.074 c 232.355 65.035 241.043 71.051 246.336 79.586 c 
246.391 79.672 246.438 79.758 246.48 79.848 c 260.09 107.59 l 261.449 90.652
 l 261.582 89 263.012 87.758 264.68 87.902 c 266.332 88.035 267.562 89.48
 267.43 91.133 c 265.195 118.953 l 265.09 120.301 264.094 121.41 262.766
 121.66 c 261.434 121.91 260.109 121.25 259.512 120.035 c 241.164 82.629
 l 236.734 75.566 229.516 70.59 221.336 68.961 c 201.871 65.09 182.133 65.094
 162.672 68.961 c 154.492 70.59 147.277 75.562 142.848 82.625 c 124.625 
120.027 l 124.113 121.074 123.059 121.715 121.926 121.715 c h
121.926 121.715 m f
Q Q
showpage
%%Trailer
end
%%EOF
