%!PS-Adobe-3.0 EPSF-3.0
%%Creator: cairo 1.16.0 (https://cairographics.org)
%%CreationDate: Fri Jan 10 07:39:09 2020
%%Pages: 1
%%DocumentData: Clean7Bit
%%LanguageLevel: 2
%%BoundingBox: 87 3 297 381
%%EndComments
%%BeginProlog
50 dict begin
/q { gsave } bind def
/Q { grestore } bind def
/cm { 6 array astore concat } bind def
/w { setlinewidth } bind def
/J { setlinecap } bind def
/j { setlinejoin } bind def
/M { setmiterlimit } bind def
/d { setdash } bind def
/m { moveto } bind def
/l { lineto } bind def
/c { curveto } bind def
/h { closepath } bind def
/re { exch dup neg 3 1 roll 5 3 roll moveto 0 rlineto
      0 exch rlineto 0 rlineto closepath } bind def
/S { stroke } bind def
/f { fill } bind def
/f* { eofill } bind def
/n { newpath } bind def
/W { clip } bind def
/W* { eoclip } bind def
/BT { } bind def
/ET { } bind def
/BDC { mark 3 1 roll /BDC pdfmark } bind def
/EMC { mark /EMC pdfmark } bind def
/cairo_store_point { /cairo_point_y exch def /cairo_point_x exch def } def
/Tj { show currentpoint cairo_store_point } bind def
/TJ {
  {
    dup
    type /stringtype eq
    { show } { -0.001 mul 0 cairo_font_matrix dtransform rmoveto } ifelse
  } forall
  currentpoint cairo_store_point
} bind def
/cairo_selectfont { cairo_font_matrix aload pop pop pop 0 0 6 array astore
    cairo_font exch selectfont cairo_point_x cairo_point_y moveto } bind def
/Tf { pop /cairo_font exch def /cairo_font_matrix where
      { pop cairo_selectfont } if } bind def
/Td { matrix translate cairo_font_matrix matrix concatmatrix dup
      /cairo_font_matrix exch def dup 4 get exch 5 get cairo_store_point
      /cairo_font where { pop cairo_selectfont } if } bind def
/Tm { 2 copy 8 2 roll 6 array astore /cairo_font_matrix exch def
      cairo_store_point /cairo_font where { pop cairo_selectfont } if } bind def
/g { setgray } bind def
/rg { setrgbcolor } bind def
/d1 { setcachedevice } bind def
/cairo_data_source {
  CairoDataIndex CairoData length lt
    { CairoData CairoDataIndex get /CairoDataIndex CairoDataIndex 1 add def }
    { () } ifelse
} def
/cairo_flush_ascii85_file { cairo_ascii85_file status { cairo_ascii85_file flushfile } if } def
/cairo_image { image cairo_flush_ascii85_file } def
/cairo_imagemask { imagemask cairo_flush_ascii85_file } def
%%EndProlog
%%BeginSetup
%%EndSetup
%%Page: 1 1
%%BeginPageSetup
%%PageBoundingBox: 87 3 297 381
%%EndPageSetup
q 87 3 210 378 rectclip
1 0 0 -1 0 384 cm q
0.321569 0.435294 0.666667 rg
293.531 378 m 90.469 378 l 90.469 216.734 l 192 147.074 l 293.531 216.734
 l h
293.531 378 m f
0.203922 0.317647 0.54902 rg
279.598 207.176 m 279.598 378 l 293.531 378 l 293.531 216.734 l h
279.598 207.176 m f
0.439216 0.552941 0.784314 rg
104.402 207.176 m 104.402 378 l 90.469 378 l 90.469 216.734 l h
104.402 207.176 m f
0.956863 0.937255 0.929412 rg
265.52 282.105 m 118.48 282.105 l 116.379 282.105 114.676 280.402 114.676
 278.301 c 114.676 237.965 l 114.676 235.863 116.379 234.156 118.48 234.156
 c 265.52 234.156 l 267.621 234.156 269.324 235.863 269.324 237.965 c 269.324
 278.301 l 269.324 280.402 267.621 282.105 265.52 282.105 c h
265.52 282.105 m f
0.321569 0.435294 0.666667 rg
244.777 265.363 m 173.844 265.363 l 169.43 265.363 165.852 261.785 165.852
 257.371 c 165.852 252.957 169.43 249.383 173.844 249.383 c 244.777 249.383
 l 249.191 249.383 252.77 252.957 252.77 257.371 c 252.77 261.785 249.191
 265.363 244.777 265.363 c h
244.777 265.363 m f
0.411765 0.0196078 0.537255 rg
265.52 285.105 m 118.48 285.105 l 114.727 285.105 111.676 282.051 111.676
 278.301 c 111.676 237.965 l 111.676 234.211 114.727 231.156 118.48 231.156
 c 265.52 231.156 l 269.27 231.156 272.324 234.211 272.324 237.965 c 272.324
 278.301 l 272.324 282.051 269.273 285.105 265.52 285.105 c h
118.48 237.156 m 118.035 237.156 117.676 237.52 117.676 237.965 c 117.676
 278.301 l 117.676 278.742 118.035 279.105 118.48 279.105 c 265.52 279.105
 l 265.965 279.105 266.324 278.742 266.324 278.301 c 266.324 237.965 l 266.324
 237.52 265.965 237.156 265.52 237.156 c h
118.48 237.156 m f
244.777 268.363 m 173.844 268.363 l 167.785 268.363 162.855 263.43 162.855
 257.371 c 162.855 251.309 167.785 246.379 173.844 246.379 c 244.777 246.379
 l 250.84 246.379 255.77 251.309 255.77 257.371 c 255.77 263.43 250.84 268.363
 244.777 268.363 c h
173.844 252.379 m 171.09 252.379 168.852 254.617 168.852 257.371 c 168.852
 260.121 171.09 262.363 173.844 262.363 c 244.777 262.363 l 247.531 262.363
 249.77 260.121 249.77 257.371 c 249.77 254.617 247.531 252.379 244.777 
252.379 c h
173.844 252.379 m f
0.533333 0.321569 0.658824 rg
147.215 257.371 m 147.215 261.781 143.637 265.359 139.223 265.359 c 134.809
 265.359 131.23 261.781 131.23 257.371 c 131.23 252.957 134.809 249.379 
139.223 249.379 c 143.637 249.379 147.215 252.957 147.215 257.371 c h
147.215 257.371 m f
0.411765 0.0196078 0.537255 rg
139.223 268.363 m 133.16 268.363 128.23 263.43 128.23 257.371 c 128.23 
251.309 133.16 246.379 139.223 246.379 c 145.281 246.379 150.215 251.309
 150.215 257.371 c 150.215 263.43 145.281 268.363 139.223 268.363 c h
139.223 252.379 m 136.469 252.379 134.23 254.617 134.23 257.371 c 134.23
 260.121 136.469 262.363 139.223 262.363 c 141.973 262.363 144.215 260.121
 144.215 257.371 c 144.215 254.617 141.973 252.379 139.223 252.379 c h
139.223 252.379 m f
0.956863 0.937255 0.929412 rg
265.52 330.051 m 118.48 330.051 l 116.379 330.051 114.676 328.348 114.676
 326.246 c 114.676 285.91 l 114.676 283.809 116.379 282.105 118.48 282.105
 c 265.52 282.105 l 267.621 282.105 269.324 283.809 269.324 285.91 c 269.324
 326.246 l 269.324 328.348 267.621 330.051 265.52 330.051 c h
265.52 330.051 m f
0.321569 0.435294 0.666667 rg
244.777 313.309 m 173.844 313.309 l 169.43 313.309 165.852 309.73 165.852
 305.32 c 165.852 300.906 169.43 297.328 173.844 297.328 c 244.777 297.328
 l 249.191 297.328 252.77 300.906 252.77 305.32 c 252.77 309.73 249.191 
313.309 244.777 313.309 c h
244.777 313.309 m f
0.411765 0.0196078 0.537255 rg
265.52 333.051 m 118.48 333.051 l 114.727 333.051 111.676 330 111.676 326.246
 c 111.676 285.91 l 111.676 282.156 114.727 279.105 118.48 279.105 c 265.52
 279.105 l 269.27 279.105 272.324 282.156 272.324 285.91 c 272.324 326.246
 l 272.324 330 269.273 333.051 265.52 333.051 c h
118.48 285.105 m 118.035 285.105 117.676 285.465 117.676 285.91 c 117.676
 326.246 l 117.676 326.691 118.035 327.051 118.48 327.051 c 265.52 327.051
 l 265.965 327.051 266.324 326.691 266.324 326.246 c 266.324 285.91 l 266.324
 285.465 265.965 285.105 265.52 285.105 c h
118.48 285.105 m f
244.777 316.309 m 173.844 316.309 l 167.785 316.309 162.855 311.379 162.855
 305.32 c 162.855 299.258 167.785 294.328 173.844 294.328 c 244.777 294.328
 l 250.84 294.328 255.77 299.258 255.77 305.32 c 255.77 311.379 250.84 316.309
 244.777 316.309 c h
173.844 300.328 m 171.09 300.328 168.852 302.566 168.852 305.32 c 168.852
 308.07 171.09 310.309 173.844 310.309 c 244.777 310.309 l 247.531 310.309
 249.77 308.07 249.77 305.32 c 249.77 302.566 247.531 300.328 244.777 300.328
 c h
173.844 300.328 m f
0.533333 0.321569 0.658824 rg
147.215 305.316 m 147.215 309.73 143.637 313.309 139.223 313.309 c 134.809
 313.309 131.23 309.73 131.23 305.316 c 131.23 300.906 134.809 297.328 139.223
 297.328 c 143.637 297.328 147.215 300.906 147.215 305.316 c h
147.215 305.316 m f
0.411765 0.0196078 0.537255 rg
139.223 316.309 m 133.16 316.309 128.23 311.379 128.23 305.32 c 128.23 
299.258 133.16 294.328 139.223 294.328 c 145.281 294.328 150.215 299.258
 150.215 305.32 c 150.215 311.379 145.281 316.309 139.223 316.309 c h
139.223 300.328 m 136.469 300.328 134.23 302.566 134.23 305.32 c 134.23
 308.07 136.469 310.309 139.223 310.309 c 141.973 310.309 144.215 308.07
 144.215 305.32 c 144.215 302.566 141.973 300.328 139.223 300.328 c h
139.223 300.328 m f
0.956863 0.937255 0.929412 rg
265.52 378 m 118.48 378 l 116.379 378 114.676 376.297 114.676 374.195 c
 114.676 333.859 l 114.676 331.758 116.379 330.051 118.48 330.051 c 265.52
 330.051 l 267.621 330.051 269.324 331.758 269.324 333.859 c 269.324 374.195
 l 269.324 376.297 267.621 378 265.52 378 c h
265.52 378 m f
0.321569 0.435294 0.666667 rg
244.777 361.258 m 173.844 361.258 l 169.43 361.258 165.852 357.68 165.852
 353.266 c 165.852 348.852 169.43 345.273 173.844 345.273 c 244.777 345.273
 l 249.191 345.273 252.77 348.852 252.77 353.266 c 252.77 357.68 249.191
 361.258 244.777 361.258 c h
244.777 361.258 m f
0.411765 0.0196078 0.537255 rg
265.52 381 m 118.48 381 l 114.727 381 111.676 377.949 111.676 374.195 c
 111.676 333.859 l 111.676 330.105 114.727 327.051 118.48 327.051 c 265.52
 327.051 l 269.27 327.051 272.324 330.105 272.324 333.859 c 272.324 374.195
 l 272.324 377.949 269.273 381 265.52 381 c h
118.48 333.051 m 118.035 333.051 117.676 333.414 117.676 333.859 c 117.676
 374.195 l 117.676 374.637 118.035 375 118.48 375 c 265.52 375 l 265.965
 375 266.324 374.637 266.324 374.195 c 266.324 333.859 l 266.324 333.414
 265.965 333.051 265.52 333.051 c h
118.48 333.051 m f
244.777 364.258 m 173.844 364.258 l 167.785 364.258 162.855 359.328 162.855
 353.266 c 162.855 347.203 167.785 342.273 173.844 342.273 c 244.777 342.273
 l 250.84 342.273 255.77 347.203 255.77 353.266 c 255.77 359.328 250.84 
364.258 244.777 364.258 c h
173.844 348.273 m 171.09 348.273 168.852 350.516 168.852 353.266 c 168.852
 356.02 171.09 358.258 173.844 358.258 c 244.777 358.258 l 247.531 358.258
 249.77 356.02 249.77 353.266 c 249.77 350.516 247.531 348.273 244.777 348.273
 c h
173.844 348.273 m f
0.533333 0.321569 0.658824 rg
147.215 353.266 m 147.215 357.68 143.637 361.258 139.223 361.258 c 134.809
 361.258 131.23 357.68 131.23 353.266 c 131.23 348.852 134.809 345.273 139.223
 345.273 c 143.637 345.273 147.215 348.852 147.215 353.266 c h
147.215 353.266 m f
0.411765 0.0196078 0.537255 rg
139.223 364.258 m 133.16 364.258 128.23 359.328 128.23 353.266 c 128.23
 347.203 133.16 342.273 139.223 342.273 c 145.281 342.273 150.215 347.203
 150.215 353.266 c 150.215 359.328 145.281 364.258 139.223 364.258 c h
139.223 348.273 m 136.469 348.273 134.23 350.516 134.23 353.266 c 134.23
 356.02 136.469 358.258 139.223 358.258 c 141.973 358.258 144.215 356.02
 144.215 353.266 c 144.215 350.516 141.973 348.273 139.223 348.273 c h
139.223 348.273 m f
293.531 381 m 90.469 381 l 88.812 381 87.469 379.656 87.469 378 c 87.469
 216.734 l 87.469 215.746 87.957 214.82 88.77 214.262 c 190.301 144.598 
l 191.324 143.898 192.676 143.898 193.699 144.598 c 295.23 214.262 l 296.043
 214.82 296.531 215.746 296.531 216.734 c 296.531 378 l 296.531 379.656 
295.188 381 293.531 381 c h
93.469 375 m 290.531 375 l 290.531 218.316 l 192 150.711 l 93.469 218.316
 l h
93.469 375 m f
103.113 254.93 m 101.457 254.93 100.113 253.586 100.113 251.93 c 100.113
 233.918 l 100.113 232.262 101.457 230.918 103.113 230.918 c 104.77 230.918
 106.113 232.262 106.113 233.918 c 106.113 251.93 l 106.113 253.59 104.773
 254.93 103.113 254.93 c h
103.113 254.93 m f
0.988235 0.760784 0.298039 rg
273.629 87.629 m 273.629 42.547 237.082 6 192 6 c 146.918 6 110.371 42.547
 110.371 87.629 c 110.371 127.891 139.535 161.32 177.883 168.012 c 181.719
 174.66 l 192 192.465 l 202.281 174.66 l 206.117 168.012 l 244.465 161.324
 273.629 127.891 273.629 87.629 c h
273.629 87.629 m f
0.870588 0.643137 0.180392 rg
192 6 m 189.605 6 187.242 6.125 184.898 6.328 c 228.062 9.98 261.961 46.148
 261.961 90.258 c 261.961 123.668 242.5 152.508 214.305 166.125 c 248.539
 156.418 273.629 124.969 273.629 87.629 c 273.629 42.547 237.082 6 192 6
 c h
192 6 m f
0.988235 0.878431 0.415686 rg
192 6 m 194.395 6 196.758 6.125 199.102 6.328 c 155.938 9.98 122.039 46.148
 122.039 90.258 c 122.039 123.668 141.5 152.508 169.695 166.125 c 135.461
 156.418 110.371 124.969 110.371 87.629 c 110.371 42.547 146.918 6 192 6
 c h
192 6 m f
0.956863 0.937255 0.929412 rg
145.332 98.633 m 153.289 98.633 l 153.289 66.379 l 145.332 66.379 l 136.422
 66.379 129.203 73.602 129.203 82.508 c 129.203 91.414 136.422 98.633 145.332
 98.633 c h
145.332 98.633 m f
198.672 64.117 m 240.586 41.91 l 240.586 123.102 l 198.672 100.895 l h
198.672 64.117 m f
175.98 146.41 m 172.078 146.41 168.91 143.246 168.91 139.344 c 168.91 87.645
 l 183.051 87.645 l 183.051 139.344 l 183.051 143.246 179.883 146.41 175.98
 146.41 c h
175.98 146.41 m f
0.411765 0.0196078 0.537255 rg
175.98 149.41 m 170.43 149.41 165.91 144.895 165.91 139.344 c 165.91 87.645
 l 165.91 85.988 167.254 84.645 168.91 84.645 c 183.051 84.645 l 184.707
 84.645 186.051 85.988 186.051 87.645 c 186.051 139.344 l 186.051 144.895
 181.531 149.41 175.98 149.41 c h
171.91 90.645 m 171.91 139.344 l 171.91 141.586 173.734 143.41 175.98 143.41
 c 178.223 143.41 180.051 141.586 180.051 139.344 c 180.051 90.645 l h
171.91 90.645 m f
0.533333 0.321569 0.658824 rg
192 106.527 m 159.961 106.527 l 156.277 106.527 153.289 103.539 153.289
 99.855 c 153.289 65.156 l 153.289 61.473 156.277 58.484 159.961 58.484 
c 192 58.484 l 195.684 58.484 198.672 61.473 198.672 65.156 c 198.672 99.855
 l 198.672 103.539 195.684 106.527 192 106.527 c h
192 106.527 m f
0.956863 0.937255 0.929412 rg
243.473 91.219 m 240.586 91.219 l 240.586 73.793 l 243.473 73.793 l 248.281
 73.793 252.184 77.695 252.184 82.508 c 252.184 87.316 248.281 91.219 243.473
 91.219 c h
243.473 91.219 m f
0.411765 0.0196078 0.537255 rg
243.473 94.219 m 240.586 94.219 l 238.93 94.219 237.586 92.875 237.586 
91.219 c 237.586 73.793 l 237.586 72.137 238.93 70.793 240.586 70.793 c 
243.473 70.793 l 249.93 70.793 255.184 76.047 255.184 82.508 c 255.184 88.965
 249.93 94.219 243.473 94.219 c h
243.586 76.797 m 243.586 88.215 l 246.684 88.156 249.184 85.617 249.184
 82.508 c 249.184 79.395 246.684 76.855 243.586 76.797 c h
243.586 76.797 m f
240.586 126.102 m 240.105 126.102 239.621 125.988 239.18 125.754 c 197.266
 103.547 l 196.285 103.023 195.672 102.008 195.672 100.895 c 195.672 64.121
 l 195.672 63.008 196.285 61.992 197.266 61.469 c 239.18 39.258 l 240.109
 38.766 241.23 38.797 242.133 39.34 c 243.035 39.883 243.586 40.859 243.586
 41.91 c 243.586 123.105 l 243.586 124.156 243.035 125.133 242.133 125.676
 c 241.656 125.961 241.121 126.102 240.586 126.102 c h
201.672 99.09 m 237.586 118.117 l 237.586 46.895 l 201.672 65.926 l h
201.672 99.09 m f
153.289 101.633 m 145.328 101.633 l 134.781 101.633 126.203 93.051 126.203
 82.508 c 126.203 71.961 134.781 63.379 145.328 63.379 c 153.289 63.379 
l 154.945 63.379 156.289 64.723 156.289 66.379 c 156.289 98.633 l 156.289
 100.293 154.945 101.633 153.289 101.633 c h
145.332 69.379 m 138.094 69.379 132.203 75.266 132.203 82.508 c 132.203
 89.746 138.094 95.633 145.332 95.633 c 150.289 95.633 l 150.289 69.379 
l h
145.332 69.379 m f
192 109.527 m 159.965 109.527 l 154.629 109.527 150.289 105.188 150.289
 99.855 c 150.289 65.156 l 150.289 59.824 154.629 55.484 159.965 55.484 
c 192 55.484 l 197.332 55.484 201.672 59.824 201.672 65.156 c 201.672 99.855
 l 201.672 105.188 197.332 109.527 192 109.527 c h
159.965 61.484 m 157.938 61.484 156.289 63.133 156.289 65.156 c 156.289
 99.855 l 156.289 101.883 157.941 103.527 159.965 103.527 c 192 103.527 
l 194.023 103.527 195.672 101.883 195.672 99.855 c 195.672 65.156 l 195.672
 63.133 194.023 61.484 192 61.484 c h
159.965 61.484 m f
192 195.465 m 190.926 195.465 189.938 194.891 189.402 193.965 c 175.98 
170.715 l 136.141 163.09 107.375 128.371 107.375 87.629 c 107.371 40.965
 145.336 3 192 3 c 238.664 3 276.629 40.965 276.629 87.629 c 276.629 128.371
 247.859 163.09 208.023 170.715 c 194.598 193.965 l 194.062 194.891 193.074
 195.465 192 195.465 c h
192 9 m 148.645 9 113.371 44.273 113.371 87.629 c 113.371 125.922 140.719
 158.484 178.398 165.059 c 179.277 165.211 180.039 165.742 180.484 166.512
 c 192 186.461 l 203.52 166.512 l 203.965 165.742 204.727 165.207 205.602
 165.059 c 243.281 158.484 270.629 125.922 270.629 87.629 c 270.629 44.273
 235.355 9 192 9 c h
192 9 m f
Q Q
showpage
%%Trailer
end
%%EOF
