%!PS-Adobe-3.0 EPSF-3.0
%%Creator: cairo 1.16.0 (https://cairographics.org)
%%CreationDate: Fri Jan 10 07:39:11 2020
%%Pages: 1
%%DocumentData: Clean7Bit
%%LanguageLevel: 2
%%BoundingBox: 3 3 381 381
%%EndComments
%%BeginProlog
50 dict begin
/q { gsave } bind def
/Q { grestore } bind def
/cm { 6 array astore concat } bind def
/w { setlinewidth } bind def
/J { setlinecap } bind def
/j { setlinejoin } bind def
/M { setmiterlimit } bind def
/d { setdash } bind def
/m { moveto } bind def
/l { lineto } bind def
/c { curveto } bind def
/h { closepath } bind def
/re { exch dup neg 3 1 roll 5 3 roll moveto 0 rlineto
      0 exch rlineto 0 rlineto closepath } bind def
/S { stroke } bind def
/f { fill } bind def
/f* { eofill } bind def
/n { newpath } bind def
/W { clip } bind def
/W* { eoclip } bind def
/BT { } bind def
/ET { } bind def
/BDC { mark 3 1 roll /BDC pdfmark } bind def
/EMC { mark /EMC pdfmark } bind def
/cairo_store_point { /cairo_point_y exch def /cairo_point_x exch def } def
/Tj { show currentpoint cairo_store_point } bind def
/TJ {
  {
    dup
    type /stringtype eq
    { show } { -0.001 mul 0 cairo_font_matrix dtransform rmoveto } ifelse
  } forall
  currentpoint cairo_store_point
} bind def
/cairo_selectfont { cairo_font_matrix aload pop pop pop 0 0 6 array astore
    cairo_font exch selectfont cairo_point_x cairo_point_y moveto } bind def
/Tf { pop /cairo_font exch def /cairo_font_matrix where
      { pop cairo_selectfont } if } bind def
/Td { matrix translate cairo_font_matrix matrix concatmatrix dup
      /cairo_font_matrix exch def dup 4 get exch 5 get cairo_store_point
      /cairo_font where { pop cairo_selectfont } if } bind def
/Tm { 2 copy 8 2 roll 6 array astore /cairo_font_matrix exch def
      cairo_store_point /cairo_font where { pop cairo_selectfont } if } bind def
/g { setgray } bind def
/rg { setrgbcolor } bind def
/d1 { setcachedevice } bind def
/cairo_data_source {
  CairoDataIndex CairoData length lt
    { CairoData CairoDataIndex get /CairoDataIndex CairoDataIndex 1 add def }
    { () } ifelse
} def
/cairo_flush_ascii85_file { cairo_ascii85_file status { cairo_ascii85_file flushfile } if } def
/cairo_image { image cairo_flush_ascii85_file } def
/cairo_imagemask { imagemask cairo_flush_ascii85_file } def
%%EndProlog
%%BeginSetup
%%EndSetup
%%Page: 1 1
%%BeginPageSetup
%%PageBoundingBox: 3 3 381 381
%%EndPageSetup
q 3 3 378 378 rectclip
1 0 0 -1 0 384 cm q
0.321569 0.435294 0.666667 rg
378 295.641 m 378 341.125 341.125 378 295.641 378 c 250.156 378 213.281
 341.125 213.281 295.641 c 213.281 250.156 250.156 213.281 295.641 213.281
 c 341.125 213.281 378 250.156 378 295.641 c h
378 295.641 m f
0.533333 0.321569 0.658824 rg
378 88.359 m 378 133.844 341.125 170.719 295.641 170.719 c 250.156 170.719
 213.281 133.844 213.281 88.359 c 213.281 42.875 250.156 6 295.641 6 c 341.125
 6 378 42.875 378 88.359 c h
378 88.359 m f
170.719 295.641 m 170.719 341.125 133.844 378 88.359 378 c 42.875 378 6
 341.125 6 295.641 c 6 250.156 42.875 213.281 88.359 213.281 c 133.844 213.281
 170.719 250.156 170.719 295.641 c h
170.719 295.641 m f
0.956863 0.937255 0.929412 rg
113.605 335.562 m 64.93 335.562 l 56.906 335.562 50.398 329.059 50.398 
321.031 c 50.398 272.355 l 50.398 264.332 56.902 257.824 64.93 257.824 c
 113.605 257.824 l 121.629 257.824 128.137 264.328 128.137 272.355 c 128.137
 321.031 l 128.137 329.059 121.629 335.562 113.605 335.562 c h
113.605 335.562 m f
0.321569 0.435294 0.666667 rg
170.719 88.359 m 170.719 133.844 133.844 170.719 88.359 170.719 c 42.875
 170.719 6 133.844 6 88.359 c 6 42.875 42.875 6 88.359 6 c 133.844 6 170.719
 42.875 170.719 88.359 c h
170.719 88.359 m f
0.956863 0.937255 0.929412 rg
97.73 58.105 m 106.832 58.105 l 106.832 43.371 l 97.73 43.371 l 86.898 
43.371 78.086 52.184 78.086 63.02 c 78.086 70.094 l 64.074 70.094 l 64.074
 84.828 l 78.086 84.828 l 78.086 130.441 l 92.82 130.441 l 92.82 84.828 
l 106.828 84.828 l 106.828 70.094 l 92.82 70.094 l 92.82 63.02 l 92.82 60.309
 95.023 58.105 97.73 58.105 c h
97.73 58.105 m f
0.411765 0.0196078 0.537255 rg
92.82 133.441 m 78.086 133.441 l 76.43 133.441 75.086 132.098 75.086 130.441
 c 75.086 87.828 l 64.074 87.828 l 62.418 87.828 61.074 86.484 61.074 84.828
 c 61.074 70.094 l 61.074 68.438 62.418 67.094 64.074 67.094 c 75.086 67.094
 l 75.086 63.016 l 75.086 50.527 85.242 40.371 97.734 40.371 c 106.832 40.371
 l 108.488 40.371 109.832 41.715 109.832 43.371 c 109.832 58.105 l 109.832
 59.762 108.488 61.105 106.832 61.105 c 97.734 61.105 l 96.68 61.105 95.82
 61.961 95.82 63.016 c 95.82 67.094 l 106.832 67.094 l 108.488 67.094 109.832
 68.438 109.832 70.094 c 109.832 84.828 l 109.832 86.484 108.488 87.828 
106.832 87.828 c 95.82 87.828 l 95.82 130.441 l 95.82 132.098 94.477 133.441
 92.82 133.441 c h
81.086 127.441 m 89.82 127.441 l 89.82 84.828 l 89.82 83.172 91.164 81.828
 92.82 81.828 c 103.832 81.828 l 103.832 73.094 l 92.82 73.094 l 91.164 
73.094 89.82 71.75 89.82 70.094 c 89.82 63.016 l 89.82 58.656 93.367 55.105
 97.73 55.105 c 103.828 55.105 l 103.828 46.371 l 97.73 46.371 l 88.551 
46.371 81.086 53.84 81.086 63.02 c 81.086 70.094 l 81.086 71.75 79.738 73.094
 78.086 73.094 c 67.074 73.094 l 67.074 81.832 l 78.086 81.832 l 79.738 
81.832 81.086 83.176 81.086 84.832 c h
81.086 127.441 m f
0.415686 0.203922 0.541176 rg
295.641 6 m 293.191 6 290.77 6.129 288.375 6.336 c 330.453 10.02 363.469
 45.324 363.469 88.359 c 363.469 131.395 330.453 166.699 288.375 170.379
 c 290.77 170.59 293.191 170.719 295.641 170.719 c 341.129 170.719 378 133.844
 378 88.359 c 378 42.871 341.129 6 295.641 6 c h
295.641 6 m f
0.203922 0.317647 0.54902 rg
295.641 213.281 m 293.191 213.281 290.77 213.41 288.375 213.621 c 330.453
 217.301 363.469 252.605 363.469 295.641 c 363.469 338.676 330.453 373.98
 288.375 377.664 c 290.77 377.871 293.191 378 295.641 378 c 341.129 378 
378 341.129 378 295.641 c 378 250.156 341.129 213.281 295.641 213.281 c 
h
295.641 213.281 m f
0.65098 0.439216 0.776471 rg
88.359 378 m 90.809 378 93.23 377.871 95.625 377.664 c 53.547 373.98 20.531
 338.676 20.531 295.641 c 20.531 252.605 53.547 217.301 95.625 213.621 c
 93.23 213.41 90.809 213.281 88.359 213.281 c 42.871 213.281 6 250.156 6
 295.641 c 6 341.129 42.871 378 88.359 378 c h
88.359 378 m f
0.439216 0.552941 0.784314 rg
88.359 170.719 m 90.809 170.719 93.23 170.59 95.625 170.379 c 53.547 166.699
 20.531 131.395 20.531 88.359 c 20.531 45.324 53.547 10.02 95.625 6.336 
c 93.227 6.129 90.809 6 88.359 6 c 42.871 6 6 42.871 6 88.359 c 6 133.844
 42.871 170.719 88.359 170.719 c h
88.359 170.719 m f
0.956863 0.937255 0.929412 rg
254.379 113.637 m 254.379 113.637 271.297 115.652 277.652 106.492 c 268.117
 104.625 263.633 95.094 263.633 95.094 c 268.492 95.094 l 268.492 95.094
 259.52 89.672 256.719 78.457 c 263.258 80.141 263.258 80.141 263.258 80.141
 c 263.258 80.141 255.406 72.289 261.203 58.082 c 268.117 69.109 284.004
 75.277 293.727 75.652 c 290.922 60.141 310.734 49.672 323.633 62.383 c 
331.855 60.324 334.285 57.523 334.285 57.523 c 331.855 66.492 l 336.902 
67.242 l 336.902 67.242 333.91 72.102 328.492 75.09 c 326.062 93.969 312.031
 135.965 254.379 113.637 c h
254.379 113.637 m f
0.411765 0.0196078 0.537255 rg
284.148 123.02 m 274.938 123.02 264.633 120.824 253.297 116.434 c 251.887
 115.887 251.102 114.379 251.469 112.91 c 251.832 111.445 253.242 110.484
 254.73 110.656 c 258.152 111.059 266.617 111.066 272.016 107.715 c 264.602
 104.023 261.094 96.738 260.922 96.371 c 260.484 95.441 260.551 94.352 261.102
 93.484 c 261.207 93.32 261.328 93.168 261.461 93.027 c 258.59 89.973 255.355
 85.383 253.805 79.184 c 253.551 78.16 253.852 77.074 254.602 76.328 c 255.297
 75.637 256.293 75.332 257.242 75.504 c 255.781 71.203 255.168 64.941 258.426
 56.949 c 258.852 55.906 259.824 55.191 260.945 55.094 c 262.094 54.992 
263.148 55.539 263.746 56.488 c 269.508 65.676 281.93 70.926 290.469 72.305
 c 290.625 65.559 294.406 59.449 300.758 56.098 c 308.477 52.023 317.598
 53.211 324.441 59.059 c 330.156 57.406 332.055 55.512 332.078 55.492 c 
332.992 54.438 334.488 54.184 335.727 54.84 c 336.961 55.5 337.547 56.957
 337.184 58.305 c 335.633 64.023 l 337.344 64.273 l 338.34 64.422 339.195
 65.059 339.621 65.973 c 340.047 66.887 339.988 67.953 339.461 68.812 c 
339.332 69.023 336.473 73.605 331.266 76.934 c 329.82 86.547 324.773 106.719
 307.477 117.008 c 300.738 121.016 292.941 123.02 284.148 123.02 c h
269.691 115.27 m 283.613 118.438 295.25 117.301 304.41 111.852 c 320.816
 102.09 324.711 80.953 325.516 74.711 c 325.637 73.762 326.203 72.926 327.043
 72.465 c 328.668 71.57 330.051 70.469 331.16 69.414 c 330.422 69.234 329.766
 68.781 329.348 68.137 c 328.879 67.418 328.738 66.535 328.961 65.711 c 
329.508 63.688 l 328.07 64.242 326.367 64.789 324.359 65.293 c 323.344 65.543
 322.27 65.254 321.523 64.52 c 315.387 58.469 308.215 58.945 303.555 61.402
 c 299.426 63.586 295.449 68.332 296.676 75.117 c 296.84 76.012 296.586 
76.934 295.988 77.617 c 295.395 78.305 294.539 78.684 293.609 78.648 c 285.16
 78.324 271.133 73.727 262.41 64.492 c 260.805 73.301 265.324 77.961 265.379
 78.016 c 266.336 78.973 266.535 80.449 265.863 81.625 c 265.191 82.797 
263.824 83.379 262.512 83.043 c 261.512 82.785 l 264.789 89.285 269.98 92.484
 270.043 92.523 c 271.195 93.219 271.742 94.602 271.383 95.898 c 271.09 
96.949 270.254 97.738 269.23 98 c 271.211 100.266 274.211 102.762 278.227
 103.551 c 279.219 103.746 280.047 104.43 280.43 105.367 c 280.809 106.305
 280.691 107.371 280.113 108.207 c 277.559 111.891 273.68 114.039 269.691
 115.27 c h
269.691 115.27 m f
88.359 381 m 41.293 381 3 342.707 3 295.641 c 3 248.574 41.293 210.281 
88.359 210.281 c 135.426 210.281 173.715 248.574 173.715 295.641 c 173.719
 342.707 135.426 381 88.359 381 c h
88.359 216.281 m 44.598 216.281 9 251.883 9 295.641 c 9 339.398 44.598 
375 88.359 375 c 132.117 375 167.715 339.402 167.715 295.641 c 167.715 251.883
 132.117 216.281 88.359 216.281 c h
88.359 216.281 m f
88.359 173.719 m 41.293 173.719 3 135.426 3 88.359 c 3 41.293 41.293 3 
88.359 3 c 135.426 3 173.715 41.293 173.715 88.359 c 173.719 135.426 135.426
 173.719 88.359 173.719 c h
88.359 9 m 44.598 9 9 44.598 9 88.359 c 9 132.117 44.598 167.719 88.359
 167.719 c 132.117 167.719 167.715 132.117 167.715 88.359 c 167.715 44.602
 132.117 9 88.359 9 c h
88.359 9 m f
18.82 92.992 m 17.164 92.992 15.82 91.648 15.82 89.992 c 15.82 83.785 16.34
 77.559 17.367 71.496 c 17.645 69.863 19.184 68.758 20.824 69.035 c 22.461
 69.312 23.559 70.863 23.281 72.496 c 22.312 78.234 21.82 84.121 21.82 89.996
 c 21.82 91.648 20.477 92.992 18.82 92.992 c h
18.82 92.992 m f
295.641 173.719 m 248.574 173.719 210.285 135.426 210.285 88.359 c 210.281
 41.293 248.574 3 295.641 3 c 342.707 3 381 41.293 381 88.359 c 381 135.426
 342.707 173.719 295.641 173.719 c h
295.641 9 m 251.883 9 216.285 44.598 216.285 88.359 c 216.285 132.117 251.883
 167.719 295.641 167.719 c 339.402 167.719 375 132.117 375 88.359 c 375 
44.602 339.402 9 295.641 9 c h
295.641 9 m f
295.641 381 m 248.574 381 210.285 342.707 210.285 295.641 c 210.285 248.574
 248.574 210.281 295.641 210.281 c 342.707 210.281 381 248.574 381 295.641
 c 381 342.707 342.707 381 295.641 381 c h
295.641 216.281 m 251.883 216.281 216.285 251.883 216.285 295.641 c 216.285
 339.398 251.883 375 295.641 375 c 339.402 375 375 339.402 375 295.641 c
 375 251.883 339.402 216.281 295.641 216.281 c h
295.641 216.281 m f
0.956863 0.937255 0.929412 rg
306.504 322.164 m 302.527 322.164 299.301 318.938 299.301 314.961 c 299.301
 290.762 l 321.82 290.762 l 321.82 273.324 l 299.301 273.324 l 299.301 251.68
 l 281.863 251.68 l 281.863 262.812 l 281.863 268.617 277.156 273.324 271.352
 273.324 c 267.699 273.324 l 267.699 290.762 l 281.863 290.762 l 281.863
 319.699 l 281.863 330.691 290.773 339.602 301.766 339.602 c 308.91 339.602
 l 313.941 339.602 318.926 338.613 323.578 336.691 c 323.578 319.254 l 318.926
 321.176 313.941 322.164 308.91 322.164 c h
306.504 322.164 m f
0.411765 0.0196078 0.537255 rg
308.91 342.602 m 301.766 342.602 l 289.137 342.602 278.859 332.328 278.859
 319.699 c 278.859 293.762 l 267.699 293.762 l 266.043 293.762 264.699 292.414
 264.699 290.762 c 264.699 273.324 l 264.699 271.668 266.043 270.324 267.699
 270.324 c 271.352 270.324 l 275.492 270.324 278.863 266.953 278.863 262.812
 c 278.863 251.68 l 278.863 250.023 280.207 248.68 281.863 248.68 c 299.301
 248.68 l 300.957 248.68 302.301 250.023 302.301 251.68 c 302.301 270.324
 l 321.82 270.324 l 323.477 270.324 324.82 271.668 324.82 273.324 c 324.82
 290.762 l 324.82 292.414 323.477 293.762 321.82 293.762 c 302.301 293.762
 l 302.301 314.961 l 302.301 317.277 304.184 319.164 306.504 319.164 c 308.91
 319.164 l 313.574 319.164 318.125 318.262 322.438 316.484 c 323.363 316.102
 324.418 316.207 325.25 316.766 c 326.082 317.32 326.582 318.258 326.582
 319.258 c 326.582 336.695 l 326.582 337.91 325.848 339.004 324.727 339.469
 c 319.684 341.547 314.363 342.602 308.91 342.602 c h
270.703 287.762 m 281.863 287.762 l 283.52 287.762 284.863 289.105 284.863
 290.762 c 284.863 319.699 l 284.863 329.016 292.445 336.602 301.766 336.602
 c 308.91 336.602 l 312.91 336.602 316.828 335.938 320.582 334.629 c 320.582
 323.488 l 316.801 324.602 312.891 325.164 308.91 325.164 c 306.504 325.164
 l 300.879 325.164 296.301 320.586 296.301 314.957 c 296.301 290.762 l 296.301
 289.105 297.645 287.762 299.301 287.762 c 318.824 287.762 l 318.824 276.324
 l 299.301 276.324 l 297.645 276.324 296.301 274.977 296.301 273.324 c 296.301
 254.68 l 284.863 254.68 l 284.863 262.812 l 284.863 270.262 278.805 276.324
 271.355 276.324 c 270.703 276.324 l h
270.703 287.762 m f
113.605 338.562 m 64.93 338.562 l 55.266 338.562 47.398 330.699 47.398 
321.031 c 47.398 272.355 l 47.398 262.688 55.262 254.824 64.93 254.824 c
 113.605 254.824 l 123.273 254.824 131.137 262.688 131.137 272.355 c 131.137
 321.031 l 131.137 330.699 123.273 338.562 113.605 338.562 c h
64.93 260.824 m 58.57 260.824 53.398 265.996 53.398 272.355 c 53.398 321.031
 l 53.398 327.391 58.57 332.562 64.93 332.562 c 113.605 332.562 l 119.965
 332.562 125.137 327.391 125.137 321.031 c 125.137 272.355 l 125.137 265.996
 119.965 260.824 113.605 260.824 c h
64.93 260.824 m f
89.27 317.457 m 77.82 317.457 68.504 308.145 68.504 296.695 c 68.504 285.246
 77.82 275.93 89.27 275.93 c 100.719 275.93 110.031 285.246 110.031 296.695
 c 110.031 308.145 100.719 317.457 89.27 317.457 c h
89.27 281.93 m 81.129 281.93 74.504 288.555 74.504 296.695 c 74.504 304.836
 81.129 311.457 89.27 311.457 c 97.41 311.457 104.031 304.836 104.031 296.695
 c 104.031 288.555 97.41 281.93 89.27 281.93 c h
89.27 281.93 m f
111.949 269.094 m 114.668 269.094 116.871 271.293 116.871 274.012 c 116.871
 276.727 114.668 278.93 111.949 278.93 c 109.234 278.93 107.031 276.727 
107.031 274.012 c 107.031 271.293 109.234 269.094 111.949 269.094 c h
111.949 269.094 m f
0.988235 0.760784 0.298039 rg
291.336 177.273 m 291.336 122.41 246.859 77.938 192 77.938 c 137.141 77.938
 92.664 122.41 92.664 177.273 c 92.664 226.273 128.152 266.957 174.82 275.098
 c 179.488 283.184 l 192 304.852 l 204.508 283.184 l 209.18 275.098 l 255.848
 266.957 291.336 226.273 291.336 177.273 c h
291.336 177.273 m f
0.870588 0.643137 0.180392 rg
192 77.938 m 189.086 77.938 186.207 78.09 183.355 78.336 c 235.883 82.777
 277.137 126.793 277.137 180.473 c 277.137 221.129 253.457 256.227 219.145
 272.801 c 260.801 260.988 291.332 222.715 291.332 177.273 c 291.336 122.41
 246.859 77.938 192 77.938 c h
192 77.938 m f
0.988235 0.878431 0.415686 rg
192 77.938 m 194.914 77.938 197.793 78.09 200.645 78.336 c 148.113 82.781
 106.859 126.797 106.859 180.473 c 106.859 221.133 130.543 256.227 164.855
 272.801 c 123.195 260.988 92.664 222.719 92.664 177.273 c 92.664 122.41
 137.141 77.938 192 77.938 c h
192 77.938 m f
0.956863 0.937255 0.929412 rg
135.207 190.668 m 144.891 190.668 l 144.891 151.414 l 135.207 151.414 l
 124.367 151.414 115.578 160.203 115.578 171.039 c 115.578 181.883 124.367
 190.668 135.207 190.668 c h
135.207 190.668 m f
200.117 148.664 m 251.129 121.637 l 251.129 220.445 l 200.117 193.418 l
 h
200.117 148.664 m f
172.508 248.809 m 167.754 248.809 163.902 244.957 163.902 240.207 c 163.902
 177.293 l 181.109 177.293 l 181.109 240.207 l 181.109 244.961 177.258 248.809
 172.508 248.809 c h
172.508 248.809 m f
0.411765 0.0196078 0.537255 rg
172.508 251.812 m 166.105 251.812 160.902 246.605 160.902 240.207 c 160.902
 177.293 l 160.902 175.637 162.246 174.293 163.902 174.293 c 181.109 174.293
 l 182.766 174.293 184.109 175.637 184.109 177.293 c 184.109 240.207 l 184.109
 246.605 178.906 251.812 172.508 251.812 c h
166.902 180.293 m 166.902 240.207 l 166.902 243.297 169.418 245.809 172.508
 245.809 c 175.594 245.809 178.109 243.297 178.109 240.207 c 178.109 180.293
 l h
166.902 180.293 m f
0.533333 0.321569 0.658824 rg
192 200.273 m 153.012 200.273 l 148.527 200.273 144.891 196.637 144.891
 192.156 c 144.891 149.93 l 144.891 145.441 148.527 141.809 153.012 141.809
 c 192 141.809 l 196.484 141.809 200.117 145.445 200.117 149.93 c 200.117
 192.156 l 200.117 196.641 196.484 200.273 192 200.273 c h
192 200.273 m f
0.956863 0.937255 0.929412 rg
254.637 181.645 m 251.129 181.645 l 251.129 160.441 l 254.637 160.441 l
 260.496 160.441 265.242 165.188 265.242 171.043 c 265.242 176.898 260.492
 181.645 254.637 181.645 c h
254.637 181.645 m f
0.411765 0.0196078 0.537255 rg
254.637 184.645 m 251.129 184.645 l 249.473 184.645 248.129 183.301 248.129
 181.645 c 248.129 160.441 l 248.129 158.785 249.473 157.441 251.129 157.441
 c 254.637 157.441 l 262.137 157.441 268.242 163.543 268.242 171.043 c 268.242
 178.543 262.137 184.645 254.637 184.645 c h
254.129 178.645 m 254.637 178.645 l 258.832 178.645 262.242 175.234 262.242
 171.043 c 262.242 166.848 258.832 163.441 254.637 163.441 c 254.129 163.441
 l h
254.129 178.645 m f
251.129 223.445 m 250.645 223.445 250.164 223.332 249.723 223.098 c 198.711
 196.066 l 197.73 195.547 197.117 194.527 197.117 193.414 c 197.117 148.664
 l 197.117 147.555 197.73 146.535 198.711 146.016 c 249.723 118.984 l 250.648
 118.492 251.773 118.523 252.672 119.066 c 253.578 119.609 254.129 120.586
 254.129 121.637 c 254.129 220.445 l 254.129 221.5 253.578 222.473 252.672
 223.016 c 252.199 223.305 251.664 223.445 251.129 223.445 c h
203.117 191.613 m 248.129 215.461 l 248.129 126.621 l 203.117 150.473 l
 h
203.117 191.613 m f
144.891 193.668 m 135.207 193.668 l 122.73 193.668 112.578 183.516 112.578
 171.043 c 112.578 158.566 122.73 148.414 135.207 148.414 c 144.891 148.414
 l 146.547 148.414 147.891 149.762 147.891 151.414 c 147.891 190.668 l 147.891
 192.324 146.547 193.668 144.891 193.668 c h
135.207 154.414 m 126.039 154.414 118.578 161.875 118.578 171.039 c 118.578
 180.207 126.039 187.668 135.207 187.668 c 141.891 187.668 l 141.891 154.414
 l h
135.207 154.414 m f
192 203.273 m 153.012 203.273 l 146.879 203.273 141.891 198.285 141.891
 192.156 c 141.891 149.93 l 141.891 143.797 146.879 138.809 153.012 138.809
 c 192 138.809 l 198.129 138.809 203.117 143.797 203.117 149.93 c 203.117
 192.156 l 203.117 198.285 198.129 203.273 192 203.273 c h
153.012 144.809 m 150.188 144.809 147.891 147.105 147.891 149.93 c 147.891
 192.156 l 147.891 194.977 150.188 197.273 153.012 197.273 c 192 197.273
 l 194.82 197.273 197.117 194.977 197.117 192.156 c 197.117 149.93 l 197.117
 147.105 194.82 144.809 192 144.809 c h
153.012 144.809 m f
192 307.852 m 190.926 307.852 189.938 307.281 189.402 306.352 c 172.922
 277.801 l 124.594 268.695 89.664 226.641 89.664 177.273 c 89.664 120.844
 135.574 74.938 192 74.938 c 248.43 74.938 294.336 120.844 294.336 177.273
 c 294.336 226.641 259.41 268.695 211.082 277.801 c 194.602 306.352 l 194.062
 307.281 193.074 307.852 192 307.852 c h
192 80.938 m 138.879 80.938 95.664 124.152 95.664 177.273 c 95.664 224.191
 129.172 264.09 175.336 272.141 c 176.211 272.297 176.973 272.828 177.422
 273.598 c 192 298.852 l 206.578 273.598 l 207.027 272.828 207.789 272.293
 208.664 272.141 c 254.828 264.09 288.336 224.191 288.336 177.273 c 288.336
 124.152 245.121 80.938 192 80.938 c h
192 80.938 m f
Q Q
showpage
%%Trailer
end
%%EOF
