%!PS-Adobe-3.0 EPSF-3.0
%%Creator: cairo 1.16.0 (https://cairographics.org)
%%CreationDate: Fri Jan 10 07:39:12 2020
%%Pages: 1
%%DocumentData: Clean7Bit
%%LanguageLevel: 2
%%BoundingBox: 3 3 381 381
%%EndComments
%%BeginProlog
50 dict begin
/q { gsave } bind def
/Q { grestore } bind def
/cm { 6 array astore concat } bind def
/w { setlinewidth } bind def
/J { setlinecap } bind def
/j { setlinejoin } bind def
/M { setmiterlimit } bind def
/d { setdash } bind def
/m { moveto } bind def
/l { lineto } bind def
/c { curveto } bind def
/h { closepath } bind def
/re { exch dup neg 3 1 roll 5 3 roll moveto 0 rlineto
      0 exch rlineto 0 rlineto closepath } bind def
/S { stroke } bind def
/f { fill } bind def
/f* { eofill } bind def
/n { newpath } bind def
/W { clip } bind def
/W* { eoclip } bind def
/BT { } bind def
/ET { } bind def
/BDC { mark 3 1 roll /BDC pdfmark } bind def
/EMC { mark /EMC pdfmark } bind def
/cairo_store_point { /cairo_point_y exch def /cairo_point_x exch def } def
/Tj { show currentpoint cairo_store_point } bind def
/TJ {
  {
    dup
    type /stringtype eq
    { show } { -0.001 mul 0 cairo_font_matrix dtransform rmoveto } ifelse
  } forall
  currentpoint cairo_store_point
} bind def
/cairo_selectfont { cairo_font_matrix aload pop pop pop 0 0 6 array astore
    cairo_font exch selectfont cairo_point_x cairo_point_y moveto } bind def
/Tf { pop /cairo_font exch def /cairo_font_matrix where
      { pop cairo_selectfont } if } bind def
/Td { matrix translate cairo_font_matrix matrix concatmatrix dup
      /cairo_font_matrix exch def dup 4 get exch 5 get cairo_store_point
      /cairo_font where { pop cairo_selectfont } if } bind def
/Tm { 2 copy 8 2 roll 6 array astore /cairo_font_matrix exch def
      cairo_store_point /cairo_font where { pop cairo_selectfont } if } bind def
/g { setgray } bind def
/rg { setrgbcolor } bind def
/d1 { setcachedevice } bind def
/cairo_data_source {
  CairoDataIndex CairoData length lt
    { CairoData CairoDataIndex get /CairoDataIndex CairoDataIndex 1 add def }
    { () } ifelse
} def
/cairo_flush_ascii85_file { cairo_ascii85_file status { cairo_ascii85_file flushfile } if } def
/cairo_image { image cairo_flush_ascii85_file } def
/cairo_imagemask { imagemask cairo_flush_ascii85_file } def
%%EndProlog
%%BeginSetup
%%EndSetup
%%Page: 1 1
%%BeginPageSetup
%%PageBoundingBox: 3 3 381 381
%%EndPageSetup
q 3 3 378 378 rectclip
1 0 0 -1 0 384 cm q
0.988235 0.760784 0.298039 rg
309.777 297.988 m 309.777 272.777 l 326.07 285.383 l 342.367 297.988 l 
326.07 310.594 l 309.777 323.199 l h
309.777 297.988 m f
75.703 297.988 m 75.703 323.199 l 59.406 310.594 l 43.113 297.988 l 59.406
 285.383 l 75.703 272.777 l h
75.703 297.988 m f
192 345.41 m 217.211 345.41 l 204.605 361.703 l 192 378 l 179.395 361.703
 l 166.789 345.41 l h
192 345.41 m f
0.411765 0.0196078 0.537255 rg
192 348.406 m 190.344 348.406 189 347.062 189 345.406 c 189 149.598 l 189
 147.945 190.344 146.598 192 146.598 c 193.656 146.598 195 147.945 195 149.598
 c 195 345.41 l 195 347.066 193.656 348.406 192 348.406 c h
192 348.406 m f
308.297 300.988 m 263.121 300.988 l 261.465 300.988 260.121 299.645 260.121
 297.988 c 260.121 149.598 l 260.121 147.945 261.465 146.598 263.121 146.598
 c 264.777 146.598 266.121 147.945 266.121 149.598 c 266.121 294.988 l 308.297
 294.988 l 309.953 294.988 311.297 296.332 311.297 297.988 c 311.297 299.645
 309.953 300.988 308.297 300.988 c h
308.297 300.988 m f
120.879 300.988 m 75.703 300.988 l 74.047 300.988 72.703 299.645 72.703
 297.988 c 72.703 296.332 74.047 294.988 75.703 294.988 c 117.879 294.988
 l 117.879 149.598 l 117.879 147.945 119.223 146.598 120.879 146.598 c 122.535
 146.598 123.879 147.945 123.879 149.598 c 123.879 297.988 l 123.879 299.645
 122.535 300.988 120.879 300.988 c h
120.879 300.988 m f
309.777 326.199 m 309.324 326.199 308.875 326.098 308.457 325.891 c 307.43
 325.387 306.777 324.344 306.777 323.199 c 306.777 272.773 l 306.777 271.629
 307.43 270.586 308.457 270.082 c 309.48 269.578 310.707 269.703 311.613
 270.402 c 344.203 295.613 l 344.938 296.184 345.367 297.059 345.367 297.988
 c 345.367 298.914 344.938 299.793 344.203 300.359 c 311.613 325.57 l 311.074
 325.988 310.43 326.199 309.777 326.199 c h
312.777 278.891 m 312.777 317.086 l 337.465 297.988 l h
312.777 278.891 m f
75.703 326.199 m 75.051 326.199 74.402 325.984 73.867 325.57 c 41.277 300.359
 l 40.539 299.793 40.113 298.914 40.113 297.988 c 40.113 297.059 40.543 
296.184 41.277 295.613 c 73.867 270.402 l 74.773 269.703 75.996 269.578 
77.023 270.082 c 78.051 270.586 78.703 271.633 78.703 272.773 c 78.703 323.199
 l 78.703 324.344 78.051 325.387 77.023 325.891 c 76.605 326.098 76.152 
326.199 75.703 326.199 c h
48.012 297.988 m 72.703 317.086 l 72.703 278.891 l h
48.012 297.988 m f
192 381 m 191.07 381 190.195 380.57 189.629 379.836 c 164.414 347.242 l
 163.715 346.34 163.59 345.113 164.094 344.09 c 164.598 343.059 165.645 
342.41 166.789 342.41 c 217.211 342.41 l 218.355 342.41 219.398 343.059 
219.902 344.09 c 220.406 345.117 220.281 346.34 219.582 347.242 c 194.371
 379.836 l 193.805 380.57 192.93 381 192 381 c h
172.902 348.406 m 192 373.098 l 211.098 348.406 l h
172.902 348.406 m f
309.777 326.199 m 309.324 326.199 308.875 326.098 308.457 325.891 c 307.43
 325.387 306.777 324.344 306.777 323.199 c 306.777 272.773 l 306.777 271.629
 307.43 270.586 308.457 270.082 c 309.48 269.578 310.707 269.703 311.613
 270.402 c 344.203 295.613 l 344.938 296.184 345.367 297.059 345.367 297.988
 c 345.367 298.914 344.938 299.793 344.203 300.359 c 311.613 325.57 l 311.074
 325.988 310.43 326.199 309.777 326.199 c h
312.777 278.891 m 312.777 317.086 l 337.465 297.988 l h
312.777 278.891 m f
75.703 326.199 m 75.051 326.199 74.402 325.984 73.867 325.57 c 41.277 300.359
 l 40.539 299.793 40.113 298.914 40.113 297.988 c 40.113 297.059 40.543 
296.184 41.277 295.613 c 73.867 270.402 l 74.773 269.703 75.996 269.578 
77.023 270.082 c 78.051 270.586 78.703 271.633 78.703 272.773 c 78.703 323.199
 l 78.703 324.344 78.051 325.387 77.023 325.891 c 76.605 326.098 76.152 
326.199 75.703 326.199 c h
48.012 297.988 m 72.703 317.086 l 72.703 278.891 l h
48.012 297.988 m f
192 381 m 191.07 381 190.195 380.57 189.629 379.836 c 164.414 347.242 l
 163.715 346.34 163.59 345.113 164.094 344.09 c 164.598 343.059 165.645 
342.41 166.789 342.41 c 217.211 342.41 l 218.355 342.41 219.398 343.059 
219.902 344.09 c 220.406 345.117 220.281 346.34 219.582 347.242 c 194.371
 379.836 l 193.805 380.57 192.93 381 192 381 c h
172.902 348.406 m 192 373.098 l 211.098 348.406 l h
172.902 348.406 m f
0.956863 0.937255 0.929412 rg
337.398 107.223 m 337.43 106.184 337.477 105.148 337.477 104.105 c 337.477
 49.922 293.555 6 239.371 6 c 206.348 6 177.16 22.332 159.379 47.344 c 149.66
 41.668 138.363 38.398 126.293 38.398 c 90.008 38.398 60.59 67.816 60.59
 104.105 c 60.59 104.18 60.594 104.258 60.594 104.332 c 30.02 106.891 6 
132.504 6 163.738 c 6 196.676 32.699 223.371 65.633 223.371 c 318.367 223.371
 l 351.301 223.371 378 196.676 378 163.738 c 378 137.461 360.996 115.168
 337.398 107.223 c h
337.398 107.223 m f
1 g
21 163.738 m 21 132.5 45.02 106.891 75.594 104.332 c 75.594 104.254 75.59
 104.18 75.59 104.105 c 75.59 70.383 100.996 42.609 133.711 38.848 c 131.273
 38.574 128.805 38.398 126.297 38.398 c 90.008 38.398 60.59 67.816 60.59
 104.105 c 60.59 104.18 60.598 104.258 60.598 104.332 c 30.02 106.891 6 
132.504 6 163.738 c 6 196.672 32.699 223.371 65.633 223.371 c 80.633 223.371
 l 47.699 223.371 21 196.672 21 163.738 c h
21 163.738 m f
0.839216 0.819608 0.811765 rg
337.398 107.223 m 337.43 106.184 337.477 105.148 337.477 104.105 c 337.477
 49.922 293.555 6 239.371 6 c 236.805 6 234.262 6.109 231.742 6.305 c 282.477
 10.078 322.473 52.406 322.473 104.105 c 322.473 105.148 322.43 106.184 
322.395 107.223 c 345.996 115.168 363 137.461 363 163.738 c 363 196.672 
336.301 223.371 303.367 223.371 c 318.367 223.371 l 351.301 223.371 378 
196.672 378 163.738 c 378 137.461 360.996 115.168 337.398 107.223 c h
337.398 107.223 m f
0.411765 0.0196078 0.537255 rg
318.367 226.371 m 65.633 226.371 l 31.098 226.371 3 198.273 3 163.738 c
 3 132.355 26.781 105.59 57.633 101.629 c 58.941 64.887 89.238 35.398 126.293
 35.398 c 137.543 35.398 148.629 38.168 158.523 43.434 c 177.594 18.066 
207.613 3 239.371 3 c 295.121 3 340.477 48.355 340.477 104.105 c 340.477
 104.449 340.473 104.793 340.465 105.133 c 364.801 114.297 381 137.57 381
 163.738 c 381 198.273 352.902 226.371 318.367 226.371 c h
126.293 41.398 m 91.719 41.398 63.59 69.527 63.59 104.105 c 63.594 104.301
 l 63.609 105.871 62.41 107.191 60.848 107.32 c 31.773 109.754 9 134.535
 9 163.738 c 9 194.965 34.406 220.371 65.633 220.371 c 318.367 220.371 l
 349.594 220.371 375 194.965 375 163.738 c 375 139.398 359.504 117.832 336.441
 110.07 c 335.188 109.648 334.359 108.453 334.398 107.133 c 334.422 106.379
 l 334.449 105.621 334.477 104.867 334.477 104.105 c 334.477 51.664 291.812
 9 239.371 9 c 208.656 9 179.668 23.984 161.824 49.082 c 160.922 50.348 
159.207 50.719 157.867 49.934 c 148.305 44.352 137.391 41.398 126.293 41.398
 c h
126.293 41.398 m f
20.762 165.211 m 19.105 165.211 17.762 163.867 17.762 162.211 c 17.762 
155.742 18.793 149.367 20.82 143.266 c 21.344 141.691 23.043 140.844 24.613
 141.363 c 26.188 141.887 27.039 143.586 26.516 145.156 c 24.688 150.648
 23.762 156.387 23.762 162.211 c 23.762 163.867 22.418 165.211 20.762 165.211
 c h
20.762 165.211 m f
0.533333 0.321569 0.658824 rg
211.84 176.223 m 211.84 187.18 202.957 196.062 192 196.062 c 181.043 196.062
 172.16 187.18 172.16 176.223 c 172.16 165.266 181.043 156.383 192 156.383
 c 202.957 156.383 211.84 165.266 211.84 176.223 c h
211.84 176.223 m f
0.411765 0.0196078 0.537255 rg
265.414 105.816 m 264.645 105.816 263.879 105.523 263.293 104.938 c 223.98
 65.629 160.02 65.629 120.707 104.938 c 119.539 106.109 117.637 106.109 
116.465 104.938 c 115.293 103.766 115.293 101.867 116.465 100.695 c 136.641
 80.52 163.469 69.406 192 69.406 c 220.531 69.406 247.359 80.52 267.535 
100.695 c 268.707 101.867 268.707 103.766 267.535 104.938 c 266.949 105.523
 266.18 105.816 265.414 105.816 c h
265.414 105.816 m f
248.012 128.027 m 247.242 128.027 246.473 127.734 245.891 127.148 c 231.496
 112.754 212.355 104.824 192 104.824 c 171.645 104.824 152.504 112.754 138.109
 127.148 c 136.941 128.32 135.039 128.32 133.867 127.148 c 132.699 125.977
 132.699 124.078 133.867 122.906 c 149.395 107.375 170.039 98.824 192 98.824
 c 213.961 98.824 234.605 107.379 250.133 122.906 c 251.301 124.078 251.301
 125.977 250.133 127.148 c 249.547 127.734 248.777 128.027 248.012 128.027
 c h
248.012 128.027 m f
231.605 149.238 m 230.84 149.238 230.07 148.945 229.484 148.359 c 208.816
 127.688 175.184 127.688 154.516 148.359 c 153.348 149.527 151.445 149.527
 150.273 148.359 c 149.102 147.188 149.102 145.285 150.273 144.117 c 173.281
 121.105 210.719 121.105 233.727 144.117 c 234.898 145.285 234.898 147.188
 233.727 148.359 c 233.141 148.945 232.375 149.238 231.605 149.238 c h
231.605 149.238 m f
192 199.051 m 186.152 199.051 180.305 196.824 175.852 192.371 c 166.945
 183.465 166.945 168.977 175.852 160.074 c 184.758 151.168 199.246 151.168
 208.148 160.074 c 217.055 168.977 217.055 183.465 208.148 192.371 c 203.695
 196.824 197.848 199.051 192 199.051 c h
192 159.391 m 187.688 159.391 183.375 161.031 180.094 164.316 c 173.527
 170.883 173.527 181.566 180.094 188.129 c 186.66 194.695 197.34 194.695
 203.906 188.129 c 210.473 181.566 210.473 170.883 203.906 164.316 c 200.625
 161.031 196.312 159.391 192 159.391 c h
192 159.391 m f
Q Q
showpage
%%Trailer
end
%%EOF
