%!PS-Adobe-3.0 EPSF-3.0
%%Creator: cairo 1.16.0 (https://cairographics.org)
%%CreationDate: Fri Jan 10 07:39:13 2020
%%Pages: 1
%%DocumentData: Clean7Bit
%%LanguageLevel: 2
%%BoundingBox: 3 44 381 340
%%EndComments
%%BeginProlog
50 dict begin
/q { gsave } bind def
/Q { grestore } bind def
/cm { 6 array astore concat } bind def
/w { setlinewidth } bind def
/J { setlinecap } bind def
/j { setlinejoin } bind def
/M { setmiterlimit } bind def
/d { setdash } bind def
/m { moveto } bind def
/l { lineto } bind def
/c { curveto } bind def
/h { closepath } bind def
/re { exch dup neg 3 1 roll 5 3 roll moveto 0 rlineto
      0 exch rlineto 0 rlineto closepath } bind def
/S { stroke } bind def
/f { fill } bind def
/f* { eofill } bind def
/n { newpath } bind def
/W { clip } bind def
/W* { eoclip } bind def
/BT { } bind def
/ET { } bind def
/BDC { mark 3 1 roll /BDC pdfmark } bind def
/EMC { mark /EMC pdfmark } bind def
/cairo_store_point { /cairo_point_y exch def /cairo_point_x exch def } def
/Tj { show currentpoint cairo_store_point } bind def
/TJ {
  {
    dup
    type /stringtype eq
    { show } { -0.001 mul 0 cairo_font_matrix dtransform rmoveto } ifelse
  } forall
  currentpoint cairo_store_point
} bind def
/cairo_selectfont { cairo_font_matrix aload pop pop pop 0 0 6 array astore
    cairo_font exch selectfont cairo_point_x cairo_point_y moveto } bind def
/Tf { pop /cairo_font exch def /cairo_font_matrix where
      { pop cairo_selectfont } if } bind def
/Td { matrix translate cairo_font_matrix matrix concatmatrix dup
      /cairo_font_matrix exch def dup 4 get exch 5 get cairo_store_point
      /cairo_font where { pop cairo_selectfont } if } bind def
/Tm { 2 copy 8 2 roll 6 array astore /cairo_font_matrix exch def
      cairo_store_point /cairo_font where { pop cairo_selectfont } if } bind def
/g { setgray } bind def
/rg { setrgbcolor } bind def
/d1 { setcachedevice } bind def
/cairo_data_source {
  CairoDataIndex CairoData length lt
    { CairoData CairoDataIndex get /CairoDataIndex CairoDataIndex 1 add def }
    { () } ifelse
} def
/cairo_flush_ascii85_file { cairo_ascii85_file status { cairo_ascii85_file flushfile } if } def
/cairo_image { image cairo_flush_ascii85_file } def
/cairo_imagemask { imagemask cairo_flush_ascii85_file } def
%%EndProlog
%%BeginSetup
%%EndSetup
%%Page: 1 1
%%BeginPageSetup
%%PageBoundingBox: 3 44 381 340
%%EndPageSetup
q 3 44 378 296 rectclip
1 0 0 -1 0 384 cm q
0.956863 0.937255 0.929412 rg
364.727 286.977 m 19.273 286.977 l 11.941 286.977 6 281.035 6 273.703 c
 6 61.008 l 6 53.676 11.941 47.734 19.273 47.734 c 364.727 47.734 l 372.059
 47.734 378 53.676 378 61.008 c 378 273.703 l 378 281.035 372.059 286.977
 364.727 286.977 c h
364.727 286.977 m f
0.839216 0.819608 0.811765 rg
364.727 47.734 m 349.727 47.734 l 357.059 47.734 363 53.676 363 61.008 
c 363 273.703 l 363 281.035 357.059 286.977 349.727 286.977 c 364.727 286.977
 l 372.059 286.977 378 281.035 378 273.703 c 378 61.008 l 378 53.676 372.059
 47.734 364.727 47.734 c h
364.727 47.734 m f
1 g
19.273 286.977 m 34.273 286.977 l 26.941 286.977 21 281.035 21 273.703 
c 21 61.008 l 21 53.676 26.941 47.734 34.273 47.734 c 19.273 47.734 l 11.941
 47.734 6 53.676 6 61.008 c 6 273.703 l 6 281.035 11.941 286.977 19.273 
286.977 c h
19.273 286.977 m f
0.411765 0.0196078 0.537255 rg
328.281 240.043 m 305.773 240.043 l 304.117 240.043 302.773 238.699 302.773
 237.043 c 302.773 100.883 l 302.773 99.227 304.117 97.883 305.773 97.883
 c 328.281 97.883 l 329.938 97.883 331.281 99.227 331.281 100.883 c 331.281
 102.539 329.938 103.883 328.281 103.883 c 308.773 103.883 l 308.773 234.043
 l 328.281 234.043 l 329.938 234.043 331.281 235.387 331.281 237.043 c 331.281
 238.699 329.938 240.043 328.281 240.043 c h
328.281 240.043 m f
78.223 240.043 m 55.719 240.043 l 54.062 240.043 52.719 238.699 52.719 
237.043 c 52.719 235.387 54.062 234.043 55.719 234.043 c 75.227 234.043 
l 75.227 103.883 l 55.719 103.883 l 54.062 103.883 52.719 102.539 52.719
 100.883 c 52.719 99.227 54.062 97.883 55.719 97.883 c 78.227 97.883 l 79.883
 97.883 81.227 99.227 81.227 100.883 c 81.227 237.043 l 81.223 238.699 79.883
 240.043 78.223 240.043 c h
78.223 240.043 m f
351.156 171.965 m 32.844 171.965 l 31.188 171.965 29.844 170.617 29.844
 168.965 c 29.844 167.309 31.188 165.965 32.844 165.965 c 351.16 165.965
 l 352.816 165.965 354.16 167.309 354.16 168.965 c 354.16 170.617 352.816
 171.965 351.156 171.965 c h
351.156 171.965 m f
0.533333 0.321569 0.658824 rg
45.934 168.965 m 45.934 176.078 40.164 181.848 33.047 181.848 c 25.934 
181.848 20.164 176.078 20.164 168.965 c 20.164 161.848 25.934 156.078 33.047
 156.078 c 40.164 156.078 45.934 161.848 45.934 168.965 c h
45.934 168.965 m f
68.754 236.953 m 68.754 244.066 62.988 249.836 55.871 249.836 c 48.754 
249.836 42.984 244.066 42.984 236.953 c 42.984 229.836 48.754 224.066 55.871
 224.066 c 62.988 224.066 68.754 229.836 68.754 236.953 c h
68.754 236.953 m f
68.754 100.973 m 68.754 108.09 62.988 113.859 55.871 113.859 c 48.754 113.859
 42.984 108.09 42.984 100.973 c 42.984 93.855 48.754 88.086 55.871 88.086
 c 62.988 88.086 68.754 93.855 68.754 100.973 c h
68.754 100.973 m f
363.836 168.965 m 363.836 176.078 358.066 181.848 350.953 181.848 c 343.836
 181.848 338.066 176.078 338.066 168.965 c 338.066 161.848 343.836 156.078
 350.953 156.078 c 358.066 156.078 363.836 161.848 363.836 168.965 c h
363.836 168.965 m f
315.246 236.953 m 315.246 244.066 321.012 249.836 328.129 249.836 c 335.246
 249.836 341.016 244.066 341.016 236.953 c 341.016 229.836 335.246 224.066
 328.129 224.066 c 321.012 224.066 315.246 229.836 315.246 236.953 c h
315.246 236.953 m f
341.016 100.973 m 341.016 108.09 335.246 113.859 328.129 113.859 c 321.012
 113.859 315.246 108.09 315.246 100.973 c 315.246 93.855 321.012 88.086 
328.129 88.086 c 335.246 88.086 341.016 93.855 341.016 100.973 c h
341.016 100.973 m f
0.411765 0.0196078 0.537255 rg
33.047 184.848 m 24.289 184.848 17.164 177.719 17.164 168.961 c 17.164 
160.203 24.289 153.078 33.047 153.078 c 41.805 153.078 48.934 160.203 48.934
 168.961 c 48.934 177.719 41.805 184.848 33.047 184.848 c h
33.047 159.078 m 27.598 159.078 23.164 163.512 23.164 168.965 c 23.164 
174.414 27.598 178.848 33.047 178.848 c 38.5 178.848 42.934 174.414 42.934
 168.965 c 42.934 163.512 38.5 159.078 33.047 159.078 c h
33.047 159.078 m f
55.871 252.836 m 47.113 252.836 39.984 245.711 39.984 236.953 c 39.984 
228.195 47.113 221.066 55.871 221.066 c 64.629 221.066 71.754 228.195 71.754
 236.953 c 71.754 245.711 64.629 252.836 55.871 252.836 c h
55.871 227.066 m 50.418 227.066 45.984 231.5 45.984 236.953 c 45.984 242.402
 50.418 246.836 55.871 246.836 c 61.32 246.836 65.754 242.402 65.754 236.953
 c 65.754 231.5 61.32 227.066 55.871 227.066 c h
55.871 227.066 m f
55.871 116.859 m 47.113 116.859 39.984 109.73 39.984 100.973 c 39.984 92.215
 47.113 85.086 55.871 85.086 c 64.629 85.086 71.754 92.215 71.754 100.973
 c 71.754 109.73 64.629 116.859 55.871 116.859 c h
55.871 91.09 m 50.418 91.09 45.984 95.523 45.984 100.973 c 45.984 106.426
 50.418 110.859 55.871 110.859 c 61.32 110.859 65.754 106.426 65.754 100.973
 c 65.754 95.523 61.32 91.09 55.871 91.09 c h
55.871 91.09 m f
350.953 184.848 m 342.195 184.848 335.066 177.719 335.066 168.961 c 335.066
 160.203 342.195 153.078 350.953 153.078 c 359.711 153.078 366.836 160.203
 366.836 168.961 c 366.836 177.719 359.711 184.848 350.953 184.848 c h
350.953 159.078 m 345.5 159.078 341.066 163.512 341.066 168.965 c 341.066
 174.414 345.5 178.848 350.953 178.848 c 356.402 178.848 360.836 174.414
 360.836 168.965 c 360.836 163.512 356.402 159.078 350.953 159.078 c h
350.953 159.078 m f
328.129 252.836 m 319.371 252.836 312.246 245.711 312.246 236.953 c 312.246
 228.195 319.371 221.066 328.129 221.066 c 336.887 221.066 344.016 228.195
 344.016 236.953 c 344.016 245.711 336.887 252.836 328.129 252.836 c h
328.129 227.066 m 322.68 227.066 318.246 231.5 318.246 236.953 c 318.246
 242.402 322.68 246.836 328.129 246.836 c 333.582 246.836 338.016 242.402
 338.016 236.953 c 338.016 231.5 333.582 227.066 328.129 227.066 c h
328.129 227.066 m f
328.129 116.859 m 319.371 116.859 312.246 109.73 312.246 100.973 c 312.246
 92.215 319.371 85.086 328.129 85.086 c 336.887 85.086 344.016 92.215 344.016
 100.973 c 344.016 109.73 336.887 116.859 328.129 116.859 c h
328.129 91.09 m 322.68 91.09 318.246 95.523 318.246 100.973 c 318.246 106.426
 322.68 110.859 328.129 110.859 c 333.582 110.859 338.016 106.426 338.016
 100.973 c 338.016 95.523 333.582 91.09 328.129 91.09 c h
328.129 91.09 m f
0.321569 0.435294 0.666667 rg
313.352 336.266 m 70.648 336.266 l 70.648 318.484 l 70.648 311.152 76.59
 305.211 83.922 305.211 c 300.078 305.211 l 307.41 305.211 313.352 311.152
 313.352 318.484 c h
313.352 336.266 m f
0.203922 0.317647 0.54902 rg
300.078 305.211 m 285.078 305.211 l 292.41 305.211 298.352 311.152 298.352
 318.484 c 298.352 336.27 l 313.352 336.27 l 313.352 318.484 l 313.352 311.152
 307.41 305.211 300.078 305.211 c h
300.078 305.211 m f
0.439216 0.552941 0.784314 rg
83.922 305.211 m 98.922 305.211 l 91.59 305.211 85.648 311.152 85.648 318.484
 c 85.648 336.27 l 70.648 336.27 l 70.648 318.484 l 70.648 311.152 76.59
 305.211 83.922 305.211 c h
83.922 305.211 m f
0.203922 0.317647 0.54902 rg
120.754 286.977 142.488 18.234 re f
0.411765 0.0196078 0.537255 rg
18 103.539 m 16.344 103.539 15 102.195 15 100.539 c 15 82.539 l 15 80.883
 16.344 79.539 18 79.539 c 19.656 79.539 21 80.883 21 82.539 c 21 100.539
 l 21 102.195 19.656 103.539 18 103.539 c h
18 103.539 m f
313.352 339.266 m 70.648 339.266 l 68.992 339.266 67.648 337.922 67.648
 336.266 c 67.648 318.484 l 67.648 309.512 74.949 302.211 83.926 302.211
 c 300.078 302.211 l 309.051 302.211 316.355 309.512 316.355 318.484 c 316.355
 336.266 l 316.352 337.922 315.008 339.266 313.352 339.266 c h
73.648 333.266 m 310.352 333.266 l 310.352 318.484 l 310.352 312.82 305.742
 308.211 300.078 308.211 c 83.922 308.211 l 78.258 308.211 73.648 312.82
 73.648 318.484 c h
73.648 333.266 m f
263.246 308.211 m 120.754 308.211 l 119.098 308.211 117.754 306.867 117.754
 305.211 c 117.754 286.977 l 117.754 285.324 119.098 283.977 120.754 283.977
 c 263.246 283.977 l 264.902 283.977 266.246 285.324 266.246 286.977 c 266.246
 305.211 l 266.246 306.867 264.902 308.211 263.246 308.211 c h
123.754 302.211 m 260.246 302.211 l 260.246 289.977 l 123.754 289.977 l
 h
123.754 302.211 m f
364.727 289.977 m 19.273 289.977 l 10.301 289.977 3 282.676 3 273.699 c
 3 61.008 l 3 52.035 10.301 44.734 19.273 44.734 c 364.727 44.734 l 373.699
 44.734 381 52.035 381 61.008 c 381 273.703 l 381 282.676 373.699 289.977
 364.727 289.977 c h
19.273 50.734 m 13.609 50.734 9 55.34 9 61.008 c 9 273.703 l 9 279.367 
13.609 283.977 19.273 283.977 c 364.727 283.977 l 370.391 283.977 375 279.367
 375 273.703 c 375 61.008 l 375 55.344 370.391 50.734 364.727 50.734 c h
19.273 50.734 m f
0.533333 0.321569 0.658824 rg
292.758 155.562 m 300.121 211.25 260.945 262.359 205.258 269.723 c 149.57
 277.082 98.461 237.906 91.102 182.223 c 83.738 126.535 122.914 75.426 178.602
 68.062 c 234.289 60.703 285.398 99.879 292.758 155.562 c h
292.758 155.562 m f
0.411765 0.0196078 0.537255 rg
192 273.719 m 163.688 273.719 141.508 227.703 141.508 168.961 c 141.508
 110.219 163.688 64.203 192 64.203 c 220.312 64.203 242.492 110.219 242.492
 168.961 c 242.492 227.703 220.312 273.719 192 273.719 c h
192 70.203 m 167.883 70.203 147.508 115.43 147.508 168.965 c 147.508 222.496
 167.883 267.719 192 267.719 c 216.117 267.719 236.492 222.496 236.492 168.965
 c 236.492 115.43 216.117 70.203 192 70.203 c h
192 70.203 m f
192 273.707 m 134.242 273.707 87.254 226.719 87.254 168.965 c 87.254 111.207
 134.242 64.219 192 64.219 c 249.758 64.219 296.746 111.207 296.746 168.965
 c 296.746 226.719 249.758 273.707 192 273.707 c h
192 70.219 m 137.551 70.219 93.254 114.516 93.254 168.965 c 93.254 223.41
 137.551 267.707 192 267.707 c 246.449 267.707 290.746 223.41 290.746 168.965
 c 290.746 114.516 246.449 70.219 192 70.219 c h
192 70.219 m f
292.91 171.965 m 91.09 171.965 l 89.434 171.965 88.09 170.617 88.09 168.965
 c 88.09 167.309 89.434 165.965 91.09 165.965 c 292.91 165.965 l 294.566
 165.965 295.91 167.309 295.91 168.965 c 295.91 170.617 294.566 171.965 
292.91 171.965 c h
292.91 171.965 m f
192 132.137 m 158.906 132.137 127.461 124.594 107.879 111.961 c 106.488
 111.059 106.09 109.203 106.984 107.812 c 107.883 106.422 109.738 106.023
 111.137 106.918 c 129.781 118.953 160.012 126.137 192 126.137 c 223.988
 126.137 254.219 118.953 272.863 106.918 c 274.262 106.02 276.113 106.422
 277.016 107.812 c 277.914 109.203 277.512 111.059 276.121 111.961 c 256.539
 124.594 225.094 132.137 192 132.137 c h
192 132.137 m f
274.488 231.484 m 273.934 231.484 273.367 231.328 272.863 231.008 c 254.215
 218.973 223.984 211.785 192 211.785 c 160.016 211.785 129.781 218.973 111.137
 231.008 c 109.738 231.906 107.883 231.504 106.984 230.113 c 106.086 228.719
 106.488 226.863 107.879 225.965 c 127.461 213.328 158.906 205.785 192 205.785
 c 225.094 205.785 256.539 213.328 276.121 225.965 c 277.512 226.863 277.91
 228.719 277.016 230.113 c 276.441 231 275.473 231.484 274.488 231.484 c
 h
274.488 231.484 m f
192 272.871 m 190.344 272.871 189 271.527 189 269.871 c 189 68.051 l 189
 66.395 190.344 65.051 192 65.051 c 193.656 65.051 195 66.395 195 68.051
 c 195 269.871 l 195 271.531 193.656 272.871 192 272.871 c h
192 272.871 m f
0.988235 0.760784 0.298039 rg
259.816 160.961 m 259.816 123.508 229.453 93.145 192 93.145 c 154.547 93.145
 124.184 123.508 124.184 160.961 c 124.184 194.414 148.41 222.188 180.273
 227.746 c 183.461 233.27 l 192 248.059 l 200.539 233.27 l 203.727 227.746
 l 235.59 222.188 259.816 194.414 259.816 160.961 c h
259.816 160.961 m f
0.956863 0.937255 0.929412 rg
153.227 170.109 m 159.84 170.109 l 159.84 143.309 l 153.227 143.309 l 145.824
 143.309 139.828 149.309 139.828 156.711 c 139.828 164.109 145.828 170.109
 153.227 170.109 c h
153.227 170.109 m f
197.543 141.434 m 232.367 122.98 l 232.367 190.438 l 197.543 171.984 l 
h
197.543 141.434 m f
178.691 209.801 m 175.449 209.801 172.816 207.172 172.816 203.93 c 172.816
 160.977 l 184.566 160.977 l 184.566 203.93 l 184.566 207.172 181.934 209.801
 178.691 209.801 c h
178.691 209.801 m f
0.411765 0.0196078 0.537255 rg
178.691 212.801 m 173.797 212.801 169.816 208.82 169.816 203.93 c 169.816
 160.977 l 169.816 159.32 171.16 157.977 172.816 157.977 c 184.566 157.977
 l 186.219 157.977 187.566 159.32 187.566 160.977 c 187.566 203.93 l 187.566
 208.82 183.582 212.801 178.691 212.801 c h
175.816 163.977 m 175.816 203.93 l 175.816 205.512 177.105 206.801 178.691
 206.801 c 180.277 206.801 181.566 205.512 181.566 203.93 c 181.566 163.977
 l h
175.816 163.977 m f
0.533333 0.321569 0.658824 rg
192 176.664 m 165.383 176.664 l 162.32 176.664 159.84 174.184 159.84 171.121
 c 159.84 142.293 l 159.84 139.234 162.32 136.754 165.383 136.754 c 192 
136.754 l 195.059 136.754 197.543 139.234 197.543 142.293 c 197.543 171.121
 l 197.543 174.184 195.059 176.664 192 176.664 c h
192 176.664 m f
0.956863 0.937255 0.929412 rg
234.762 163.945 m 232.367 163.945 l 232.367 149.469 l 234.762 149.469 l
 238.762 149.469 242 152.711 242 156.711 c 242 160.707 238.762 163.945 234.762
 163.945 c h
234.762 163.945 m f
0.411765 0.0196078 0.537255 rg
234.762 166.945 m 232.363 166.945 l 230.711 166.945 229.363 165.602 229.363
 163.945 c 229.363 149.469 l 229.363 147.816 230.711 146.469 232.363 146.469
 c 234.762 146.469 l 240.41 146.469 245 151.062 245 156.711 c 245 162.355
 240.406 166.945 234.762 166.945 c h
235.363 152.512 m 235.363 160.906 l 237.418 160.613 239 158.844 239 156.711
 c 239 154.578 237.418 152.805 235.363 152.512 c h
235.363 152.512 m f
232.363 193.438 m 231.883 193.438 231.398 193.32 230.961 193.09 c 196.137
 174.637 l 195.156 174.117 194.543 173.094 194.543 171.984 c 194.543 141.434
 l 194.543 140.32 195.156 139.301 196.137 138.781 c 230.961 120.328 l 231.887
 119.836 233.012 119.863 233.91 120.406 c 234.816 120.949 235.363 121.926
 235.363 122.98 c 235.363 190.438 l 235.363 191.488 234.816 192.465 233.91
 193.008 c 233.438 193.293 232.902 193.438 232.363 193.438 c h
200.543 170.18 m 229.363 185.453 l 229.363 127.965 l 200.543 143.238 l 
h
200.543 170.18 m f
159.84 173.109 m 153.227 173.109 l 144.188 173.109 136.828 165.75 136.828
 156.707 c 136.828 147.664 144.184 140.309 153.227 140.309 c 159.84 140.309
 l 161.496 140.309 162.84 141.652 162.84 143.309 c 162.84 170.105 l 162.84
 171.766 161.496 173.109 159.84 173.109 c h
153.227 146.309 m 147.492 146.309 142.828 150.977 142.828 156.711 c 142.828
 162.445 147.492 167.109 153.227 167.109 c 156.84 167.109 l 156.84 146.309
 l h
153.227 146.309 m f
192 179.664 m 165.383 179.664 l 160.672 179.664 156.84 175.832 156.84 171.121
 c 156.84 142.293 l 156.84 137.582 160.676 133.754 165.383 133.754 c 192
 133.754 l 196.711 133.754 200.543 137.586 200.543 142.293 c 200.543 171.121
 l 200.543 175.832 196.711 179.664 192 179.664 c h
165.383 139.754 m 163.98 139.754 162.84 140.895 162.84 142.293 c 162.84
 171.121 l 162.84 172.527 163.98 173.664 165.383 173.664 c 192 173.664 l
 193.402 173.664 194.543 172.523 194.543 171.121 c 194.543 142.293 l 194.543
 140.891 193.402 139.754 192 139.754 c h
165.383 139.754 m f
192 251.062 m 190.926 251.062 189.938 250.488 189.402 249.562 c 178.367
 230.445 l 145.148 223.977 121.184 194.977 121.184 160.965 c 121.184 121.914
 152.953 90.148 192 90.148 c 231.051 90.148 262.816 121.914 262.816 160.965
 c 262.816 194.98 238.855 223.977 205.637 230.445 c 194.602 249.562 l 194.062
 250.488 193.074 251.062 192 251.062 c h
192 96.148 m 156.262 96.148 127.184 125.223 127.184 160.965 c 127.184 192.531
 149.727 219.375 180.789 224.793 c 181.664 224.945 182.426 225.477 182.871
 226.246 c 192 242.062 l 201.129 226.246 l 201.574 225.477 202.336 224.945
 203.211 224.789 c 234.273 219.375 256.816 192.531 256.816 160.961 c 256.816
 125.223 227.738 96.148 192 96.148 c h
192 96.148 m f
Q Q
showpage
%%Trailer
end
%%EOF
