%!PS-Adobe-3.0 EPSF-3.0
%%Creator: cairo 1.16.0 (https://cairographics.org)
%%CreationDate: Fri Jan 10 07:39:13 2020
%%Pages: 1
%%DocumentData: Clean7Bit
%%LanguageLevel: 2
%%BoundingBox: 3 3 381 381
%%EndComments
%%BeginProlog
50 dict begin
/q { gsave } bind def
/Q { grestore } bind def
/cm { 6 array astore concat } bind def
/w { setlinewidth } bind def
/J { setlinecap } bind def
/j { setlinejoin } bind def
/M { setmiterlimit } bind def
/d { setdash } bind def
/m { moveto } bind def
/l { lineto } bind def
/c { curveto } bind def
/h { closepath } bind def
/re { exch dup neg 3 1 roll 5 3 roll moveto 0 rlineto
      0 exch rlineto 0 rlineto closepath } bind def
/S { stroke } bind def
/f { fill } bind def
/f* { eofill } bind def
/n { newpath } bind def
/W { clip } bind def
/W* { eoclip } bind def
/BT { } bind def
/ET { } bind def
/BDC { mark 3 1 roll /BDC pdfmark } bind def
/EMC { mark /EMC pdfmark } bind def
/cairo_store_point { /cairo_point_y exch def /cairo_point_x exch def } def
/Tj { show currentpoint cairo_store_point } bind def
/TJ {
  {
    dup
    type /stringtype eq
    { show } { -0.001 mul 0 cairo_font_matrix dtransform rmoveto } ifelse
  } forall
  currentpoint cairo_store_point
} bind def
/cairo_selectfont { cairo_font_matrix aload pop pop pop 0 0 6 array astore
    cairo_font exch selectfont cairo_point_x cairo_point_y moveto } bind def
/Tf { pop /cairo_font exch def /cairo_font_matrix where
      { pop cairo_selectfont } if } bind def
/Td { matrix translate cairo_font_matrix matrix concatmatrix dup
      /cairo_font_matrix exch def dup 4 get exch 5 get cairo_store_point
      /cairo_font where { pop cairo_selectfont } if } bind def
/Tm { 2 copy 8 2 roll 6 array astore /cairo_font_matrix exch def
      cairo_store_point /cairo_font where { pop cairo_selectfont } if } bind def
/g { setgray } bind def
/rg { setrgbcolor } bind def
/d1 { setcachedevice } bind def
/cairo_data_source {
  CairoDataIndex CairoData length lt
    { CairoData CairoDataIndex get /CairoDataIndex CairoDataIndex 1 add def }
    { () } ifelse
} def
/cairo_flush_ascii85_file { cairo_ascii85_file status { cairo_ascii85_file flushfile } if } def
/cairo_image { image cairo_flush_ascii85_file } def
/cairo_imagemask { imagemask cairo_flush_ascii85_file } def
%%EndProlog
%%BeginSetup
%%EndSetup
%%Page: 1 1
%%BeginPageSetup
%%PageBoundingBox: 3 3 381 381
%%EndPageSetup
q 3 3 378 378 rectclip
1 0 0 -1 0 384 cm q
0.321569 0.435294 0.666667 rg
168.953 237.047 m 168.953 193.605 l 215.254 193.605 l 215.254 237.047 l
 247.633 237.047 l 263.828 237.07 276.938 250.367 276.918 266.559 c 276.918
 305.609 l 107.082 305.609 l 107.082 266.316 l 107.102 250.125 120.324 237.012
 136.516 237.035 c h
168.953 237.047 m f
0.203922 0.317647 0.54902 rg
247.637 237.047 m 237.348 237.047 l 253.543 237.07 266.652 250.352 266.633
 266.547 c 266.633 305.613 l 276.918 305.613 l 276.918 266.559 l 276.938
 250.367 263.828 237.07 247.637 237.047 c h
247.637 237.047 m f
0.439216 0.552941 0.784314 rg
136.516 237.035 m 146.801 237.047 l 130.609 237.027 117.387 250.137 117.367
 266.332 c 117.367 305.609 l 107.082 305.609 l 107.082 266.316 l 107.102
 250.125 120.324 237.016 136.516 237.035 c h
136.516 237.035 m f
0.411765 0.0196078 0.537255 rg
276.918 308.613 m 107.082 308.613 l 105.426 308.613 104.082 307.266 104.082
 305.613 c 104.082 266.32 l 104.094 257.684 107.48 249.57 113.617 243.469
 c 119.742 237.387 127.859 234.035 136.477 234.035 c 136.52 234.035 l 165.953
 234.047 l 165.953 193.605 l 165.953 191.949 167.297 190.605 168.953 190.605
 c 215.254 190.605 l 216.91 190.605 218.254 191.949 218.254 193.605 c 218.254
 234.047 l 247.633 234.047 l 256.266 234.059 264.383 237.461 270.488 243.629
 c 276.578 249.781 279.926 257.926 279.918 266.562 c 279.918 305.613 l 279.918
 307.266 278.574 308.613 276.918 308.613 c h
110.082 302.613 m 273.918 302.613 l 273.918 266.559 l 273.93 259.512 271.195
 252.871 266.227 247.852 c 261.254 242.828 254.648 240.059 247.633 240.051
 c 215.258 240.051 l 213.602 240.051 212.258 238.707 212.258 237.051 c 212.258
 196.605 l 171.957 196.605 l 171.957 237.047 l 171.957 237.844 171.641 238.609
 171.078 239.172 c 170.516 239.734 169.754 240.047 168.957 240.047 c 136.52
 240.035 l 136.508 240.035 136.492 240.035 136.484 240.035 c 129.457 240.035
 122.84 242.766 117.852 247.723 c 112.852 252.691 110.094 259.297 110.082
 266.32 c h
110.082 302.613 m f
1 0.623529 0.439216 rg
168.953 193.605 m 215.254 193.605 l 215.254 240.16 l 215.254 252.945 204.887
 263.309 192.102 263.309 c 179.32 263.309 168.953 252.945 168.953 240.16
 c h
168.953 193.605 m f
0.411765 0.0196078 0.537255 rg
192.102 266.309 m 177.684 266.309 165.953 254.578 165.953 240.16 c 165.953
 193.605 l 165.953 191.949 167.297 190.605 168.953 190.605 c 215.254 190.605
 l 216.91 190.605 218.254 191.949 218.254 193.605 c 218.254 240.16 l 218.254
 254.578 206.523 266.309 192.102 266.309 c h
171.957 196.605 m 171.957 240.16 l 171.957 251.27 180.992 260.309 192.105
 260.309 c 203.219 260.309 212.258 251.27 212.258 240.16 c 212.258 196.605
 l h
171.957 196.605 m f
1 0.741176 0.556863 rg
146.152 153.973 m 142.875 153.973 l 134.406 153.973 127.539 160.84 127.539
 169.309 c 127.539 177.781 134.406 184.645 142.875 184.645 c 146.152 184.645
 l h
146.152 153.973 m f
0.882353 0.505882 0.321569 rg
241.211 153.973 m 237.934 153.973 l 237.934 184.645 l 241.211 184.645 l
 249.68 184.645 256.547 177.781 256.547 169.309 c 256.547 160.84 249.68 
153.973 241.211 153.973 c h
241.211 153.973 m f
1 0.623529 0.439216 rg
192.043 231.938 m 166.699 231.938 146.152 211.125 146.152 185.449 c 146.152
 153.266 l 146.152 127.59 166.699 106.777 192.043 106.777 c 217.391 106.777
 237.938 127.59 237.938 153.266 c 237.938 185.449 l 237.934 211.121 217.391
 231.938 192.043 231.938 c h
192.043 231.938 m f
0.882353 0.505882 0.321569 rg
192.043 106.777 m 190.281 106.777 188.539 106.887 186.828 107.082 c 209.715
 109.707 227.504 129.375 227.504 153.266 c 227.504 185.449 l 227.504 209.336
 209.715 229.004 186.828 231.629 c 188.539 231.824 190.277 231.938 192.043
 231.938 c 217.391 231.938 237.938 211.125 237.938 185.449 c 237.938 153.266
 l 237.934 127.59 217.391 106.777 192.043 106.777 c h
192.043 106.777 m f
1 0.741176 0.556863 rg
192.043 106.777 m 193.809 106.777 195.547 106.887 197.258 107.082 c 174.371
 109.707 156.582 129.375 156.582 153.266 c 156.582 185.449 l 156.582 209.336
 174.371 229.004 197.258 231.629 c 195.547 231.824 193.809 231.938 192.043
 231.938 c 166.699 231.938 146.152 211.125 146.152 185.449 c 146.152 153.266
 l 146.152 127.59 166.695 106.777 192.043 106.777 c h
192.043 106.777 m f
0.411765 0.0196078 0.537255 rg
192.043 234.938 m 165.082 234.938 143.148 212.734 143.148 185.449 c 143.148
 153.266 l 143.148 125.977 165.082 103.777 192.043 103.777 c 219 103.777
 240.934 125.977 240.934 153.266 c 240.934 185.449 l 240.934 212.734 219
 234.938 192.043 234.938 c h
192.043 109.777 m 168.391 109.777 149.148 129.285 149.148 153.266 c 149.148
 185.449 l 149.148 209.426 168.391 228.938 192.043 228.938 c 215.695 228.938
 234.934 209.43 234.934 185.449 c 234.934 153.266 l 234.934 129.285 215.695
 109.777 192.043 109.777 c h
192.043 109.777 m f
146.152 187.645 m 142.875 187.645 l 132.762 187.645 124.539 179.422 124.539
 169.309 c 124.539 159.199 132.762 150.973 142.875 150.973 c 146.152 150.973
 l 147.809 150.973 149.152 152.316 149.152 153.973 c 149.152 184.645 l 149.152
 186.305 147.809 187.645 146.152 187.645 c h
142.875 156.973 m 136.074 156.973 130.539 162.508 130.539 169.312 c 130.539
 176.113 136.07 181.648 142.875 181.648 c 143.152 181.648 l 143.152 156.977
 l 142.875 156.977 l h
142.875 156.973 m f
241.211 187.645 m 237.934 187.645 l 236.277 187.645 234.934 186.301 234.934
 184.645 c 234.934 153.973 l 234.934 152.316 236.277 150.973 237.934 150.973
 c 241.211 150.973 l 251.32 150.973 259.547 159.199 259.547 169.312 c 259.547
 179.422 251.32 187.645 241.211 187.645 c h
240.934 181.645 m 241.211 181.645 l 248.012 181.645 253.547 176.113 253.547
 169.309 c 253.547 162.508 248.016 156.973 241.211 156.973 c 240.934 156.973
 l h
240.934 181.645 m f
0.988235 0.760784 0.298039 rg
378 223.152 m 378 160.848 l 343.52 160.848 l 339.516 141.262 331.785 123.047
 321.137 106.922 c 345.551 82.508 l 301.492 38.449 l 277.078 62.863 l 260.953
 52.215 242.738 44.484 223.152 40.48 c 223.152 6 l 160.848 6 l 160.848 40.48
 l 141.262 44.484 123.047 52.219 106.922 62.863 c 82.508 38.449 l 38.449
 82.508 l 62.863 106.922 l 52.215 123.047 44.484 141.262 40.48 160.848 c
 6 160.848 l 6 223.152 l 40.48 223.152 l 44.484 242.738 52.215 260.953 62.859
 277.078 c 38.445 301.492 l 82.504 345.551 l 106.918 321.137 l 123.043 331.785
 141.258 339.516 160.844 343.52 c 160.844 378 l 223.152 378 l 223.152 343.52
 l 242.734 339.516 260.953 331.781 277.078 321.137 c 301.488 345.551 l 345.547
 301.492 l 321.137 277.078 l 331.781 260.953 339.512 242.738 343.516 223.152
 c h
192 297.672 m 133.637 297.672 86.324 250.363 86.324 192 c 86.324 133.641
 133.637 86.328 192 86.328 c 250.359 86.328 297.672 133.641 297.672 192 
c 297.672 250.363 250.363 297.672 192 297.672 c h
192 297.672 m f
0.870588 0.643137 0.180392 rg
317.891 87.785 m 303.051 102.625 l 300.613 105.062 300.066 108.871 301.859
 111.82 c 309.906 125.051 316.031 139.578 319.824 155.023 c 320.656 158.41
 323.613 160.848 327.105 160.848 c 343.52 160.848 l 339.516 141.262 331.785
 123.047 321.137 106.922 c 345.551 82.508 l 301.492 38.449 l 290.301 49.641
 l 317.891 77.23 l 320.805 80.145 320.805 84.871 317.891 87.785 c h
317.891 87.785 m f
355.617 160.848 22.383 62.305 re f
343.52 223.152 m 327.105 223.152 l 323.617 223.152 320.656 225.59 319.824
 228.977 c 316.031 244.422 309.906 258.949 301.859 272.18 c 300.066 275.129
 300.609 278.938 303.051 281.375 c 317.891 296.215 l 320.805 299.129 320.805
 303.852 317.891 306.77 c 290.301 334.359 l 301.492 345.551 l 345.551 301.492
 l 321.137 277.078 l 331.785 260.953 339.516 242.738 343.52 223.152 c h
343.52 223.152 m f
0.988235 0.878431 0.415686 rg
66.109 87.785 m 80.949 102.625 l 83.387 105.062 83.934 108.871 82.141 111.82
 c 74.094 125.051 67.969 139.578 64.176 155.023 c 63.344 158.41 60.387 160.848
 56.895 160.848 c 40.48 160.848 l 44.484 141.262 52.215 123.047 62.863 106.922
 c 38.449 82.508 l 82.508 38.449 l 93.699 49.641 l 66.109 77.23 l 63.195
 80.145 63.195 84.871 66.109 87.785 c h
66.109 87.785 m f
6 160.848 22.383 62.305 re f
40.48 223.152 m 56.895 223.152 l 60.383 223.152 63.344 225.59 64.176 228.977
 c 67.969 244.422 74.094 258.949 82.141 272.18 c 83.934 275.129 83.391 278.938
 80.949 281.375 c 66.109 296.215 l 63.195 299.129 63.195 303.852 66.109 
306.77 c 93.699 334.359 l 82.508 345.551 l 38.449 301.492 l 62.863 277.078
 l 52.215 260.953 44.484 242.738 40.48 223.152 c h
40.48 223.152 m f
0.411765 0.0196078 0.537255 rg
28.383 204 m 26.727 204 25.383 202.656 25.383 201 c 25.383 183 l 25.383
 181.344 26.727 180 28.383 180 c 30.039 180 31.383 181.344 31.383 183 c 
31.383 201 l 31.383 202.656 30.039 204 28.383 204 c h
28.383 204 m f
223.152 381 m 160.844 381 l 159.188 381 157.844 379.656 157.844 378 c 157.844
 345.949 l 139.902 341.988 122.93 334.941 107.324 324.977 c 84.629 347.672
 l 83.457 348.844 81.555 348.844 80.387 347.672 c 36.328 303.613 l 35.156
 302.445 35.156 300.543 36.328 299.371 c 59.023 276.68 l 49.059 261.074 
42.012 244.102 38.051 226.156 c 6 226.156 l 4.344 226.156 3 224.812 3 223.156
 c 3 160.848 l 3 159.191 4.344 157.848 6 157.848 c 38.051 157.848 l 42.012
 139.902 49.059 122.93 59.023 107.324 c 36.328 84.629 l 35.156 83.457 35.156
 81.559 36.328 80.387 c 80.387 36.328 l 81.555 35.16 83.457 35.16 84.629
 36.328 c 107.324 59.023 l 122.926 49.059 139.902 42.016 157.844 38.055 
c 157.844 6 l 157.844 4.344 159.188 3 160.844 3 c 223.152 3 l 224.809 3 
226.152 4.344 226.152 6 c 226.152 38.051 l 244.098 42.016 261.07 49.059 
276.676 59.023 c 299.371 36.328 l 300.543 35.156 302.441 35.156 303.613 
36.328 c 347.672 80.387 l 348.844 81.559 348.844 83.457 347.672 84.629 c
 324.977 107.324 l 334.941 122.93 341.988 139.902 345.945 157.848 c 378 
157.848 l 379.656 157.848 381 159.191 381 160.848 c 381 223.152 l 381 224.809
 379.656 226.152 378 226.152 c 345.949 226.152 l 341.988 244.098 334.941
 261.07 324.977 276.676 c 347.672 299.371 l 348.844 300.543 348.844 302.441
 347.672 303.613 c 303.613 347.672 l 302.445 348.844 300.543 348.844 299.371
 347.672 c 276.676 324.977 l 261.07 334.941 244.098 341.988 226.152 345.949
 c 226.152 378 l 226.152 379.656 224.809 381 223.152 381 c h
163.844 375 m 220.152 375 l 220.152 343.52 l 220.152 342.098 221.152 340.867
 222.551 340.582 c 241.422 336.723 259.211 329.34 275.426 318.637 c 276.617
 317.848 278.191 318.012 279.199 319.02 c 301.492 341.309 l 341.309 301.492
 l 319.016 279.203 l 318.008 278.195 317.852 276.617 318.633 275.43 c 329.336
 259.215 336.723 241.43 340.582 222.555 c 340.863 221.156 342.094 220.156
 343.52 220.156 c 375 220.156 l 375 163.848 l 343.52 163.848 l 342.094 163.848
 340.863 162.848 340.582 161.449 c 336.723 142.578 329.336 124.785 318.633
 108.574 c 317.852 107.387 318.008 105.809 319.016 104.801 c 341.309 82.508
 l 301.492 42.695 l 279.199 64.984 l 278.195 65.992 276.613 66.156 275.426
 65.367 c 259.215 54.664 241.426 47.281 222.551 43.422 c 221.152 43.137 
220.152 41.91 220.152 40.484 c 220.152 9 l 163.844 9 l 163.844 40.48 l 163.844
 41.906 162.844 43.133 161.445 43.418 c 142.574 47.281 124.785 54.664 108.574
 65.367 c 107.387 66.152 105.805 65.992 104.801 64.984 c 82.508 42.691 l
 42.691 82.508 l 64.984 104.801 l 65.992 105.805 66.148 107.383 65.367 108.574
 c 54.664 124.785 47.277 142.574 43.418 161.449 c 43.133 162.844 41.902 
163.848 40.48 163.848 c 9 163.848 l 9 220.152 l 40.48 220.152 l 41.902 220.152
 43.133 221.156 43.418 222.551 c 47.277 241.426 54.664 259.215 65.367 275.426
 c 66.148 276.617 65.992 278.195 64.984 279.199 c 42.691 301.492 l 82.508
 341.309 l 104.801 319.016 l 105.809 318.012 107.383 317.848 108.574 318.633
 c 124.789 329.336 142.578 336.723 161.445 340.582 c 162.844 340.867 163.848
 342.094 163.848 343.52 c 163.848 375 l h
192 300.672 m 132.078 300.672 83.328 251.922 83.328 192 c 83.328 132.078
 132.078 83.328 192 83.328 c 251.922 83.328 300.672 132.078 300.672 192 
c 300.672 251.922 251.922 300.672 192 300.672 c h
192 89.328 m 135.387 89.328 89.328 135.387 89.328 192 c 89.328 248.613 
135.387 294.672 192 294.672 c 248.613 294.672 294.672 248.613 294.672 192
 c 294.672 135.387 248.613 89.328 192 89.328 c h
192 89.328 m f
0.321569 0.435294 0.666667 rg
369.738 72.57 m 350.176 49.336 l 330.617 26.102 l 311.055 49.336 l 291.496
 72.57 l 314.855 72.57 l 314.855 135.523 l 346.379 135.523 l 346.379 72.57
 l h
369.738 72.57 m f
0.411765 0.0196078 0.537255 rg
346.379 138.523 m 314.855 138.523 l 313.199 138.523 311.855 137.18 311.855
 135.523 c 311.855 75.566 l 291.496 75.566 l 290.328 75.566 289.27 74.891
 288.777 73.832 c 288.285 72.777 288.449 71.527 289.203 70.637 c 328.32 
24.168 l 329.461 22.816 331.773 22.816 332.914 24.168 c 372.031 70.637 l
 372.785 71.527 372.949 72.777 372.457 73.832 c 371.965 74.891 370.906 75.566
 369.738 75.566 c 349.379 75.566 l 349.379 135.52 l 349.379 137.18 348.035
 138.523 346.379 138.523 c h
317.855 132.523 m 343.379 132.523 l 343.379 72.566 l 343.379 70.91 344.723
 69.566 346.379 69.566 c 363.289 69.566 l 330.617 30.758 l 297.945 69.566
 l 314.855 69.566 l 316.512 69.566 317.855 70.91 317.855 72.566 c h
317.855 132.523 m f
Q Q
showpage
%%Trailer
end
%%EOF
