%!PS-Adobe-3.0 EPSF-3.0
%%Creator: cairo 1.16.0 (https://cairographics.org)
%%CreationDate: Fri Jan 10 07:39:13 2020
%%Pages: 1
%%DocumentData: Clean7Bit
%%LanguageLevel: 2
%%BoundingBox: 3 40 381 344
%%EndComments
%%BeginProlog
50 dict begin
/q { gsave } bind def
/Q { grestore } bind def
/cm { 6 array astore concat } bind def
/w { setlinewidth } bind def
/J { setlinecap } bind def
/j { setlinejoin } bind def
/M { setmiterlimit } bind def
/d { setdash } bind def
/m { moveto } bind def
/l { lineto } bind def
/c { curveto } bind def
/h { closepath } bind def
/re { exch dup neg 3 1 roll 5 3 roll moveto 0 rlineto
      0 exch rlineto 0 rlineto closepath } bind def
/S { stroke } bind def
/f { fill } bind def
/f* { eofill } bind def
/n { newpath } bind def
/W { clip } bind def
/W* { eoclip } bind def
/BT { } bind def
/ET { } bind def
/BDC { mark 3 1 roll /BDC pdfmark } bind def
/EMC { mark /EMC pdfmark } bind def
/cairo_store_point { /cairo_point_y exch def /cairo_point_x exch def } def
/Tj { show currentpoint cairo_store_point } bind def
/TJ {
  {
    dup
    type /stringtype eq
    { show } { -0.001 mul 0 cairo_font_matrix dtransform rmoveto } ifelse
  } forall
  currentpoint cairo_store_point
} bind def
/cairo_selectfont { cairo_font_matrix aload pop pop pop 0 0 6 array astore
    cairo_font exch selectfont cairo_point_x cairo_point_y moveto } bind def
/Tf { pop /cairo_font exch def /cairo_font_matrix where
      { pop cairo_selectfont } if } bind def
/Td { matrix translate cairo_font_matrix matrix concatmatrix dup
      /cairo_font_matrix exch def dup 4 get exch 5 get cairo_store_point
      /cairo_font where { pop cairo_selectfont } if } bind def
/Tm { 2 copy 8 2 roll 6 array astore /cairo_font_matrix exch def
      cairo_store_point /cairo_font where { pop cairo_selectfont } if } bind def
/g { setgray } bind def
/rg { setrgbcolor } bind def
/d1 { setcachedevice } bind def
/cairo_data_source {
  CairoDataIndex CairoData length lt
    { CairoData CairoDataIndex get /CairoDataIndex CairoDataIndex 1 add def }
    { () } ifelse
} def
/cairo_flush_ascii85_file { cairo_ascii85_file status { cairo_ascii85_file flushfile } if } def
/cairo_image { image cairo_flush_ascii85_file } def
/cairo_imagemask { imagemask cairo_flush_ascii85_file } def
%%EndProlog
%%BeginSetup
%%EndSetup
%%Page: 1 1
%%BeginPageSetup
%%PageBoundingBox: 3 40 381 344
%%EndPageSetup
q 3 40 378 304 rectclip
1 0 0 -1 0 384 cm q
0.321569 0.435294 0.666667 rg
348 340.898 m 36 340.898 l 19.43 340.898 6 327.469 6 310.898 c 6 123.238
 l 6 106.672 19.43 93.238 36 93.238 c 348 93.238 l 364.57 93.238 378 106.672
 378 123.238 c 378 310.898 l 378 327.465 364.57 340.898 348 340.898 c h
348 340.898 m f
0.439216 0.552941 0.784314 rg
36 340.898 m 51 340.898 l 34.43 340.898 21 327.469 21 310.898 c 21 123.238
 l 21 106.672 34.43 93.238 51 93.238 c 36 93.238 l 19.43 93.238 6 106.672
 6 123.238 c 6 310.898 l 6 327.465 19.43 340.898 36 340.898 c h
36 340.898 m f
0.956863 0.937255 0.929412 rg
6 136.781 372 159.711 re f
1 g
6 136.781 15 159.711 re f
0.533333 0.321569 0.658824 rg
43.973 271.422 m 6 271.422 l 6 162.715 l 43.973 162.715 l 52.254 162.715
 58.973 169.43 58.973 177.715 c 58.973 256.422 l 58.973 264.707 52.254 271.422
 43.973 271.422 c h
43.973 271.422 m f
0.65098 0.439216 0.776471 rg
6 162.715 15 108.707 re f
0.203922 0.317647 0.54902 rg
348 93.238 m 333 93.238 l 349.57 93.238 363 106.672 363 123.238 c 363 310.898
 l 363 327.465 349.57 340.898 333 340.898 c 348 340.898 l 364.57 340.898
 378 327.465 378 310.898 c 378 123.238 l 378 106.672 364.57 93.238 348 93.238
 c h
348 93.238 m f
0.321569 0.435294 0.666667 rg
245.023 43.102 m 138.977 43.102 l 132.348 43.102 126.504 47.453 124.605
 53.805 c 112.805 93.238 l 271.195 93.238 l 259.398 53.801 l 257.496 47.453
 251.652 43.102 245.023 43.102 c h
245.023 43.102 m f
0.956863 0.937255 0.929412 rg
217.371 80.168 m 166.629 80.168 l 160.004 80.168 154.633 74.797 154.633
 68.172 c 154.633 61.547 160.004 56.172 166.629 56.172 c 217.371 56.172 
l 223.996 56.172 229.371 61.547 229.371 68.172 c 229.371 74.797 223.996 
80.168 217.371 80.168 c h
217.371 80.168 m f
0.839216 0.819608 0.811765 rg
363 136.781 15 159.711 re f
0.956863 0.937255 0.929412 rg
340.578 108.781 m 303.918 108.781 l 299.777 108.781 296.418 112.137 296.418
 116.281 c 296.418 136.781 l 348.078 136.781 l 348.078 116.281 l 348.078
 112.137 344.723 108.781 340.578 108.781 c h
340.578 108.781 m f
0.411765 0.0196078 0.537255 rg
348 343.898 m 36 343.898 l 17.805 343.898 3 329.094 3 310.898 c 3 123.238
 l 3 105.043 17.805 90.238 36 90.238 c 348 90.238 l 366.195 90.238 381 105.043
 381 123.238 c 381 310.898 l 381 329.094 366.195 343.898 348 343.898 c h
36 96.238 m 21.113 96.238 9 108.352 9 123.238 c 9 310.898 l 9 325.785 21.113
 337.898 36 337.898 c 348 337.898 l 362.887 337.898 375 325.785 375 310.898
 c 375 123.238 l 375 108.352 362.887 96.238 348 96.238 c h
36 96.238 m f
271.195 96.238 m 112.805 96.238 l 111.859 96.238 110.965 95.793 110.398
 95.031 c 109.836 94.27 109.66 93.289 109.934 92.379 c 121.73 52.941 l 123.992
 45.379 131.082 40.098 138.977 40.098 c 245.027 40.098 l 252.918 40.098 
260.012 45.379 262.273 52.941 c 274.07 92.379 l 274.344 93.285 274.168 94.27
 273.602 95.031 c 273.039 95.793 272.141 96.238 271.195 96.238 c h
116.836 90.238 m 267.164 90.238 l 256.52 54.66 l 255.012 49.621 250.285
 46.102 245.023 46.102 c 138.973 46.102 l 133.715 46.102 128.984 49.621 
127.477 54.66 c h
116.836 90.238 m f
378 299.492 m 6 299.492 l 4.344 299.492 3 298.148 3 296.492 c 3 136.781
 l 3 135.125 4.344 133.781 6 133.781 c 378 133.781 l 379.656 133.781 381
 135.125 381 136.781 c 381 296.492 l 381 298.148 379.656 299.492 378 299.492
 c h
9 293.492 m 375 293.492 l 375 139.781 l 9 139.781 l h
9 293.492 m f
217.371 83.168 m 166.629 83.168 l 158.359 83.168 151.633 76.441 151.633
 68.172 c 151.633 59.902 158.359 53.172 166.629 53.172 c 217.371 53.172 
l 225.641 53.172 232.371 59.902 232.371 68.172 c 232.371 76.441 225.641 
83.168 217.371 83.168 c h
166.629 59.172 m 161.668 59.172 157.629 63.211 157.629 68.172 c 157.629
 73.133 161.668 77.168 166.629 77.168 c 217.371 77.168 l 222.332 77.168 
226.367 73.133 226.367 68.172 c 226.367 63.211 222.332 59.172 217.371 59.172
 c h
166.629 59.172 m f
348.082 139.781 m 296.418 139.781 l 294.762 139.781 293.418 138.438 293.418
 136.781 c 293.418 116.281 l 293.418 110.492 298.129 105.781 303.918 105.781
 c 340.582 105.781 l 346.371 105.781 351.082 110.492 351.082 116.281 c 351.082
 136.781 l 351.082 138.438 349.738 139.781 348.082 139.781 c h
299.418 133.781 m 345.078 133.781 l 345.078 116.281 l 345.078 113.801 343.059
 111.781 340.578 111.781 c 303.918 111.781 l 301.438 111.781 299.418 113.801
 299.418 116.281 c h
299.418 133.781 m f
48.137 116.609 m 48.137 120.539 44.949 123.723 41.02 123.723 c 37.09 123.723
 33.906 120.539 33.906 116.609 c 33.906 112.68 37.09 109.492 41.02 109.492
 c 44.949 109.492 48.137 112.68 48.137 116.609 c h
48.137 116.609 m f
0.988235 0.760784 0.298039 rg
262.676 145.914 m 301.734 184.973 301.734 248.297 262.676 287.355 c 223.621
 326.414 160.293 326.414 121.238 287.355 c 82.18 248.297 82.18 184.973 121.238
 145.914 c 160.293 106.855 223.621 106.855 262.676 145.914 c h
262.676 145.914 m f
0.411765 0.0196078 0.537255 rg
192 319.664 m 135.188 319.664 88.973 273.445 88.973 216.637 c 88.973 159.824
 135.188 113.609 192 113.609 c 248.812 113.609 295.027 159.828 295.027 216.637
 c 295.027 273.449 248.812 319.664 192 319.664 c h
192 119.609 m 138.496 119.609 94.973 163.137 94.973 216.637 c 94.973 270.141
 138.496 313.664 192 313.664 c 245.504 313.664 289.027 270.137 289.027 216.637
 c 289.027 163.133 245.504 119.609 192 119.609 c h
192 119.609 m f
0.533333 0.321569 0.658824 rg
205.18 137.844 m 248.664 145.164 277.98 186.352 270.66 229.836 c 263.34
 273.324 222.152 302.641 178.668 295.32 c 135.184 287.996 105.863 246.812
 113.188 203.324 c 116.703 182.441 128.367 163.812 145.621 151.531 c 162.875
 139.25 184.297 134.328 205.18 137.844 c h
205.18 137.844 m f
0.411765 0.0196078 0.537255 rg
192 299.492 m 146.312 299.492 109.145 262.324 109.145 216.637 c 109.145
 170.949 146.312 133.781 192 133.781 c 237.688 133.781 274.855 170.949 274.855
 216.637 c 274.855 262.324 237.688 299.492 192 299.492 c h
192 139.781 m 149.621 139.781 115.145 174.258 115.145 216.637 c 115.145
 259.016 149.621 293.492 192 293.492 c 234.379 293.492 268.855 259.016 268.855
 216.637 c 268.855 174.258 234.379 139.781 192 139.781 c h
192 139.781 m f
0.956863 0.937255 0.929412 rg
244.922 196.824 m 255.938 226.027 241.191 258.629 211.988 269.641 c 182.785
 280.656 150.184 265.91 139.172 236.707 c 128.156 207.504 142.902 174.902
 172.105 163.891 c 201.309 152.875 233.91 167.621 244.922 196.824 c h
244.922 196.824 m f
0.411765 0.0196078 0.537255 rg
192 276.129 m 159.195 276.129 132.508 249.441 132.508 216.637 c 132.508
 183.836 159.195 157.145 192 157.145 c 224.805 157.145 251.492 183.836 251.492
 216.637 c 251.492 249.441 224.805 276.129 192 276.129 c h
192 163.145 m 162.504 163.145 138.508 187.145 138.508 216.637 c 138.508
 246.133 162.504 270.129 192 270.129 c 221.496 270.129 245.492 246.133 245.492
 216.637 c 245.492 187.145 221.496 163.145 192 163.145 c h
192 163.145 m f
43.973 274.426 m 7.5 274.426 l 5.844 274.426 4.5 273.082 4.5 271.426 c 
4.5 269.77 5.844 268.426 7.5 268.426 c 43.973 268.426 l 50.586 268.426 55.973
 263.043 55.973 256.426 c 55.973 177.715 l 55.973 171.098 50.586 165.715
 43.973 165.715 c 7.5 165.715 l 5.844 165.715 4.5 164.371 4.5 162.715 c 
4.5 161.059 5.844 159.715 7.5 159.715 c 43.973 159.715 l 53.898 159.715 
61.973 167.789 61.973 177.715 c 61.973 256.426 l 61.973 266.348 53.898 274.426
 43.973 274.426 c h
43.973 274.426 m f
18 209.84 m 16.344 209.84 15 208.496 15 206.84 c 15 188.84 l 15 187.184
 16.344 185.84 18 185.84 c 19.656 185.84 21 187.184 21 188.84 c 21 206.84
 l 21 208.496 19.656 209.84 18 209.84 c h
18 209.84 m f
Q Q
showpage
%%Trailer
end
%%EOF
