%!PS-Adobe-3.0 EPSF-3.0
%%Creator: cairo 1.16.0 (https://cairographics.org)
%%CreationDate: Fri Jan 10 07:39:15 2020
%%Pages: 1
%%DocumentData: Clean7Bit
%%LanguageLevel: 2
%%BoundingBox: 3 44 381 340
%%EndComments
%%BeginProlog
50 dict begin
/q { gsave } bind def
/Q { grestore } bind def
/cm { 6 array astore concat } bind def
/w { setlinewidth } bind def
/J { setlinecap } bind def
/j { setlinejoin } bind def
/M { setmiterlimit } bind def
/d { setdash } bind def
/m { moveto } bind def
/l { lineto } bind def
/c { curveto } bind def
/h { closepath } bind def
/re { exch dup neg 3 1 roll 5 3 roll moveto 0 rlineto
      0 exch rlineto 0 rlineto closepath } bind def
/S { stroke } bind def
/f { fill } bind def
/f* { eofill } bind def
/n { newpath } bind def
/W { clip } bind def
/W* { eoclip } bind def
/BT { } bind def
/ET { } bind def
/BDC { mark 3 1 roll /BDC pdfmark } bind def
/EMC { mark /EMC pdfmark } bind def
/cairo_store_point { /cairo_point_y exch def /cairo_point_x exch def } def
/Tj { show currentpoint cairo_store_point } bind def
/TJ {
  {
    dup
    type /stringtype eq
    { show } { -0.001 mul 0 cairo_font_matrix dtransform rmoveto } ifelse
  } forall
  currentpoint cairo_store_point
} bind def
/cairo_selectfont { cairo_font_matrix aload pop pop pop 0 0 6 array astore
    cairo_font exch selectfont cairo_point_x cairo_point_y moveto } bind def
/Tf { pop /cairo_font exch def /cairo_font_matrix where
      { pop cairo_selectfont } if } bind def
/Td { matrix translate cairo_font_matrix matrix concatmatrix dup
      /cairo_font_matrix exch def dup 4 get exch 5 get cairo_store_point
      /cairo_font where { pop cairo_selectfont } if } bind def
/Tm { 2 copy 8 2 roll 6 array astore /cairo_font_matrix exch def
      cairo_store_point /cairo_font where { pop cairo_selectfont } if } bind def
/g { setgray } bind def
/rg { setrgbcolor } bind def
/d1 { setcachedevice } bind def
/cairo_data_source {
  CairoDataIndex CairoData length lt
    { CairoData CairoDataIndex get /CairoDataIndex CairoDataIndex 1 add def }
    { () } ifelse
} def
/cairo_flush_ascii85_file { cairo_ascii85_file status { cairo_ascii85_file flushfile } if } def
/cairo_image { image cairo_flush_ascii85_file } def
/cairo_imagemask { imagemask cairo_flush_ascii85_file } def
%%EndProlog
%%BeginSetup
%%EndSetup
%%Page: 1 1
%%BeginPageSetup
%%PageBoundingBox: 3 44 381 340
%%EndPageSetup
q 3 44 378 296 rectclip
1 0 0 -1 0 384 cm q
0.956863 0.937255 0.929412 rg
364.727 286.977 m 19.273 286.977 l 11.941 286.977 6 281.035 6 273.703 c
 6 61.008 l 6 53.676 11.941 47.734 19.273 47.734 c 364.727 47.734 l 372.059
 47.734 378 53.676 378 61.008 c 378 273.703 l 378 281.035 372.059 286.977
 364.727 286.977 c h
364.727 286.977 m f
0.839216 0.819608 0.811765 rg
364.727 47.734 m 349.727 47.734 l 357.059 47.734 363 53.676 363 61.008 
c 363 273.703 l 363 281.035 357.059 286.977 349.727 286.977 c 364.727 286.977
 l 372.059 286.977 378 281.035 378 273.703 c 378 61.008 l 378 53.676 372.059
 47.734 364.727 47.734 c h
364.727 47.734 m f
1 g
19.273 286.977 m 34.273 286.977 l 26.941 286.977 21 281.035 21 273.703 
c 21 61.008 l 21 53.676 26.941 47.734 34.273 47.734 c 19.273 47.734 l 11.941
 47.734 6 53.676 6 61.008 c 6 273.703 l 6 281.035 11.941 286.977 19.273 
286.977 c h
19.273 286.977 m f
0.321569 0.435294 0.666667 rg
313.352 336.266 m 70.648 336.266 l 70.648 318.484 l 70.648 311.152 76.59
 305.211 83.922 305.211 c 300.078 305.211 l 307.41 305.211 313.352 311.152
 313.352 318.484 c h
313.352 336.266 m f
0.203922 0.317647 0.54902 rg
300.078 305.211 m 285.078 305.211 l 292.41 305.211 298.352 311.152 298.352
 318.484 c 298.352 336.27 l 313.352 336.27 l 313.352 318.484 l 313.352 311.152
 307.41 305.211 300.078 305.211 c h
300.078 305.211 m f
0.439216 0.552941 0.784314 rg
83.922 305.211 m 98.922 305.211 l 91.59 305.211 85.648 311.152 85.648 318.484
 c 85.648 336.27 l 70.648 336.27 l 70.648 318.484 l 70.648 311.152 76.59
 305.211 83.922 305.211 c h
83.922 305.211 m f
0.203922 0.317647 0.54902 rg
120.754 286.977 142.488 18.234 re f
0.411765 0.0196078 0.537255 rg
18 103.539 m 16.344 103.539 15 102.195 15 100.539 c 15 82.539 l 15 80.883
 16.344 79.539 18 79.539 c 19.656 79.539 21 80.883 21 82.539 c 21 100.539
 l 21 102.195 19.656 103.539 18 103.539 c h
18 103.539 m f
313.352 339.266 m 70.648 339.266 l 68.992 339.266 67.648 337.922 67.648
 336.266 c 67.648 318.484 l 67.648 309.512 74.949 302.211 83.922 302.211
 c 300.078 302.211 l 309.051 302.211 316.352 309.512 316.352 318.484 c 316.352
 336.266 l 316.352 337.926 315.008 339.266 313.352 339.266 c h
73.648 333.266 m 310.352 333.266 l 310.352 318.484 l 310.352 312.82 305.742
 308.211 300.078 308.211 c 83.922 308.211 l 78.258 308.211 73.648 312.82
 73.648 318.484 c h
73.648 333.266 m f
263.246 308.211 m 120.754 308.211 l 119.098 308.211 117.754 306.867 117.754
 305.211 c 117.754 286.977 l 117.754 285.324 119.098 283.977 120.754 283.977
 c 263.242 283.977 l 264.898 283.977 266.242 285.324 266.242 286.977 c 266.242
 305.211 l 266.246 306.867 264.902 308.211 263.246 308.211 c h
123.754 302.211 m 260.242 302.211 l 260.242 289.977 l 123.754 289.977 l
 h
123.754 302.211 m f
364.727 289.977 m 19.273 289.977 l 10.301 289.977 3 282.676 3 273.703 c
 3 61.008 l 3 52.035 10.301 44.734 19.273 44.734 c 364.727 44.734 l 373.699
 44.734 381 52.035 381 61.008 c 381 273.703 l 381 282.676 373.699 289.977
 364.727 289.977 c h
19.273 50.734 m 13.609 50.734 9 55.344 9 61.008 c 9 273.703 l 9 279.367
 13.609 283.977 19.273 283.977 c 364.727 283.977 l 370.391 283.977 375 279.367
 375 273.703 c 375 61.008 l 375 55.344 370.391 50.734 364.727 50.734 c h
19.273 50.734 m f
0.533333 0.321569 0.658824 rg
253.988 243.172 m 130.012 243.172 l 88.137 243.172 54.195 209.227 54.195
 167.355 c 54.195 125.484 88.137 91.539 130.012 91.539 c 253.992 91.539 
l 295.863 91.539 329.805 125.484 329.805 167.355 c 329.805 209.227 295.863
 243.172 253.988 243.172 c h
253.988 243.172 m f
0.415686 0.203922 0.541176 rg
253.988 91.539 m 240.488 91.539 l 282.363 91.539 316.305 125.484 316.305
 167.355 c 316.305 209.227 282.363 243.172 240.488 243.172 c 253.988 243.172
 l 295.863 243.172 329.805 209.227 329.805 167.355 c 329.805 125.484 295.863
 91.539 253.988 91.539 c h
253.988 91.539 m f
0.65098 0.439216 0.776471 rg
130.012 243.172 m 143.512 243.172 l 101.637 243.172 67.695 209.227 67.695
 167.355 c 67.695 125.484 101.637 91.539 143.512 91.539 c 130.012 91.539
 l 88.137 91.539 54.195 125.484 54.195 167.355 c 54.195 209.227 88.137 243.172
 130.012 243.172 c h
130.012 243.172 m f
0.411765 0.0196078 0.537255 rg
253.988 246.172 m 130.012 246.172 l 86.551 246.172 51.195 210.816 51.195
 167.355 c 51.195 123.898 86.551 88.539 130.012 88.539 c 253.988 88.539 
l 297.449 88.539 332.805 123.898 332.805 167.355 c 332.805 210.816 297.449
 246.172 253.988 246.172 c h
130.012 94.539 m 89.859 94.539 57.195 127.203 57.195 167.355 c 57.195 207.504
 89.859 240.172 130.012 240.172 c 253.988 240.172 l 294.141 240.172 326.805
 207.508 326.805 167.355 c 326.805 127.203 294.141 94.539 253.988 94.539
 c h
130.012 94.539 m f
0.321569 0.435294 0.666667 rg
325.137 216.148 m 306.723 214.566 l 288.312 212.988 l 289.895 231.398 l
 291.473 249.809 l 301.523 239.762 l 328.609 266.848 l 342.172 253.285 l
 315.086 226.199 l h
325.137 216.148 m f
0.411765 0.0196078 0.537255 rg
328.609 269.848 m 327.84 269.848 327.074 269.555 326.488 268.969 c 301.523
 244.004 l 293.594 251.93 l 292.773 252.758 291.543 253.027 290.445 252.629
 c 289.348 252.227 288.582 251.23 288.484 250.066 c 285.324 213.242 l 285.246
 212.359 285.562 211.492 286.191 210.867 c 286.816 210.238 287.684 209.926
 288.57 209.996 c 325.391 213.16 l 326.555 213.258 327.555 214.023 327.953
 215.121 c 328.355 216.215 328.082 217.445 327.258 218.27 c 319.328 226.199
 l 344.293 251.164 l 344.855 251.727 345.172 252.488 345.172 253.285 c 345.172
 254.078 344.855 254.844 344.293 255.406 c 330.73 268.969 l 330.145 269.555
 329.375 269.848 328.609 269.848 c h
301.523 236.762 m 302.293 236.762 303.059 237.055 303.645 237.641 c 328.609
 262.605 l 337.93 253.285 l 312.965 228.32 l 312.402 227.758 312.086 226.996
 312.086 226.199 c 312.086 225.406 312.402 224.641 312.965 224.078 c 318.457
 218.586 l 291.605 216.281 l 293.91 243.133 l 299.402 237.641 l 299.988 
237.055 300.758 236.762 301.523 236.762 c h
301.523 236.762 m f
0.956863 0.937255 0.929412 rg
124.246 177.484 m 111.289 177.484 l 111.289 200.348 l 111.289 203.508 108.652
 206.145 105.387 206.145 c 102.227 206.145 99.594 203.512 99.594 200.348
 c 99.594 138.184 l 99.594 134.914 102.227 132.387 105.387 132.387 c 124.246
 132.387 l 136.785 132.387 146.898 142.504 146.898 155.043 c 146.902 167.371
 136.785 177.484 124.246 177.484 c h
111.289 165.789 m 124.246 165.789 l 130.359 165.789 135.102 160.941 135.207
 155.043 c 135.098 148.93 130.359 144.082 124.246 144.082 c 111.289 144.082
 l h
111.289 165.789 m f
185.668 177.484 m 172.707 177.484 l 172.707 200.348 l 172.707 203.508 170.074
 206.145 166.809 206.145 c 163.648 206.145 161.012 203.512 161.012 200.348
 c 161.012 138.184 l 161.012 134.914 163.648 132.387 166.809 132.387 c 185.668
 132.387 l 198.207 132.387 208.32 142.504 208.32 155.043 c 208.32 167.371
 198.207 177.484 185.668 177.484 c h
172.707 165.789 m 185.668 165.789 l 191.781 165.789 196.52 160.941 196.625
 155.043 c 196.52 148.93 191.781 144.082 185.668 144.082 c 172.707 144.082
 l h
172.707 165.789 m f
219.168 168.211 m 219.273 147.348 236.762 130.387 257.836 130.281 c 267.105
 130.281 275.535 133.336 282.176 138.5 c 284.703 140.605 285.125 144.293
 283.227 146.93 c 281.121 149.562 277.223 149.984 274.797 148.086 c 270.164
 144.293 264.367 142.293 257.836 142.293 c 250.566 142.293 243.82 145.242
 238.867 149.879 c 234.129 154.727 231.176 161.047 231.176 168.211 c 231.176
 175.375 234.129 181.91 238.867 186.543 c 243.82 191.18 250.566 194.133 
257.836 194.133 c 264.367 194.133 270.059 192.129 274.797 188.336 c 277.223
 186.543 281.121 186.969 283.227 189.492 c 285.125 192.129 284.703 195.922
 282.176 197.922 c 275.535 203.086 267.105 206.141 257.836 206.141 c 236.762
 206.141 219.273 189.18 219.168 168.211 c h
219.168 168.211 m f
0.988235 0.760784 0.298039 rg
350.586 103.688 m 350.586 124.938 333.359 142.16 312.113 142.16 c 290.863
 142.16 273.641 124.938 273.641 103.688 c 273.641 82.438 290.863 65.215 
312.113 65.215 c 333.359 65.215 350.586 82.438 350.586 103.688 c h
350.586 103.688 m f
0.870588 0.643137 0.180392 rg
312.113 65.215 m 310.883 65.215 309.664 65.277 308.465 65.391 c 328 67.23
 343.289 83.672 343.289 103.688 c 343.289 123.703 328 140.145 308.465 141.984
 c 309.664 142.098 310.883 142.16 312.113 142.16 c 333.363 142.16 350.586
 124.938 350.586 103.688 c 350.586 82.441 333.363 65.215 312.113 65.215 
c h
312.113 65.215 m f
0.988235 0.878431 0.415686 rg
312.113 142.164 m 313.344 142.164 314.559 142.098 315.762 141.984 c 296.223
 140.148 280.934 123.707 280.934 103.688 c 280.934 83.672 296.223 67.23 
315.762 65.391 c 314.559 65.281 313.344 65.215 312.113 65.215 c 290.863 
65.215 273.641 82.441 273.641 103.688 c 273.641 124.938 290.863 142.164 
312.113 142.164 c h
312.113 142.164 m f
0.411765 0.0196078 0.537255 rg
312.113 145.16 m 289.242 145.16 270.641 126.555 270.641 103.688 c 270.641
 80.82 289.242 62.215 312.113 62.215 c 334.98 62.215 353.586 80.82 353.586
 103.688 c 353.586 126.555 334.98 145.16 312.113 145.16 c h
312.113 68.215 m 292.551 68.215 276.641 84.129 276.641 103.688 c 276.641
 123.246 292.551 139.16 312.113 139.16 c 331.676 139.16 347.586 123.246 
347.586 103.688 c 347.586 84.129 331.672 68.215 312.113 68.215 c h
312.113 68.215 m f
312.07 80.637 m 313.379 80.637 314.41 81.672 314.41 82.98 c 314.41 84.18
 l 317.625 84.562 320.352 85.598 322.855 87.176 c 323.73 87.668 324.492 
88.484 324.492 89.793 c 324.492 91.48 323.129 92.789 321.441 92.789 c 320.898
 92.789 320.352 92.625 319.809 92.297 c 317.902 91.152 316.047 90.336 314.195
 89.902 c 314.195 100.363 l 322.477 102.434 326.02 105.758 326.02 111.586
 c 326.02 117.582 321.332 121.559 314.414 122.211 c 314.414 125.48 l 314.414
 126.789 313.379 127.824 312.07 127.824 c 310.762 127.824 309.672 126.789
 309.672 125.48 c 309.672 122.102 l 305.586 121.668 301.828 120.195 298.504
 117.852 c 297.574 117.254 297.031 116.383 297.031 115.238 c 297.031 113.551
 298.34 112.242 300.027 112.242 c 300.684 112.242 301.336 112.461 301.828
 112.84 c 304.387 114.691 306.895 115.945 309.891 116.492 c 309.891 105.758
 l 301.934 103.688 298.23 100.691 298.23 94.531 c 298.23 88.703 302.863 
84.672 309.672 84.125 c 309.672 82.98 l 309.672 81.676 310.762 80.637 312.07
 80.637 c h
309.891 99.219 m 309.891 89.574 l 306.402 89.902 304.66 91.754 304.66 94.152
 c 304.66 96.441 305.695 97.855 309.891 99.219 c h
314.191 106.793 m 314.191 116.711 l 317.68 116.328 319.586 114.582 319.586
 111.969 c 319.59 109.57 318.387 108.098 314.191 106.793 c h
314.191 106.793 m f
Q Q
showpage
%%Trailer
end
%%EOF
