%!PS-Adobe-3.0 EPSF-3.0
%%Creator: cairo 1.16.0 (https://cairographics.org)
%%CreationDate: Fri Jan 10 07:39:16 2020
%%Pages: 1
%%DocumentData: Clean7Bit
%%LanguageLevel: 2
%%BoundingBox: 3 44 381 340
%%EndComments
%%BeginProlog
50 dict begin
/q { gsave } bind def
/Q { grestore } bind def
/cm { 6 array astore concat } bind def
/w { setlinewidth } bind def
/J { setlinecap } bind def
/j { setlinejoin } bind def
/M { setmiterlimit } bind def
/d { setdash } bind def
/m { moveto } bind def
/l { lineto } bind def
/c { curveto } bind def
/h { closepath } bind def
/re { exch dup neg 3 1 roll 5 3 roll moveto 0 rlineto
      0 exch rlineto 0 rlineto closepath } bind def
/S { stroke } bind def
/f { fill } bind def
/f* { eofill } bind def
/n { newpath } bind def
/W { clip } bind def
/W* { eoclip } bind def
/BT { } bind def
/ET { } bind def
/BDC { mark 3 1 roll /BDC pdfmark } bind def
/EMC { mark /EMC pdfmark } bind def
/cairo_store_point { /cairo_point_y exch def /cairo_point_x exch def } def
/Tj { show currentpoint cairo_store_point } bind def
/TJ {
  {
    dup
    type /stringtype eq
    { show } { -0.001 mul 0 cairo_font_matrix dtransform rmoveto } ifelse
  } forall
  currentpoint cairo_store_point
} bind def
/cairo_selectfont { cairo_font_matrix aload pop pop pop 0 0 6 array astore
    cairo_font exch selectfont cairo_point_x cairo_point_y moveto } bind def
/Tf { pop /cairo_font exch def /cairo_font_matrix where
      { pop cairo_selectfont } if } bind def
/Td { matrix translate cairo_font_matrix matrix concatmatrix dup
      /cairo_font_matrix exch def dup 4 get exch 5 get cairo_store_point
      /cairo_font where { pop cairo_selectfont } if } bind def
/Tm { 2 copy 8 2 roll 6 array astore /cairo_font_matrix exch def
      cairo_store_point /cairo_font where { pop cairo_selectfont } if } bind def
/g { setgray } bind def
/rg { setrgbcolor } bind def
/d1 { setcachedevice } bind def
/cairo_data_source {
  CairoDataIndex CairoData length lt
    { CairoData CairoDataIndex get /CairoDataIndex CairoDataIndex 1 add def }
    { () } ifelse
} def
/cairo_flush_ascii85_file { cairo_ascii85_file status { cairo_ascii85_file flushfile } if } def
/cairo_image { image cairo_flush_ascii85_file } def
/cairo_imagemask { imagemask cairo_flush_ascii85_file } def
%%EndProlog
%%BeginSetup
%%EndSetup
%%Page: 1 1
%%BeginPageSetup
%%PageBoundingBox: 3 44 381 340
%%EndPageSetup
q 3 44 378 296 rectclip
1 0 0 -1 0 384 cm q
0.956863 0.937255 0.929412 rg
364.727 286.977 m 19.273 286.977 l 11.941 286.977 6 281.035 6 273.703 c
 6 61.008 l 6 53.676 11.941 47.734 19.273 47.734 c 364.727 47.734 l 372.059
 47.734 378 53.676 378 61.008 c 378 273.703 l 378 281.035 372.059 286.977
 364.727 286.977 c h
364.727 286.977 m f
0.839216 0.819608 0.811765 rg
364.727 47.734 m 349.727 47.734 l 357.059 47.734 363 53.676 363 61.008 
c 363 273.703 l 363 281.035 357.059 286.977 349.727 286.977 c 364.727 286.977
 l 372.059 286.977 378 281.035 378 273.703 c 378 61.008 l 378 53.676 372.059
 47.734 364.727 47.734 c h
364.727 47.734 m f
1 g
19.273 286.977 m 34.273 286.977 l 26.941 286.977 21 281.035 21 273.703 
c 21 61.008 l 21 53.676 26.941 47.734 34.273 47.734 c 19.273 47.734 l 11.941
 47.734 6 53.676 6 61.008 c 6 273.703 l 6 281.035 11.941 286.977 19.273 
286.977 c h
19.273 286.977 m f
0.321569 0.435294 0.666667 rg
313.352 336.266 m 70.648 336.266 l 70.648 318.484 l 70.648 311.152 76.59
 305.211 83.922 305.211 c 300.078 305.211 l 307.41 305.211 313.352 311.152
 313.352 318.484 c h
313.352 336.266 m f
0.203922 0.317647 0.54902 rg
300.078 305.211 m 285.078 305.211 l 292.41 305.211 298.352 311.152 298.352
 318.484 c 298.352 336.27 l 313.352 336.27 l 313.352 318.484 l 313.352 311.152
 307.41 305.211 300.078 305.211 c h
300.078 305.211 m f
0.439216 0.552941 0.784314 rg
83.922 305.211 m 98.922 305.211 l 91.59 305.211 85.648 311.152 85.648 318.484
 c 85.648 336.27 l 70.648 336.27 l 70.648 318.484 l 70.648 311.152 76.59
 305.211 83.922 305.211 c h
83.922 305.211 m f
0.203922 0.317647 0.54902 rg
120.754 286.977 142.488 18.234 re f
0.411765 0.0196078 0.537255 rg
18 103.539 m 16.344 103.539 15 102.195 15 100.539 c 15 82.539 l 15 80.883
 16.344 79.539 18 79.539 c 19.656 79.539 21 80.883 21 82.539 c 21 100.539
 l 21 102.195 19.656 103.539 18 103.539 c h
18 103.539 m f
313.352 339.266 m 70.648 339.266 l 68.992 339.266 67.648 337.922 67.648
 336.266 c 67.648 318.484 l 67.648 309.512 74.949 302.211 83.922 302.211
 c 300.078 302.211 l 309.051 302.211 316.352 309.512 316.352 318.484 c 316.352
 336.266 l 316.352 337.926 315.008 339.266 313.352 339.266 c h
73.648 333.266 m 310.352 333.266 l 310.352 318.484 l 310.352 312.82 305.742
 308.211 300.078 308.211 c 83.922 308.211 l 78.258 308.211 73.648 312.82
 73.648 318.484 c h
73.648 333.266 m f
263.246 308.211 m 120.754 308.211 l 119.098 308.211 117.754 306.867 117.754
 305.211 c 117.754 286.977 l 117.754 285.324 119.098 283.977 120.754 283.977
 c 263.242 283.977 l 264.898 283.977 266.242 285.324 266.242 286.977 c 266.242
 305.211 l 266.246 306.867 264.902 308.211 263.246 308.211 c h
123.754 302.211 m 260.242 302.211 l 260.242 289.977 l 123.754 289.977 l
 h
123.754 302.211 m f
364.727 289.977 m 19.273 289.977 l 10.301 289.977 3 282.676 3 273.703 c
 3 61.008 l 3 52.035 10.301 44.734 19.273 44.734 c 364.727 44.734 l 373.699
 44.734 381 52.035 381 61.008 c 381 273.703 l 381 282.676 373.699 289.977
 364.727 289.977 c h
19.273 50.734 m 13.609 50.734 9 55.344 9 61.008 c 9 273.703 l 9 279.367
 13.609 283.977 19.273 283.977 c 364.727 283.977 l 370.391 283.977 375 279.367
 375 273.703 c 375 61.008 l 375 55.344 370.391 50.734 364.727 50.734 c h
19.273 50.734 m f
0.988235 0.760784 0.298039 rg
253.199 177.531 m 253.199 148.172 l 236.949 148.172 l 235.062 138.945 231.422
 130.359 226.402 122.762 c 237.906 111.258 l 217.145 90.496 l 205.641 102
 l 198.043 96.984 189.461 93.34 180.23 91.453 c 180.23 75.199 l 150.871 
75.199 l 150.871 91.449 l 141.641 93.336 133.055 96.98 125.457 101.996 c
 113.953 90.492 l 93.188 111.254 l 104.691 122.758 l 99.676 130.359 96.031
 138.941 94.145 148.172 c 77.898 148.172 l 77.898 177.531 l 94.145 177.531
 l 96.031 186.758 99.676 195.344 104.695 202.941 c 93.191 214.449 l 113.953
 235.211 l 125.457 223.707 l 133.055 228.723 141.641 232.363 150.867 234.254
 c 150.867 250.5 l 180.227 250.5 l 180.227 234.254 l 189.457 232.367 198.043
 228.723 205.641 223.707 c 217.145 235.211 l 237.906 214.449 l 226.402 202.941
 l 231.418 195.344 235.059 186.758 236.949 177.531 c h
165.547 206.793 m 141.281 206.793 121.605 187.117 121.605 162.852 c 121.605
 138.582 141.281 118.91 165.547 118.91 c 189.816 118.91 209.488 138.582 
209.488 162.852 c 209.488 187.117 189.816 206.793 165.547 206.793 c h
165.547 206.793 m f
253.199 177.531 m 253.199 148.172 l 236.949 148.172 l 235.062 138.945 231.422
 130.359 226.402 122.762 c 237.906 111.258 l 217.145 90.496 l 205.641 102
 l 198.043 96.984 189.461 93.34 180.23 91.453 c 180.23 75.199 l 150.871 
75.199 l 150.871 91.449 l 141.641 93.336 133.055 96.98 125.457 101.996 c
 113.953 90.492 l 93.188 111.254 l 104.691 122.758 l 99.676 130.359 96.031
 138.941 94.145 148.172 c 77.898 148.172 l 77.898 177.531 l 94.145 177.531
 l 96.031 186.758 99.676 195.344 104.695 202.941 c 93.191 214.449 l 113.953
 235.211 l 125.457 223.707 l 133.055 228.723 141.641 232.363 150.867 234.254
 c 150.867 250.5 l 180.227 250.5 l 180.227 234.254 l 189.457 232.367 198.043
 228.723 205.641 223.707 c 217.145 235.211 l 237.906 214.449 l 226.402 202.941
 l 231.418 195.344 235.059 186.758 236.949 177.531 c h
165.547 206.793 m 141.281 206.793 121.605 187.117 121.605 162.852 c 121.605
 138.582 141.281 118.91 165.547 118.91 c 189.816 118.91 209.488 138.582 
209.488 162.852 c 209.488 187.117 189.816 206.793 165.547 206.793 c h
165.547 206.793 m f
0.411765 0.0196078 0.537255 rg
180.23 253.5 m 150.867 253.5 l 149.211 253.5 147.867 252.156 147.867 250.5
 c 147.867 236.66 l 140.098 234.809 132.719 231.742 125.875 227.531 c 116.074
 237.332 l 115.512 237.895 114.746 238.211 113.953 238.211 c 113.156 238.211
 112.395 237.895 111.832 237.332 c 91.066 216.57 l 89.898 215.398 89.898
 213.5 91.066 212.328 c 100.867 202.527 l 96.652 195.68 93.59 188.301 91.738
 180.531 c 77.898 180.531 l 76.242 180.531 74.898 179.188 74.898 177.531
 c 74.898 148.172 l 74.898 146.516 76.242 145.172 77.898 145.172 c 91.738
 145.172 l 93.59 137.402 96.652 130.023 100.867 123.176 c 91.066 113.375
 l 89.895 112.203 89.895 110.305 91.066 109.133 c 111.828 88.371 l 112.953
 87.246 114.945 87.246 116.07 88.371 c 125.871 98.172 l 132.719 93.957 140.094
 90.895 147.867 89.043 c 147.867 75.203 l 147.867 73.547 149.211 72.203 
150.867 72.203 c 180.227 72.203 l 181.883 72.203 183.227 73.547 183.227 
75.203 c 183.227 89.043 l 190.996 90.898 198.375 93.961 205.223 98.172 c
 215.023 88.371 l 216.148 87.246 218.141 87.246 219.266 88.371 c 240.027
 109.133 l 240.59 109.695 240.906 110.461 240.906 111.254 c 240.906 112.051
 240.59 112.812 240.027 113.375 c 230.227 123.176 l 234.441 130.023 237.504
 137.398 239.355 145.172 c 253.195 145.172 l 254.852 145.172 256.195 146.516
 256.195 148.172 c 256.195 177.531 l 256.195 179.188 254.852 180.531 253.195
 180.531 c 239.355 180.531 l 237.504 188.301 234.441 195.68 230.227 202.527
 c 240.027 212.328 l 240.59 212.891 240.906 213.652 240.906 214.449 c 240.906
 215.242 240.59 216.008 240.027 216.57 c 219.266 237.332 l 218.703 237.895
 217.938 238.211 217.145 238.211 c 216.348 238.211 215.586 237.895 215.023
 237.332 c 205.223 227.531 l 198.375 231.746 190.996 234.809 183.227 236.66
 c 183.227 250.5 l 183.23 252.156 181.887 253.5 180.23 253.5 c h
153.867 247.5 m 177.23 247.5 l 177.23 234.254 l 177.23 232.828 178.23 231.602
 179.629 231.316 c 188.324 229.535 196.52 226.133 203.988 221.203 c 205.176
 220.418 206.754 220.578 207.762 221.586 c 217.145 230.969 l 233.664 214.449
 l 224.281 205.066 l 223.273 204.059 223.113 202.48 223.898 201.293 c 228.832
 193.824 232.234 185.629 234.012 176.934 c 234.297 175.535 235.523 174.535
 236.949 174.535 c 250.195 174.535 l 250.195 151.172 l 236.949 151.172 l
 235.523 151.172 234.297 150.168 234.012 148.773 c 232.23 140.074 228.828
 131.879 223.898 124.41 c 223.113 123.223 223.273 121.645 224.281 120.637
 c 233.664 111.254 l 217.145 94.734 l 207.762 104.117 l 206.754 105.125 
205.176 105.285 203.988 104.5 c 196.52 99.57 188.324 96.168 179.629 94.391
 c 178.23 94.105 177.23 92.875 177.23 91.449 c 177.23 78.203 l 153.867 78.203
 l 153.867 91.449 l 153.867 92.875 152.867 94.105 151.469 94.391 c 142.773
 96.168 134.578 99.57 127.109 104.5 c 125.922 105.289 124.344 105.129 123.336
 104.117 c 113.953 94.734 l 97.434 111.254 l 106.816 120.637 l 107.824 121.645
 107.98 123.223 107.199 124.41 c 102.266 131.879 98.863 140.074 97.086 148.773
 c 96.801 150.168 95.574 151.172 94.148 151.172 c 80.898 151.172 l 80.898
 174.531 l 94.148 174.531 l 95.574 174.531 96.801 175.535 97.086 176.93 
c 98.863 185.625 102.266 193.82 107.199 201.289 c 107.98 202.48 107.824 
204.059 106.816 205.066 c 97.434 214.449 l 113.949 230.969 l 123.332 221.586
 l 124.34 220.574 125.918 220.414 127.105 221.203 c 134.574 226.133 142.773
 229.535 151.469 231.312 c 152.863 231.598 153.867 232.828 153.867 234.254
 c h
165.547 209.793 m 139.664 209.793 118.609 188.734 118.609 162.852 c 118.609
 136.969 139.664 115.91 165.547 115.91 c 191.43 115.91 212.488 136.969 212.488
 162.852 c 212.488 188.734 191.43 209.793 165.547 209.793 c h
165.547 121.91 m 142.973 121.91 124.609 140.277 124.609 162.852 c 124.609
 185.426 142.973 203.793 165.547 203.793 c 188.121 203.793 206.488 185.426
 206.488 162.852 c 206.488 140.277 188.121 121.91 165.547 121.91 c h
165.547 121.91 m f
180.23 253.5 m 150.867 253.5 l 149.211 253.5 147.867 252.156 147.867 250.5
 c 147.867 236.66 l 140.098 234.809 132.719 231.742 125.875 227.531 c 116.074
 237.332 l 115.512 237.895 114.746 238.211 113.953 238.211 c 113.156 238.211
 112.395 237.895 111.832 237.332 c 91.066 216.57 l 89.898 215.398 89.898
 213.5 91.066 212.328 c 100.867 202.527 l 96.652 195.68 93.59 188.301 91.738
 180.531 c 77.898 180.531 l 76.242 180.531 74.898 179.188 74.898 177.531
 c 74.898 148.172 l 74.898 146.516 76.242 145.172 77.898 145.172 c 91.738
 145.172 l 93.59 137.402 96.652 130.023 100.867 123.176 c 91.066 113.375
 l 89.895 112.203 89.895 110.305 91.066 109.133 c 111.828 88.371 l 112.953
 87.246 114.945 87.246 116.07 88.371 c 125.871 98.172 l 132.719 93.957 140.094
 90.895 147.867 89.043 c 147.867 75.203 l 147.867 73.547 149.211 72.203 
150.867 72.203 c 180.227 72.203 l 181.883 72.203 183.227 73.547 183.227 
75.203 c 183.227 89.043 l 190.996 90.898 198.375 93.961 205.223 98.172 c
 215.023 88.371 l 216.148 87.246 218.141 87.246 219.266 88.371 c 240.027
 109.133 l 240.59 109.695 240.906 110.461 240.906 111.254 c 240.906 112.051
 240.59 112.812 240.027 113.375 c 230.227 123.176 l 234.441 130.023 237.504
 137.398 239.355 145.172 c 253.195 145.172 l 254.852 145.172 256.195 146.516
 256.195 148.172 c 256.195 177.531 l 256.195 179.188 254.852 180.531 253.195
 180.531 c 239.355 180.531 l 237.504 188.301 234.441 195.68 230.227 202.527
 c 240.027 212.328 l 240.59 212.891 240.906 213.652 240.906 214.449 c 240.906
 215.242 240.59 216.008 240.027 216.57 c 219.266 237.332 l 218.703 237.895
 217.938 238.211 217.145 238.211 c 216.348 238.211 215.586 237.895 215.023
 237.332 c 205.223 227.531 l 198.375 231.746 190.996 234.809 183.227 236.66
 c 183.227 250.5 l 183.23 252.156 181.887 253.5 180.23 253.5 c h
153.867 247.5 m 177.23 247.5 l 177.23 234.254 l 177.23 232.828 178.23 231.602
 179.629 231.316 c 188.324 229.535 196.52 226.133 203.988 221.203 c 205.176
 220.418 206.754 220.578 207.762 221.586 c 217.145 230.969 l 233.664 214.449
 l 224.281 205.066 l 223.273 204.059 223.113 202.48 223.898 201.293 c 228.832
 193.824 232.234 185.629 234.012 176.934 c 234.297 175.535 235.523 174.535
 236.949 174.535 c 250.195 174.535 l 250.195 151.172 l 236.949 151.172 l
 235.523 151.172 234.297 150.168 234.012 148.773 c 232.23 140.074 228.828
 131.879 223.898 124.41 c 223.113 123.223 223.273 121.645 224.281 120.637
 c 233.664 111.254 l 217.145 94.734 l 207.762 104.117 l 206.754 105.125 
205.176 105.285 203.988 104.5 c 196.52 99.57 188.324 96.168 179.629 94.391
 c 178.23 94.105 177.23 92.875 177.23 91.449 c 177.23 78.203 l 153.867 78.203
 l 153.867 91.449 l 153.867 92.875 152.867 94.105 151.469 94.391 c 142.773
 96.168 134.578 99.57 127.109 104.5 c 125.922 105.289 124.344 105.129 123.336
 104.117 c 113.953 94.734 l 97.434 111.254 l 106.816 120.637 l 107.824 121.645
 107.98 123.223 107.199 124.41 c 102.266 131.879 98.863 140.074 97.086 148.773
 c 96.801 150.168 95.574 151.172 94.148 151.172 c 80.898 151.172 l 80.898
 174.531 l 94.148 174.531 l 95.574 174.531 96.801 175.535 97.086 176.93 
c 98.863 185.625 102.266 193.82 107.199 201.289 c 107.98 202.48 107.824 
204.059 106.816 205.066 c 97.434 214.449 l 113.949 230.969 l 123.332 221.586
 l 124.34 220.574 125.918 220.414 127.105 221.203 c 134.574 226.133 142.773
 229.535 151.469 231.312 c 152.863 231.598 153.867 232.828 153.867 234.254
 c h
165.547 209.793 m 139.664 209.793 118.609 188.734 118.609 162.852 c 118.609
 136.969 139.664 115.91 165.547 115.91 c 191.43 115.91 212.488 136.969 212.488
 162.852 c 212.488 188.734 191.43 209.793 165.547 209.793 c h
165.547 121.91 m 142.973 121.91 124.609 140.277 124.609 162.852 c 124.609
 185.426 142.973 203.793 165.547 203.793 c 188.121 203.793 206.488 185.426
 206.488 162.852 c 206.488 140.277 188.121 121.91 165.547 121.91 c h
165.547 121.91 m f
0.533333 0.321569 0.658824 rg
306.102 204.734 m 306.102 182.691 l 293.906 182.691 l 292.488 175.766 289.754
 169.32 285.988 163.617 c 294.625 154.98 l 279.039 139.398 l 270.402 148.031
 l 264.699 144.266 258.254 141.531 251.328 140.113 c 251.328 127.918 l 229.285
 127.918 l 229.285 140.113 l 222.359 141.531 215.914 144.266 210.211 148.031
 c 201.574 139.398 l 185.992 154.98 l 194.625 163.617 l 190.863 169.32 188.125
 175.766 186.711 182.691 c 174.512 182.691 l 174.512 204.734 l 186.711 204.734
 l 188.129 211.66 190.863 218.105 194.625 223.809 c 185.992 232.445 l 201.574
 248.031 l 210.211 239.395 l 215.914 243.16 222.359 245.895 229.285 247.312
 c 229.285 259.508 l 251.328 259.508 l 251.328 247.312 l 258.254 245.895
 264.699 243.16 270.402 239.395 c 279.039 248.031 l 294.625 232.445 l 285.988
 223.809 l 289.754 218.105 292.488 211.66 293.906 204.734 c h
240.305 226.699 m 222.09 226.699 207.324 211.93 207.324 193.715 c 207.324
 175.496 222.09 160.73 240.305 160.73 c 258.523 160.73 273.289 175.496 273.289
 193.715 c 273.289 211.93 258.523 226.699 240.305 226.699 c h
240.305 226.699 m f
0.411765 0.0196078 0.537255 rg
251.328 262.508 m 229.285 262.508 l 227.633 262.508 226.285 261.164 226.285
 259.508 c 226.285 249.707 l 220.781 248.332 215.535 246.156 210.637 243.207
 c 203.695 250.152 l 202.527 251.32 200.625 251.32 199.453 250.152 c 183.867
 234.566 l 182.695 233.395 182.695 231.496 183.867 230.324 c 190.809 223.383
 l 187.867 218.488 185.688 213.242 184.312 207.73 c 174.512 207.73 l 172.855
 207.73 171.512 206.387 171.512 204.73 c 171.512 182.691 l 171.512 181.035
 172.855 179.691 174.512 179.691 c 184.312 179.691 l 185.688 174.184 187.863
 168.938 190.809 164.043 c 183.867 157.102 l 183.305 156.539 182.988 155.777
 182.988 154.98 c 182.988 154.188 183.305 153.422 183.867 152.859 c 199.453
 137.273 l 200.578 136.148 202.57 136.148 203.695 137.273 c 210.637 144.215
 l 215.531 141.273 220.777 139.094 226.285 137.719 c 226.285 127.914 l 226.285
 126.258 227.633 124.914 229.285 124.914 c 251.328 124.914 l 252.984 124.914
 254.328 126.258 254.328 127.914 c 254.328 137.719 l 259.836 139.094 265.078
 141.27 269.977 144.215 c 276.918 137.273 l 278.043 136.148 280.035 136.148
 281.16 137.273 c 296.746 152.859 l 297.309 153.422 297.625 154.188 297.625
 154.98 c 297.625 155.777 297.309 156.539 296.746 157.102 c 289.805 164.043
 l 292.746 168.938 294.926 174.184 296.301 179.691 c 306.102 179.691 l 307.758
 179.691 309.102 181.035 309.102 182.691 c 309.102 204.73 l 309.102 206.387
 307.758 207.73 306.102 207.73 c 296.301 207.73 l 294.926 213.242 292.75
 218.488 289.805 223.383 c 296.746 230.324 l 297.918 231.496 297.918 233.395
 296.746 234.566 c 281.16 250.152 l 279.988 251.32 278.09 251.32 276.918
 250.152 c 269.977 243.207 l 265.078 246.156 259.836 248.332 254.328 249.707
 c 254.328 259.508 l 254.328 261.164 252.984 262.508 251.328 262.508 c h
232.285 256.508 m 248.324 256.508 l 248.324 247.312 l 248.324 245.887 249.328
 244.66 250.727 244.375 c 257.156 243.059 263.219 240.543 268.75 236.891
 c 269.941 236.109 271.52 236.266 272.523 237.273 c 279.039 243.789 l 290.379
 232.445 l 283.867 225.93 l 282.859 224.926 282.699 223.348 283.484 222.156
 c 287.133 216.633 289.648 210.566 290.965 204.133 c 291.25 202.738 292.48
 201.734 293.902 201.734 c 303.102 201.734 l 303.102 185.695 l 293.902 185.695
 l 292.48 185.695 291.25 184.695 290.965 183.297 c 289.648 176.863 287.133
 170.801 283.484 165.273 c 282.699 164.082 282.859 162.504 283.867 161.5
 c 290.379 154.984 l 279.039 143.641 l 272.523 150.156 l 271.516 151.164
 269.938 151.324 268.75 150.539 c 263.223 146.891 257.156 144.375 250.727
 143.055 c 249.328 142.773 248.328 141.543 248.328 140.117 c 248.328 130.922
 l 232.285 130.922 l 232.285 140.117 l 232.285 141.543 231.285 142.773 229.887
 143.055 c 223.453 144.371 217.391 146.891 211.863 150.539 c 210.676 151.324
 209.098 151.164 208.09 150.156 c 201.574 143.641 l 190.234 154.984 l 196.746
 161.5 l 197.754 162.504 197.914 164.082 197.129 165.273 c 193.48 170.801
 190.965 176.863 189.648 183.297 c 189.363 184.695 188.133 185.695 186.711
 185.695 c 177.512 185.695 l 177.512 201.734 l 186.711 201.734 l 188.133
 201.734 189.363 202.738 189.648 204.133 c 190.965 210.566 193.48 216.633
 197.129 222.156 c 197.914 223.348 197.754 224.926 196.746 225.93 c 190.234
 232.445 l 201.574 243.789 l 208.09 237.273 l 209.098 236.266 210.676 236.105
 211.863 236.891 c 217.395 240.543 223.457 243.059 229.887 244.375 c 231.285
 244.66 232.289 245.887 232.289 247.312 c 232.289 256.508 l h
240.305 229.699 m 220.465 229.699 204.324 213.555 204.324 193.715 c 204.324
 173.871 220.465 157.73 240.305 157.73 c 260.148 157.73 276.289 173.871 
276.289 193.715 c 276.289 213.555 260.148 229.699 240.305 229.699 c h
240.305 163.73 m 223.773 163.73 210.324 177.18 210.324 193.715 c 210.324
 210.246 223.773 223.699 240.305 223.699 c 256.84 223.699 270.289 210.246
 270.289 193.715 c 270.289 177.18 256.84 163.73 240.305 163.73 c h
240.305 163.73 m f
251.328 262.508 m 229.285 262.508 l 227.633 262.508 226.285 261.164 226.285
 259.508 c 226.285 249.707 l 220.781 248.332 215.535 246.156 210.637 243.207
 c 203.695 250.152 l 202.527 251.32 200.625 251.32 199.453 250.152 c 183.867
 234.566 l 182.695 233.395 182.695 231.496 183.867 230.324 c 190.809 223.383
 l 187.867 218.488 185.688 213.242 184.312 207.73 c 174.512 207.73 l 172.855
 207.73 171.512 206.387 171.512 204.73 c 171.512 182.691 l 171.512 181.035
 172.855 179.691 174.512 179.691 c 184.312 179.691 l 185.688 174.184 187.863
 168.938 190.809 164.043 c 183.867 157.102 l 183.305 156.539 182.988 155.777
 182.988 154.98 c 182.988 154.188 183.305 153.422 183.867 152.859 c 199.453
 137.273 l 200.578 136.148 202.57 136.148 203.695 137.273 c 210.637 144.215
 l 215.531 141.273 220.777 139.094 226.285 137.719 c 226.285 127.914 l 226.285
 126.258 227.633 124.914 229.285 124.914 c 251.328 124.914 l 252.984 124.914
 254.328 126.258 254.328 127.914 c 254.328 137.719 l 259.836 139.094 265.078
 141.27 269.977 144.215 c 276.918 137.273 l 278.043 136.148 280.035 136.148
 281.16 137.273 c 296.746 152.859 l 297.309 153.422 297.625 154.188 297.625
 154.98 c 297.625 155.777 297.309 156.539 296.746 157.102 c 289.805 164.043
 l 292.746 168.938 294.926 174.184 296.301 179.691 c 306.102 179.691 l 307.758
 179.691 309.102 181.035 309.102 182.691 c 309.102 204.73 l 309.102 206.387
 307.758 207.73 306.102 207.73 c 296.301 207.73 l 294.926 213.242 292.75
 218.488 289.805 223.383 c 296.746 230.324 l 297.918 231.496 297.918 233.395
 296.746 234.566 c 281.16 250.152 l 279.988 251.32 278.09 251.32 276.918
 250.152 c 269.977 243.207 l 265.078 246.156 259.836 248.332 254.328 249.707
 c 254.328 259.508 l 254.328 261.164 252.984 262.508 251.328 262.508 c h
232.285 256.508 m 248.324 256.508 l 248.324 247.312 l 248.324 245.887 249.328
 244.66 250.727 244.375 c 257.156 243.059 263.219 240.543 268.75 236.891
 c 269.941 236.109 271.52 236.266 272.523 237.273 c 279.039 243.789 l 290.379
 232.445 l 283.867 225.93 l 282.859 224.926 282.699 223.348 283.484 222.156
 c 287.133 216.633 289.648 210.566 290.965 204.133 c 291.25 202.738 292.48
 201.734 293.902 201.734 c 303.102 201.734 l 303.102 185.695 l 293.902 185.695
 l 292.48 185.695 291.25 184.695 290.965 183.297 c 289.648 176.863 287.133
 170.801 283.484 165.273 c 282.699 164.082 282.859 162.504 283.867 161.5
 c 290.379 154.984 l 279.039 143.641 l 272.523 150.156 l 271.516 151.164
 269.938 151.324 268.75 150.539 c 263.223 146.891 257.156 144.375 250.727
 143.055 c 249.328 142.773 248.328 141.543 248.328 140.117 c 248.328 130.922
 l 232.285 130.922 l 232.285 140.117 l 232.285 141.543 231.285 142.773 229.887
 143.055 c 223.453 144.371 217.391 146.891 211.863 150.539 c 210.676 151.324
 209.098 151.164 208.09 150.156 c 201.574 143.641 l 190.234 154.984 l 196.746
 161.5 l 197.754 162.504 197.914 164.082 197.129 165.273 c 193.48 170.801
 190.965 176.863 189.648 183.297 c 189.363 184.695 188.133 185.695 186.711
 185.695 c 177.512 185.695 l 177.512 201.734 l 186.711 201.734 l 188.133
 201.734 189.363 202.738 189.648 204.133 c 190.965 210.566 193.48 216.633
 197.129 222.156 c 197.914 223.348 197.754 224.926 196.746 225.93 c 190.234
 232.445 l 201.574 243.789 l 208.09 237.273 l 209.098 236.266 210.676 236.105
 211.863 236.891 c 217.395 240.543 223.457 243.059 229.887 244.375 c 231.285
 244.66 232.289 245.887 232.289 247.312 c 232.289 256.508 l h
240.305 229.699 m 220.465 229.699 204.324 213.555 204.324 193.715 c 204.324
 173.871 220.465 157.73 240.305 157.73 c 260.148 157.73 276.289 173.871 
276.289 193.715 c 276.289 213.555 260.148 229.699 240.305 229.699 c h
240.305 163.73 m 223.773 163.73 210.324 177.18 210.324 193.715 c 210.324
 210.246 223.773 223.699 240.305 223.699 c 256.84 223.699 270.289 210.246
 270.289 193.715 c 270.289 177.18 256.84 163.73 240.305 163.73 c h
240.305 163.73 m f
0.988235 0.760784 0.298039 rg
334.152 91.473 m 322.254 77.34 l 310.352 63.199 l 298.449 77.34 l 286.547
 91.473 l 300.762 91.473 l 300.762 129.781 l 319.941 129.781 l 319.941 91.473
 l h
334.152 91.473 m f
0.411765 0.0196078 0.537255 rg
319.941 132.781 m 300.762 132.781 l 299.105 132.781 297.762 131.438 297.762
 129.781 c 297.762 94.473 l 286.547 94.473 l 285.383 94.473 284.32 93.797
 283.828 92.742 c 283.336 91.684 283.504 90.434 284.254 89.543 c 308.055
 61.27 l 309.199 59.914 311.508 59.914 312.648 61.27 c 336.449 89.543 l 
337.203 90.434 337.367 91.684 336.875 92.742 c 336.383 93.797 335.32 94.473
 334.156 94.473 c 322.945 94.473 l 322.945 129.781 l 322.941 131.438 321.598
 132.781 319.941 132.781 c h
303.762 126.781 m 316.941 126.781 l 316.941 91.473 l 316.941 89.82 318.285
 88.473 319.941 88.473 c 327.707 88.473 l 310.352 67.859 l 292.996 88.473
 l 300.762 88.473 l 302.418 88.473 303.762 89.82 303.762 91.473 c h
303.762 126.781 m f
Q Q
showpage
%%Trailer
end
%%EOF
