%!PS-Adobe-3.0 EPSF-3.0
%%Creator: cairo 1.16.0 (https://cairographics.org)
%%CreationDate: Fri Jan 10 07:39:16 2020
%%Pages: 1
%%DocumentData: Clean7Bit
%%LanguageLevel: 2
%%BoundingBox: 3 3 381 381
%%EndComments
%%BeginProlog
50 dict begin
/q { gsave } bind def
/Q { grestore } bind def
/cm { 6 array astore concat } bind def
/w { setlinewidth } bind def
/J { setlinecap } bind def
/j { setlinejoin } bind def
/M { setmiterlimit } bind def
/d { setdash } bind def
/m { moveto } bind def
/l { lineto } bind def
/c { curveto } bind def
/h { closepath } bind def
/re { exch dup neg 3 1 roll 5 3 roll moveto 0 rlineto
      0 exch rlineto 0 rlineto closepath } bind def
/S { stroke } bind def
/f { fill } bind def
/f* { eofill } bind def
/n { newpath } bind def
/W { clip } bind def
/W* { eoclip } bind def
/BT { } bind def
/ET { } bind def
/BDC { mark 3 1 roll /BDC pdfmark } bind def
/EMC { mark /EMC pdfmark } bind def
/cairo_store_point { /cairo_point_y exch def /cairo_point_x exch def } def
/Tj { show currentpoint cairo_store_point } bind def
/TJ {
  {
    dup
    type /stringtype eq
    { show } { -0.001 mul 0 cairo_font_matrix dtransform rmoveto } ifelse
  } forall
  currentpoint cairo_store_point
} bind def
/cairo_selectfont { cairo_font_matrix aload pop pop pop 0 0 6 array astore
    cairo_font exch selectfont cairo_point_x cairo_point_y moveto } bind def
/Tf { pop /cairo_font exch def /cairo_font_matrix where
      { pop cairo_selectfont } if } bind def
/Td { matrix translate cairo_font_matrix matrix concatmatrix dup
      /cairo_font_matrix exch def dup 4 get exch 5 get cairo_store_point
      /cairo_font where { pop cairo_selectfont } if } bind def
/Tm { 2 copy 8 2 roll 6 array astore /cairo_font_matrix exch def
      cairo_store_point /cairo_font where { pop cairo_selectfont } if } bind def
/g { setgray } bind def
/rg { setrgbcolor } bind def
/d1 { setcachedevice } bind def
/cairo_data_source {
  CairoDataIndex CairoData length lt
    { CairoData CairoDataIndex get /CairoDataIndex CairoDataIndex 1 add def }
    { () } ifelse
} def
/cairo_flush_ascii85_file { cairo_ascii85_file status { cairo_ascii85_file flushfile } if } def
/cairo_image { image cairo_flush_ascii85_file } def
/cairo_imagemask { imagemask cairo_flush_ascii85_file } def
%%EndProlog
%%BeginSetup
%%EndSetup
%%Page: 1 1
%%BeginPageSetup
%%PageBoundingBox: 3 3 381 381
%%EndPageSetup
q 3 3 378 378 rectclip
1 0 0 -1 0 384 cm q
0.411765 0.0196078 0.537255 rg
366.211 118.734 m 17.789 118.734 l 16.133 118.734 14.789 117.391 14.789
 115.734 c 14.789 114.078 16.133 112.734 17.789 112.734 c 366.211 112.734
 l 367.867 112.734 369.211 114.078 369.211 115.734 c 369.211 117.391 367.867
 118.734 366.211 118.734 c h
366.211 118.734 m f
366.211 195 m 17.789 195 l 16.133 195 14.789 193.656 14.789 192 c 14.789
 190.344 16.133 189 17.789 189 c 366.211 189 l 367.867 189 369.211 190.344
 369.211 192 c 369.211 193.656 367.867 195 366.211 195 c h
366.211 195 m f
366.211 271.266 m 17.789 271.266 l 16.133 271.266 14.789 269.922 14.789
 268.266 c 14.789 266.609 16.133 265.266 17.789 265.266 c 366.211 265.266
 l 367.867 265.266 369.211 266.609 369.211 268.266 c 369.211 269.922 367.867
 271.266 366.211 271.266 c h
366.211 271.266 m f
268.266 369.207 m 266.613 369.207 265.266 367.863 265.266 366.207 c 265.266
 17.793 l 265.266 16.137 266.613 14.793 268.266 14.793 c 269.922 14.793 
271.266 16.137 271.266 17.793 c 271.266 366.207 l 271.266 367.867 269.922
 369.207 268.266 369.207 c h
268.266 369.207 m f
192 369.207 m 190.344 369.207 189 367.863 189 366.207 c 189 17.793 l 189
 16.137 190.344 14.793 192 14.793 c 193.656 14.793 195 16.137 195 17.793
 c 195 366.207 l 195 367.867 193.656 369.207 192 369.207 c h
192 369.207 m f
115.734 369.207 m 114.078 369.207 112.734 367.863 112.734 366.207 c 112.734
 17.793 l 112.734 16.137 114.078 14.793 115.734 14.793 c 117.387 14.793 
118.734 16.137 118.734 17.793 c 118.734 366.207 l 118.734 367.867 117.391
 369.207 115.734 369.207 c h
115.734 369.207 m f
0.321569 0.435294 0.666667 rg
288.324 303.016 m 95.676 303.016 l 87.562 303.016 80.984 296.438 80.984
 288.32 c 80.984 95.676 l 80.984 87.562 87.562 80.984 95.676 80.984 c 288.324
 80.984 l 296.438 80.984 303.016 87.562 303.016 95.676 c 303.016 288.324
 l 303.016 296.438 296.438 303.016 288.324 303.016 c h
288.324 303.016 m f
0.988235 0.760784 0.298039 rg
127.527 17.793 m 127.527 24.305 122.246 29.582 115.734 29.582 c 109.223
 29.582 103.941 24.305 103.941 17.793 c 103.941 11.277 109.223 6 115.734
 6 c 122.246 6 127.527 11.277 127.527 17.793 c h
127.527 17.793 m f
280.059 17.793 m 280.059 24.305 274.777 29.582 268.266 29.582 c 261.754
 29.582 256.473 24.305 256.473 17.793 c 256.473 11.277 261.754 6 268.266
 6 c 274.777 6 280.059 11.277 280.059 17.793 c h
280.059 17.793 m f
127.527 366.207 m 127.527 372.723 122.246 378 115.734 378 c 109.223 378
 103.941 372.723 103.941 366.207 c 103.941 359.695 109.223 354.418 115.734
 354.418 c 122.246 354.418 127.527 359.695 127.527 366.207 c h
127.527 366.207 m f
280.059 366.207 m 280.059 372.723 274.777 378 268.266 378 c 261.754 378
 256.473 372.723 256.473 366.207 c 256.473 359.695 261.754 354.418 268.266
 354.418 c 274.777 354.418 280.059 359.695 280.059 366.207 c h
280.059 366.207 m f
378 115.734 m 378 122.246 372.723 127.527 366.207 127.527 c 359.695 127.527
 354.418 122.246 354.418 115.734 c 354.418 109.223 359.695 103.941 366.207
 103.941 c 372.723 103.941 378 109.223 378 115.734 c h
378 115.734 m f
378 268.266 m 378 274.777 372.723 280.059 366.207 280.059 c 359.695 280.059
 354.418 274.777 354.418 268.266 c 354.418 261.754 359.695 256.473 366.207
 256.473 c 372.723 256.473 378 261.754 378 268.266 c h
378 268.266 m f
29.582 115.734 m 29.582 122.246 24.305 127.527 17.793 127.527 c 11.277 
127.527 6 122.246 6 115.734 c 6 109.223 11.277 103.941 17.793 103.941 c 
24.305 103.941 29.582 109.223 29.582 115.734 c h
29.582 115.734 m f
29.582 268.266 m 29.582 274.777 24.305 280.059 17.793 280.059 c 11.277 
280.059 6 274.777 6 268.266 c 6 261.754 11.277 256.473 17.793 256.473 c 
24.305 256.473 29.582 261.754 29.582 268.266 c h
29.582 268.266 m f
0.203922 0.317647 0.54902 rg
288.324 80.984 m 273.324 80.984 l 281.438 80.984 288.016 87.562 288.016
 95.676 c 288.016 288.324 l 288.016 296.438 281.438 303.016 273.324 303.016
 c 288.324 303.016 l 296.438 303.016 303.016 296.438 303.016 288.324 c 303.016
 95.676 l 303.016 87.562 296.438 80.984 288.324 80.984 c h
288.324 80.984 m f
0.439216 0.552941 0.784314 rg
95.676 303.016 m 110.676 303.016 l 102.562 303.016 95.984 296.438 95.984
 288.32 c 95.984 95.676 l 95.984 87.562 102.562 80.984 110.676 80.984 c 
95.676 80.984 l 87.562 80.984 80.984 87.562 80.984 95.676 c 80.984 288.324
 l 80.984 296.438 87.562 303.016 95.676 303.016 c h
95.676 303.016 m f
0.956863 0.937255 0.929412 rg
253.574 268.266 m 130.426 268.266 l 122.312 268.266 115.734 261.688 115.734
 253.57 c 115.734 130.426 l 115.734 122.312 122.312 115.734 130.426 115.734
 c 253.57 115.734 l 261.688 115.734 268.266 122.312 268.266 130.426 c 268.266
 253.57 l 268.266 261.688 261.688 268.266 253.574 268.266 c h
253.574 268.266 m f
0.411765 0.0196078 0.537255 rg
288.324 306.016 m 95.676 306.016 l 85.922 306.016 77.984 298.078 77.984
 288.324 c 77.984 95.676 l 77.984 85.922 85.922 77.984 95.676 77.984 c 288.324
 77.984 l 298.078 77.984 306.016 85.922 306.016 95.676 c 306.016 288.324
 l 306.016 298.078 298.078 306.016 288.324 306.016 c h
95.676 83.984 m 89.23 83.984 83.984 89.23 83.984 95.676 c 83.984 288.324
 l 83.984 294.77 89.23 300.016 95.676 300.016 c 288.324 300.016 l 294.77
 300.016 300.016 294.77 300.016 288.324 c 300.016 95.676 l 300.016 89.23
 294.77 83.984 288.324 83.984 c h
95.676 83.984 m f
94.484 156.547 m 92.828 156.547 91.484 155.203 91.484 153.547 c 91.484 
135.547 l 91.484 133.891 92.828 132.547 94.484 132.547 c 96.141 132.547 
97.484 133.891 97.484 135.547 c 97.484 153.547 l 97.484 155.203 96.141 156.547
 94.484 156.547 c h
94.484 156.547 m f
253.574 271.266 m 130.426 271.266 l 120.672 271.266 112.734 263.328 112.734
 253.574 c 112.734 130.426 l 112.734 120.672 120.672 112.734 130.426 112.734
 c 253.574 112.734 l 263.328 112.734 271.266 120.672 271.266 130.426 c 271.266
 253.574 l 271.266 263.328 263.328 271.266 253.574 271.266 c h
130.426 118.734 m 123.977 118.734 118.734 123.98 118.734 130.426 c 118.734
 253.574 l 118.734 260.02 123.977 265.266 130.426 265.266 c 253.574 265.266
 l 260.023 265.266 265.266 260.02 265.266 253.574 c 265.266 130.426 l 265.266
 123.98 260.023 118.734 253.574 118.734 c h
130.426 118.734 m f
115.734 32.582 m 107.574 32.582 100.941 25.945 100.941 17.793 c 100.941
 9.633 107.578 3 115.734 3 c 123.887 3 130.523 9.633 130.523 17.793 c 130.527
 25.945 123.891 32.582 115.734 32.582 c h
115.734 9 m 110.887 9 106.941 12.945 106.941 17.793 c 106.941 22.641 110.887
 26.582 115.734 26.582 c 120.582 26.582 124.523 22.637 124.523 17.793 c 
124.523 12.945 120.582 9 115.734 9 c h
115.734 9 m f
268.266 32.582 m 260.109 32.582 253.477 25.945 253.477 17.793 c 253.477
 9.633 260.113 3 268.266 3 c 276.422 3 283.059 9.633 283.059 17.793 c 283.059
 25.945 276.422 32.582 268.266 32.582 c h
268.266 9 m 263.418 9 259.477 12.945 259.477 17.793 c 259.477 22.641 263.418
 26.582 268.266 26.582 c 273.113 26.582 277.059 22.637 277.059 17.793 c 
277.059 12.945 273.113 9 268.266 9 c h
268.266 9 m f
115.734 381 m 107.574 381 100.941 374.367 100.941 366.207 c 100.941 358.055
 107.578 351.418 115.734 351.418 c 123.887 351.418 130.523 358.055 130.523
 366.207 c 130.527 374.367 123.891 381 115.734 381 c h
115.734 357.418 m 110.887 357.418 106.941 361.363 106.941 366.207 c 106.941
 371.055 110.887 375 115.734 375 c 120.582 375 124.523 371.055 124.523 366.207
 c 124.523 361.359 120.582 357.418 115.734 357.418 c h
115.734 357.418 m f
268.266 381 m 260.109 381 253.477 374.367 253.477 366.207 c 253.477 358.055
 260.113 351.418 268.266 351.418 c 276.422 351.418 283.059 358.055 283.059
 366.207 c 283.059 374.367 276.422 381 268.266 381 c h
268.266 357.418 m 263.418 357.418 259.477 361.363 259.477 366.207 c 259.477
 371.055 263.418 375 268.266 375 c 273.113 375 277.059 371.055 277.059 366.207
 c 277.059 361.359 273.113 357.418 268.266 357.418 c h
268.266 357.418 m f
366.211 130.523 m 358.055 130.523 351.418 123.891 351.418 115.734 c 351.418
 107.578 358.055 100.941 366.211 100.941 c 374.367 100.941 381 107.578 381
 115.734 c 381 123.891 374.367 130.523 366.211 130.523 c h
366.211 106.941 m 361.363 106.941 357.418 110.887 357.418 115.734 c 357.418
 120.582 361.363 124.523 366.211 124.523 c 371.055 124.523 375 120.582 375
 115.734 c 375 110.887 371.055 106.941 366.211 106.941 c h
366.211 106.941 m f
366.211 283.059 m 358.055 283.059 351.418 276.422 351.418 268.266 c 351.418
 260.109 358.055 253.477 366.211 253.477 c 374.367 253.477 381 260.109 381
 268.266 c 381 276.422 374.367 283.059 366.211 283.059 c h
366.211 259.477 m 361.363 259.477 357.418 263.418 357.418 268.266 c 357.418
 273.113 361.363 277.059 366.211 277.059 c 371.055 277.059 375 273.113 375
 268.266 c 375 263.418 371.055 259.477 366.211 259.477 c h
366.211 259.477 m f
17.789 130.523 m 9.633 130.523 3 123.891 3 115.734 c 3 107.578 9.633 100.941
 17.789 100.941 c 25.945 100.941 32.582 107.578 32.582 115.734 c 32.582 
123.891 25.945 130.523 17.789 130.523 c h
17.789 106.941 m 12.945 106.941 9 110.887 9 115.734 c 9 120.582 12.945 
124.523 17.789 124.523 c 22.637 124.523 26.582 120.582 26.582 115.734 c 
26.582 110.887 22.641 106.941 17.789 106.941 c h
17.789 106.941 m f
17.789 283.059 m 9.633 283.059 3 276.422 3 268.266 c 3 260.109 9.633 253.477
 17.789 253.477 c 25.945 253.477 32.582 260.109 32.582 268.266 c 32.582 
276.422 25.945 283.059 17.789 283.059 c h
17.789 259.477 m 12.945 259.477 9 263.418 9 268.266 c 9 273.113 12.945 
277.059 17.789 277.059 c 22.637 277.059 26.582 273.113 26.582 268.266 c 
26.582 263.418 22.641 259.477 17.789 259.477 c h
17.789 259.477 m f
0.988235 0.760784 0.298039 rg
232.684 173.953 m 232.684 150.957 213.602 132.414 190.41 133.301 c 169.332
 134.105 152.156 151.273 151.348 172.352 c 150.684 189.648 160.824 204.652
 175.559 211.172 c 178.496 212.469 180.41 215.355 180.41 218.566 c 180.41
 238.816 l 180.41 245.055 185.203 250.426 191.438 250.719 c 198.094 251.031
 203.59 245.727 203.59 239.141 c 203.59 218.566 l 203.59 215.363 205.488
 212.473 208.414 211.18 c 222.707 204.867 232.684 190.578 232.684 173.953
 c h
232.684 173.953 m f
0.411765 0.0196078 0.537255 rg
192.012 253.73 m 191.773 253.73 191.535 253.727 191.297 253.715 c 183.512
 253.348 177.41 246.801 177.41 238.812 c 177.41 218.562 l 177.41 216.562
 176.207 214.734 174.344 213.91 c 157.863 206.621 147.656 190.262 148.348
 172.234 c 149.219 149.582 167.645 131.164 190.293 130.301 c 202.273 129.844
 213.66 134.164 222.293 142.477 c 230.93 150.789 235.684 161.969 235.684
 173.949 c 235.684 191.242 225.457 206.93 209.629 213.918 c 207.781 214.734
 206.59 216.555 206.59 218.559 c 206.59 239.137 l 206.59 243.164 204.984
 246.914 202.07 249.695 c 199.328 252.312 195.781 253.73 192.012 253.73 
c h
192.012 136.27 m 191.516 136.27 191.023 136.277 190.523 136.297 c 170.988
 137.043 155.094 152.93 154.344 172.465 c 153.75 188.02 162.551 202.137 
176.773 208.426 c 180.805 210.207 183.41 214.188 183.41 218.566 c 183.41
 238.816 l 183.41 243.516 187.074 247.512 191.578 247.723 c 193.945 247.836
 196.211 246.996 197.93 245.359 c 199.645 243.723 200.59 241.512 200.59 
239.141 c 200.59 218.566 l 200.59 214.188 203.184 210.211 207.203 208.434
 c 220.859 202.406 229.684 188.871 229.684 173.953 c 229.684 163.617 225.582
 153.973 218.129 146.801 c 211.043 139.977 201.816 136.27 192.012 136.27
 c h
192.012 136.27 m f
0.533333 0.321569 0.658824 rg
180.41 218.566 m 180.41 238.812 l 180.41 245.055 185.203 250.422 191.438
 250.719 c 198.094 251.031 203.59 245.727 203.59 239.141 c 203.59 218.566
 l h
180.41 218.566 m f
0.411765 0.0196078 0.537255 rg
192.012 253.73 m 191.773 253.73 191.539 253.727 191.301 253.715 c 183.512
 253.348 177.41 246.801 177.41 238.812 c 177.41 218.566 l 177.41 216.91 
178.754 215.566 180.41 215.566 c 203.59 215.566 l 205.246 215.566 206.59
 216.91 206.59 218.566 c 206.59 239.141 l 206.59 243.168 204.984 246.918
 202.066 249.699 c 199.328 252.312 195.781 253.73 192.012 253.73 c h
183.41 221.566 m 183.41 238.812 l 183.41 243.512 187.074 247.508 191.578
 247.719 c 193.965 247.84 196.215 246.992 197.926 245.355 c 199.645 243.719
 200.586 241.512 200.586 239.141 c 200.586 221.566 l h
183.41 221.566 m f
202.531 236.176 m 181.469 236.176 l 179.812 236.176 178.469 234.832 178.469
 233.176 c 178.469 231.52 179.812 230.176 181.469 230.176 c 202.527 230.176
 l 204.184 230.176 205.527 231.52 205.527 233.176 c 205.527 234.832 204.188
 236.176 202.531 236.176 c h
202.531 236.176 m f
0.988235 0.760784 0.298039 rg
232.684 173.953 m 232.684 150.957 213.602 132.414 190.41 133.301 c 169.332
 134.105 152.156 151.273 151.348 172.352 c 150.684 189.648 160.824 204.652
 175.559 211.172 c 178.496 212.469 180.41 215.355 180.41 218.566 c 180.41
 238.816 l 180.41 245.055 185.203 250.426 191.438 250.719 c 198.094 251.031
 203.59 245.727 203.59 239.141 c 203.59 218.566 l 203.59 215.363 205.488
 212.473 208.414 211.18 c 222.707 204.867 232.684 190.578 232.684 173.953
 c h
232.684 173.953 m f
0.411765 0.0196078 0.537255 rg
192.012 253.73 m 191.773 253.73 191.535 253.727 191.297 253.715 c 183.512
 253.348 177.41 246.801 177.41 238.812 c 177.41 218.562 l 177.41 216.562
 176.207 214.734 174.344 213.91 c 157.863 206.621 147.656 190.262 148.348
 172.234 c 149.219 149.582 167.645 131.164 190.293 130.301 c 202.273 129.844
 213.66 134.164 222.293 142.477 c 230.93 150.789 235.684 161.969 235.684
 173.949 c 235.684 191.242 225.457 206.93 209.629 213.918 c 207.781 214.734
 206.59 216.555 206.59 218.559 c 206.59 239.137 l 206.59 243.164 204.984
 246.914 202.07 249.695 c 199.328 252.312 195.781 253.73 192.012 253.73 
c h
192.012 136.27 m 191.516 136.27 191.023 136.277 190.523 136.297 c 170.988
 137.043 155.094 152.93 154.344 172.465 c 153.75 188.02 162.551 202.137 
176.773 208.426 c 180.805 210.207 183.41 214.188 183.41 218.566 c 183.41
 238.816 l 183.41 243.516 187.074 247.512 191.578 247.723 c 193.945 247.836
 196.211 246.996 197.93 245.359 c 199.645 243.723 200.59 241.512 200.59 
239.141 c 200.59 218.566 l 200.59 214.188 203.184 210.211 207.203 208.434
 c 220.859 202.406 229.684 188.871 229.684 173.953 c 229.684 163.617 225.582
 153.973 218.129 146.801 c 211.043 139.977 201.816 136.27 192.012 136.27
 c h
192.012 136.27 m f
0.533333 0.321569 0.658824 rg
180.41 218.566 m 180.41 238.812 l 180.41 245.055 185.203 250.422 191.438
 250.719 c 198.094 251.031 203.59 245.727 203.59 239.141 c 203.59 218.566
 l h
180.41 218.566 m f
0.411765 0.0196078 0.537255 rg
192.012 253.73 m 191.773 253.73 191.539 253.727 191.301 253.715 c 183.512
 253.348 177.41 246.801 177.41 238.812 c 177.41 218.566 l 177.41 216.91 
178.754 215.566 180.41 215.566 c 203.59 215.566 l 205.246 215.566 206.59
 216.91 206.59 218.566 c 206.59 239.141 l 206.59 243.168 204.984 246.918
 202.066 249.699 c 199.328 252.312 195.781 253.73 192.012 253.73 c h
183.41 221.566 m 183.41 238.812 l 183.41 243.512 187.074 247.508 191.578
 247.719 c 193.965 247.84 196.215 246.992 197.926 245.355 c 199.645 243.719
 200.586 241.512 200.586 239.141 c 200.586 221.566 l h
183.41 221.566 m f
202.531 236.176 m 181.469 236.176 l 179.812 236.176 178.469 234.832 178.469
 233.176 c 178.469 231.52 179.812 230.176 181.469 230.176 c 202.527 230.176
 l 204.184 230.176 205.527 231.52 205.527 233.176 c 205.527 234.832 204.188
 236.176 202.531 236.176 c h
202.531 236.176 m f
Q Q
showpage
%%Trailer
end
%%EOF
