%!PS-Adobe-3.0 EPSF-3.0
%%Creator: cairo 1.16.0 (https://cairographics.org)
%%CreationDate: Fri Jan 10 07:39:18 2020
%%Pages: 1
%%DocumentData: Clean7Bit
%%LanguageLevel: 2
%%BoundingBox: 22 3 362 381
%%EndComments
%%BeginProlog
50 dict begin
/q { gsave } bind def
/Q { grestore } bind def
/cm { 6 array astore concat } bind def
/w { setlinewidth } bind def
/J { setlinecap } bind def
/j { setlinejoin } bind def
/M { setmiterlimit } bind def
/d { setdash } bind def
/m { moveto } bind def
/l { lineto } bind def
/c { curveto } bind def
/h { closepath } bind def
/re { exch dup neg 3 1 roll 5 3 roll moveto 0 rlineto
      0 exch rlineto 0 rlineto closepath } bind def
/S { stroke } bind def
/f { fill } bind def
/f* { eofill } bind def
/n { newpath } bind def
/W { clip } bind def
/W* { eoclip } bind def
/BT { } bind def
/ET { } bind def
/BDC { mark 3 1 roll /BDC pdfmark } bind def
/EMC { mark /EMC pdfmark } bind def
/cairo_store_point { /cairo_point_y exch def /cairo_point_x exch def } def
/Tj { show currentpoint cairo_store_point } bind def
/TJ {
  {
    dup
    type /stringtype eq
    { show } { -0.001 mul 0 cairo_font_matrix dtransform rmoveto } ifelse
  } forall
  currentpoint cairo_store_point
} bind def
/cairo_selectfont { cairo_font_matrix aload pop pop pop 0 0 6 array astore
    cairo_font exch selectfont cairo_point_x cairo_point_y moveto } bind def
/Tf { pop /cairo_font exch def /cairo_font_matrix where
      { pop cairo_selectfont } if } bind def
/Td { matrix translate cairo_font_matrix matrix concatmatrix dup
      /cairo_font_matrix exch def dup 4 get exch 5 get cairo_store_point
      /cairo_font where { pop cairo_selectfont } if } bind def
/Tm { 2 copy 8 2 roll 6 array astore /cairo_font_matrix exch def
      cairo_store_point /cairo_font where { pop cairo_selectfont } if } bind def
/g { setgray } bind def
/rg { setrgbcolor } bind def
/d1 { setcachedevice } bind def
/cairo_data_source {
  CairoDataIndex CairoData length lt
    { CairoData CairoDataIndex get /CairoDataIndex CairoDataIndex 1 add def }
    { () } ifelse
} def
/cairo_flush_ascii85_file { cairo_ascii85_file status { cairo_ascii85_file flushfile } if } def
/cairo_image { image cairo_flush_ascii85_file } def
/cairo_imagemask { imagemask cairo_flush_ascii85_file } def
%%EndProlog
%%BeginSetup
%%EndSetup
%%Page: 1 1
%%BeginPageSetup
%%PageBoundingBox: 22 3 362 381
%%EndPageSetup
q 22 3 340 378 rectclip
1 0 0 -1 0 384 cm q
0.321569 0.435294 0.666667 rg
128.91 247.434 m 128.91 184.121 l 196.387 184.121 l 196.387 247.434 l 257.312
 247.434 l 280.914 247.465 300.02 266.844 299.988 290.445 c 299.988 378 
l 25 378 l 25 290.094 l 25.031 266.492 44.301 247.387 67.902 247.414 c h
128.91 247.434 m f
1 0.623529 0.439216 rg
128.91 232.105 m 162.332 273.68 l 196.387 232.105 l 196.387 184.121 l 128.91
 184.121 l h
128.91 232.105 m f
0.203922 0.317647 0.54902 rg
257.312 247.434 m 242.32 247.434 l 265.922 247.465 285.031 266.824 285 
290.426 c 285 378 l 299.992 378 l 299.992 290.445 l 300.02 266.844 280.914
 247.465 257.312 247.434 c h
257.312 247.434 m f
0.439216 0.552941 0.784314 rg
67.902 247.414 m 82.891 247.434 l 59.289 247.406 40.023 266.512 39.992 
290.113 c 39.992 378 l 25 378 l 25 290.094 l 25.031 266.492 44.301 247.387
 67.902 247.414 c h
67.902 247.414 m f
0.411765 0.0196078 0.537255 rg
78.086 379.5 m 76.43 379.5 75.086 378.156 75.086 376.5 c 75.086 337.492
 l 75.086 335.836 76.43 334.492 78.086 334.492 c 79.742 334.492 81.086 335.836
 81.086 337.492 c 81.086 376.5 l 81.086 378.156 79.742 379.5 78.086 379.5
 c h
78.086 379.5 m f
246.906 379.5 m 245.25 379.5 243.906 378.156 243.906 376.5 c 243.906 337.492
 l 243.906 335.836 245.25 334.492 246.906 334.492 c 248.559 334.492 249.906
 335.836 249.906 337.492 c 249.906 376.5 l 249.906 378.156 248.559 379.5
 246.906 379.5 c h
246.906 379.5 m f
299.988 381 m 25 381 l 23.344 381 22 379.656 22 378 c 22 290.094 l 22.016
 277.879 26.809 266.398 35.496 257.766 c 44.16 249.156 55.648 244.414 67.844
 244.414 c 67.902 244.414 l 125.91 244.434 l 125.91 184.121 l 125.91 182.465
 127.254 181.121 128.91 181.121 c 196.387 181.121 l 198.043 181.121 199.387
 182.465 199.387 184.121 c 199.387 244.434 l 257.312 244.434 l 269.523 244.449
 281.004 249.266 289.645 257.992 c 298.266 266.695 303.004 278.223 302.988
 290.449 c 302.988 378 l 302.988 379.656 301.648 381 299.988 381 c h
28 375 m 296.988 375 l 296.988 290.445 l 297.004 279.809 292.883 269.785
 285.383 262.211 c 277.875 254.633 267.906 250.449 257.309 250.434 c 196.387
 250.434 l 194.73 250.434 193.387 249.09 193.387 247.434 c 193.387 187.121
 l 131.91 187.121 l 131.91 247.434 l 131.91 248.23 131.594 248.996 131.031
 249.559 c 130.469 250.121 129.703 250.434 128.91 250.434 c 128.91 250.434
 128.91 250.434 128.906 250.434 c 67.898 250.414 l 67.883 250.414 67.863
 250.414 67.848 250.414 c 57.238 250.414 47.258 254.535 39.727 262.023 c
 32.18 269.523 28.012 279.492 28 290.098 c h
28 375 m f
0.988235 0.760784 0.298039 rg
224.727 60.113 m 224.727 57.535 l 224.727 46.734 218.16 37.469 208.801 
33.508 c 198.129 28.996 187.766 23.801 178.293 17.133 c 162.516 6.027 l 
162.516 6 l 162.496 6.012 l 162.477 6 l 162.477 6.027 l 146.699 17.133 l
 137.227 23.801 126.859 28.996 116.191 33.508 c 106.832 37.469 100.266 46.734
 100.266 57.535 c 100.266 60.113 l 85.059 60.113 73.078 73.074 74.27 88.234
 c 78.711 144.801 l 246.285 144.801 l 250.727 88.234 l 251.914 73.074 239.934
 60.113 224.727 60.113 c h
224.727 60.113 m f
0.870588 0.643137 0.180392 rg
224.727 60.113 m 224.727 57.535 l 224.727 46.734 218.16 37.469 208.801 
33.508 c 198.133 28.996 187.766 23.801 178.293 17.133 c 162.539 6.043 l 
168.684 18.648 183.742 29.004 194.398 33.508 c 203.762 37.469 210.328 46.734
 210.328 57.535 c 210.328 58.941 211.402 60.098 212.801 60.227 c 226.809
 61.539 237.449 73.902 236.324 88.23 c 231.883 144.801 l 246.285 144.801
 l 250.727 88.23 l 251.914 73.074 239.934 60.113 224.727 60.113 c h
224.727 60.113 m f
0.988235 0.878431 0.415686 rg
100.266 60.113 m 100.266 57.535 l 100.266 46.734 106.832 37.469 116.191
 33.508 c 126.859 28.996 137.227 23.801 146.699 17.133 c 162.453 6.043 l
 156.309 18.648 141.246 29.004 130.59 33.508 c 121.23 37.469 114.664 46.734
 114.664 57.535 c 114.664 58.941 113.59 60.098 112.195 60.227 c 98.184 61.539
 87.543 73.902 88.668 88.23 c 93.109 144.801 l 78.711 144.801 l 74.27 88.23
 l 73.078 73.074 85.059 60.113 100.266 60.113 c h
100.266 60.113 m f
0.411765 0.0196078 0.537255 rg
246.281 147.801 m 78.711 147.801 l 77.145 147.801 75.84 146.598 75.719 
145.039 c 71.277 88.469 l 70.645 80.41 73.43 72.387 78.914 66.453 c 83.719
 61.258 90.281 58.004 97.266 57.273 c 97.371 45.668 104.316 35.277 115.023
 30.75 c 127.195 25.598 136.715 20.496 144.973 14.68 c 160.555 3.711 l 160.715
 3.578 160.895 3.457 161.086 3.355 c 161.613 3.082 162.188 2.965 162.773
 3.02 c 163.16 3.055 163.543 3.164 163.898 3.348 c 164.098 3.453 164.281
 3.578 164.449 3.723 c 180.02 14.68 l 188.281 20.492 197.797 25.598 209.969
 30.746 c 220.676 35.273 227.621 45.664 227.727 57.27 c 234.711 58 241.273
 61.254 246.078 66.453 c 251.566 72.387 254.348 80.41 253.719 88.469 c 249.277
 145.039 l 249.152 146.598 247.848 147.801 246.281 147.801 c h
81.484 141.801 m 243.508 141.801 l 247.734 87.996 l 248.242 81.508 246.09
 75.305 241.672 70.523 c 237.254 65.746 231.234 63.113 224.727 63.113 c 
223.07 63.113 221.727 61.77 221.727 60.113 c 221.727 57.535 l 221.727 48.238
 216.195 39.895 207.629 36.273 c 195.055 30.953 185.184 25.648 176.566 19.586
 c 162.496 9.684 l 148.426 19.586 l 139.809 25.648 129.938 30.953 117.359
 36.273 c 108.797 39.895 103.266 48.238 103.266 57.535 c 103.266 60.113 
l 103.266 61.77 101.922 63.113 100.266 63.113 c 93.758 63.113 87.738 65.746
 83.32 70.527 c 78.902 75.305 76.75 81.512 77.258 87.996 c h
81.484 141.801 m f
1 0.741176 0.556863 rg
95.676 126.363 m 90.898 126.363 l 78.555 126.363 68.547 136.367 68.547 
148.715 c 68.547 161.059 78.555 171.066 90.898 171.066 c 95.676 171.066 
l h
95.676 126.363 m f
0.882353 0.505882 0.321569 rg
234.219 126.363 m 229.441 126.363 l 229.441 171.066 l 234.219 171.066 l
 246.562 171.066 256.57 161.059 256.57 148.715 c 256.57 136.367 246.562 
126.363 234.219 126.363 c h
234.219 126.363 m f
1 0.623529 0.439216 rg
162.559 239.984 m 125.617 239.984 95.676 209.648 95.676 172.23 c 95.676
 125.328 l 95.676 87.906 125.617 57.574 162.559 57.574 c 199.496 57.574 
229.441 87.906 229.441 125.328 c 229.441 172.23 l 229.441 209.652 199.496
 239.984 162.559 239.984 c h
162.559 239.984 m f
0.882353 0.505882 0.321569 rg
162.559 57.574 m 159.988 57.574 157.453 57.734 154.957 58.023 c 188.316
 61.844 214.242 90.512 214.242 125.328 c 214.242 172.23 l 214.242 207.047
 188.316 235.711 154.957 239.535 c 157.453 239.824 159.984 239.984 162.559
 239.984 c 199.496 239.984 229.441 209.652 229.441 172.234 c 229.441 125.328
 l 229.441 87.906 199.496 57.574 162.559 57.574 c h
162.559 57.574 m f
1 0.741176 0.556863 rg
162.559 57.574 m 165.129 57.574 167.664 57.734 170.16 58.023 c 136.801 
61.844 110.875 90.512 110.875 125.328 c 110.875 172.23 l 110.875 207.047
 136.797 235.711 170.156 239.535 c 167.66 239.824 165.129 239.984 162.555
 239.984 c 125.617 239.984 95.672 209.652 95.672 172.234 c 95.672 125.328
 l 95.676 87.906 125.617 57.574 162.559 57.574 c h
162.559 57.574 m f
0.411765 0.0196078 0.537255 rg
162.559 242.984 m 124.023 242.984 92.672 211.242 92.672 172.23 c 92.672
 125.328 l 92.672 86.312 124.023 54.574 162.559 54.574 c 201.094 54.574 
232.441 86.316 232.441 125.328 c 232.441 172.23 l 232.441 211.246 201.094
 242.984 162.559 242.984 c h
162.559 60.574 m 127.332 60.574 98.672 89.621 98.672 125.324 c 98.672 172.23
 l 98.672 207.934 127.332 236.98 162.559 236.98 c 197.781 236.98 226.441
 207.934 226.441 172.23 c 226.441 125.324 l 226.441 89.621 197.781 60.574
 162.559 60.574 c h
162.559 60.574 m f
95.672 174.062 m 90.898 174.062 l 76.918 174.062 65.547 162.691 65.547 
148.711 c 65.547 134.734 76.918 123.359 90.898 123.359 c 95.672 123.359 
l 97.328 123.359 98.672 124.703 98.672 126.359 c 98.672 171.062 l 98.672
 172.719 97.332 174.062 95.672 174.062 c h
90.898 129.363 m 80.23 129.363 71.547 138.043 71.547 148.715 c 71.547 159.383
 80.23 168.066 90.898 168.066 c 92.676 168.066 l 92.676 129.363 l h
90.898 129.363 m f
234.219 174.062 m 229.441 174.062 l 227.785 174.062 226.441 172.719 226.441
 171.062 c 226.441 126.363 l 226.441 124.707 227.785 123.363 229.441 123.363
 c 234.219 123.363 l 248.195 123.363 259.566 134.734 259.566 148.715 c 259.566
 162.691 248.195 174.062 234.219 174.062 c h
232.441 168.062 m 234.219 168.062 l 244.887 168.062 253.566 159.383 253.566
 148.711 c 253.566 138.039 244.887 129.359 234.219 129.359 c 232.441 129.359
 l h
232.441 168.062 m f
0.956863 0.937255 0.929412 rg
196.387 232.105 m 162.332 273.68 l 200.613 301.793 l 210.797 247.434 l 
h
196.387 232.105 m f
128.91 232.105 m 162.332 273.68 l 124.379 301.793 l 114.195 247.43 l h
128.91 232.105 m f
0.411765 0.0196078 0.537255 rg
200.613 304.793 m 199.984 304.793 199.359 304.598 198.836 304.211 c 160.559
 276.098 l 159.895 275.609 159.461 274.871 159.355 274.055 c 159.254 273.238
 159.492 272.418 160.012 271.777 c 194.066 230.203 l 194.613 229.535 195.422
 229.137 196.285 229.105 c 197.199 229.098 197.98 229.422 198.57 230.051
 c 212.98 245.379 l 213.637 246.078 213.918 247.047 213.742 247.988 c 203.559
 302.348 l 203.371 303.359 202.672 304.203 201.715 304.586 c 201.359 304.727
 200.984 304.793 200.613 304.793 c h
166.656 273.133 m 198.543 296.551 l 207.566 248.379 l 196.543 236.652 l
 h
166.656 273.133 m f
124.379 304.793 m 124.008 304.793 123.637 304.727 123.281 304.586 c 122.32
 304.211 121.621 303.363 121.43 302.348 c 111.25 247.98 l 111.07 247.027
 111.363 246.047 112.035 245.352 c 126.746 230.027 l 127.344 229.402 128.184
 229.062 129.043 229.105 c 129.902 229.145 130.707 229.551 131.25 230.223
 c 164.672 271.797 l 165.184 272.434 165.414 273.254 165.309 274.059 c 165.207
 274.867 164.777 275.602 164.121 276.09 c 126.164 304.203 l 125.637 304.594
 125.012 304.793 124.379 304.793 c h
117.43 248.395 m 126.445 296.531 l 158.039 273.125 l 128.711 236.645 l 
h
117.43 248.395 m f
39.988 329.973 m 38.336 329.973 36.988 328.629 36.988 326.973 c 36.988 
308.973 l 36.988 307.316 38.336 305.973 39.988 305.973 c 41.645 305.973 
42.988 307.316 42.988 308.973 c 42.988 326.973 l 42.988 328.629 41.648 329.973
 39.988 329.973 c h
39.988 329.973 m f
0.533333 0.321569 0.658824 rg
299.992 378 m 289.281 378 280.926 368.73 282.035 358.078 c 290.699 274.84
 l 309.285 274.84 l 317.945 358.078 l 319.055 368.73 310.699 378 299.992
 378 c h
299.992 378 m f
0.411765 0.0196078 0.537255 rg
299.988 381 m 294.039 381 288.336 378.465 284.352 374.043 c 280.367 369.621
 278.434 363.688 279.051 357.77 c 287.715 274.527 l 287.871 273 289.16 271.84
 290.695 271.84 c 309.281 271.84 l 310.816 271.84 312.105 273 312.266 274.527
 c 320.93 357.77 l 321.543 363.688 319.613 369.621 315.629 374.043 c 311.641
 378.465 305.941 381 299.988 381 c h
293.402 277.84 m 285.02 358.391 l 284.578 362.625 285.961 366.863 288.809
 370.027 c 291.66 373.188 295.734 375 299.988 375 c 304.246 375 308.32 373.188
 311.172 370.023 c 314.02 366.863 315.402 362.621 314.961 358.391 c 306.578
 277.84 l h
293.402 277.84 m f
0.988235 0.760784 0.298039 rg
359 223.578 m 359 256.164 332.582 282.586 299.992 282.586 c 267.402 282.586
 240.984 256.164 240.984 223.578 c 240.984 190.988 267.402 164.566 299.992
 164.566 c 332.582 164.566 359 190.988 359 223.578 c h
359 223.578 m f
0.870588 0.643137 0.180392 rg
298.621 282.371 m 299.637 282.453 300.66 282.508 301.688 282.543 c 333.492
 281.641 358.996 255.598 358.996 223.578 c 358.996 191.555 333.488 165.512
 301.688 164.609 c 300.66 164.645 299.633 164.699 298.617 164.781 c 328.934
 167.254 352.773 192.625 352.773 223.578 c 352.773 254.527 328.938 279.898
 298.621 282.371 c h
298.621 282.371 m f
0.988235 0.878431 0.415686 rg
301.359 164.781 m 300.344 164.699 299.32 164.645 298.293 164.609 c 266.488
 165.512 240.984 191.555 240.984 223.578 c 240.984 255.598 266.492 281.641
 298.293 282.543 c 299.32 282.508 300.348 282.453 301.363 282.371 c 271.047
 279.898 247.211 254.527 247.211 223.578 c 247.207 192.621 271.047 167.254
 301.359 164.781 c h
301.359 164.781 m f
0.411765 0.0196078 0.537255 rg
299.988 285.586 m 283.426 285.586 267.855 279.137 256.145 267.422 c 244.43
 255.711 237.984 240.141 237.984 223.578 c 237.984 207.012 244.434 191.441
 256.145 179.73 c 267.855 168.02 283.426 161.566 299.988 161.566 c 316.551
 161.566 332.125 168.02 343.836 179.73 c 355.551 191.441 361.996 207.012
 361.996 223.578 c 361.996 240.141 355.547 255.711 343.836 267.422 c 332.125
 279.137 316.551 285.586 299.988 285.586 c h
299.988 167.566 m 285.027 167.566 270.965 173.391 260.387 183.969 c 249.809
 194.551 243.98 208.617 243.98 223.574 c 243.98 238.535 249.809 252.602 
260.387 263.18 c 270.965 273.758 285.031 279.586 299.988 279.586 c 314.949
 279.586 329.016 273.758 339.594 263.18 c 350.172 252.602 356 238.535 356
 223.574 c 356 208.613 350.172 194.551 339.594 183.969 c 329.016 173.391
 314.949 167.566 299.988 167.566 c h
299.988 167.566 m f
0.956863 0.937255 0.929412 rg
343.527 223.578 m 343.527 247.621 324.035 267.109 299.992 267.109 c 275.949
 267.109 256.457 247.621 256.457 223.578 c 256.457 199.531 275.949 180.043
 299.992 180.043 c 324.035 180.043 343.527 199.531 343.527 223.578 c h
343.527 223.578 m f
0.411765 0.0196078 0.537255 rg
299.992 270.09 m 288.074 270.09 276.16 265.555 267.086 256.48 c 258.297
 247.691 253.453 236.004 253.453 223.574 c 253.453 211.145 258.297 199.461
 267.086 190.668 c 285.23 172.523 314.75 172.527 332.895 190.668 c 341.684
 199.457 346.523 211.145 346.523 223.574 c 346.523 236.004 341.684 247.691
 332.895 256.48 c 323.824 265.551 311.906 270.09 299.992 270.09 c h
299.988 183.062 m 289.609 183.062 279.23 187.012 271.328 194.914 c 263.672
 202.57 259.457 212.75 259.457 223.578 c 259.457 234.402 263.672 244.582
 271.328 252.238 c 287.133 268.039 312.848 268.043 328.652 252.238 c 336.309
 244.582 340.527 234.402 340.527 223.578 c 340.527 212.75 336.309 202.57
 328.652 194.914 c 320.75 187.012 310.371 183.062 299.988 183.062 c h
299.988 183.062 m f
274.234 219.934 m 276.223 219.934 277.875 221.586 277.875 223.578 c 277.875
 225.566 276.223 227.172 274.234 227.172 c 272.242 227.172 270.641 225.566
 270.641 223.578 c 270.641 221.586 272.242 219.934 274.234 219.934 c h
274.234 219.934 m f
299.965 219.934 m 301.957 219.934 303.609 221.586 303.609 223.578 c 303.609
 225.566 301.957 227.172 299.965 227.172 c 297.973 227.172 296.371 225.566
 296.371 223.578 c 296.371 221.586 297.973 219.934 299.965 219.934 c h
299.965 219.934 m f
325.699 219.934 m 327.691 219.934 329.344 221.586 329.344 223.578 c 329.344
 225.566 327.691 227.172 325.699 227.172 c 323.711 227.172 322.105 225.566
 322.105 223.578 c 322.105 221.586 323.711 219.934 325.699 219.934 c h
325.699 219.934 m f
Q Q
showpage
%%Trailer
end
%%EOF
