%!PS-Adobe-3.0 EPSF-3.0
%%Creator: cairo 1.16.0 (https://cairographics.org)
%%CreationDate: Fri Jan 10 07:39:22 2020
%%Pages: 1
%%DocumentData: Clean7Bit
%%LanguageLevel: 2
%%BoundingBox: 9 9 375 375
%%EndComments
%%BeginProlog
50 dict begin
/q { gsave } bind def
/Q { grestore } bind def
/cm { 6 array astore concat } bind def
/w { setlinewidth } bind def
/J { setlinecap } bind def
/j { setlinejoin } bind def
/M { setmiterlimit } bind def
/d { setdash } bind def
/m { moveto } bind def
/l { lineto } bind def
/c { curveto } bind def
/h { closepath } bind def
/re { exch dup neg 3 1 roll 5 3 roll moveto 0 rlineto
      0 exch rlineto 0 rlineto closepath } bind def
/S { stroke } bind def
/f { fill } bind def
/f* { eofill } bind def
/n { newpath } bind def
/W { clip } bind def
/W* { eoclip } bind def
/BT { } bind def
/ET { } bind def
/BDC { mark 3 1 roll /BDC pdfmark } bind def
/EMC { mark /EMC pdfmark } bind def
/cairo_store_point { /cairo_point_y exch def /cairo_point_x exch def } def
/Tj { show currentpoint cairo_store_point } bind def
/TJ {
  {
    dup
    type /stringtype eq
    { show } { -0.001 mul 0 cairo_font_matrix dtransform rmoveto } ifelse
  } forall
  currentpoint cairo_store_point
} bind def
/cairo_selectfont { cairo_font_matrix aload pop pop pop 0 0 6 array astore
    cairo_font exch selectfont cairo_point_x cairo_point_y moveto } bind def
/Tf { pop /cairo_font exch def /cairo_font_matrix where
      { pop cairo_selectfont } if } bind def
/Td { matrix translate cairo_font_matrix matrix concatmatrix dup
      /cairo_font_matrix exch def dup 4 get exch 5 get cairo_store_point
      /cairo_font where { pop cairo_selectfont } if } bind def
/Tm { 2 copy 8 2 roll 6 array astore /cairo_font_matrix exch def
      cairo_store_point /cairo_font where { pop cairo_selectfont } if } bind def
/g { setgray } bind def
/rg { setrgbcolor } bind def
/d1 { setcachedevice } bind def
/cairo_data_source {
  CairoDataIndex CairoData length lt
    { CairoData CairoDataIndex get /CairoDataIndex CairoDataIndex 1 add def }
    { () } ifelse
} def
/cairo_flush_ascii85_file { cairo_ascii85_file status { cairo_ascii85_file flushfile } if } def
/cairo_image { image cairo_flush_ascii85_file } def
/cairo_imagemask { imagemask cairo_flush_ascii85_file } def
%%EndProlog
%%BeginSetup
%%EndSetup
%%Page: 1 1
%%BeginPageSetup
%%PageBoundingBox: 9 9 375 375
%%EndPageSetup
q 9 9 366 366 rectclip
1 0 0 -1 0 384 cm q
0.956863 0.937255 0.929412 rg
371.523 192 m 371.523 291.148 291.148 371.523 192 371.523 c 92.852 371.523
 12.477 291.148 12.477 192 c 12.477 92.852 92.852 12.477 192 12.477 c 291.148
 12.477 371.523 92.852 371.523 192 c h
371.523 192 m f
0.321569 0.435294 0.666667 rg
328.777 192 m 328.777 267.418 267.418 328.777 192 328.777 c 192 315.883
 l 174.082 326.23 l 156.16 336.574 l 174.082 346.922 l 192 357.266 l 192
 343.777 l 275.691 343.777 343.777 275.691 343.777 192 c h
328.777 192 m f
209.918 37.379 m 192 27.031 l 192 40.223 l 108.309 40.223 40.223 108.309
 40.223 192 c 55.223 192 l 55.223 116.582 116.582 55.223 192 55.223 c 192
 68.414 l 209.918 58.07 l 227.84 47.723 l h
209.918 37.379 m f
0.839216 0.819608 0.811765 rg
192 12.477 m 189.383 12.477 186.781 12.543 184.195 12.656 c 279.719 16.742
 355.914 95.469 355.914 192 c 355.914 288.531 279.719 367.258 184.195 371.344
 c 186.781 371.457 189.383 371.523 192 371.523 c 291.148 371.523 371.523
 291.148 371.523 192 c 371.523 92.852 291.148 12.477 192 12.477 c h
192 12.477 m f
1 g
192 371.523 m 194.617 371.523 197.215 371.453 199.805 371.344 c 104.281
 367.258 28.086 288.531 28.086 192 c 28.086 95.469 104.281 16.742 199.805
 12.656 c 197.219 12.543 194.617 12.477 192 12.477 c 92.852 12.477 12.477
 92.852 12.477 192 c 12.477 291.148 92.852 371.523 192 371.523 c h
192 371.523 m f
0.411765 0.0196078 0.537255 rg
192 374.523 m 91.355 374.523 9.477 292.645 9.477 192 c 9.477 91.355 91.355
 9.477 192 9.477 c 292.645 9.477 374.523 91.355 374.523 192 c 374.523 292.645
 292.645 374.523 192 374.523 c h
192 15.477 m 94.664 15.477 15.477 94.664 15.477 192 c 15.477 289.336 94.664
 368.523 192 368.523 c 289.336 368.523 368.523 289.336 368.523 192 c 368.523
 94.664 289.336 15.477 192 15.477 c h
192 15.477 m f
26.684 190.418 m 25.027 190.418 23.684 189.074 23.684 187.418 c 23.684 
181.246 24.129 175.047 25 168.992 c 25.234 167.352 26.77 166.211 28.398 
166.449 c 30.035 166.688 31.176 168.207 30.938 169.848 c 30.105 175.621 
29.684 181.531 29.684 187.422 c 29.684 189.074 28.344 190.418 26.684 190.418
 c h
26.684 190.418 m f
0.988235 0.760784 0.298039 rg
352.527 31.609 m 371.055 50.137 371.055 80.18 352.527 98.707 c 333.996 
117.238 303.957 117.238 285.426 98.707 c 266.898 80.18 266.898 50.137 285.426
 31.609 c 303.957 13.082 333.996 13.082 352.527 31.609 c h
352.527 31.609 m f
0.870588 0.643137 0.180392 rg
319.016 17.68 m 317.5 17.68 316 17.758 314.516 17.898 c 338.613 20.164 
357.469 40.441 357.469 65.133 c 357.469 89.82 338.613 110.098 314.516 112.363
 c 316 112.504 317.5 112.586 319.016 112.586 c 345.223 112.586 366.469 91.34
 366.469 65.133 c 366.469 38.926 345.223 17.68 319.016 17.68 c h
319.016 17.68 m f
0.988235 0.878431 0.415686 rg
319.016 112.586 m 320.535 112.586 322.035 112.504 323.516 112.363 c 299.422
 110.098 280.566 89.82 280.566 65.133 c 280.566 40.441 299.422 20.164 323.516
 17.898 c 322.035 17.758 320.535 17.68 319.016 17.68 c 292.809 17.68 271.566
 38.922 271.566 65.133 c 271.566 91.34 292.809 112.586 319.016 112.586 c
 h
319.016 112.586 m f
0.411765 0.0196078 0.537255 rg
319.016 115.586 m 291.199 115.586 268.566 92.953 268.566 65.133 c 268.566
 37.312 291.199 14.68 319.016 14.68 c 346.836 14.68 369.469 37.312 369.469
 65.133 c 369.469 92.953 346.836 115.586 319.016 115.586 c h
319.016 20.68 m 294.504 20.68 274.566 40.621 274.566 65.133 c 274.566 89.645
 294.504 109.586 319.016 109.586 c 343.527 109.586 363.469 89.645 363.469
 65.133 c 363.469 40.621 343.527 20.68 319.016 20.68 c h
319.016 20.68 m f
318.965 36.703 m 320.574 36.703 321.852 37.98 321.852 39.594 c 321.852 
41.07 l 325.816 41.539 329.18 42.816 332.27 44.766 c 333.344 45.371 334.285
 46.379 334.285 47.992 c 334.285 50.074 332.605 51.688 330.52 51.688 c 329.848
 51.688 329.18 51.484 328.504 51.082 c 326.152 49.672 323.867 48.664 321.582
 48.125 c 321.582 61.027 l 331.797 63.582 336.164 67.68 336.164 74.871 c
 336.164 82.266 330.387 87.172 321.852 87.977 c 321.852 92.008 l 321.852
 93.621 320.574 94.898 318.961 94.898 c 317.348 94.898 316.004 93.621 316.004
 92.008 c 316.004 87.84 l 310.965 87.305 306.328 85.488 302.227 82.602 c
 301.086 81.859 300.414 80.785 300.414 79.375 c 300.414 77.289 302.023 75.68
 304.109 75.68 c 304.914 75.68 305.723 75.945 306.324 76.418 c 309.484 78.703
 312.574 80.25 316.273 80.922 c 316.273 67.68 l 306.461 65.129 301.891 61.434
 301.891 53.84 c 301.891 46.648 307.602 41.676 316.004 41.004 c 316.004 
39.59 l 316.004 37.98 317.348 36.703 318.965 36.703 c h
316.273 59.617 m 316.273 47.723 l 311.973 48.129 309.824 50.41 309.824 
53.367 c 309.824 56.191 311.102 57.938 316.273 59.617 c h
321.582 68.961 m 321.582 81.188 l 325.883 80.719 328.234 78.57 328.234 
75.344 c 328.234 72.387 326.758 70.57 321.582 68.961 c h
321.582 68.961 m f
0.988235 0.760784 0.298039 rg
98.641 285.441 m 117.168 303.969 117.168 334.012 98.641 352.539 c 80.113
 371.066 50.07 371.066 31.543 352.539 c 13.012 334.012 13.012 303.969 31.543
 285.441 c 50.07 266.91 80.113 266.91 98.641 285.441 c h
98.641 285.441 m f
0.870588 0.643137 0.180392 rg
65.133 271.566 m 63.613 271.566 62.113 271.645 60.633 271.785 c 84.727 
274.051 103.586 294.328 103.586 319.016 c 103.586 343.707 84.727 363.984
 60.633 366.25 c 62.113 366.391 63.613 366.469 65.133 366.469 c 91.34 366.469
 112.586 345.223 112.586 319.016 c 112.586 292.809 91.34 271.566 65.133 
271.566 c h
65.133 271.566 m f
0.988235 0.878431 0.415686 rg
65.133 366.469 m 66.648 366.469 68.148 366.391 69.633 366.25 c 45.535 363.984
 26.68 343.707 26.68 319.016 c 26.68 294.328 45.535 274.051 69.633 271.785
 c 68.148 271.645 66.648 271.566 65.133 271.566 c 38.926 271.566 17.68 292.809
 17.68 319.016 c 17.68 345.223 38.926 366.469 65.133 366.469 c h
65.133 366.469 m f
0.411765 0.0196078 0.537255 rg
65.133 369.469 m 37.312 369.469 14.68 346.836 14.68 319.016 c 14.68 291.199
 37.312 268.566 65.133 268.566 c 92.949 268.566 115.586 291.195 115.586 
319.016 c 115.586 346.836 92.949 369.469 65.133 369.469 c h
65.133 274.566 m 40.621 274.566 20.68 294.504 20.68 319.016 c 20.68 343.527
 40.621 363.469 65.133 363.469 c 89.645 363.469 109.586 343.527 109.586 
319.016 c 109.586 294.504 89.645 274.566 65.133 274.566 c h
65.133 274.566 m f
65.078 290.59 m 66.691 290.59 67.965 291.867 67.965 293.477 c 67.965 294.957
 l 71.93 295.43 75.293 296.703 78.383 298.652 c 79.457 299.258 80.398 300.266
 80.398 301.879 c 80.398 303.961 78.719 305.574 76.637 305.574 c 75.965 
305.574 75.289 305.371 74.617 304.969 c 72.266 303.559 69.98 302.551 67.695
 302.012 c 67.695 314.914 l 77.91 317.469 82.281 321.57 82.281 328.758 c
 82.281 336.152 76.5 341.059 67.965 341.863 c 67.965 345.895 l 67.965 347.508
 66.688 348.785 65.074 348.785 c 63.465 348.785 62.117 347.508 62.117 345.895
 c 62.117 341.727 l 57.078 341.191 52.441 339.375 48.344 336.488 c 47.199
 335.746 46.527 334.672 46.527 333.262 c 46.527 331.18 48.141 329.566 50.223
 329.566 c 51.027 329.566 51.836 329.836 52.441 330.305 c 55.598 332.59 
58.688 334.137 62.387 334.809 c 62.387 321.57 l 52.574 319.016 48.004 315.32
 48.004 307.727 c 48.004 300.535 53.715 295.562 62.117 294.891 c 62.117 
293.48 l 62.121 291.867 63.465 290.59 65.078 290.59 c h
62.391 313.504 m 62.391 301.609 l 58.09 302.012 55.938 304.297 55.938 307.254
 c 55.938 310.078 57.215 311.824 62.391 313.504 c h
67.699 322.844 m 67.699 335.074 l 72 334.602 74.352 332.453 74.352 329.227
 c 74.352 326.273 72.871 324.457 67.699 322.844 c h
67.699 322.844 m f
192 360.266 m 191.48 360.266 190.965 360.133 190.5 359.863 c 154.66 339.176
 l 153.734 338.637 153.16 337.648 153.16 336.574 c 153.16 335.504 153.734
 334.512 154.66 333.977 c 190.5 313.285 l 191.43 312.75 192.57 312.75 193.5
 313.285 c 194.43 313.82 195 314.812 195 315.883 c 195 325.742 l 267.383
 324.141 325.777 264.762 325.777 192 c 325.777 190.344 327.121 189 328.777
 189 c 343.777 189 l 345.434 189 346.777 190.344 346.777 192 c 346.777 276.344
 278.969 345.148 195 346.746 c 195 357.266 l 195 358.336 194.43 359.328 
193.5 359.863 c 193.035 360.129 192.52 360.266 192 360.266 c h
162.16 336.574 m 189 352.07 l 189 343.777 l 189 342.121 190.344 340.777
 192 340.777 c 273.031 340.777 339.145 275.656 340.746 195 c 331.742 195
 l 330.141 270.695 268.07 331.777 192 331.777 c 190.344 331.777 189 330.434
 189 328.777 c 189 321.078 l h
162.16 336.574 m f
55.223 195 m 40.223 195 l 38.566 195 37.223 193.656 37.223 192 c 37.223
 107.656 105.031 38.852 189 37.254 c 189 27.031 l 189 25.961 189.57 24.969
 190.5 24.434 c 191.43 23.898 192.57 23.898 193.5 24.434 c 229.34 45.125
 l 230.266 45.66 230.84 46.652 230.84 47.723 c 230.84 48.797 230.266 49.785
 229.34 50.32 c 193.5 71.012 l 192.57 71.547 191.43 71.547 190.5 71.012 
c 189.57 70.477 189 69.484 189 68.414 c 189 58.258 l 116.617 59.859 58.223
 119.238 58.223 192 c 58.223 193.656 56.883 195 55.223 195 c h
43.254 189 m 52.258 189 l 53.859 113.305 115.93 52.223 192 52.223 c 193.656
 52.223 195 53.566 195 55.223 c 195 63.219 l 221.84 47.723 l 208.418 39.977
 l 195 32.23 l 195 40.223 l 195 41.879 193.656 43.223 192 43.223 c 110.969
 43.223 44.855 108.344 43.254 189 c h
43.254 189 m f
0.533333 0.321569 0.658824 rg
119.566 139.684 144.863 134.801 re f
0.411765 0.0196078 0.537255 rg
264.434 277.484 m 119.566 277.484 l 117.91 277.484 116.566 276.141 116.566
 274.484 c 116.566 139.684 l 116.566 138.027 117.91 136.684 119.566 136.684
 c 264.434 136.684 l 266.09 136.684 267.434 138.027 267.434 139.684 c 267.434
 274.484 l 267.434 276.141 266.09 277.484 264.434 277.484 c h
122.566 271.484 m 261.434 271.484 l 261.434 142.684 l 122.566 142.684 l
 h
122.566 271.484 m f
0.956863 0.937255 0.929412 rg
140.711 139.684 102.578 92.512 re f
0.411765 0.0196078 0.537255 rg
243.289 235.195 m 140.711 235.195 l 139.055 235.195 137.711 233.852 137.711
 232.195 c 137.711 139.684 l 137.711 138.027 139.055 136.684 140.711 136.684
 c 243.289 136.684 l 244.945 136.684 246.289 138.027 246.289 139.684 c 246.289
 232.195 l 246.289 233.852 244.945 235.195 243.289 235.195 c h
143.711 229.195 m 240.289 229.195 l 240.289 142.684 l 143.711 142.684 l
 h
143.711 229.195 m f
0.533333 0.321569 0.658824 rg
121.586 175.727 m 111.863 175.727 103.98 167.844 103.98 158.121 c 103.98
 152.781 l 139.191 152.781 l 139.191 158.121 l 139.188 167.844 131.309 175.727
 121.586 175.727 c h
121.586 175.727 m f
156.793 175.727 m 147.07 175.727 139.188 167.844 139.188 158.121 c 139.188
 152.781 l 174.395 152.781 l 174.395 158.121 l 174.395 167.844 166.516 175.727
 156.793 175.727 c h
156.793 175.727 m f
192 175.727 m 182.277 175.727 174.395 167.844 174.395 158.121 c 174.395
 152.781 l 209.605 152.781 l 209.605 158.121 l 209.605 167.844 201.723 175.727
 192 175.727 c h
192 175.727 m f
227.207 175.727 m 217.488 175.727 209.605 167.844 209.605 158.121 c 209.605
 152.781 l 244.812 152.781 l 244.812 158.121 l 244.812 167.844 236.93 175.727
 227.207 175.727 c h
227.207 175.727 m f
262.414 175.727 m 252.691 175.727 244.809 167.844 244.809 158.121 c 244.809
 152.781 l 280.02 152.781 l 280.02 158.121 l 280.02 167.844 272.137 175.727
 262.414 175.727 c h
262.414 175.727 m f
255.273 109.516 m 128.727 109.516 l 122.535 109.516 117.039 113.484 115.086
 119.359 c 103.98 152.781 l 280.02 152.781 l 268.914 119.359 l 266.961 113.484
 261.465 109.516 255.273 109.516 c h
255.273 109.516 m f
0.411765 0.0196078 0.537255 rg
280.02 155.781 m 103.98 155.781 l 103.016 155.781 102.109 155.316 101.547
 154.535 c 100.984 153.754 100.828 152.75 101.133 151.836 c 112.238 118.41
 l 114.602 111.297 121.227 106.516 128.727 106.516 c 255.273 106.516 l 262.77
 106.516 269.398 111.297 271.762 118.41 c 282.867 151.836 l 283.168 152.746
 283.016 153.754 282.453 154.535 c 281.891 155.32 280.984 155.781 280.02
 155.781 c h
108.141 149.781 m 275.859 149.781 l 266.066 120.305 l 264.52 115.645 260.18
 112.516 255.273 112.516 c 128.727 112.516 l 123.82 112.516 119.48 115.645
 117.934 120.305 c h
108.141 149.781 m f
121.586 178.727 m 110.223 178.727 100.98 169.484 100.98 158.121 c 100.98
 152.781 l 100.98 151.125 102.324 149.781 103.98 149.781 c 139.191 149.781
 l 140.844 149.781 142.191 151.125 142.191 152.781 c 142.191 158.121 l 142.188
 169.484 132.945 178.727 121.586 178.727 c h
106.98 155.781 m 106.98 158.121 l 106.98 166.176 113.531 172.727 121.586
 172.727 c 129.637 172.727 136.188 166.176 136.188 158.121 c 136.188 155.781
 l h
106.98 155.781 m f
156.793 178.727 m 145.43 178.727 136.188 169.484 136.188 158.121 c 136.188
 152.781 l 136.188 151.125 137.531 149.781 139.188 149.781 c 174.395 149.781
 l 176.051 149.781 177.395 151.125 177.395 152.781 c 177.395 158.121 l 177.395
 169.484 168.152 178.727 156.793 178.727 c h
142.188 155.781 m 142.188 158.121 l 142.188 166.176 148.738 172.727 156.793
 172.727 c 164.844 172.727 171.395 166.176 171.395 158.121 c 171.395 155.781
 l h
142.188 155.781 m f
192 178.727 m 180.641 178.727 171.395 169.484 171.395 158.121 c 171.395
 152.781 l 171.395 151.125 172.738 149.781 174.395 149.781 c 209.605 149.781
 l 211.262 149.781 212.605 151.125 212.605 152.781 c 212.605 158.121 l 212.605
 169.484 203.359 178.727 192 178.727 c h
177.395 155.781 m 177.395 158.121 l 177.395 166.176 183.949 172.727 192
 172.727 c 200.051 172.727 206.605 166.176 206.605 158.121 c 206.605 155.781
 l h
177.395 155.781 m f
227.207 178.727 m 215.848 178.727 206.605 169.484 206.605 158.121 c 206.605
 152.781 l 206.605 151.125 207.949 149.781 209.605 149.781 c 244.812 149.781
 l 246.469 149.781 247.812 151.125 247.812 152.781 c 247.812 158.121 l 247.812
 169.484 238.57 178.727 227.207 178.727 c h
212.605 155.781 m 212.605 158.121 l 212.605 166.176 219.156 172.727 227.207
 172.727 c 235.258 172.727 241.809 166.176 241.809 158.121 c 241.809 155.781
 l h
212.605 155.781 m f
262.414 178.727 m 251.055 178.727 241.812 169.484 241.812 158.121 c 241.812
 152.781 l 241.812 151.125 243.156 149.781 244.812 149.781 c 280.02 149.781
 l 281.676 149.781 283.02 151.125 283.02 152.781 c 283.02 158.121 l 283.02
 169.484 273.777 178.727 262.414 178.727 c h
247.812 155.781 m 247.812 158.121 l 247.812 166.176 254.363 172.727 262.414
 172.727 c 270.465 172.727 277.02 166.176 277.02 158.121 c 277.02 155.781
 l h
247.812 155.781 m f
Q Q
showpage
%%Trailer
end
%%EOF
