%!PS-Adobe-3.0 EPSF-3.0
%%Creator: cairo 1.16.0 (https://cairographics.org)
%%CreationDate: Fri Jan 10 07:39:25 2020
%%Pages: 1
%%DocumentData: Clean7Bit
%%LanguageLevel: 2
%%BoundingBox: 46 3 338 381
%%EndComments
%%BeginProlog
50 dict begin
/q { gsave } bind def
/Q { grestore } bind def
/cm { 6 array astore concat } bind def
/w { setlinewidth } bind def
/J { setlinecap } bind def
/j { setlinejoin } bind def
/M { setmiterlimit } bind def
/d { setdash } bind def
/m { moveto } bind def
/l { lineto } bind def
/c { curveto } bind def
/h { closepath } bind def
/re { exch dup neg 3 1 roll 5 3 roll moveto 0 rlineto
      0 exch rlineto 0 rlineto closepath } bind def
/S { stroke } bind def
/f { fill } bind def
/f* { eofill } bind def
/n { newpath } bind def
/W { clip } bind def
/W* { eoclip } bind def
/BT { } bind def
/ET { } bind def
/BDC { mark 3 1 roll /BDC pdfmark } bind def
/EMC { mark /EMC pdfmark } bind def
/cairo_store_point { /cairo_point_y exch def /cairo_point_x exch def } def
/Tj { show currentpoint cairo_store_point } bind def
/TJ {
  {
    dup
    type /stringtype eq
    { show } { -0.001 mul 0 cairo_font_matrix dtransform rmoveto } ifelse
  } forall
  currentpoint cairo_store_point
} bind def
/cairo_selectfont { cairo_font_matrix aload pop pop pop 0 0 6 array astore
    cairo_font exch selectfont cairo_point_x cairo_point_y moveto } bind def
/Tf { pop /cairo_font exch def /cairo_font_matrix where
      { pop cairo_selectfont } if } bind def
/Td { matrix translate cairo_font_matrix matrix concatmatrix dup
      /cairo_font_matrix exch def dup 4 get exch 5 get cairo_store_point
      /cairo_font where { pop cairo_selectfont } if } bind def
/Tm { 2 copy 8 2 roll 6 array astore /cairo_font_matrix exch def
      cairo_store_point /cairo_font where { pop cairo_selectfont } if } bind def
/g { setgray } bind def
/rg { setrgbcolor } bind def
/d1 { setcachedevice } bind def
/cairo_data_source {
  CairoDataIndex CairoData length lt
    { CairoData CairoDataIndex get /CairoDataIndex CairoDataIndex 1 add def }
    { () } ifelse
} def
/cairo_flush_ascii85_file { cairo_ascii85_file status { cairo_ascii85_file flushfile } if } def
/cairo_image { image cairo_flush_ascii85_file } def
/cairo_imagemask { imagemask cairo_flush_ascii85_file } def
%%EndProlog
%%BeginSetup
%%EndSetup
%%Page: 1 1
%%BeginPageSetup
%%PageBoundingBox: 46 3 338 381
%%EndPageSetup
q 46 3 292 378 rectclip
1 0 0 -1 0 384 cm q
0.321569 0.435294 0.666667 rg
323.668 134.887 m 217.02 295.32 l 217.02 344.121 l 156 378 l 156 295.32
 l 49.352 134.887 l h
323.668 134.887 m f
0.439216 0.552941 0.784314 rg
167.84 371.426 m 167.84 295.32 l 61.191 134.887 l 49.352 134.887 l 156 
295.32 l 156 378 l h
167.84 371.426 m f
0.203922 0.317647 0.54902 rg
311.828 134.887 m 205.176 295.32 l 205.176 350.695 l 217.02 344.121 l 217.02
 295.32 l 323.668 134.887 l h
311.828 134.887 m f
0.411765 0.0196078 0.537255 rg
156 381 m 155.477 381 154.949 380.863 154.48 380.586 c 153.562 380.047 
153 379.062 153 378 c 153 296.223 l 46.855 136.547 l 46.242 135.625 46.188
 134.441 46.707 133.469 c 47.23 132.492 48.246 131.887 49.352 131.887 c 
323.668 131.887 l 324.773 131.887 325.789 132.492 326.312 133.469 c 326.836
 134.441 326.777 135.625 326.164 136.547 c 220.016 296.223 l 220.016 344.121
 l 220.016 345.211 219.426 346.215 218.473 346.746 c 157.457 380.621 l 157.004
 380.875 156.504 381 156 381 c h
54.949 137.887 m 158.5 293.656 l 158.828 294.148 159 294.727 159 295.32
 c 159 372.902 l 214.02 342.355 l 214.02 295.32 l 214.02 294.727 214.191
 294.148 214.52 293.656 c 318.07 137.887 l h
54.949 137.887 m f
0.988235 0.760784 0.298039 rg
265.703 98.457 m 265.703 71.93 l 251.023 71.93 l 249.316 63.59 246.027 
55.836 241.492 48.969 c 251.891 38.574 l 233.129 19.816 l 222.734 30.211
 l 215.871 25.676 208.113 22.387 199.773 20.68 c 199.773 6 l 173.246 6 l
 173.246 20.68 l 164.906 22.387 157.152 25.676 150.285 30.211 c 139.891 
19.816 l 121.133 38.574 l 131.527 48.969 l 126.992 55.836 123.703 63.594
 121.996 71.93 c 107.316 71.93 l 107.316 98.461 l 121.996 98.461 l 123.703
 106.797 126.996 114.555 131.527 121.422 c 121.133 131.816 l 139.891 150.574
 l 150.285 140.18 l 157.148 144.711 164.906 148.004 173.242 149.711 c 173.242
 164.391 l 199.773 164.391 l 199.773 149.711 l 208.113 148.004 215.867 144.711
 222.734 140.18 c 233.129 150.574 l 251.887 131.816 l 241.492 121.422 l 
246.023 114.555 249.316 106.797 251.02 98.461 c 265.703 98.461 l h
186.512 124.895 m 164.582 124.895 146.809 107.121 146.809 85.195 c 146.809
 63.266 164.582 45.492 186.512 45.492 c 208.438 45.492 226.211 63.266 226.211
 85.195 c 226.211 107.121 208.438 124.895 186.512 124.895 c h
186.512 124.895 m f
0.411765 0.0196078 0.537255 rg
199.773 167.391 m 173.246 167.391 l 171.59 167.391 170.246 166.047 170.246
 164.391 c 170.246 152.113 l 163.352 150.445 156.801 147.723 150.707 144
 c 142.012 152.695 l 140.887 153.82 138.895 153.82 137.77 152.695 c 119.012
 133.938 l 118.449 133.375 118.133 132.609 118.133 131.816 c 118.133 131.02
 118.449 130.258 119.012 129.695 c 127.703 121 l 123.98 114.906 121.262 
108.355 119.594 101.461 c 107.316 101.461 l 105.66 101.461 104.316 100.117
 104.316 98.461 c 104.316 71.93 l 104.316 70.273 105.66 68.93 107.316 68.93
 c 119.594 68.93 l 121.262 62.039 123.98 55.484 127.703 49.391 c 119.012
 40.699 l 118.449 40.137 118.133 39.371 118.133 38.578 c 118.133 37.781 
118.449 37.02 119.012 36.457 c 137.77 17.695 l 138.332 17.133 139.094 16.816
 139.891 16.816 c 140.684 16.816 141.449 17.133 142.012 17.695 c 150.703
 26.391 l 156.797 22.668 163.352 19.949 170.242 18.277 c 170.242 6 l 170.242
 4.344 171.59 3 173.242 3 c 199.773 3 l 201.43 3 202.773 4.344 202.773 6
 c 202.773 18.277 l 209.668 19.945 216.223 22.668 222.312 26.391 c 231.008
 17.695 l 232.133 16.57 234.121 16.57 235.246 17.695 c 254.008 36.453 l 
254.57 37.016 254.887 37.781 254.887 38.574 c 254.887 39.371 254.57 40.133
 254.008 40.695 c 245.316 49.391 l 249.035 55.484 251.758 62.035 253.426
 68.93 c 265.703 68.93 l 267.359 68.93 268.703 70.273 268.703 71.93 c 268.703
 98.457 l 268.703 100.113 267.359 101.457 265.703 101.457 c 253.426 101.457
 l 251.758 108.352 249.035 114.906 245.316 121 c 254.008 129.691 l 254.57
 130.254 254.887 131.02 254.887 131.812 c 254.887 132.609 254.57 133.371
 254.008 133.934 c 235.246 152.695 l 234.684 153.258 233.922 153.574 233.129
 153.574 c 232.332 153.574 231.57 153.258 231.008 152.695 c 222.312 144 
l 216.219 147.723 209.668 150.441 202.773 152.113 c 202.773 164.391 l 202.773
 166.047 201.43 167.391 199.773 167.391 c h
176.246 161.391 m 196.773 161.391 l 196.773 149.711 l 196.773 148.285 197.777
 147.055 199.176 146.77 c 206.992 145.172 214.363 142.113 221.082 137.676
 c 222.27 136.891 223.848 137.051 224.859 138.059 c 233.129 146.332 l 247.648
 131.816 l 239.375 123.543 l 238.367 122.535 238.207 120.957 238.992 119.77
 c 243.426 113.051 246.484 105.68 248.086 97.859 c 248.367 96.465 249.598
 95.461 251.023 95.461 c 262.707 95.461 l 262.707 74.93 l 251.023 74.93 
l 249.598 74.93 248.367 73.93 248.086 72.531 c 246.484 64.715 243.426 57.344
 238.992 50.625 c 238.207 49.434 238.367 47.855 239.375 46.848 c 247.648
 38.574 l 233.129 24.059 l 224.859 32.332 l 223.852 33.34 222.273 33.504
 221.082 32.715 c 214.363 28.281 206.992 25.223 199.176 23.621 c 197.777
 23.336 196.773 22.105 196.773 20.684 c 196.773 9 l 176.246 9 l 176.246 
20.68 l 176.246 22.105 175.242 23.336 173.848 23.617 c 166.027 25.219 158.656
 28.277 151.938 32.715 c 150.75 33.5 149.172 33.34 148.164 32.332 c 139.891
 24.059 l 125.371 38.574 l 133.645 46.848 l 134.652 47.855 134.812 49.434
 134.027 50.625 c 129.594 57.344 126.531 64.715 124.934 72.531 c 124.648
 73.93 123.422 74.93 121.996 74.93 c 110.316 74.93 l 110.316 95.461 l 121.996
 95.461 l 123.422 95.461 124.648 96.461 124.934 97.859 c 126.535 105.68 
129.594 113.051 134.027 119.766 c 134.812 120.957 134.652 122.535 133.645
 123.543 c 125.371 131.816 l 139.891 146.332 l 148.164 138.059 l 149.172
 137.051 150.75 136.891 151.938 137.676 c 158.656 142.113 166.027 145.172
 173.844 146.77 c 175.242 147.055 176.242 148.281 176.242 149.707 c 176.242
 161.391 l h
186.512 127.895 m 162.965 127.895 143.809 108.738 143.809 85.195 c 143.809
 61.648 162.965 42.492 186.512 42.492 c 210.055 42.492 229.211 61.648 229.211
 85.195 c 229.211 108.738 210.055 127.895 186.512 127.895 c h
186.512 48.492 m 166.273 48.492 149.809 64.957 149.809 85.195 c 149.809
 105.434 166.273 121.898 186.512 121.898 c 206.746 121.898 223.211 105.434
 223.211 85.195 c 223.211 64.957 206.746 48.492 186.512 48.492 c h
186.512 48.492 m f
0.870588 0.643137 0.180392 rg
240.109 40.82 m 233.793 47.141 l 232.754 48.176 232.523 49.801 233.285 
51.055 c 236.711 56.691 239.32 62.875 240.938 69.449 c 241.289 70.895 242.551
 71.93 244.035 71.93 c 251.023 71.93 l 249.316 63.59 246.027 55.836 241.492
 48.969 c 251.891 38.574 l 233.129 19.816 l 228.363 24.582 l 240.113 36.328
 l 241.352 37.57 241.352 39.582 240.109 40.82 c h
240.109 40.82 m f
256.176 71.93 9.531 26.527 re f
251.023 98.457 m 244.035 98.457 l 242.547 98.457 241.289 99.496 240.938
 100.938 c 239.32 107.516 236.711 113.699 233.285 119.332 c 232.523 120.59
 232.754 122.211 233.793 123.246 c 240.109 129.566 l 241.352 130.805 241.352
 132.816 240.109 134.059 c 228.363 145.805 l 233.129 150.57 l 251.887 131.812
 l 241.492 121.418 l 246.027 114.555 249.316 106.797 251.023 98.457 c h
251.023 98.457 m f
0.988235 0.878431 0.415686 rg
132.91 40.82 m 139.227 47.141 l 140.266 48.176 140.496 49.801 139.734 51.055
 c 136.309 56.691 133.699 62.875 132.086 69.449 c 131.73 70.895 130.469 
71.93 128.984 71.93 c 121.996 71.93 l 123.703 63.59 126.992 55.836 131.527
 48.969 c 121.133 38.574 l 139.891 19.816 l 144.656 24.582 l 132.906 36.328
 l 131.668 37.57 131.668 39.582 132.91 40.82 c h
132.91 40.82 m f
107.316 71.93 9.527 26.527 re f
121.996 98.457 m 128.984 98.457 l 130.473 98.457 131.73 99.496 132.086 
100.938 c 133.699 107.516 136.309 113.699 139.734 119.332 c 140.496 120.59
 140.266 122.211 139.227 123.246 c 132.91 129.566 l 131.668 130.805 131.668
 132.816 132.91 134.059 c 144.656 145.805 l 139.891 150.57 l 121.133 131.812
 l 131.527 121.418 l 126.992 114.555 123.703 106.797 121.996 98.457 c h
121.996 98.457 m f
0.411765 0.0196078 0.537255 rg
199.773 167.391 m 173.246 167.391 l 171.59 167.391 170.246 166.047 170.246
 164.391 c 170.246 152.113 l 163.352 150.445 156.801 147.723 150.707 144
 c 142.012 152.695 l 140.887 153.82 138.895 153.82 137.77 152.695 c 119.012
 133.938 l 118.449 133.375 118.133 132.609 118.133 131.816 c 118.133 131.02
 118.449 130.258 119.012 129.695 c 127.703 121 l 123.98 114.906 121.262 
108.355 119.594 101.461 c 107.316 101.461 l 105.66 101.461 104.316 100.117
 104.316 98.461 c 104.316 71.93 l 104.316 70.273 105.66 68.93 107.316 68.93
 c 119.594 68.93 l 121.262 62.039 123.98 55.484 127.703 49.391 c 119.012
 40.699 l 118.449 40.137 118.133 39.371 118.133 38.578 c 118.133 37.781 
118.449 37.02 119.012 36.457 c 137.77 17.695 l 138.332 17.133 139.094 16.816
 139.891 16.816 c 140.684 16.816 141.449 17.133 142.012 17.695 c 150.703
 26.391 l 156.797 22.668 163.352 19.949 170.242 18.277 c 170.242 6 l 170.242
 4.344 171.59 3 173.242 3 c 199.773 3 l 201.43 3 202.773 4.344 202.773 6
 c 202.773 18.277 l 209.668 19.945 216.223 22.668 222.312 26.391 c 231.008
 17.695 l 232.133 16.57 234.121 16.57 235.246 17.695 c 254.008 36.453 l 
254.57 37.016 254.887 37.781 254.887 38.574 c 254.887 39.371 254.57 40.133
 254.008 40.695 c 245.316 49.391 l 249.035 55.484 251.758 62.035 253.426
 68.93 c 265.703 68.93 l 267.359 68.93 268.703 70.273 268.703 71.93 c 268.703
 98.457 l 268.703 100.113 267.359 101.457 265.703 101.457 c 253.426 101.457
 l 251.758 108.352 249.035 114.906 245.316 121 c 254.008 129.691 l 254.57
 130.254 254.887 131.02 254.887 131.812 c 254.887 132.609 254.57 133.371
 254.008 133.934 c 235.246 152.695 l 234.684 153.258 233.922 153.574 233.129
 153.574 c 232.332 153.574 231.57 153.258 231.008 152.695 c 222.312 144 
l 216.219 147.723 209.668 150.441 202.773 152.113 c 202.773 164.391 l 202.773
 166.047 201.43 167.391 199.773 167.391 c h
176.246 161.391 m 196.773 161.391 l 196.773 149.711 l 196.773 148.285 197.777
 147.055 199.176 146.77 c 206.992 145.172 214.363 142.113 221.082 137.676
 c 222.27 136.891 223.848 137.051 224.859 138.059 c 233.129 146.332 l 247.648
 131.816 l 239.375 123.543 l 238.367 122.535 238.207 120.957 238.992 119.77
 c 243.426 113.051 246.484 105.68 248.086 97.859 c 248.367 96.465 249.598
 95.461 251.023 95.461 c 262.707 95.461 l 262.707 74.93 l 251.023 74.93 
l 249.598 74.93 248.367 73.93 248.086 72.531 c 246.484 64.715 243.426 57.344
 238.992 50.625 c 238.207 49.434 238.367 47.855 239.375 46.848 c 247.648
 38.574 l 233.129 24.059 l 224.859 32.332 l 223.852 33.34 222.273 33.504
 221.082 32.715 c 214.363 28.281 206.992 25.223 199.176 23.621 c 197.777
 23.336 196.773 22.105 196.773 20.684 c 196.773 9 l 176.246 9 l 176.246 
20.68 l 176.246 22.105 175.242 23.336 173.848 23.617 c 166.027 25.219 158.656
 28.277 151.938 32.715 c 150.75 33.5 149.172 33.34 148.164 32.332 c 139.891
 24.059 l 125.371 38.574 l 133.645 46.848 l 134.652 47.855 134.812 49.434
 134.027 50.625 c 129.594 57.344 126.531 64.715 124.934 72.531 c 124.648
 73.93 123.422 74.93 121.996 74.93 c 110.316 74.93 l 110.316 95.461 l 121.996
 95.461 l 123.422 95.461 124.648 96.461 124.934 97.859 c 126.535 105.68 
129.594 113.051 134.027 119.766 c 134.812 120.957 134.652 122.535 133.645
 123.543 c 125.371 131.816 l 139.891 146.332 l 148.164 138.059 l 149.172
 137.051 150.75 136.891 151.938 137.676 c 158.656 142.113 166.027 145.172
 173.844 146.77 c 175.242 147.055 176.242 148.281 176.242 149.707 c 176.242
 161.391 l h
186.512 127.895 m 162.965 127.895 143.809 108.738 143.809 85.195 c 143.809
 61.648 162.965 42.492 186.512 42.492 c 210.055 42.492 229.211 61.648 229.211
 85.195 c 229.211 108.738 210.055 127.895 186.512 127.895 c h
186.512 48.492 m 166.273 48.492 149.809 64.957 149.809 85.195 c 149.809
 105.434 166.273 121.898 186.512 121.898 c 206.746 121.898 223.211 105.434
 223.211 85.195 c 223.211 64.957 206.746 48.492 186.512 48.492 c h
186.512 48.492 m f
0.988235 0.760784 0.298039 rg
309.195 213.352 m 323.34 234.996 317.262 264.008 295.617 278.148 c 273.977
 292.293 244.965 286.215 230.82 264.574 c 216.676 242.93 222.754 213.918
 244.398 199.773 c 266.039 185.629 295.051 191.711 309.195 213.352 c h
309.195 213.352 m f
0.870588 0.643137 0.180392 rg
270.07 192 m 268.57 192 267.09 192.078 265.629 192.215 c 289.402 194.453
 308.008 214.461 308.008 238.82 c 308.008 263.18 289.402 283.184 265.629
 285.422 c 267.09 285.562 268.57 285.641 270.07 285.641 c 295.926 285.641
 316.887 264.68 316.887 238.82 c 316.887 212.961 295.926 192 270.07 192 
c h
270.07 192 m f
0.988235 0.878431 0.415686 rg
270.07 285.637 m 271.566 285.637 273.047 285.559 274.508 285.422 c 250.734
 283.184 232.129 263.18 232.129 238.816 c 232.129 214.457 250.734 194.449
 274.508 192.215 c 273.047 192.078 271.566 192 270.07 192 c 244.211 192 
223.25 212.961 223.25 238.816 c 223.25 264.676 244.211 285.637 270.07 285.637
 c h
270.07 285.637 m f
0.411765 0.0196078 0.537255 rg
270.07 288.637 m 242.598 288.637 220.25 266.289 220.25 238.816 c 220.25
 211.348 242.598 189 270.07 189 c 297.539 189 319.887 211.348 319.887 238.816
 c 319.887 266.289 297.539 288.637 270.07 288.637 c h
270.07 195 m 245.906 195 226.25 214.656 226.25 238.816 c 226.25 262.98 
245.906 282.637 270.07 282.637 c 294.234 282.637 313.887 262.98 313.887 
238.816 c 313.887 214.656 294.23 195 270.07 195 c h
270.07 195 m f
270.016 210.77 m 271.605 210.77 272.867 212.031 272.867 213.621 c 272.867
 215.082 l 276.777 215.547 280.094 216.805 283.145 218.727 c 284.203 219.324
 285.133 220.32 285.133 221.91 c 285.133 223.965 283.473 225.555 281.418
 225.555 c 280.758 225.555 280.094 225.359 279.43 224.961 c 277.109 223.566
 274.855 222.574 272.602 222.043 c 272.602 234.773 l 282.68 237.293 286.988
 241.336 286.988 248.43 c 286.988 255.723 281.289 260.566 272.867 261.363
 c 272.867 265.34 l 272.867 266.93 271.605 268.191 270.016 268.191 c 268.422
 268.191 267.098 266.93 267.098 265.34 c 267.098 261.227 l 262.125 260.695
 257.551 258.906 253.508 256.055 c 252.379 255.328 251.715 254.266 251.715
 252.871 c 251.715 250.816 253.305 249.227 255.363 249.227 c 256.156 249.227
 256.953 249.492 257.551 249.957 c 260.664 252.211 263.715 253.734 267.363
 254.398 c 267.363 241.336 l 257.684 238.816 253.172 235.172 253.172 227.676
 c 253.172 220.582 258.809 215.676 267.098 215.012 c 267.098 213.621 l 267.098
 212.031 268.422 210.77 270.016 210.77 c h
267.363 233.379 m 267.363 221.645 l 263.121 222.043 261 224.297 261 227.215
 c 261 229.996 262.258 231.723 267.363 233.379 c h
272.602 242.598 m 272.602 254.664 l 276.844 254.199 279.164 252.078 279.164
 248.895 c 279.164 245.977 277.707 244.188 272.602 242.598 c h
272.602 242.598 m f
98.594 191.914 m 97.621 191.914 96.672 191.445 96.094 190.578 c 87.418 
177.527 l 86.5 176.148 86.875 174.285 88.254 173.367 c 89.637 172.449 91.496
 172.828 92.414 174.203 c 101.09 187.254 l 102.008 188.633 101.633 190.496
 100.254 191.414 c 99.738 191.754 99.164 191.914 98.594 191.914 c h
98.594 191.914 m f
0.533333 0.321569 0.658824 rg
287.043 297.102 m 298.945 311.238 l 310.844 325.375 l 334.648 297.102 l
 320.434 297.102 l 320.434 258.797 l 301.254 258.797 l 301.254 297.102 l
 h
287.043 297.102 m f
0.411765 0.0196078 0.537255 rg
310.844 328.375 m 309.957 328.375 309.117 327.984 308.547 327.305 c 284.746
 299.031 l 283.996 298.141 283.828 296.891 284.32 295.836 c 284.812 294.777
 285.875 294.102 287.043 294.102 c 298.254 294.102 l 298.254 258.797 l 298.254
 257.141 299.598 255.797 301.254 255.797 c 320.434 255.797 l 322.09 255.797
 323.434 257.141 323.434 258.797 c 323.434 294.102 l 334.648 294.102 l 335.816
 294.102 336.875 294.777 337.367 295.836 c 337.859 296.891 337.695 298.141
 336.945 299.031 c 313.141 327.305 l 312.57 327.984 311.727 328.375 310.844
 328.375 c h
293.488 300.102 m 310.844 320.715 l 328.199 300.102 l 320.434 300.102 l
 318.777 300.102 317.434 298.758 317.434 297.102 c 317.434 261.797 l 304.254
 261.797 l 304.254 297.102 l 304.254 298.758 302.91 300.102 301.254 300.102
 c h
293.488 300.102 m f
Q Q
showpage
%%Trailer
end
%%EOF
