%!PS-Adobe-3.0 EPSF-3.0
%%Creator: cairo 1.16.0 (https://cairographics.org)
%%CreationDate: Fri Jan 10 07:39:25 2020
%%Pages: 1
%%DocumentData: Clean7Bit
%%LanguageLevel: 2
%%BoundingBox: 3 44 381 340
%%EndComments
%%BeginProlog
50 dict begin
/q { gsave } bind def
/Q { grestore } bind def
/cm { 6 array astore concat } bind def
/w { setlinewidth } bind def
/J { setlinecap } bind def
/j { setlinejoin } bind def
/M { setmiterlimit } bind def
/d { setdash } bind def
/m { moveto } bind def
/l { lineto } bind def
/c { curveto } bind def
/h { closepath } bind def
/re { exch dup neg 3 1 roll 5 3 roll moveto 0 rlineto
      0 exch rlineto 0 rlineto closepath } bind def
/S { stroke } bind def
/f { fill } bind def
/f* { eofill } bind def
/n { newpath } bind def
/W { clip } bind def
/W* { eoclip } bind def
/BT { } bind def
/ET { } bind def
/BDC { mark 3 1 roll /BDC pdfmark } bind def
/EMC { mark /EMC pdfmark } bind def
/cairo_store_point { /cairo_point_y exch def /cairo_point_x exch def } def
/Tj { show currentpoint cairo_store_point } bind def
/TJ {
  {
    dup
    type /stringtype eq
    { show } { -0.001 mul 0 cairo_font_matrix dtransform rmoveto } ifelse
  } forall
  currentpoint cairo_store_point
} bind def
/cairo_selectfont { cairo_font_matrix aload pop pop pop 0 0 6 array astore
    cairo_font exch selectfont cairo_point_x cairo_point_y moveto } bind def
/Tf { pop /cairo_font exch def /cairo_font_matrix where
      { pop cairo_selectfont } if } bind def
/Td { matrix translate cairo_font_matrix matrix concatmatrix dup
      /cairo_font_matrix exch def dup 4 get exch 5 get cairo_store_point
      /cairo_font where { pop cairo_selectfont } if } bind def
/Tm { 2 copy 8 2 roll 6 array astore /cairo_font_matrix exch def
      cairo_store_point /cairo_font where { pop cairo_selectfont } if } bind def
/g { setgray } bind def
/rg { setrgbcolor } bind def
/d1 { setcachedevice } bind def
/cairo_data_source {
  CairoDataIndex CairoData length lt
    { CairoData CairoDataIndex get /CairoDataIndex CairoDataIndex 1 add def }
    { () } ifelse
} def
/cairo_flush_ascii85_file { cairo_ascii85_file status { cairo_ascii85_file flushfile } if } def
/cairo_image { image cairo_flush_ascii85_file } def
/cairo_imagemask { imagemask cairo_flush_ascii85_file } def
%%EndProlog
%%BeginSetup
%%EndSetup
%%Page: 1 1
%%BeginPageSetup
%%PageBoundingBox: 3 44 381 340
%%EndPageSetup
q 3 44 378 296 rectclip
1 0 0 -1 0 384 cm q
0.956863 0.937255 0.929412 rg
364.727 286.977 m 19.273 286.977 l 11.941 286.977 6 281.035 6 273.703 c
 6 61.008 l 6 53.676 11.941 47.734 19.273 47.734 c 364.727 47.734 l 372.059
 47.734 378 53.676 378 61.008 c 378 273.703 l 378 281.035 372.059 286.977
 364.727 286.977 c h
364.727 286.977 m f
0.839216 0.819608 0.811765 rg
364.727 47.734 m 349.727 47.734 l 357.059 47.734 363 53.676 363 61.008 
c 363 273.703 l 363 281.035 357.059 286.977 349.727 286.977 c 364.727 286.977
 l 372.059 286.977 378 281.035 378 273.703 c 378 61.008 l 378 53.676 372.059
 47.734 364.727 47.734 c h
364.727 47.734 m f
1 g
19.273 286.977 m 34.273 286.977 l 26.941 286.977 21 281.035 21 273.703 
c 21 61.008 l 21 53.676 26.941 47.734 34.273 47.734 c 19.273 47.734 l 11.941
 47.734 6 53.676 6 61.008 c 6 273.703 l 6 281.035 11.941 286.977 19.273 
286.977 c h
19.273 286.977 m f
0.321569 0.435294 0.666667 rg
313.352 336.266 m 70.648 336.266 l 70.648 318.484 l 70.648 311.152 76.59
 305.211 83.922 305.211 c 300.078 305.211 l 307.41 305.211 313.352 311.152
 313.352 318.484 c h
313.352 336.266 m f
0.203922 0.317647 0.54902 rg
300.078 305.211 m 285.078 305.211 l 292.41 305.211 298.352 311.152 298.352
 318.484 c 298.352 336.27 l 313.352 336.27 l 313.352 318.484 l 313.352 311.152
 307.41 305.211 300.078 305.211 c h
300.078 305.211 m f
0.439216 0.552941 0.784314 rg
83.922 305.211 m 98.922 305.211 l 91.59 305.211 85.648 311.152 85.648 318.484
 c 85.648 336.27 l 70.648 336.27 l 70.648 318.484 l 70.648 311.152 76.59
 305.211 83.922 305.211 c h
83.922 305.211 m f
0.203922 0.317647 0.54902 rg
120.754 286.977 142.488 18.234 re f
0.411765 0.0196078 0.537255 rg
18 103.539 m 16.344 103.539 15 102.195 15 100.539 c 15 82.539 l 15 80.883
 16.344 79.539 18 79.539 c 19.656 79.539 21 80.883 21 82.539 c 21 100.539
 l 21 102.195 19.656 103.539 18 103.539 c h
18 103.539 m f
313.352 339.266 m 70.648 339.266 l 68.992 339.266 67.648 337.922 67.648
 336.266 c 67.648 318.484 l 67.648 309.512 74.949 302.211 83.922 302.211
 c 300.078 302.211 l 309.051 302.211 316.352 309.512 316.352 318.484 c 316.352
 336.266 l 316.352 337.926 315.008 339.266 313.352 339.266 c h
73.648 333.266 m 310.352 333.266 l 310.352 318.484 l 310.352 312.82 305.742
 308.211 300.074 308.211 c 83.922 308.211 l 78.258 308.211 73.648 312.82
 73.648 318.484 c h
73.648 333.266 m f
263.246 308.211 m 120.754 308.211 l 119.098 308.211 117.754 306.867 117.754
 305.211 c 117.754 286.977 l 117.754 285.324 119.098 283.977 120.754 283.977
 c 263.246 283.977 l 264.902 283.977 266.246 285.324 266.246 286.977 c 266.246
 305.211 l 266.246 306.867 264.902 308.211 263.246 308.211 c h
123.754 302.211 m 260.246 302.211 l 260.246 289.977 l 123.754 289.977 l
 h
123.754 302.211 m f
364.727 289.977 m 19.273 289.977 l 10.301 289.977 3 282.676 3 273.703 c
 3 61.008 l 3 52.035 10.301 44.734 19.273 44.734 c 364.727 44.734 l 373.699
 44.734 381 52.035 381 61.008 c 381 273.703 l 381 282.676 373.699 289.977
 364.727 289.977 c h
19.273 50.734 m 13.609 50.734 9 55.344 9 61.008 c 9 273.703 l 9 279.367
 13.609 283.977 19.273 283.977 c 364.727 283.977 l 370.391 283.977 375 279.367
 375 273.703 c 375 61.008 l 375 55.344 370.391 50.734 364.727 50.734 c h
19.273 50.734 m f
0.956863 0.937255 0.929412 rg
225.051 195.91 m 54.891 195.91 l 51.008 195.91 47.863 192.766 47.863 188.883
 c 47.863 145.828 l 47.863 141.945 51.008 138.797 54.891 138.797 c 225.047
 138.797 l 228.93 138.797 232.078 141.945 232.078 145.828 c 232.078 188.883
 l 232.078 192.766 228.93 195.91 225.051 195.91 c h
225.051 195.91 m f
225.051 253.027 m 54.891 253.027 l 51.008 253.027 47.863 249.879 47.863
 245.996 c 47.863 202.941 l 47.863 199.059 51.008 195.91 54.891 195.91 c
 225.047 195.91 l 228.93 195.91 232.078 199.059 232.078 202.941 c 232.078
 245.996 l 232.078 249.879 228.93 253.027 225.051 253.027 c h
225.051 253.027 m f
225.051 138.797 m 54.891 138.797 l 51.008 138.797 47.863 135.652 47.863
 131.766 c 47.863 88.715 l 47.863 84.832 51.008 81.684 54.891 81.684 c 225.047
 81.684 l 228.93 81.684 232.078 84.832 232.078 88.715 c 232.078 131.766 
l 232.078 135.652 228.93 138.797 225.051 138.797 c h
225.051 138.797 m f
0.839216 0.819608 0.811765 rg
225.051 81.684 m 213.711 81.684 l 217.594 81.684 220.738 84.832 220.738
 88.715 c 220.738 131.766 l 220.738 135.652 217.594 138.797 213.711 138.797
 c 225.051 138.797 l 228.934 138.797 232.078 135.652 232.078 131.766 c 232.078
 88.715 l 232.078 84.832 228.93 81.684 225.051 81.684 c h
225.051 81.684 m f
225.051 138.797 m 213.711 138.797 l 217.594 138.797 220.738 141.945 220.738
 145.828 c 220.738 188.883 l 220.738 192.766 217.594 195.91 213.711 195.91
 c 225.051 195.91 l 228.934 195.91 232.078 192.766 232.078 188.883 c 232.078
 145.828 l 232.078 141.945 228.93 138.797 225.051 138.797 c h
225.051 138.797 m f
225.051 195.91 m 213.711 195.91 l 217.594 195.91 220.738 199.059 220.738
 202.941 c 220.738 245.996 l 220.738 249.879 217.594 253.027 213.711 253.027
 c 225.051 253.027 l 228.934 253.027 232.078 249.879 232.078 245.996 c 232.078
 202.941 l 232.078 199.059 228.93 195.91 225.051 195.91 c h
225.051 195.91 m f
1 g
54.891 253.027 m 66.23 253.027 l 62.348 253.027 59.199 249.879 59.199 245.996
 c 59.199 202.941 l 59.199 199.059 62.348 195.91 66.23 195.91 c 54.891 195.91
 l 51.008 195.91 47.863 199.059 47.863 202.941 c 47.863 245.996 l 47.863
 249.879 51.012 253.027 54.891 253.027 c h
54.891 253.027 m f
54.891 195.91 m 66.23 195.91 l 62.348 195.91 59.199 192.766 59.199 188.883
 c 59.199 145.828 l 59.199 141.945 62.348 138.797 66.23 138.797 c 54.891
 138.797 l 51.008 138.797 47.863 141.945 47.863 145.828 c 47.863 188.883
 l 47.863 192.766 51.012 195.91 54.891 195.91 c h
54.891 195.91 m f
54.891 138.797 m 66.23 138.797 l 62.348 138.797 59.199 135.652 59.199 131.766
 c 59.199 88.715 l 59.199 84.832 62.348 81.684 66.23 81.684 c 54.891 81.684
 l 51.008 81.684 47.863 84.832 47.863 88.715 c 47.863 131.766 l 47.863 135.652
 51.012 138.797 54.891 138.797 c h
54.891 138.797 m f
0.411765 0.0196078 0.537255 rg
225.047 141.797 m 54.891 141.797 l 49.363 141.797 44.863 137.297 44.863
 131.766 c 44.863 88.715 l 44.863 83.184 49.363 78.684 54.891 78.684 c 225.047
 78.684 l 230.578 78.684 235.078 83.184 235.078 88.715 c 235.078 131.766
 l 235.078 137.297 230.578 141.797 225.047 141.797 c h
54.891 84.684 m 52.672 84.684 50.863 86.492 50.863 88.715 c 50.863 131.766
 l 50.863 133.988 52.672 135.797 54.891 135.797 c 225.047 135.797 l 227.27
 135.797 229.078 133.988 229.078 131.766 c 229.078 88.715 l 229.078 86.492
 227.27 84.684 225.047 84.684 c h
54.891 84.684 m f
0.321569 0.435294 0.666667 rg
196.715 175.969 m 125.828 175.969 l 120.57 175.969 116.309 171.707 116.309
 166.449 c 116.309 161.191 120.57 156.93 125.828 156.93 c 196.715 156.93
 l 201.973 156.93 206.234 161.191 206.234 166.449 c 206.234 171.703 201.973
 175.969 196.715 175.969 c h
196.715 175.969 m f
0.411765 0.0196078 0.537255 rg
196.715 178.969 m 125.828 178.969 l 118.926 178.969 113.309 173.352 113.309
 166.449 c 113.309 159.547 118.926 153.93 125.828 153.93 c 196.715 153.93
 l 203.617 153.93 209.234 159.547 209.234 166.449 c 209.234 173.352 203.617
 178.969 196.715 178.969 c h
125.828 159.93 m 122.234 159.93 119.309 162.855 119.309 166.449 c 119.309
 170.043 122.234 172.969 125.828 172.969 c 196.715 172.969 l 200.309 172.969
 203.234 170.043 203.234 166.449 c 203.234 162.855 200.309 159.93 196.715
 159.93 c h
125.828 159.93 m f
0.533333 0.321569 0.658824 rg
92.746 166.449 m 92.746 171.707 88.484 175.969 83.227 175.969 c 77.969 
175.969 73.707 171.707 73.707 166.449 c 73.707 161.191 77.969 156.93 83.227
 156.93 c 88.484 156.93 92.746 161.191 92.746 166.449 c h
92.746 166.449 m f
0.411765 0.0196078 0.537255 rg
83.227 178.969 m 76.324 178.969 70.707 173.352 70.707 166.449 c 70.707 
159.547 76.324 153.93 83.227 153.93 c 90.129 153.93 95.746 159.547 95.746
 166.449 c 95.746 173.352 90.129 178.969 83.227 178.969 c h
83.227 159.93 m 79.633 159.93 76.707 162.855 76.707 166.449 c 76.707 170.043
 79.633 172.969 83.227 172.969 c 86.82 172.969 89.746 170.043 89.746 166.449
 c 89.746 162.852 86.82 159.93 83.227 159.93 c h
83.227 159.93 m f
0.321569 0.435294 0.666667 rg
196.715 233.082 m 125.828 233.082 l 120.57 233.082 116.309 228.82 116.309
 223.562 c 116.309 218.305 120.57 214.043 125.828 214.043 c 196.715 214.043
 l 201.973 214.043 206.234 218.305 206.234 223.562 c 206.234 228.82 201.973
 233.082 196.715 233.082 c h
196.715 233.082 m f
0.411765 0.0196078 0.537255 rg
196.715 236.082 m 125.828 236.082 l 118.926 236.082 113.309 230.465 113.309
 223.562 c 113.309 216.66 118.926 211.043 125.828 211.043 c 196.715 211.043
 l 203.617 211.043 209.234 216.66 209.234 223.562 c 209.234 230.465 203.617
 236.082 196.715 236.082 c h
125.828 217.043 m 122.234 217.043 119.309 219.969 119.309 223.562 c 119.309
 227.156 122.234 230.082 125.828 230.082 c 196.715 230.082 l 200.309 230.082
 203.234 227.156 203.234 223.562 c 203.234 219.969 200.309 217.043 196.715
 217.043 c h
125.828 217.043 m f
0.533333 0.321569 0.658824 rg
92.746 223.562 m 92.746 228.82 88.484 233.082 83.227 233.082 c 77.969 233.082
 73.707 228.82 73.707 223.562 c 73.707 218.305 77.969 214.043 83.227 214.043
 c 88.484 214.043 92.746 218.305 92.746 223.562 c h
92.746 223.562 m f
0.411765 0.0196078 0.537255 rg
83.227 236.082 m 76.324 236.082 70.707 230.465 70.707 223.562 c 70.707 
216.66 76.324 211.043 83.227 211.043 c 90.129 211.043 95.746 216.66 95.746
 223.562 c 95.746 230.465 90.129 236.082 83.227 236.082 c h
83.227 217.043 m 79.633 217.043 76.707 219.969 76.707 223.562 c 76.707 
227.156 79.633 230.082 83.227 230.082 c 86.82 230.082 89.746 227.156 89.746
 223.562 c 89.746 219.969 86.82 217.043 83.227 217.043 c h
83.227 217.043 m f
0.321569 0.435294 0.666667 rg
196.715 118.852 m 125.828 118.852 l 120.57 118.852 116.309 114.59 116.309
 109.332 c 116.309 104.074 120.57 99.816 125.828 99.816 c 196.715 99.816
 l 201.973 99.816 206.234 104.074 206.234 109.332 c 206.234 114.59 201.973
 118.852 196.715 118.852 c h
196.715 118.852 m f
0.411765 0.0196078 0.537255 rg
196.715 121.852 m 125.828 121.852 l 118.926 121.852 113.309 116.238 113.309
 109.332 c 113.309 102.43 118.926 96.816 125.828 96.816 c 196.715 96.816
 l 203.617 96.816 209.234 102.43 209.234 109.332 c 209.234 116.238 203.617
 121.852 196.715 121.852 c h
125.828 102.816 m 122.234 102.816 119.309 105.738 119.309 109.332 c 119.309
 112.926 122.234 115.852 125.828 115.852 c 196.715 115.852 l 200.309 115.852
 203.234 112.926 203.234 109.332 c 203.234 105.738 200.309 102.816 196.715
 102.816 c h
125.828 102.816 m f
0.533333 0.321569 0.658824 rg
92.746 109.336 m 92.746 114.594 88.484 118.855 83.227 118.855 c 77.969 
118.855 73.707 114.594 73.707 109.336 c 73.707 104.078 77.969 99.816 83.227
 99.816 c 88.484 99.816 92.746 104.078 92.746 109.336 c h
92.746 109.336 m f
0.411765 0.0196078 0.537255 rg
83.227 121.852 m 76.324 121.852 70.707 116.238 70.707 109.332 c 70.707 
102.43 76.324 96.816 83.227 96.816 c 90.129 96.816 95.746 102.43 95.746 
109.332 c 95.746 116.238 90.129 121.852 83.227 121.852 c h
83.227 102.816 m 79.633 102.816 76.707 105.738 76.707 109.332 c 76.707 
112.926 79.633 115.852 83.227 115.852 c 86.82 115.852 89.746 112.926 89.746
 109.332 c 89.746 105.738 86.82 102.816 83.227 102.816 c h
83.227 102.816 m f
225.047 198.91 m 54.891 198.91 l 49.363 198.91 44.863 194.41 44.863 188.883
 c 44.863 145.828 l 44.863 140.297 49.363 135.797 54.891 135.797 c 225.047
 135.797 l 230.578 135.797 235.078 140.297 235.078 145.828 c 235.078 188.883
 l 235.078 194.41 230.578 198.91 225.047 198.91 c h
54.891 141.797 m 52.672 141.797 50.863 143.605 50.863 145.828 c 50.863 
188.883 l 50.863 191.102 52.672 192.91 54.891 192.91 c 225.047 192.91 l 
227.27 192.91 229.078 191.102 229.078 188.883 c 229.078 145.828 l 229.078
 143.605 227.27 141.797 225.047 141.797 c h
54.891 141.797 m f
225.047 256.027 m 54.891 256.027 l 49.363 256.027 44.863 251.527 44.863
 245.996 c 44.863 202.941 l 44.863 197.41 49.363 192.91 54.891 192.91 c 
225.047 192.91 l 230.578 192.91 235.078 197.41 235.078 202.941 c 235.078
 245.996 l 235.078 251.527 230.578 256.027 225.047 256.027 c h
54.891 198.91 m 52.672 198.91 50.863 200.723 50.863 202.941 c 50.863 245.996
 l 50.863 248.219 52.672 250.027 54.891 250.027 c 225.047 250.027 l 227.27
 250.027 229.078 248.219 229.078 245.996 c 229.078 202.941 l 229.078 200.723
 227.27 198.91 225.047 198.91 c h
54.891 198.91 m f
0.988235 0.760784 0.298039 rg
336.137 168.91 m 336.137 209.227 303.457 241.906 263.141 241.906 c 222.824
 241.906 190.145 209.227 190.145 168.91 c 190.145 128.594 222.824 95.914
 263.141 95.914 c 303.457 95.914 336.137 128.594 336.137 168.91 c h
336.137 168.91 m f
0.870588 0.643137 0.180392 rg
263.141 95.914 m 261.367 95.914 259.617 96 257.879 96.121 c 295.738 98.824
 325.617 130.367 325.617 168.91 c 325.617 207.453 295.734 239 257.879 241.699
 c 259.621 241.824 261.371 241.906 263.141 241.906 c 303.457 241.906 336.137
 209.227 336.137 168.91 c 336.137 128.594 303.457 95.914 263.141 95.914 
c h
263.141 95.914 m f
0.988235 0.878431 0.415686 rg
263.141 241.906 m 264.91 241.906 266.664 241.824 268.402 241.699 c 230.543
 239 200.664 207.453 200.664 168.91 c 200.664 130.367 230.547 98.82 268.402
 96.121 c 266.66 96 264.91 95.914 263.141 95.914 c 222.824 95.914 190.145
 128.594 190.145 168.91 c 190.145 209.227 222.824 241.906 263.141 241.906
 c h
263.141 241.906 m f
0.411765 0.0196078 0.537255 rg
263.141 244.906 m 221.234 244.906 187.145 210.816 187.145 168.91 c 187.145
 127.004 221.238 92.91 263.141 92.91 c 305.043 92.91 339.137 127.004 339.137
 168.91 c 339.137 210.816 305.043 244.906 263.141 244.906 c h
263.141 98.914 m 224.547 98.914 193.145 130.312 193.145 168.91 c 193.145
 207.508 224.547 238.906 263.141 238.906 c 301.738 238.906 333.137 207.508
 333.137 168.91 c 333.137 130.312 301.738 98.914 263.141 98.914 c h
263.141 98.914 m f
0.956863 0.937255 0.929412 rg
317.238 177.949 m 317.238 159.836 l 307.211 159.836 l 306.047 154.141 303.801
 148.844 300.703 144.156 c 307.805 137.059 l 294.992 124.25 l 287.895 131.348
 l 283.207 128.254 277.91 126.004 272.219 124.84 c 272.219 114.816 l 254.102
 114.816 l 254.102 124.84 l 248.406 126.004 243.109 128.254 238.422 131.348
 c 231.324 124.25 l 218.516 137.059 l 225.613 144.156 l 222.516 148.844 
220.27 154.145 219.105 159.836 c 209.082 159.836 l 209.082 177.949 l 219.105
 177.949 l 220.27 183.645 222.516 188.941 225.613 193.629 c 218.516 200.727
 l 231.324 213.535 l 238.422 206.438 l 243.109 209.535 248.406 211.781 254.102
 212.945 c 254.102 222.969 l 272.215 222.969 l 272.215 212.945 l 277.91 
211.781 283.207 209.535 287.895 206.438 c 294.992 213.535 l 307.805 200.727
 l 300.703 193.629 l 303.801 188.941 306.047 183.645 307.211 177.949 c h
263.16 200 m 245.98 200 232.055 186.074 232.055 168.895 c 232.055 151.715
 245.98 137.789 263.16 137.789 c 280.34 137.789 294.266 151.715 294.266 
168.895 c 294.266 186.07 280.336 200 263.16 200 c h
263.16 200 m f
0.411765 0.0196078 0.537255 rg
272.219 225.969 m 254.102 225.969 l 252.445 225.969 251.102 224.625 251.102
 222.969 c 251.102 215.328 l 246.801 214.215 242.699 212.516 238.855 210.246
 c 233.445 215.656 l 232.273 216.828 230.375 216.828 229.203 215.656 c 216.395
 202.848 l 215.832 202.285 215.516 201.52 215.516 200.727 c 215.516 199.93
 215.832 199.168 216.395 198.605 c 221.805 193.191 l 219.535 189.348 217.832
 185.246 216.719 180.949 c 209.078 180.949 l 207.422 180.949 206.078 179.605
 206.078 177.949 c 206.078 159.832 l 206.078 158.176 207.422 156.832 209.078
 156.832 c 216.719 156.832 l 217.832 152.535 219.535 148.434 221.805 144.59
 c 216.395 139.176 l 215.832 138.613 215.516 137.852 215.516 137.055 c 215.516
 136.262 215.832 135.496 216.395 134.934 c 229.203 122.125 l 230.375 120.953
 232.273 120.953 233.445 122.125 c 238.855 127.535 l 242.699 125.266 246.801
 123.562 251.102 122.449 c 251.102 114.809 l 251.102 113.152 252.445 111.809
 254.102 111.809 c 272.215 111.809 l 273.871 111.809 275.215 113.152 275.215
 114.809 c 275.215 122.449 l 279.512 123.562 283.613 125.266 287.457 127.535
 c 292.867 122.125 l 293.992 121 295.984 120.996 297.109 122.125 c 309.922
 134.934 l 311.094 136.105 311.094 138.004 309.922 139.176 c 304.512 144.59
 l 306.781 148.434 308.48 152.535 309.594 156.832 c 317.238 156.832 l 318.891
 156.832 320.238 158.176 320.238 159.832 c 320.238 177.949 l 320.238 179.605
 318.891 180.949 317.238 180.949 c 309.594 180.949 l 308.484 185.242 306.781
 189.348 304.512 193.191 c 309.922 198.605 l 311.094 199.777 311.094 201.676
 309.922 202.848 c 297.109 215.656 l 296.547 216.219 295.785 216.535 294.988
 216.535 c 294.195 216.535 293.43 216.219 292.867 215.656 c 287.457 210.246
 l 283.613 212.516 279.512 214.215 275.215 215.328 c 275.215 222.969 l 275.219
 224.629 273.871 225.969 272.219 225.969 c h
257.102 219.969 m 269.215 219.969 l 269.215 212.945 l 269.215 211.52 270.219
 210.293 271.617 210.008 c 276.836 208.941 281.754 206.898 286.242 203.934
 c 287.43 203.148 289.008 203.309 290.016 204.316 c 294.992 209.293 l 303.559
 200.727 l 298.586 195.75 l 297.574 194.742 297.418 193.164 298.203 191.977
 c 301.164 187.488 303.207 182.566 304.273 177.348 c 304.559 175.953 305.785
 174.949 307.211 174.949 c 314.238 174.949 l 314.238 162.836 l 307.211 162.836
 l 305.785 162.836 304.559 161.832 304.273 160.434 c 303.207 155.219 301.164
 150.297 298.203 145.809 c 297.418 144.617 297.574 143.043 298.586 142.035
 c 303.559 137.055 l 294.992 128.488 l 290.016 133.465 l 289.012 134.473
 287.434 134.637 286.242 133.848 c 281.754 130.887 276.836 128.844 271.617
 127.777 c 270.219 127.492 269.215 126.262 269.215 124.836 c 269.215 117.812
 l 257.102 117.812 l 257.102 124.836 l 257.102 126.262 256.098 127.492 254.699
 127.777 c 249.48 128.844 244.559 130.887 240.074 133.848 c 238.883 134.633
 237.309 134.473 236.301 133.465 c 231.324 128.488 l 222.754 137.055 l 227.73
 142.031 l 228.738 143.039 228.898 144.617 228.113 145.805 c 225.152 150.293
 223.109 155.215 222.039 160.434 c 221.758 161.828 220.527 162.832 219.102
 162.832 c 212.078 162.832 l 212.078 174.945 l 219.102 174.945 l 220.527
 174.945 221.758 175.949 222.039 177.344 c 223.109 182.562 225.152 187.488
 228.113 191.973 c 228.898 193.16 228.738 194.738 227.73 195.746 c 222.754
 200.723 l 231.324 209.289 l 236.301 204.312 l 237.309 203.305 238.887 203.145
 240.074 203.93 c 244.559 206.891 249.48 208.934 254.699 210 c 256.098 210.285
 257.102 211.516 257.102 212.941 c h
263.156 203 m 244.352 203 229.051 187.699 229.051 168.895 c 229.051 150.09
 244.352 134.789 263.156 134.789 c 281.961 134.789 297.262 150.09 297.262
 168.895 c 297.266 187.699 281.965 203 263.156 203 c h
263.156 140.785 m 247.66 140.785 235.051 153.395 235.051 168.891 c 235.051
 184.391 247.66 196.996 263.156 196.996 c 278.656 196.996 291.262 184.391
 291.262 168.891 c 291.266 153.395 278.656 140.785 263.156 140.785 c h
263.156 140.785 m f
Q Q
showpage
%%Trailer
end
%%EOF
