%!PS-Adobe-3.0 EPSF-3.0
%%Creator: cairo 1.16.0 (https://cairographics.org)
%%CreationDate: Fri Jan 10 07:39:26 2020
%%Pages: 1
%%DocumentData: Clean7Bit
%%LanguageLevel: 2
%%BoundingBox: 3 3 381 381
%%EndComments
%%BeginProlog
50 dict begin
/q { gsave } bind def
/Q { grestore } bind def
/cm { 6 array astore concat } bind def
/w { setlinewidth } bind def
/J { setlinecap } bind def
/j { setlinejoin } bind def
/M { setmiterlimit } bind def
/d { setdash } bind def
/m { moveto } bind def
/l { lineto } bind def
/c { curveto } bind def
/h { closepath } bind def
/re { exch dup neg 3 1 roll 5 3 roll moveto 0 rlineto
      0 exch rlineto 0 rlineto closepath } bind def
/S { stroke } bind def
/f { fill } bind def
/f* { eofill } bind def
/n { newpath } bind def
/W { clip } bind def
/W* { eoclip } bind def
/BT { } bind def
/ET { } bind def
/BDC { mark 3 1 roll /BDC pdfmark } bind def
/EMC { mark /EMC pdfmark } bind def
/cairo_store_point { /cairo_point_y exch def /cairo_point_x exch def } def
/Tj { show currentpoint cairo_store_point } bind def
/TJ {
  {
    dup
    type /stringtype eq
    { show } { -0.001 mul 0 cairo_font_matrix dtransform rmoveto } ifelse
  } forall
  currentpoint cairo_store_point
} bind def
/cairo_selectfont { cairo_font_matrix aload pop pop pop 0 0 6 array astore
    cairo_font exch selectfont cairo_point_x cairo_point_y moveto } bind def
/Tf { pop /cairo_font exch def /cairo_font_matrix where
      { pop cairo_selectfont } if } bind def
/Td { matrix translate cairo_font_matrix matrix concatmatrix dup
      /cairo_font_matrix exch def dup 4 get exch 5 get cairo_store_point
      /cairo_font where { pop cairo_selectfont } if } bind def
/Tm { 2 copy 8 2 roll 6 array astore /cairo_font_matrix exch def
      cairo_store_point /cairo_font where { pop cairo_selectfont } if } bind def
/g { setgray } bind def
/rg { setrgbcolor } bind def
/d1 { setcachedevice } bind def
/cairo_data_source {
  CairoDataIndex CairoData length lt
    { CairoData CairoDataIndex get /CairoDataIndex CairoDataIndex 1 add def }
    { () } ifelse
} def
/cairo_flush_ascii85_file { cairo_ascii85_file status { cairo_ascii85_file flushfile } if } def
/cairo_image { image cairo_flush_ascii85_file } def
/cairo_imagemask { imagemask cairo_flush_ascii85_file } def
%%EndProlog
%%BeginSetup
%%EndSetup
%%Page: 1 1
%%BeginPageSetup
%%PageBoundingBox: 3 3 381 381
%%EndPageSetup
q 3 3 378 378 rectclip
1 0 0 -1 0 384 cm q
0.321569 0.435294 0.666667 rg
378 295.641 m 378 341.125 341.125 378 295.641 378 c 250.156 378 213.281
 341.125 213.281 295.641 c 213.281 250.156 250.156 213.281 295.641 213.281
 c 341.125 213.281 378 250.156 378 295.641 c h
378 295.641 m f
0.533333 0.321569 0.658824 rg
378 88.359 m 378 133.844 341.125 170.719 295.641 170.719 c 250.156 170.719
 213.281 133.844 213.281 88.359 c 213.281 42.875 250.156 6 295.641 6 c 341.125
 6 378 42.875 378 88.359 c h
378 88.359 m f
170.719 295.641 m 170.719 341.125 133.844 378 88.359 378 c 42.875 378 6
 341.125 6 295.641 c 6 250.156 42.875 213.281 88.359 213.281 c 133.844 213.281
 170.719 250.156 170.719 295.641 c h
170.719 295.641 m f
0.956863 0.937255 0.929412 rg
113.605 335.562 m 64.93 335.562 l 56.906 335.562 50.398 329.059 50.398 
321.031 c 50.398 272.355 l 50.398 264.332 56.902 257.824 64.93 257.824 c
 113.605 257.824 l 121.629 257.824 128.137 264.328 128.137 272.355 c 128.137
 321.031 l 128.137 329.059 121.629 335.562 113.605 335.562 c h
113.605 335.562 m f
0.321569 0.435294 0.666667 rg
170.719 88.359 m 170.719 133.844 133.844 170.719 88.359 170.719 c 42.875
 170.719 6 133.844 6 88.359 c 6 42.875 42.875 6 88.359 6 c 133.844 6 170.719
 42.875 170.719 88.359 c h
170.719 88.359 m f
0.956863 0.937255 0.929412 rg
97.73 58.105 m 106.832 58.105 l 106.832 43.371 l 97.73 43.371 l 86.898 
43.371 78.086 52.184 78.086 63.02 c 78.086 70.094 l 64.074 70.094 l 64.074
 84.828 l 78.086 84.828 l 78.086 130.441 l 92.82 130.441 l 92.82 84.828 
l 106.828 84.828 l 106.828 70.094 l 92.82 70.094 l 92.82 63.02 l 92.82 60.309
 95.023 58.105 97.73 58.105 c h
97.73 58.105 m f
0.411765 0.0196078 0.537255 rg
92.82 133.441 m 78.086 133.441 l 76.43 133.441 75.086 132.098 75.086 130.441
 c 75.086 87.828 l 64.074 87.828 l 62.418 87.828 61.074 86.484 61.074 84.828
 c 61.074 70.094 l 61.074 68.438 62.418 67.094 64.074 67.094 c 75.086 67.094
 l 75.086 63.02 l 75.086 50.531 85.242 40.371 97.734 40.371 c 106.832 40.371
 l 108.488 40.371 109.832 41.715 109.832 43.371 c 109.832 58.105 l 109.832
 59.762 108.488 61.105 106.832 61.105 c 97.734 61.105 l 96.68 61.105 95.82
 61.961 95.82 63.016 c 95.82 67.094 l 106.832 67.094 l 108.488 67.094 109.832
 68.438 109.832 70.094 c 109.832 84.828 l 109.832 86.484 108.488 87.828 
106.832 87.828 c 95.82 87.828 l 95.82 130.441 l 95.82 132.098 94.477 133.441
 92.82 133.441 c h
81.086 127.441 m 89.82 127.441 l 89.82 84.828 l 89.82 83.172 91.164 81.828
 92.82 81.828 c 103.832 81.828 l 103.832 73.094 l 92.82 73.094 l 91.164 
73.094 89.82 71.75 89.82 70.094 c 89.82 63.02 l 89.82 58.656 93.367 55.105
 97.73 55.105 c 103.828 55.105 l 103.828 46.371 l 97.73 46.371 l 88.551 
46.371 81.086 53.84 81.086 63.02 c 81.086 70.098 l 81.086 71.754 79.738 
73.098 78.086 73.098 c 67.074 73.098 l 67.074 81.832 l 78.086 81.832 l 79.738
 81.832 81.086 83.176 81.086 84.832 c h
81.086 127.441 m f
0.415686 0.203922 0.541176 rg
295.641 6 m 293.191 6 290.77 6.129 288.375 6.336 c 330.453 10.02 363.469
 45.324 363.469 88.359 c 363.469 131.395 330.453 166.699 288.375 170.379
 c 290.77 170.59 293.191 170.719 295.641 170.719 c 341.129 170.719 378 133.844
 378 88.359 c 378 42.871 341.129 6 295.641 6 c h
295.641 6 m f
0.203922 0.317647 0.54902 rg
295.641 213.281 m 293.191 213.281 290.77 213.41 288.375 213.621 c 330.453
 217.301 363.469 252.605 363.469 295.641 c 363.469 338.676 330.453 373.98
 288.375 377.664 c 290.77 377.871 293.191 378 295.641 378 c 341.129 378 
378 341.129 378 295.641 c 378 250.156 341.129 213.281 295.641 213.281 c 
h
295.641 213.281 m f
0.65098 0.439216 0.776471 rg
88.359 378 m 90.809 378 93.23 377.871 95.625 377.664 c 53.547 373.98 20.531
 338.676 20.531 295.641 c 20.531 252.605 53.547 217.301 95.625 213.621 c
 93.23 213.41 90.809 213.281 88.359 213.281 c 42.871 213.281 6 250.156 6
 295.641 c 6 341.129 42.871 378 88.359 378 c h
88.359 378 m f
0.439216 0.552941 0.784314 rg
88.359 170.719 m 90.809 170.719 93.23 170.59 95.625 170.379 c 53.547 166.699
 20.531 131.395 20.531 88.359 c 20.531 45.324 53.547 10.02 95.625 6.336 
c 93.227 6.129 90.809 6 88.359 6 c 42.871 6 6 42.871 6 88.359 c 6 133.844
 42.871 170.719 88.359 170.719 c h
88.359 170.719 m f
0.956863 0.937255 0.929412 rg
254.379 113.637 m 254.379 113.637 271.297 115.652 277.652 106.492 c 268.117
 104.625 263.633 95.094 263.633 95.094 c 268.492 95.094 l 268.492 95.094
 259.52 89.672 256.719 78.457 c 263.258 80.141 263.258 80.141 263.258 80.141
 c 263.258 80.141 255.406 72.289 261.203 58.082 c 268.117 69.109 284.004
 75.277 293.727 75.652 c 290.922 60.141 310.734 49.672 323.633 62.383 c 
331.855 60.324 334.285 57.523 334.285 57.523 c 331.855 66.492 l 336.902 
67.242 l 336.902 67.242 333.91 72.102 328.492 75.09 c 326.062 93.969 312.031
 135.965 254.379 113.637 c h
254.379 113.637 m f
0.411765 0.0196078 0.537255 rg
284.148 123.02 m 274.938 123.02 264.633 120.824 253.297 116.434 c 251.887
 115.887 251.102 114.375 251.469 112.91 c 251.832 111.445 253.242 110.496
 254.73 110.656 c 258.148 111.051 266.617 111.066 272.016 107.711 c 264.602
 104.023 261.094 96.738 260.922 96.367 c 260.484 95.441 260.551 94.352 261.102
 93.484 c 261.207 93.316 261.328 93.164 261.461 93.027 c 258.59 89.973 255.355
 85.383 253.805 79.184 c 253.551 78.156 253.852 77.074 254.602 76.328 c 
255.297 75.637 256.289 75.324 257.242 75.504 c 255.781 71.203 255.168 64.938
 258.426 56.949 c 258.852 55.906 259.824 55.191 260.945 55.094 c 262.094
 54.996 263.148 55.535 263.746 56.488 c 269.508 65.676 281.93 70.926 290.469
 72.305 c 290.625 65.559 294.406 59.449 300.754 56.102 c 308.477 52.02 317.598
 53.211 324.441 59.059 c 330.156 57.406 332.055 55.512 332.078 55.492 c 
332.992 54.438 334.488 54.184 335.727 54.84 c 336.961 55.5 337.547 56.953
 337.184 58.305 c 335.633 64.023 l 337.344 64.273 l 338.34 64.422 339.195
 65.062 339.621 65.977 c 340.051 66.891 339.988 67.957 339.461 68.816 c 
339.332 69.027 336.473 73.609 331.266 76.934 c 329.82 86.551 324.773 106.719
 307.477 117.012 c 300.738 121.016 292.945 123.02 284.148 123.02 c h
269.691 115.27 m 283.609 118.434 295.25 117.301 304.41 111.852 c 320.816
 102.09 324.711 80.953 325.516 74.711 c 325.637 73.762 326.203 72.93 327.043
 72.465 c 328.668 71.57 330.051 70.469 331.16 69.414 c 330.418 69.238 329.766
 68.781 329.348 68.141 c 328.879 67.422 328.738 66.539 328.961 65.711 c 
329.508 63.691 l 328.07 64.242 326.367 64.789 324.359 65.293 c 323.34 65.547
 322.27 65.25 321.523 64.52 c 315.387 58.469 308.219 58.945 303.555 61.406
 c 299.426 63.586 295.453 68.332 296.676 75.121 c 296.84 76.016 296.586 
76.934 295.992 77.621 c 295.395 78.305 294.539 78.68 293.609 78.652 c 285.16
 78.328 271.133 73.727 262.41 64.492 c 260.84 73.152 265.18 77.809 265.398
 78.039 c 266.328 79.004 266.516 80.484 265.836 81.641 c 265.164 82.797 
263.812 83.375 262.512 83.043 c 261.52 82.789 l 264.797 89.234 269.988 92.488
 270.051 92.527 c 271.195 93.234 271.738 94.613 271.375 95.902 c 271.078
 96.949 270.25 97.738 269.23 97.996 c 271.215 100.266 274.215 102.762 278.227
 103.547 c 279.223 103.742 280.051 104.426 280.43 105.363 c 280.812 106.305
 280.695 107.371 280.117 108.203 c 277.559 111.891 273.68 114.039 269.691
 115.27 c h
269.691 115.27 m f
88.359 381 m 41.293 381 3 342.707 3 295.641 c 3 248.574 41.293 210.285 
88.359 210.285 c 135.426 210.285 173.715 248.574 173.715 295.641 c 173.715
 342.707 135.426 381 88.359 381 c h
88.359 216.281 m 44.598 216.281 9 251.883 9 295.641 c 9 339.402 44.598 
375 88.359 375 c 132.117 375 167.715 339.402 167.715 295.641 c 167.719 251.883
 132.117 216.281 88.359 216.281 c h
88.359 216.281 m f
88.359 173.719 m 41.293 173.719 3 135.426 3 88.359 c 3 41.293 41.293 3 
88.359 3 c 135.426 3 173.715 41.293 173.715 88.359 c 173.715 135.426 135.426
 173.719 88.359 173.719 c h
88.359 9 m 44.598 9 9 44.598 9 88.359 c 9 132.117 44.598 167.715 88.359
 167.715 c 132.117 167.715 167.715 132.117 167.715 88.359 c 167.719 44.598
 132.117 9 88.359 9 c h
88.359 9 m f
18.82 92.992 m 17.164 92.992 15.82 91.648 15.82 89.992 c 15.82 83.785 16.34
 77.559 17.367 71.492 c 17.645 69.859 19.184 68.754 20.824 69.035 c 22.461
 69.309 23.559 70.859 23.281 72.492 c 22.312 78.23 21.82 84.117 21.82 89.992
 c 21.82 91.648 20.477 92.992 18.82 92.992 c h
18.82 92.992 m f
295.641 173.719 m 248.574 173.719 210.285 135.426 210.285 88.359 c 210.285
 41.293 248.574 3 295.641 3 c 342.707 3 381 41.293 381 88.359 c 381 135.426
 342.707 173.719 295.641 173.719 c h
295.641 9 m 251.883 9 216.285 44.598 216.285 88.359 c 216.285 132.117 251.883
 167.715 295.641 167.715 c 339.402 167.715 375 132.117 375 88.359 c 375 
44.598 339.402 9 295.641 9 c h
295.641 9 m f
295.641 381 m 248.574 381 210.285 342.707 210.285 295.641 c 210.285 248.574
 248.574 210.285 295.641 210.285 c 342.707 210.285 381 248.574 381 295.641
 c 381 342.707 342.707 381 295.641 381 c h
295.641 216.281 m 251.883 216.281 216.285 251.883 216.285 295.641 c 216.285
 339.398 251.883 375 295.641 375 c 339.402 375 375 339.402 375 295.641 c
 375 251.883 339.402 216.281 295.641 216.281 c h
295.641 216.281 m f
0.956863 0.937255 0.929412 rg
306.504 322.164 m 302.527 322.164 299.301 318.938 299.301 314.961 c 299.301
 290.762 l 321.82 290.762 l 321.82 273.324 l 299.301 273.324 l 299.301 251.68
 l 281.863 251.68 l 281.863 262.812 l 281.863 268.617 277.156 273.324 271.352
 273.324 c 267.699 273.324 l 267.699 290.762 l 281.863 290.762 l 281.863
 319.699 l 281.863 330.691 290.773 339.602 301.766 339.602 c 308.91 339.602
 l 313.941 339.602 318.926 338.613 323.578 336.691 c 323.578 319.254 l 318.926
 321.176 313.941 322.164 308.91 322.164 c h
306.504 322.164 m f
0.411765 0.0196078 0.537255 rg
308.91 342.602 m 301.766 342.602 l 289.137 342.602 278.859 332.328 278.859
 319.699 c 278.859 293.762 l 267.699 293.762 l 266.043 293.762 264.699 292.414
 264.699 290.762 c 264.699 273.324 l 264.699 271.668 266.043 270.324 267.699
 270.324 c 271.352 270.324 l 275.492 270.324 278.863 266.953 278.863 262.816
 c 278.863 251.68 l 278.863 250.023 280.207 248.68 281.863 248.68 c 299.301
 248.68 l 300.957 248.68 302.301 250.023 302.301 251.68 c 302.301 270.324
 l 321.82 270.324 l 323.477 270.324 324.82 271.668 324.82 273.324 c 324.82
 290.762 l 324.82 292.414 323.477 293.762 321.82 293.762 c 302.301 293.762
 l 302.301 314.961 l 302.301 317.277 304.184 319.164 306.504 319.164 c 308.91
 319.164 l 313.57 319.164 318.121 318.262 322.438 316.488 c 323.363 316.102
 324.418 316.211 325.25 316.766 c 326.082 317.324 326.582 318.258 326.582
 319.262 c 326.582 336.699 l 326.582 337.914 325.848 339.008 324.723 339.473
 c 319.68 341.547 314.359 342.602 308.91 342.602 c h
270.703 287.762 m 281.863 287.762 l 283.52 287.762 284.863 289.105 284.863
 290.762 c 284.863 319.699 l 284.863 329.02 292.445 336.602 301.766 336.602
 c 308.91 336.602 l 312.91 336.602 316.824 335.941 320.582 334.629 c 320.582
 323.492 l 316.801 324.605 312.891 325.164 308.91 325.164 c 306.504 325.164
 l 300.879 325.164 296.301 320.586 296.301 314.961 c 296.301 290.762 l 296.301
 289.105 297.645 287.762 299.301 287.762 c 318.824 287.762 l 318.824 276.324
 l 299.301 276.324 l 297.645 276.324 296.301 274.977 296.301 273.324 c 296.301
 254.68 l 284.863 254.68 l 284.863 262.816 l 284.863 270.262 278.805 276.324
 271.355 276.324 c 270.703 276.324 l h
270.703 287.762 m f
113.605 338.562 m 64.93 338.562 l 55.266 338.562 47.398 330.699 47.398 
321.031 c 47.398 272.355 l 47.398 262.691 55.262 254.824 64.93 254.824 c
 113.605 254.824 l 123.273 254.824 131.137 262.688 131.137 272.355 c 131.137
 321.031 l 131.137 330.699 123.273 338.562 113.605 338.562 c h
64.93 260.824 m 58.57 260.824 53.398 265.996 53.398 272.359 c 53.398 321.031
 l 53.398 327.391 58.57 332.566 64.93 332.566 c 113.605 332.566 l 119.965
 332.566 125.137 327.395 125.137 321.031 c 125.137 272.359 l 125.137 266
 119.965 260.824 113.605 260.824 c h
64.93 260.824 m f
89.27 317.457 m 77.82 317.457 68.504 308.145 68.504 296.695 c 68.504 285.246
 77.82 275.93 89.27 275.93 c 100.719 275.93 110.031 285.246 110.031 296.695
 c 110.031 308.145 100.719 317.457 89.27 317.457 c h
89.27 281.93 m 81.129 281.93 74.504 288.555 74.504 296.695 c 74.504 304.836
 81.129 311.457 89.27 311.457 c 97.41 311.457 104.031 304.836 104.031 296.695
 c 104.031 288.555 97.41 281.93 89.27 281.93 c h
89.27 281.93 m f
111.949 269.094 m 114.668 269.094 116.871 271.293 116.871 274.012 c 116.871
 276.727 114.668 278.93 111.949 278.93 c 109.234 278.93 107.031 276.727 
107.031 274.012 c 107.031 271.293 109.234 269.094 111.949 269.094 c h
111.949 269.094 m f
0.988235 0.760784 0.298039 rg
263.984 204.059 m 263.984 179.941 l 250.641 179.941 l 249.09 172.363 246.098
 165.312 241.977 159.07 c 251.426 149.625 l 234.375 132.574 l 224.926 142.023
 l 218.688 137.902 211.637 134.91 204.055 133.359 c 204.055 120.016 l 179.941
 120.016 l 179.941 133.359 l 172.363 134.91 165.312 137.902 159.07 142.023
 c 149.621 132.574 l 132.574 149.625 l 142.023 159.07 l 137.902 165.312 
134.91 172.363 133.359 179.941 c 120.016 179.941 l 120.016 204.059 l 133.359
 204.059 l 134.91 211.637 137.902 218.688 142.023 224.93 c 132.574 234.375
 l 149.625 251.43 l 159.074 241.98 l 165.316 246.098 172.363 249.09 179.945
 250.641 c 179.945 263.988 l 204.059 263.988 l 204.059 250.641 l 211.637
 249.094 218.688 246.098 224.93 241.98 c 234.375 251.43 l 251.43 234.375
 l 241.98 224.93 l 246.102 218.688 249.09 211.637 250.641 204.059 c h
192 228.086 m 172.07 228.086 155.914 211.93 155.914 192 c 155.914 172.07
 172.07 155.914 192 155.914 c 211.93 155.914 228.09 172.07 228.09 192 c 
228.09 211.93 211.93 228.086 192 228.086 c h
192 228.086 m f
0.411765 0.0196078 0.537255 rg
204.059 266.984 m 179.941 266.984 l 178.285 266.984 176.941 265.641 176.941
 263.984 c 176.941 253.039 l 170.793 251.527 164.945 249.102 159.496 245.797
 c 151.746 253.547 l 150.574 254.719 148.676 254.719 147.504 253.547 c 130.453
 236.496 l 129.281 235.324 129.281 233.426 130.453 232.254 c 138.203 224.504
 l 134.898 219.059 132.473 213.207 130.961 207.059 c 120.016 207.059 l 118.359
 207.059 117.016 205.715 117.016 204.059 c 117.016 179.941 l 117.016 178.285
 118.359 176.941 120.016 176.941 c 130.961 176.941 l 132.473 170.793 134.898
 164.941 138.203 159.496 c 130.453 151.746 l 129.281 150.574 129.281 148.676
 130.453 147.504 c 147.504 130.453 l 148.676 129.281 150.574 129.281 151.746
 130.453 c 159.496 138.203 l 164.945 134.898 170.797 132.473 176.941 130.961
 c 176.941 120.016 l 176.941 118.359 178.285 117.016 179.941 117.016 c 204.059
 117.016 l 205.715 117.016 207.059 118.359 207.059 120.016 c 207.059 130.961
 l 213.203 132.473 219.055 134.898 224.504 138.203 c 232.254 130.453 l 233.379
 129.328 235.371 129.328 236.496 130.453 c 253.547 147.504 l 254.109 148.066
 254.426 148.828 254.426 149.625 c 254.426 150.418 254.109 151.184 253.547
 151.746 c 245.797 159.496 l 249.102 164.945 251.527 170.797 253.039 176.941
 c 263.984 176.941 l 265.641 176.941 266.984 178.285 266.984 179.941 c 266.984
 204.059 l 266.984 205.715 265.641 207.059 263.984 207.059 c 253.039 207.059
 l 251.527 213.203 249.102 219.055 245.797 224.504 c 253.547 232.254 l 254.109
 232.816 254.426 233.582 254.426 234.375 c 254.426 235.172 254.109 235.934
 253.547 236.496 c 236.496 253.547 l 235.934 254.109 235.172 254.426 234.375
 254.426 c 233.578 254.426 232.816 254.109 232.254 253.547 c 224.504 245.797
 l 219.055 249.102 213.207 251.527 207.059 253.039 c 207.059 263.984 l 207.059
 265.641 205.715 266.984 204.059 266.984 c h
182.941 260.984 m 201.059 260.984 l 201.059 250.641 l 201.059 249.215 202.059
 247.988 203.457 247.703 c 210.527 246.254 217.195 243.484 223.277 239.477
 c 224.465 238.688 226.047 238.848 227.051 239.859 c 234.375 247.184 l 247.188
 234.375 l 239.859 227.051 l 238.852 226.039 238.691 224.465 239.477 223.273
 c 243.488 217.195 246.258 210.527 247.703 203.457 c 247.984 202.059 249.215
 201.055 250.641 201.055 c 260.984 201.055 l 260.984 182.941 l 250.641 182.941
 l 249.215 182.941 247.984 181.938 247.703 180.543 c 246.254 173.469 243.488
 166.805 239.477 160.723 c 238.691 159.531 238.852 157.957 239.859 156.949
 c 247.188 149.621 l 234.375 136.812 l 227.051 144.141 l 226.047 145.148
 224.469 145.309 223.277 144.523 c 217.195 140.508 210.527 137.742 203.457
 136.297 c 202.059 136.012 201.059 134.781 201.059 133.359 c 201.059 123.016
 l 182.941 123.016 l 182.941 133.359 l 182.941 134.785 181.941 136.016 180.543
 136.297 c 173.473 137.746 166.805 140.512 160.723 144.523 c 159.531 145.309
 157.957 145.148 156.949 144.141 c 149.621 136.812 l 136.812 149.621 l 144.141
 156.949 l 145.148 157.957 145.309 159.535 144.523 160.723 c 140.512 166.801
 137.742 173.469 136.297 180.543 c 136.012 181.941 134.781 182.941 133.359
 182.941 c 123.016 182.941 l 123.016 201.059 l 133.359 201.059 l 134.785
 201.059 136.012 202.059 136.297 203.457 c 137.746 210.531 140.516 217.199
 144.523 223.277 c 145.309 224.465 145.152 226.043 144.141 227.051 c 136.816
 234.379 l 149.625 247.188 l 156.949 239.859 l 157.961 238.852 159.535 238.691
 160.727 239.477 c 166.805 243.488 173.473 246.258 180.547 247.703 c 181.941
 247.988 182.945 249.219 182.945 250.641 c 182.945 260.984 l h
192 231.09 m 170.445 231.09 152.91 213.555 152.91 192 c 152.91 170.445 
170.445 152.91 192 152.91 c 213.555 152.91 231.09 170.445 231.09 192 c 231.09
 213.555 213.555 231.09 192 231.09 c h
192 158.91 m 173.754 158.91 158.91 173.754 158.91 192 c 158.91 210.246 
173.754 225.09 192 225.09 c 210.246 225.09 225.09 210.246 225.09 192 c 225.09
 173.754 210.246 158.91 192 158.91 c h
192 158.91 m f
0.870588 0.643137 0.180392 rg
240.723 151.668 m 234.977 157.41 l 234.035 158.352 233.824 159.828 234.516
 160.969 c 237.633 166.09 240.004 171.711 241.469 177.691 c 241.793 179 
242.938 179.945 244.285 179.945 c 250.641 179.945 l 249.09 172.363 246.098
 165.316 241.977 159.074 c 251.426 149.625 l 234.375 132.574 l 230.043 136.906
 l 240.723 147.582 l 241.848 148.711 241.848 150.539 240.723 151.668 c h
240.723 151.668 m f
255.324 179.941 8.66 24.117 re f
250.641 204.059 m 244.289 204.059 l 242.938 204.059 241.793 205 241.473
 206.312 c 240.004 212.289 237.633 217.91 234.52 223.031 c 233.824 224.172
 234.035 225.648 234.98 226.59 c 240.723 232.336 l 241.852 233.465 241.852
 235.293 240.723 236.418 c 230.043 247.098 l 234.375 251.43 l 251.43 234.379
 l 241.98 224.93 l 246.098 218.688 249.09 211.637 250.641 204.059 c h
250.641 204.059 m f
0.988235 0.878431 0.415686 rg
143.277 151.668 m 149.02 157.41 l 149.965 158.352 150.176 159.828 149.484
 160.969 c 146.367 166.09 143.996 171.711 142.527 177.691 c 142.207 179 
141.062 179.945 139.711 179.945 c 133.359 179.945 l 134.91 172.363 137.902
 165.316 142.023 159.074 c 132.574 149.625 l 149.625 132.574 l 153.957 136.906
 l 143.277 147.582 l 142.152 148.711 142.152 150.539 143.277 151.668 c h
143.277 151.668 m f
120.016 179.941 8.66 24.117 re f
133.359 204.059 m 139.711 204.059 l 141.062 204.059 142.207 205 142.527
 206.312 c 143.996 212.289 146.367 217.91 149.484 223.031 c 150.176 224.172
 149.965 225.648 149.02 226.59 c 143.277 232.336 l 142.148 233.465 142.148
 235.293 143.277 236.418 c 153.957 247.098 l 149.625 251.43 l 132.57 234.379
 l 142.02 224.93 l 137.902 218.688 134.91 211.637 133.359 204.059 c h
133.359 204.059 m f
0.411765 0.0196078 0.537255 rg
204.059 266.984 m 179.941 266.984 l 178.285 266.984 176.941 265.641 176.941
 263.984 c 176.941 253.039 l 170.793 251.527 164.945 249.102 159.496 245.797
 c 151.746 253.547 l 150.574 254.719 148.676 254.719 147.504 253.547 c 130.453
 236.496 l 129.281 235.324 129.281 233.426 130.453 232.254 c 138.203 224.504
 l 134.898 219.059 132.473 213.207 130.961 207.059 c 120.016 207.059 l 118.359
 207.059 117.016 205.715 117.016 204.059 c 117.016 179.941 l 117.016 178.285
 118.359 176.941 120.016 176.941 c 130.961 176.941 l 132.473 170.793 134.898
 164.941 138.203 159.496 c 130.453 151.746 l 129.281 150.574 129.281 148.676
 130.453 147.504 c 147.504 130.453 l 148.676 129.281 150.574 129.281 151.746
 130.453 c 159.496 138.203 l 164.945 134.898 170.797 132.473 176.941 130.961
 c 176.941 120.016 l 176.941 118.359 178.285 117.016 179.941 117.016 c 204.059
 117.016 l 205.715 117.016 207.059 118.359 207.059 120.016 c 207.059 130.961
 l 213.203 132.473 219.055 134.898 224.504 138.203 c 232.254 130.453 l 233.379
 129.328 235.371 129.328 236.496 130.453 c 253.547 147.504 l 254.109 148.066
 254.426 148.828 254.426 149.625 c 254.426 150.418 254.109 151.184 253.547
 151.746 c 245.797 159.496 l 249.102 164.945 251.527 170.797 253.039 176.941
 c 263.984 176.941 l 265.641 176.941 266.984 178.285 266.984 179.941 c 266.984
 204.059 l 266.984 205.715 265.641 207.059 263.984 207.059 c 253.039 207.059
 l 251.527 213.203 249.102 219.055 245.797 224.504 c 253.547 232.254 l 254.109
 232.816 254.426 233.582 254.426 234.375 c 254.426 235.172 254.109 235.934
 253.547 236.496 c 236.496 253.547 l 235.934 254.109 235.172 254.426 234.375
 254.426 c 233.578 254.426 232.816 254.109 232.254 253.547 c 224.504 245.797
 l 219.055 249.102 213.207 251.527 207.059 253.039 c 207.059 263.984 l 207.059
 265.641 205.715 266.984 204.059 266.984 c h
182.941 260.984 m 201.059 260.984 l 201.059 250.641 l 201.059 249.215 202.059
 247.988 203.457 247.703 c 210.527 246.254 217.195 243.484 223.277 239.477
 c 224.465 238.688 226.047 238.848 227.051 239.859 c 234.375 247.184 l 247.188
 234.375 l 239.859 227.051 l 238.852 226.039 238.691 224.465 239.477 223.273
 c 243.488 217.195 246.258 210.527 247.703 203.457 c 247.984 202.059 249.215
 201.055 250.641 201.055 c 260.984 201.055 l 260.984 182.941 l 250.641 182.941
 l 249.215 182.941 247.984 181.938 247.703 180.543 c 246.254 173.469 243.488
 166.805 239.477 160.723 c 238.691 159.531 238.852 157.957 239.859 156.949
 c 247.188 149.621 l 234.375 136.812 l 227.051 144.141 l 226.047 145.148
 224.469 145.309 223.277 144.523 c 217.195 140.508 210.527 137.742 203.457
 136.297 c 202.059 136.012 201.059 134.781 201.059 133.359 c 201.059 123.016
 l 182.941 123.016 l 182.941 133.359 l 182.941 134.785 181.941 136.016 180.543
 136.297 c 173.473 137.746 166.805 140.512 160.723 144.523 c 159.531 145.309
 157.957 145.148 156.949 144.141 c 149.621 136.812 l 136.812 149.621 l 144.141
 156.949 l 145.148 157.957 145.309 159.535 144.523 160.723 c 140.512 166.801
 137.742 173.469 136.297 180.543 c 136.012 181.941 134.781 182.941 133.359
 182.941 c 123.016 182.941 l 123.016 201.059 l 133.359 201.059 l 134.785
 201.059 136.012 202.059 136.297 203.457 c 137.746 210.531 140.516 217.199
 144.523 223.277 c 145.309 224.465 145.152 226.043 144.141 227.051 c 136.816
 234.379 l 149.625 247.188 l 156.949 239.859 l 157.961 238.852 159.535 238.691
 160.727 239.477 c 166.805 243.488 173.473 246.258 180.547 247.703 c 181.941
 247.988 182.945 249.219 182.945 250.641 c 182.945 260.984 l h
192 231.09 m 170.445 231.09 152.91 213.555 152.91 192 c 152.91 170.445 
170.445 152.91 192 152.91 c 213.555 152.91 231.09 170.445 231.09 192 c 231.09
 213.555 213.555 231.09 192 231.09 c h
192 158.91 m 173.754 158.91 158.91 173.754 158.91 192 c 158.91 210.246 
173.754 225.09 192 225.09 c 210.246 225.09 225.09 210.246 225.09 192 c 225.09
 173.754 210.246 158.91 192 158.91 c h
192 158.91 m f
Q Q
showpage
%%Trailer
end
%%EOF
