%!PS-Adobe-3.0 EPSF-3.0
%%Creator: cairo 1.16.0 (https://cairographics.org)
%%CreationDate: Fri Jan 10 07:39:26 2020
%%Pages: 1
%%DocumentData: Clean7Bit
%%LanguageLevel: 2
%%BoundingBox: 6 3 378 381
%%EndComments
%%BeginProlog
50 dict begin
/q { gsave } bind def
/Q { grestore } bind def
/cm { 6 array astore concat } bind def
/w { setlinewidth } bind def
/J { setlinecap } bind def
/j { setlinejoin } bind def
/M { setmiterlimit } bind def
/d { setdash } bind def
/m { moveto } bind def
/l { lineto } bind def
/c { curveto } bind def
/h { closepath } bind def
/re { exch dup neg 3 1 roll 5 3 roll moveto 0 rlineto
      0 exch rlineto 0 rlineto closepath } bind def
/S { stroke } bind def
/f { fill } bind def
/f* { eofill } bind def
/n { newpath } bind def
/W { clip } bind def
/W* { eoclip } bind def
/BT { } bind def
/ET { } bind def
/BDC { mark 3 1 roll /BDC pdfmark } bind def
/EMC { mark /EMC pdfmark } bind def
/cairo_store_point { /cairo_point_y exch def /cairo_point_x exch def } def
/Tj { show currentpoint cairo_store_point } bind def
/TJ {
  {
    dup
    type /stringtype eq
    { show } { -0.001 mul 0 cairo_font_matrix dtransform rmoveto } ifelse
  } forall
  currentpoint cairo_store_point
} bind def
/cairo_selectfont { cairo_font_matrix aload pop pop pop 0 0 6 array astore
    cairo_font exch selectfont cairo_point_x cairo_point_y moveto } bind def
/Tf { pop /cairo_font exch def /cairo_font_matrix where
      { pop cairo_selectfont } if } bind def
/Td { matrix translate cairo_font_matrix matrix concatmatrix dup
      /cairo_font_matrix exch def dup 4 get exch 5 get cairo_store_point
      /cairo_font where { pop cairo_selectfont } if } bind def
/Tm { 2 copy 8 2 roll 6 array astore /cairo_font_matrix exch def
      cairo_store_point /cairo_font where { pop cairo_selectfont } if } bind def
/g { setgray } bind def
/rg { setrgbcolor } bind def
/d1 { setcachedevice } bind def
/cairo_data_source {
  CairoDataIndex CairoData length lt
    { CairoData CairoDataIndex get /CairoDataIndex CairoDataIndex 1 add def }
    { () } ifelse
} def
/cairo_flush_ascii85_file { cairo_ascii85_file status { cairo_ascii85_file flushfile } if } def
/cairo_image { image cairo_flush_ascii85_file } def
/cairo_imagemask { imagemask cairo_flush_ascii85_file } def
%%EndProlog
%%BeginSetup
%%EndSetup
%%Page: 1 1
%%BeginPageSetup
%%PageBoundingBox: 6 3 378 381
%%EndPageSetup
q 6 3 372 378 rectclip
1 0 0 -1 0 384 cm q
0.321569 0.435294 0.666667 rg
158.742 247.434 m 158.742 184.121 l 226.219 184.121 l 226.219 247.434 l
 287.145 247.434 l 310.746 247.465 329.852 266.844 329.82 290.445 c 329.82
 378 l 54.832 378 l 54.832 290.094 l 54.859 266.492 74.129 247.387 97.73
 247.414 c h
158.742 247.434 m f
1 0.623529 0.439216 rg
158.742 232.105 m 192.164 273.68 l 226.219 232.105 l 226.219 184.121 l 
158.742 184.121 l h
158.742 232.105 m f
0.203922 0.317647 0.54902 rg
287.145 247.434 m 272.152 247.434 l 295.754 247.465 314.859 266.824 314.832
 290.426 c 314.832 378 l 329.82 378 l 329.82 290.445 l 329.852 266.844 310.746
 247.465 287.145 247.434 c h
287.145 247.434 m f
0.439216 0.552941 0.784314 rg
97.73 247.414 m 112.723 247.434 l 89.121 247.406 69.852 266.512 69.82 290.113
 c 69.82 378 l 54.832 378 l 54.832 290.094 l 54.859 266.492 74.129 247.387
 97.73 247.414 c h
97.73 247.414 m f
0.411765 0.0196078 0.537255 rg
107.918 379.5 m 106.262 379.5 104.918 378.156 104.918 376.5 c 104.918 337.492
 l 104.918 335.836 106.262 334.492 107.918 334.492 c 109.574 334.492 110.918
 335.836 110.918 337.492 c 110.918 376.5 l 110.918 378.156 109.574 379.5
 107.918 379.5 c h
107.918 379.5 m f
276.734 379.5 m 275.078 379.5 273.734 378.156 273.734 376.5 c 273.734 337.492
 l 273.734 335.836 275.078 334.492 276.734 334.492 c 278.391 334.492 279.734
 335.836 279.734 337.492 c 279.734 376.5 l 279.734 378.156 278.391 379.5
 276.734 379.5 c h
276.734 379.5 m f
329.82 381 m 54.832 381 l 53.176 381 51.832 379.656 51.832 378 c 51.832
 290.094 l 51.848 277.879 56.641 266.398 65.328 257.766 c 73.992 249.156
 85.477 244.414 97.676 244.414 c 97.734 244.414 l 155.738 244.434 l 155.738
 184.121 l 155.738 182.465 157.082 181.121 158.738 181.121 c 226.215 181.121
 l 227.871 181.121 229.215 182.465 229.215 184.121 c 229.215 244.434 l 287.141
 244.434 l 299.352 244.449 310.836 249.266 319.477 257.992 c 328.098 266.695
 332.836 278.223 332.82 290.449 c 332.82 378 l 332.82 379.656 331.477 381
 329.82 381 c h
57.832 375 m 326.82 375 l 326.82 290.445 l 326.836 279.809 322.715 269.785
 315.215 262.211 c 307.707 254.633 297.738 250.449 287.141 250.434 c 226.219
 250.434 l 224.562 250.434 223.219 249.09 223.219 247.434 c 223.219 187.121
 l 161.742 187.121 l 161.742 247.434 l 161.742 248.23 161.426 248.996 160.863
 249.559 c 160.301 250.121 159.535 250.434 158.742 250.434 c 158.742 250.434
 158.742 250.434 158.738 250.434 c 97.73 250.414 l 97.715 250.414 97.695
 250.414 97.68 250.414 c 87.074 250.414 77.09 254.535 69.559 262.023 c 62.012
 269.523 57.848 279.492 57.836 290.098 c 57.836 375 l h
57.832 375 m f
0.988235 0.760784 0.298039 rg
254.559 60.113 m 254.559 57.535 l 254.559 46.734 247.992 37.469 238.629
 33.508 c 227.961 28.996 217.598 23.801 208.125 17.133 c 192.348 6.027 l
 192.348 6 l 192.328 6.012 l 192.309 6 l 192.309 6.027 l 176.531 17.133 
l 167.059 23.801 156.691 28.996 146.023 33.508 c 136.664 37.469 130.098 
46.734 130.098 57.535 c 130.098 60.113 l 114.891 60.113 102.91 73.074 104.102
 88.234 c 108.543 144.801 l 276.117 144.801 l 280.559 88.234 l 281.746 73.074
 269.766 60.113 254.559 60.113 c h
254.559 60.113 m f
0.870588 0.643137 0.180392 rg
254.559 60.113 m 254.559 57.535 l 254.559 46.734 247.992 37.469 238.629
 33.508 c 227.961 28.996 217.598 23.801 208.125 17.133 c 192.367 6.043 l
 198.516 18.648 213.574 29.004 224.23 33.508 c 233.59 37.469 240.156 46.734
 240.156 57.535 c 240.156 58.941 241.23 60.098 242.629 60.227 c 256.641 
61.539 267.281 73.902 266.156 88.23 c 261.715 144.801 l 276.113 144.801 
l 280.555 88.23 l 281.746 73.074 269.766 60.113 254.559 60.113 c h
254.559 60.113 m f
0.988235 0.878431 0.415686 rg
130.094 60.113 m 130.094 57.535 l 130.094 46.734 136.66 37.469 146.023 
33.508 c 156.691 28.996 167.055 23.801 176.527 17.133 c 192.285 6.043 l 
186.137 18.648 171.078 29.004 160.422 33.508 c 151.062 37.469 144.496 46.734
 144.496 57.535 c 144.496 58.941 143.422 60.098 142.023 60.227 c 128.016
 61.539 117.375 73.902 118.5 88.23 c 122.941 144.801 l 108.539 144.801 l
 104.098 88.23 l 102.906 73.074 114.887 60.113 130.094 60.113 c h
130.094 60.113 m f
0.411765 0.0196078 0.537255 rg
276.113 147.801 m 108.539 147.801 l 106.973 147.801 105.672 146.598 105.547
 145.039 c 101.105 88.469 l 100.473 80.41 103.258 72.387 108.746 66.453 
c 113.551 61.258 120.113 58.004 127.098 57.273 c 127.203 45.668 134.148 
35.277 144.852 30.75 c 157.027 25.598 166.543 20.496 174.801 14.68 c 190.387
 3.711 l 190.547 3.578 190.727 3.457 190.918 3.355 c 191.441 3.082 192.02
 2.969 192.602 3.02 c 192.992 3.055 193.375 3.164 193.73 3.348 c 193.93 
3.453 194.113 3.578 194.281 3.723 c 209.852 14.68 l 218.109 20.492 227.629
 25.598 239.801 30.746 c 250.508 35.273 257.453 45.664 257.559 57.27 c 264.543
 58 271.105 61.254 275.91 66.453 c 281.395 72.387 284.18 80.41 283.547 88.469
 c 279.105 145.039 l 278.98 146.598 277.68 147.801 276.113 147.801 c h
111.312 141.801 m 273.34 141.801 l 277.566 87.996 l 278.074 81.508 275.922
 75.305 271.5 70.527 c 267.086 65.746 261.066 63.117 254.559 63.117 c 252.902
 63.117 251.559 61.773 251.559 60.117 c 251.559 57.539 l 251.559 48.242 
246.027 39.895 237.461 36.273 c 224.887 30.957 215.016 25.652 206.398 19.586
 c 192.328 9.684 l 178.258 19.586 l 169.641 25.652 159.77 30.953 147.191
 36.273 c 138.629 39.895 133.098 48.242 133.098 57.539 c 133.098 60.117 
l 133.098 61.773 131.754 63.117 130.098 63.117 c 123.59 63.117 117.57 65.746
 113.152 70.527 c 108.734 75.305 106.578 81.512 107.09 88 c h
111.312 141.801 m f
1 0.741176 0.556863 rg
125.504 126.363 m 120.73 126.363 l 108.383 126.363 98.379 136.367 98.379
 148.715 c 98.379 161.059 108.383 171.066 120.73 171.066 c 125.504 171.066
 l h
125.504 126.363 m f
0.882353 0.505882 0.321569 rg
264.047 126.363 m 259.273 126.363 l 259.273 171.066 l 264.047 171.066 l
 276.391 171.066 286.398 161.059 286.398 148.715 c 286.398 136.367 276.395
 126.363 264.047 126.363 c h
264.047 126.363 m f
1 0.623529 0.439216 rg
192.387 239.984 m 155.449 239.984 125.504 209.648 125.504 172.23 c 125.504
 125.328 l 125.504 87.906 155.449 57.574 192.387 57.574 c 229.328 57.574
 259.273 87.906 259.273 125.328 c 259.273 172.23 l 259.273 209.652 229.328
 239.984 192.387 239.984 c h
192.387 239.984 m f
0.882353 0.505882 0.321569 rg
192.387 57.574 m 189.816 57.574 187.285 57.734 184.789 58.023 c 218.148
 61.844 244.07 90.512 244.07 125.328 c 244.07 172.23 l 244.07 207.047 218.148
 235.711 184.789 239.535 c 187.285 239.824 189.816 239.984 192.387 239.984
 c 229.328 239.984 259.273 209.652 259.273 172.234 c 259.273 125.328 l 259.273
 87.906 229.328 57.574 192.387 57.574 c h
192.387 57.574 m f
1 0.741176 0.556863 rg
192.387 57.574 m 194.961 57.574 197.492 57.734 199.988 58.023 c 166.629
 61.844 140.707 90.512 140.707 125.328 c 140.707 172.23 l 140.707 207.047
 166.629 235.711 199.988 239.535 c 197.492 239.824 194.961 239.984 192.387
 239.984 c 155.449 239.984 125.504 209.652 125.504 172.234 c 125.504 125.328
 l 125.504 87.906 155.449 57.574 192.387 57.574 c h
192.387 57.574 m f
0.411765 0.0196078 0.537255 rg
192.391 242.984 m 153.855 242.984 122.504 211.242 122.504 172.23 c 122.504
 125.328 l 122.504 86.312 153.855 54.574 192.391 54.574 c 230.926 54.574
 262.273 86.316 262.273 125.328 c 262.273 172.23 l 262.273 211.246 230.922
 242.984 192.391 242.984 c h
192.391 60.574 m 157.164 60.574 128.504 89.621 128.504 125.324 c 128.504
 172.23 l 128.504 207.934 157.164 236.98 192.391 236.98 c 227.613 236.98
 256.273 207.934 256.273 172.23 c 256.273 125.324 l 256.273 89.621 227.613
 60.574 192.391 60.574 c h
192.391 60.574 m f
125.504 174.062 m 120.73 174.062 l 106.75 174.062 95.379 162.691 95.379
 148.711 c 95.379 134.734 106.75 123.359 120.73 123.359 c 125.504 123.359
 l 127.16 123.359 128.504 124.703 128.504 126.359 c 128.504 171.062 l 128.504
 172.719 127.16 174.062 125.504 174.062 c h
120.73 129.363 m 110.059 129.363 101.379 138.043 101.379 148.715 c 101.379
 159.383 110.059 168.066 120.73 168.066 c 122.504 168.066 l 122.504 129.363
 l h
120.73 129.363 m f
264.047 174.062 m 259.273 174.062 l 257.617 174.062 256.273 172.719 256.273
 171.062 c 256.273 126.363 l 256.273 124.707 257.617 123.363 259.273 123.363
 c 264.047 123.363 l 278.027 123.363 289.398 134.734 289.398 148.715 c 289.398
 162.691 278.027 174.062 264.047 174.062 c h
262.273 168.062 m 264.051 168.062 l 274.719 168.062 283.398 159.383 283.398
 148.711 c 283.398 138.039 274.719 129.359 264.051 129.359 c 262.273 129.359
 l h
262.273 168.062 m f
0.956863 0.937255 0.929412 rg
226.219 232.105 m 192.164 273.68 l 230.445 301.793 l 240.625 247.434 l 
h
226.219 232.105 m f
158.742 232.105 m 192.164 273.68 l 154.211 301.793 l 144.027 247.43 l h
158.742 232.105 m f
0.411765 0.0196078 0.537255 rg
230.445 304.793 m 229.816 304.793 229.191 304.598 228.668 304.211 c 190.387
 276.098 l 189.723 275.609 189.289 274.871 189.188 274.055 c 189.082 273.238
 189.32 272.418 189.844 271.777 c 223.895 230.203 l 224.441 229.535 225.25
 229.137 226.113 229.105 c 227.031 229.102 227.812 229.422 228.402 230.051
 c 242.812 245.379 l 243.469 246.078 243.75 247.047 243.574 247.988 c 233.391
 302.348 l 233.203 303.359 232.504 304.203 231.547 304.586 c 231.191 304.727
 230.816 304.793 230.445 304.793 c h
196.488 273.133 m 228.375 296.551 l 237.398 248.379 l 226.371 236.652 l
 h
196.488 273.133 m f
154.211 304.793 m 153.84 304.793 153.469 304.727 153.113 304.586 c 152.152
 304.211 151.453 303.363 151.262 302.348 c 141.078 247.98 l 140.902 247.027
 141.195 246.047 141.863 245.352 c 156.578 230.027 l 157.176 229.402 158.016
 229.066 158.871 229.105 c 159.734 229.145 160.539 229.551 161.078 230.223
 c 194.504 271.797 l 195.016 272.434 195.246 273.254 195.141 274.059 c 195.039
 274.867 194.609 275.602 193.953 276.09 c 155.996 304.203 l 155.469 304.594
 154.844 304.793 154.211 304.793 c h
147.258 248.395 m 156.277 296.531 l 187.871 273.125 l 158.539 236.645 l
 h
147.258 248.395 m f
69.82 329.973 m 68.164 329.973 66.82 328.629 66.82 326.973 c 66.82 308.973
 l 66.82 307.316 68.164 305.973 69.82 305.973 c 71.477 305.973 72.82 307.316
 72.82 308.973 c 72.82 326.973 l 72.82 328.629 71.477 329.973 69.82 329.973
 c h
69.82 329.973 m f
0.988235 0.760784 0.298039 rg
357.965 119.418 m 325.02 80.285 l 292.074 119.418 l 311.742 119.418 l 311.742
 172.438 l 338.293 172.438 l 338.293 119.418 l h
357.965 119.418 m f
0.411765 0.0196078 0.537255 rg
338.293 175.438 m 311.742 175.438 l 310.086 175.438 308.742 174.094 308.742
 172.438 c 308.742 122.418 l 292.074 122.418 l 290.906 122.418 289.844 121.742
 289.352 120.684 c 288.859 119.625 289.027 118.379 289.777 117.484 c 322.723
 78.352 l 323.863 77 326.176 77 327.316 78.352 c 360.262 117.484 l 361.012
 118.379 361.176 119.625 360.684 120.684 c 360.195 121.742 359.133 122.418
 357.965 122.418 c 341.297 122.418 l 341.297 172.434 l 341.293 174.094 339.949
 175.438 338.293 175.438 c h
314.742 169.438 m 335.293 169.438 l 335.293 119.418 l 335.293 117.762 336.637
 116.418 338.293 116.418 c 351.516 116.418 l 325.016 84.945 l 298.52 116.418
 l 311.742 116.418 l 313.398 116.418 314.742 117.762 314.742 119.418 c h
314.742 169.438 m f
0.988235 0.760784 0.298039 rg
82.969 119.418 m 50.023 80.285 l 17.078 119.418 l 36.75 119.418 l 36.75
 172.438 l 63.297 172.438 l 63.297 119.418 l h
82.969 119.418 m f
0.411765 0.0196078 0.537255 rg
63.297 175.438 m 36.75 175.438 l 35.094 175.438 33.75 174.094 33.75 172.438
 c 33.75 122.418 l 17.078 122.418 l 15.91 122.418 14.852 121.742 14.359 
120.684 c 13.867 119.625 14.031 118.379 14.781 117.484 c 47.727 78.352 l
 48.297 77.676 49.137 77.285 50.023 77.285 c 50.91 77.285 51.75 77.676 52.32
 78.352 c 85.262 117.484 l 86.016 118.379 86.18 119.625 85.688 120.684 c
 85.195 121.742 84.137 122.418 82.969 122.418 c 66.297 122.418 l 66.297 
172.434 l 66.297 174.094 64.953 175.438 63.297 175.438 c h
39.75 169.438 m 60.297 169.438 l 60.297 119.418 l 60.297 117.762 61.641
 116.418 63.297 116.418 c 76.52 116.418 l 50.023 84.945 l 23.523 116.418
 l 36.75 116.418 l 38.406 116.418 39.75 117.762 39.75 119.418 c h
39.75 169.438 m f
0.533333 0.321569 0.658824 rg
283.121 204.055 m 272.652 214.52 272.652 231.492 283.121 241.961 c 325.016
 283.855 l 366.914 241.961 l 377.379 231.492 377.379 214.52 366.914 204.055
 c 356.445 193.586 339.477 193.586 329.008 204.055 c 325.016 208.043 l 321.027
 204.055 l 310.559 193.586 293.59 193.586 283.121 204.055 c h
283.121 204.055 m f
0.411765 0.0196078 0.537255 rg
325.02 286.855 m 324.25 286.855 323.484 286.566 322.898 285.977 c 281 244.078
 l 275.371 238.453 272.27 230.969 272.27 223.008 c 272.27 215.047 275.371
 207.562 281 201.934 c 292.617 190.312 311.531 190.312 323.148 201.934 c
 325.02 203.801 l 326.887 201.934 l 338.508 190.312 357.418 190.312 369.039
 201.934 c 374.668 207.562 377.766 215.047 377.766 223.008 c 377.766 230.969
 374.668 238.453 369.039 244.082 c 327.141 285.977 l 326.555 286.562 325.785
 286.855 325.02 286.855 c h
302.074 199.203 m 295.715 199.203 289.738 201.68 285.242 206.176 c 280.746
 210.672 278.27 216.648 278.27 223.008 c 278.27 229.363 280.746 235.344 
285.242 239.84 c 325.02 279.613 l 364.797 239.84 l 369.289 235.34 371.766
 229.363 371.766 223.004 c 371.766 216.648 369.289 210.668 364.797 206.172
 c 360.301 201.68 354.324 199.203 347.961 199.203 c 341.602 199.203 335.625
 201.68 331.129 206.172 c 327.141 210.164 l 325.969 211.336 324.07 211.336
 322.898 210.164 c 318.906 206.172 l 314.41 201.68 308.434 199.203 302.074
 199.203 c h
283.121 204.055 m 283.137 204.055 l h
283.121 204.055 m f
0.956863 0.937255 0.929412 rg
130.633 253.281 m 130.633 248.906 127.086 245.363 122.715 245.363 c 120.195
 245.363 l 124.531 245.363 128.312 242.023 128.441 237.688 c 128.578 233.203
 124.98 229.527 120.527 229.527 c 79.367 229.527 l 79.367 192.898 l 79.367
 188.641 75.918 185.191 71.66 185.191 c 67.883 185.191 64.664 187.926 64.055
 191.652 c 57.844 229.527 l 56.785 229.527 l 50.938 229.527 46.199 234.27
 46.199 240.113 c 33.871 240.113 l 33.871 283.812 l 46.297 283.812 l 46.965
 288.992 51.402 292.867 56.785 292.867 c 112.609 292.867 l 117.062 292.867
 120.656 289.191 120.523 284.707 c 120.395 280.375 116.613 277.035 112.277
 277.035 c 119.023 277.035 l 123.398 277.035 126.941 273.488 126.941 269.117
 c 126.941 264.742 123.398 261.199 119.023 261.199 c 122.715 261.199 l 127.086
 261.195 130.633 257.652 130.633 253.281 c h
130.633 253.281 m f
0.533333 0.321569 0.658824 rg
14.52 292.867 m 28.586 292.867 l 31.508 292.867 33.871 290.5 33.871 287.578
 c 33.871 237.555 l 33.871 234.633 31.508 232.266 28.586 232.266 c 14.52
 232.266 l 11.602 232.266 9.234 234.633 9.234 237.555 c 9.234 287.578 l 
9.234 290.5 11.602 292.867 14.52 292.867 c h
14.52 292.867 m f
0.65098 0.439216 0.776471 rg
19.637 287.578 m 19.637 237.555 l 19.637 234.633 22.004 232.266 24.922 
232.266 c 14.52 232.266 l 11.602 232.266 9.234 234.633 9.234 237.555 c 9.234
 287.578 l 9.234 290.5 11.602 292.867 14.52 292.867 c 24.918 292.867 l 22
 292.867 19.637 290.5 19.637 287.578 c h
19.637 287.578 m f
0.411765 0.0196078 0.537255 rg
28.586 295.867 m 14.52 295.867 l 9.949 295.867 6.234 292.148 6.234 287.578
 c 6.234 237.555 l 6.234 232.984 9.953 229.266 14.52 229.266 c 28.586 229.266
 l 33.156 229.266 36.871 232.984 36.871 237.555 c 36.871 287.578 l 36.871
 292.148 33.156 295.867 28.586 295.867 c h
14.52 235.266 m 13.262 235.266 12.234 236.293 12.234 237.555 c 12.234 287.578
 l 12.234 288.84 13.262 289.867 14.52 289.867 c 28.586 289.867 l 29.848 
289.867 30.871 288.84 30.871 287.578 c 30.871 237.555 l 30.871 236.293 29.844
 235.266 28.586 235.266 c h
14.52 235.266 m f
122.715 264.195 m 101.355 264.195 l 99.699 264.195 98.355 262.852 98.355
 261.195 c 98.355 259.539 99.699 258.195 101.355 258.195 c 122.715 258.195
 l 125.426 258.195 127.633 255.992 127.633 253.281 c 127.633 250.566 125.426
 248.363 122.715 248.363 c 101.355 248.363 l 99.699 248.363 98.355 247.02
 98.355 245.363 c 98.355 243.707 99.699 242.363 101.355 242.363 c 122.715
 242.363 l 128.734 242.363 133.633 247.262 133.633 253.281 c 133.633 259.301
 128.734 264.195 122.715 264.195 c h
122.715 264.195 m f
119.027 280.031 m 101.352 280.031 l 99.699 280.031 98.352 278.688 98.352
 277.031 c 98.352 275.375 99.699 274.031 101.352 274.031 c 119.023 274.031
 l 121.738 274.031 123.941 271.824 123.941 269.113 c 123.941 266.406 121.734
 264.199 119.023 264.199 c 101.352 264.199 l 99.699 264.199 98.352 262.855
 98.352 261.199 c 98.352 259.543 99.699 258.199 101.352 258.199 c 119.023
 258.199 l 125.043 258.199 129.941 263.094 129.941 269.113 c 129.941 275.133
 125.043 280.031 119.027 280.031 c h
119.027 280.031 m f
112.609 295.867 m 56.785 295.867 l 50.895 295.867 45.773 292.121 43.934
 286.812 c 33.871 286.812 l 32.215 286.812 30.871 285.469 30.871 283.812
 c 30.871 240.113 l 30.871 238.457 32.215 237.113 33.871 237.113 c 43.531
 237.113 l 44.793 231.539 49.496 227.25 55.281 226.609 c 61.094 191.164 
l 61.945 185.965 66.391 182.191 71.66 182.191 c 77.562 182.191 82.367 186.996
 82.367 192.898 c 82.367 226.527 l 120.527 226.527 l 123.504 226.527 126.289
 227.707 128.363 229.844 c 130.438 231.98 131.527 234.801 131.441 237.781
 c 131.266 243.617 126.223 248.363 120.195 248.363 c 101.352 248.363 l 99.699
 248.363 98.352 247.02 98.352 245.363 c 98.352 243.707 99.699 242.363 101.352
 242.363 c 120.195 242.363 l 123.012 242.363 125.363 240.227 125.445 237.602
 c 125.484 236.258 124.992 234.984 124.059 234.023 c 123.121 233.059 121.867
 232.527 120.527 232.527 c 79.367 232.527 l 77.711 232.527 76.367 231.184
 76.367 229.527 c 76.367 192.898 l 76.367 190.305 74.258 188.191 71.66 188.191
 c 69.344 188.191 67.391 189.852 67.016 192.137 c 60.801 230.012 l 60.562
 231.465 59.309 232.527 57.84 232.527 c 56.781 232.527 l 52.602 232.527 
49.195 235.93 49.195 240.113 c 49.195 241.77 47.852 243.113 46.195 243.113
 c 36.867 243.113 l 36.867 280.809 l 46.293 280.809 l 47.801 280.809 49.074
 281.93 49.266 283.426 c 49.75 287.156 52.91 289.863 56.781 289.863 c 112.609
 289.863 l 113.949 289.863 115.203 289.332 116.137 288.371 c 117.07 287.406
 117.562 286.137 117.523 284.793 c 117.445 282.168 115.09 280.027 112.277
 280.027 c 101.352 280.027 l 99.695 280.027 98.352 278.684 98.352 277.027
 c 98.352 275.371 99.695 274.027 101.352 274.027 c 112.277 274.027 l 118.301
 274.027 123.344 278.777 123.52 284.613 c 123.609 287.594 122.516 290.41
 120.445 292.551 c 118.371 294.688 115.59 295.867 112.609 295.867 c h
112.609 295.867 m f
Q Q
showpage
%%Trailer
end
%%EOF
