%!PS-Adobe-3.0 EPSF-3.0
%%Creator: cairo 1.16.0 (https://cairographics.org)
%%CreationDate: Fri Jan 10 07:39:27 2020
%%Pages: 1
%%DocumentData: Clean7Bit
%%LanguageLevel: 2
%%BoundingBox: 3 44 381 340
%%EndComments
%%BeginProlog
50 dict begin
/q { gsave } bind def
/Q { grestore } bind def
/cm { 6 array astore concat } bind def
/w { setlinewidth } bind def
/J { setlinecap } bind def
/j { setlinejoin } bind def
/M { setmiterlimit } bind def
/d { setdash } bind def
/m { moveto } bind def
/l { lineto } bind def
/c { curveto } bind def
/h { closepath } bind def
/re { exch dup neg 3 1 roll 5 3 roll moveto 0 rlineto
      0 exch rlineto 0 rlineto closepath } bind def
/S { stroke } bind def
/f { fill } bind def
/f* { eofill } bind def
/n { newpath } bind def
/W { clip } bind def
/W* { eoclip } bind def
/BT { } bind def
/ET { } bind def
/BDC { mark 3 1 roll /BDC pdfmark } bind def
/EMC { mark /EMC pdfmark } bind def
/cairo_store_point { /cairo_point_y exch def /cairo_point_x exch def } def
/Tj { show currentpoint cairo_store_point } bind def
/TJ {
  {
    dup
    type /stringtype eq
    { show } { -0.001 mul 0 cairo_font_matrix dtransform rmoveto } ifelse
  } forall
  currentpoint cairo_store_point
} bind def
/cairo_selectfont { cairo_font_matrix aload pop pop pop 0 0 6 array astore
    cairo_font exch selectfont cairo_point_x cairo_point_y moveto } bind def
/Tf { pop /cairo_font exch def /cairo_font_matrix where
      { pop cairo_selectfont } if } bind def
/Td { matrix translate cairo_font_matrix matrix concatmatrix dup
      /cairo_font_matrix exch def dup 4 get exch 5 get cairo_store_point
      /cairo_font where { pop cairo_selectfont } if } bind def
/Tm { 2 copy 8 2 roll 6 array astore /cairo_font_matrix exch def
      cairo_store_point /cairo_font where { pop cairo_selectfont } if } bind def
/g { setgray } bind def
/rg { setrgbcolor } bind def
/d1 { setcachedevice } bind def
/cairo_data_source {
  CairoDataIndex CairoData length lt
    { CairoData CairoDataIndex get /CairoDataIndex CairoDataIndex 1 add def }
    { () } ifelse
} def
/cairo_flush_ascii85_file { cairo_ascii85_file status { cairo_ascii85_file flushfile } if } def
/cairo_image { image cairo_flush_ascii85_file } def
/cairo_imagemask { imagemask cairo_flush_ascii85_file } def
%%EndProlog
%%BeginSetup
%%EndSetup
%%Page: 1 1
%%BeginPageSetup
%%PageBoundingBox: 3 44 381 340
%%EndPageSetup
q 3 44 378 296 rectclip
1 0 0 -1 0 384 cm q
0.956863 0.937255 0.929412 rg
364.727 286.977 m 19.273 286.977 l 11.941 286.977 6 281.035 6 273.703 c
 6 61.008 l 6 53.676 11.941 47.734 19.273 47.734 c 364.727 47.734 l 372.059
 47.734 378 53.676 378 61.008 c 378 273.703 l 378 281.035 372.059 286.977
 364.727 286.977 c h
364.727 286.977 m f
0.839216 0.819608 0.811765 rg
364.727 47.734 m 349.727 47.734 l 357.059 47.734 363 53.676 363 61.008 
c 363 273.703 l 363 281.035 357.059 286.977 349.727 286.977 c 364.727 286.977
 l 372.059 286.977 378 281.035 378 273.703 c 378 61.008 l 378 53.676 372.059
 47.734 364.727 47.734 c h
364.727 47.734 m f
1 g
19.273 286.977 m 34.273 286.977 l 26.941 286.977 21 281.035 21 273.703 
c 21 61.008 l 21 53.676 26.941 47.734 34.273 47.734 c 19.273 47.734 l 11.941
 47.734 6 53.676 6 61.008 c 6 273.703 l 6 281.035 11.941 286.977 19.273 
286.977 c h
19.273 286.977 m f
0.321569 0.435294 0.666667 rg
313.352 336.266 m 70.648 336.266 l 70.648 318.484 l 70.648 311.152 76.59
 305.211 83.922 305.211 c 300.078 305.211 l 307.41 305.211 313.352 311.152
 313.352 318.484 c h
313.352 336.266 m f
0.203922 0.317647 0.54902 rg
300.078 305.211 m 285.078 305.211 l 292.41 305.211 298.352 311.152 298.352
 318.484 c 298.352 336.27 l 313.352 336.27 l 313.352 318.484 l 313.352 311.152
 307.41 305.211 300.078 305.211 c h
300.078 305.211 m f
0.439216 0.552941 0.784314 rg
83.922 305.211 m 98.922 305.211 l 91.59 305.211 85.648 311.152 85.648 318.484
 c 85.648 336.27 l 70.648 336.27 l 70.648 318.484 l 70.648 311.152 76.59
 305.211 83.922 305.211 c h
83.922 305.211 m f
0.203922 0.317647 0.54902 rg
120.754 286.977 142.488 18.234 re f
0.411765 0.0196078 0.537255 rg
18 103.539 m 16.344 103.539 15 102.195 15 100.539 c 15 82.539 l 15 80.883
 16.344 79.539 18 79.539 c 19.656 79.539 21 80.883 21 82.539 c 21 100.539
 l 21 102.195 19.656 103.539 18 103.539 c h
18 103.539 m f
313.352 339.266 m 70.648 339.266 l 68.992 339.266 67.648 337.922 67.648
 336.266 c 67.648 318.484 l 67.648 309.512 74.949 302.211 83.926 302.211
 c 300.078 302.211 l 309.051 302.211 316.355 309.512 316.355 318.484 c 316.355
 336.266 l 316.352 337.926 315.008 339.266 313.352 339.266 c h
73.648 333.266 m 310.352 333.266 l 310.352 318.484 l 310.352 312.82 305.742
 308.211 300.078 308.211 c 83.922 308.211 l 78.258 308.211 73.648 312.82
 73.648 318.484 c h
73.648 333.266 m f
263.246 308.211 m 120.754 308.211 l 119.098 308.211 117.754 306.867 117.754
 305.211 c 117.754 286.977 l 117.754 285.324 119.098 283.977 120.754 283.977
 c 263.246 283.977 l 264.902 283.977 266.246 285.324 266.246 286.977 c 266.246
 305.211 l 266.246 306.867 264.902 308.211 263.246 308.211 c h
123.754 302.211 m 260.246 302.211 l 260.246 289.977 l 123.754 289.977 l
 h
123.754 302.211 m f
364.727 289.977 m 19.273 289.977 l 10.301 289.977 3 282.676 3 273.703 c
 3 61.008 l 3 52.035 10.301 44.734 19.273 44.734 c 364.727 44.734 l 373.699
 44.734 381 52.035 381 61.008 c 381 273.703 l 381 282.676 373.699 289.977
 364.727 289.977 c h
19.273 50.734 m 13.609 50.734 9 55.344 9 61.008 c 9 273.703 l 9 279.367
 13.609 283.977 19.273 283.977 c 364.727 283.977 l 370.391 283.977 375 279.367
 375 273.703 c 375 61.008 l 375 55.344 370.391 50.734 364.727 50.734 c h
19.273 50.734 m f
0.988235 0.760784 0.298039 rg
287.031 230.148 m 281.953 230.148 277.836 226.031 277.836 220.957 c 277.836
 176.844 l 277.836 129.512 239.332 91.004 192 91.004 c 144.672 91.004 106.164
 129.512 106.164 176.844 c 106.164 220.957 l 106.164 226.031 102.047 230.148
 96.969 230.148 c 91.891 230.148 87.777 226.031 87.777 220.957 c 87.777 
176.844 l 87.777 119.371 134.531 72.621 192 72.621 c 249.469 72.621 296.223
 119.371 296.223 176.844 c 296.223 220.957 l 296.223 226.031 292.105 230.148
 287.031 230.148 c h
287.031 230.148 m f
0.411765 0.0196078 0.537255 rg
287.031 233.148 m 280.309 233.148 274.836 227.68 274.836 220.957 c 274.836
 176.844 l 274.836 131.164 237.68 94.004 192 94.004 c 146.32 94.004 109.164
 131.164 109.164 176.844 c 109.164 220.957 l 109.164 227.68 103.695 233.148
 96.969 233.148 c 90.246 233.148 84.777 227.68 84.777 220.957 c 84.777 176.844
 l 84.777 117.719 132.875 69.621 192 69.621 c 251.121 69.621 299.219 117.719
 299.219 176.844 c 299.219 220.957 l 299.223 227.676 293.754 233.148 287.031
 233.148 c h
192 88.004 m 240.984 88.004 280.836 127.855 280.836 176.84 c 280.836 220.953
 l 280.836 224.367 283.617 227.148 287.031 227.148 c 290.445 227.148 293.223
 224.367 293.223 220.953 c 293.223 176.84 l 293.223 121.027 247.816 75.621
 192 75.621 c 136.188 75.621 90.781 121.027 90.781 176.84 c 90.781 220.953
 l 90.781 224.367 93.559 227.148 96.973 227.148 c 100.387 227.148 103.164
 224.367 103.164 220.953 c 103.164 176.84 l 103.164 127.855 143.016 88.004
 192 88.004 c h
192 88.004 m f
0.533333 0.321569 0.658824 rg
122.543 262.09 m 112.531 262.09 l 89.812 262.09 71.398 243.672 71.398 220.953
 c 71.398 198.234 89.812 179.82 112.531 179.82 c 122.543 179.82 l h
122.543 262.09 m f
0.65098 0.439216 0.776471 rg
112.531 262.09 m 122.543 262.09 l 122.543 262.039 l 100.75 261 83.398 243.004
 83.398 220.953 c 83.398 198.902 100.75 180.906 122.543 179.867 c 122.543
 179.816 l 112.531 179.816 l 89.812 179.816 71.398 198.234 71.398 220.953
 c 71.398 243.672 89.812 262.09 112.531 262.09 c h
112.531 262.09 m f
0.411765 0.0196078 0.537255 rg
122.543 265.094 m 112.531 265.094 l 88.195 265.094 68.395 245.293 68.395
 220.957 c 68.395 196.621 88.195 176.82 112.531 176.82 c 122.543 176.82 
l 124.199 176.82 125.543 178.164 125.543 179.82 c 125.543 262.094 l 125.543
 263.746 124.199 265.094 122.543 265.094 c h
112.531 182.82 m 91.504 182.82 74.395 199.926 74.395 220.953 c 74.395 241.984
 91.504 259.09 112.531 259.09 c 119.543 259.09 l 119.543 182.816 l 112.531
 182.816 l h
112.531 182.82 m f
0.988235 0.760784 0.298039 rg
137.582 198.949 18.832 56.504 re f
167.582 183.949 18.836 71.504 re f
197.586 198.949 18.832 56.504 re f
227.586 168.949 18.832 86.504 re f
0.411765 0.0196078 0.537255 rg
156.414 258.453 m 137.582 258.453 l 135.926 258.453 134.582 257.109 134.582
 255.453 c 134.582 198.949 l 134.582 197.297 135.926 195.949 137.582 195.949
 c 156.414 195.949 l 158.07 195.949 159.414 197.297 159.414 198.949 c 159.414
 255.453 l 159.414 257.109 158.07 258.453 156.414 258.453 c h
140.582 252.453 m 153.414 252.453 l 153.414 201.949 l 140.582 201.949 l
 h
140.582 252.453 m f
186.414 258.453 m 167.582 258.453 l 165.926 258.453 164.582 257.109 164.582
 255.453 c 164.582 183.949 l 164.582 182.297 165.926 180.949 167.582 180.949
 c 186.414 180.949 l 188.07 180.949 189.414 182.297 189.414 183.949 c 189.414
 255.453 l 189.414 257.109 188.074 258.453 186.414 258.453 c h
170.582 252.453 m 183.418 252.453 l 183.418 186.949 l 170.582 186.949 l
 h
170.582 252.453 m f
216.418 258.453 m 197.582 258.453 l 195.926 258.453 194.582 257.109 194.582
 255.453 c 194.582 198.949 l 194.582 197.297 195.926 195.949 197.582 195.949
 c 216.418 195.949 l 218.074 195.949 219.418 197.297 219.418 198.949 c 219.418
 255.453 l 219.418 257.109 218.074 258.453 216.418 258.453 c h
200.586 252.453 m 213.418 252.453 l 213.418 201.949 l 200.586 201.949 l
 h
200.586 252.453 m f
246.418 258.453 m 227.586 258.453 l 225.93 258.453 224.586 257.109 224.586
 255.453 c 224.586 168.949 l 224.586 167.297 225.93 165.949 227.586 165.949
 c 246.418 165.949 l 248.074 165.949 249.418 167.297 249.418 168.949 c 249.418
 255.453 l 249.418 257.109 248.074 258.453 246.418 258.453 c h
230.586 252.453 m 243.422 252.453 l 243.422 171.949 l 230.586 171.949 l
 h
230.586 252.453 m f
0.533333 0.321569 0.658824 rg
261.457 262.09 m 271.469 262.09 l 294.188 262.09 312.602 243.672 312.602
 220.953 c 312.602 198.234 294.188 179.82 271.469 179.82 c 261.457 179.82
 l h
261.457 262.09 m f
0.415686 0.203922 0.541176 rg
271.469 179.82 m 261.457 179.82 l 261.457 179.871 l 283.25 180.906 300.602
 198.906 300.602 220.957 c 300.602 243.008 283.25 261.004 261.457 262.043
 c 261.457 262.094 l 271.469 262.094 l 294.188 262.094 312.602 243.676 312.602
 220.957 c 312.602 198.234 294.188 179.82 271.469 179.82 c h
271.469 179.82 m f
0.411765 0.0196078 0.537255 rg
271.469 265.094 m 261.457 265.094 l 259.801 265.094 258.457 263.746 258.457
 262.094 c 258.457 179.82 l 258.457 178.164 259.801 176.82 261.457 176.82
 c 271.469 176.82 l 295.805 176.82 315.605 196.617 315.605 220.953 c 315.605
 245.289 295.805 265.094 271.469 265.094 c h
264.457 259.094 m 271.469 259.094 l 292.496 259.094 309.605 241.984 309.605
 220.957 c 309.605 199.926 292.496 182.82 271.469 182.82 c 264.457 182.82
 l h
264.457 259.094 m f
Q Q
showpage
%%Trailer
end
%%EOF
