%!PS-Adobe-3.0 EPSF-3.0
%%Creator: cairo 1.16.0 (https://cairographics.org)
%%CreationDate: Fri Jan 10 07:39:30 2020
%%Pages: 1
%%DocumentData: Clean7Bit
%%LanguageLevel: 2
%%BoundingBox: 21 3 363 381
%%EndComments
%%BeginProlog
50 dict begin
/q { gsave } bind def
/Q { grestore } bind def
/cm { 6 array astore concat } bind def
/w { setlinewidth } bind def
/J { setlinecap } bind def
/j { setlinejoin } bind def
/M { setmiterlimit } bind def
/d { setdash } bind def
/m { moveto } bind def
/l { lineto } bind def
/c { curveto } bind def
/h { closepath } bind def
/re { exch dup neg 3 1 roll 5 3 roll moveto 0 rlineto
      0 exch rlineto 0 rlineto closepath } bind def
/S { stroke } bind def
/f { fill } bind def
/f* { eofill } bind def
/n { newpath } bind def
/W { clip } bind def
/W* { eoclip } bind def
/BT { } bind def
/ET { } bind def
/BDC { mark 3 1 roll /BDC pdfmark } bind def
/EMC { mark /EMC pdfmark } bind def
/cairo_store_point { /cairo_point_y exch def /cairo_point_x exch def } def
/Tj { show currentpoint cairo_store_point } bind def
/TJ {
  {
    dup
    type /stringtype eq
    { show } { -0.001 mul 0 cairo_font_matrix dtransform rmoveto } ifelse
  } forall
  currentpoint cairo_store_point
} bind def
/cairo_selectfont { cairo_font_matrix aload pop pop pop 0 0 6 array astore
    cairo_font exch selectfont cairo_point_x cairo_point_y moveto } bind def
/Tf { pop /cairo_font exch def /cairo_font_matrix where
      { pop cairo_selectfont } if } bind def
/Td { matrix translate cairo_font_matrix matrix concatmatrix dup
      /cairo_font_matrix exch def dup 4 get exch 5 get cairo_store_point
      /cairo_font where { pop cairo_selectfont } if } bind def
/Tm { 2 copy 8 2 roll 6 array astore /cairo_font_matrix exch def
      cairo_store_point /cairo_font where { pop cairo_selectfont } if } bind def
/g { setgray } bind def
/rg { setrgbcolor } bind def
/d1 { setcachedevice } bind def
/cairo_data_source {
  CairoDataIndex CairoData length lt
    { CairoData CairoDataIndex get /CairoDataIndex CairoDataIndex 1 add def }
    { () } ifelse
} def
/cairo_flush_ascii85_file { cairo_ascii85_file status { cairo_ascii85_file flushfile } if } def
/cairo_image { image cairo_flush_ascii85_file } def
/cairo_imagemask { imagemask cairo_flush_ascii85_file } def
%%EndProlog
%%BeginSetup
%%EndSetup
%%Page: 1 1
%%BeginPageSetup
%%PageBoundingBox: 21 3 363 381
%%EndPageSetup
q 21 3 342 378 rectclip
1 0 0 -1 0 384 cm q
0.956863 0.937255 0.929412 rg
220.676 6 m 304.133 6 l 308.754 6 312.504 9.75 312.504 14.375 c 312.504
 66.828 l 312.504 71.453 308.754 75.203 304.133 75.203 c 280.453 75.203 
l 280.453 88.637 l 267.016 75.203 l 220.676 75.203 l 216.051 75.203 212.301
 71.453 212.301 66.828 c 212.301 14.375 l 212.301 9.75 216.051 6 220.676
 6 c h
220.676 6 m f
1 0.623529 0.439216 rg
297.727 128.211 m 271.906 128.211 250.98 149.141 250.98 174.957 c 250.98
 201.879 l 250.98 227.695 271.91 248.625 297.727 248.625 c 323.543 248.625
 344.473 227.695 344.473 201.879 c 344.473 174.957 l 344.473 149.141 323.543
 128.211 297.727 128.211 c h
297.727 128.211 m f
86.273 128.211 m 112.09 128.211 133.02 149.141 133.02 174.957 c 133.02 
201.879 l 133.02 227.695 112.09 248.625 86.273 248.625 c 60.457 248.625 
39.527 227.695 39.527 201.879 c 39.527 174.957 l 39.527 149.141 60.457 128.211
 86.273 128.211 c h
86.273 128.211 m f
0.882353 0.505882 0.321569 rg
297.727 128.211 m 295.734 128.211 293.773 128.352 291.848 128.594 c 314.887
 131.484 332.715 151.133 332.715 174.957 c 332.715 201.879 l 332.715 225.703
 314.887 245.352 291.848 248.246 c 293.773 248.488 295.734 248.625 297.727
 248.625 c 323.543 248.625 344.473 227.695 344.473 201.879 c 344.473 174.957
 l 344.473 149.141 323.543 128.211 297.727 128.211 c h
297.727 128.211 m f
1 0.741176 0.556863 rg
86.273 248.625 m 88.266 248.625 90.223 248.488 92.152 248.246 c 69.109 
245.352 51.285 225.703 51.285 201.879 c 51.285 174.957 l 51.285 151.133 
69.109 131.484 92.152 128.594 c 90.227 128.352 88.266 128.211 86.273 128.211
 c 60.457 128.211 39.527 149.141 39.527 174.957 c 39.527 201.879 l 39.527
 227.695 60.457 248.625 86.273 248.625 c h
86.273 248.625 m f
0.533333 0.321569 0.658824 rg
235.926 378 m 359.523 378 l 359.523 324.395 l 359.523 290.262 331.855 262.598
 297.727 262.598 c 263.594 262.598 235.926 290.262 235.926 324.395 c h
235.926 378 m f
0.321569 0.435294 0.666667 rg
148.074 378 m 24.473 378 l 24.473 324.395 l 24.473 290.262 52.141 262.598
 86.273 262.598 c 120.402 262.598 148.07 290.262 148.07 324.395 c 148.07
 378 l h
148.074 378 m f
0.415686 0.203922 0.541176 rg
297.727 262.598 m 295.238 262.598 292.789 262.758 290.379 263.047 c 321.043
 266.68 344.832 292.754 344.832 324.395 c 344.832 378 l 359.527 378 l 359.527
 324.395 l 359.527 290.266 331.855 262.598 297.727 262.598 c h
297.727 262.598 m f
0.439216 0.552941 0.784314 rg
86.273 262.598 m 88.762 262.598 91.211 262.758 93.621 263.047 c 62.953 
266.68 39.168 292.754 39.168 324.395 c 39.168 378 l 24.473 378 l 24.473 
324.395 l 24.473 290.266 52.145 262.598 86.273 262.598 c h
86.273 262.598 m f
0.411765 0.0196078 0.537255 rg
148.074 381 m 24.473 381 l 22.816 381 21.473 379.656 21.473 378 c 21.473
 324.395 l 21.473 288.664 50.543 259.598 86.273 259.598 c 122.004 259.598
 151.07 288.664 151.07 324.395 c 151.07 378 l 151.074 379.656 149.727 381
 148.074 381 c h
27.473 375 m 145.07 375 l 145.07 324.395 l 145.07 291.973 118.695 265.598
 86.273 265.598 c 53.852 265.598 27.473 291.973 27.473 324.395 c h
27.473 375 m f
86.273 251.625 m 58.844 251.625 36.527 229.312 36.527 201.879 c 36.527 
174.957 l 36.527 147.523 58.844 125.211 86.273 125.211 c 113.703 125.211
 136.02 147.527 136.02 174.957 c 136.02 201.879 l 136.02 229.312 113.703
 251.625 86.273 251.625 c h
86.273 131.211 m 62.152 131.211 42.527 150.836 42.527 174.957 c 42.527 
201.879 l 42.527 226.004 62.152 245.629 86.273 245.629 c 110.395 245.629
 130.02 226.004 130.02 201.879 c 130.02 174.957 l 130.02 150.836 110.395
 131.211 86.273 131.211 c h
86.273 131.211 m f
359.527 381 m 235.93 381 l 234.273 381 232.93 379.656 232.93 378 c 232.93
 324.395 l 232.93 288.664 261.996 259.598 297.727 259.598 c 333.457 259.598
 362.527 288.664 362.527 324.395 c 362.527 378 l 362.527 379.656 361.184
 381 359.527 381 c h
238.926 375 m 356.523 375 l 356.523 324.395 l 356.523 291.973 330.148 265.598
 297.727 265.598 c 265.305 265.598 238.926 291.973 238.926 324.395 c h
238.926 375 m f
297.727 251.625 m 270.297 251.625 247.98 229.312 247.98 201.879 c 247.98
 174.957 l 247.98 147.523 270.297 125.211 297.727 125.211 c 325.156 125.211
 347.473 147.523 347.473 174.957 c 347.473 201.879 l 347.473 229.312 325.156
 251.625 297.727 251.625 c h
297.727 131.211 m 273.605 131.211 253.98 150.836 253.98 174.957 c 253.98
 201.879 l 253.98 226.004 273.605 245.629 297.727 245.629 c 321.848 245.629
 341.473 226.004 341.473 201.879 c 341.473 174.957 l 341.473 150.836 321.848
 131.211 297.727 131.211 c h
297.727 131.211 m f
0.533333 0.321569 0.658824 rg
314.176 378 m 281.277 378 l 281.277 316.973 l 281.277 307.891 288.645 300.523
 297.727 300.523 c 306.812 300.523 314.176 307.887 314.176 316.973 c h
314.176 378 m f
0.411765 0.0196078 0.537255 rg
314.176 381 m 281.277 381 l 279.621 381 278.277 379.656 278.277 378 c 278.277
 316.973 l 278.277 306.25 287 297.527 297.727 297.527 c 308.449 297.527 
317.176 306.25 317.176 316.973 c 317.176 378 l 317.176 379.656 315.832 381
 314.176 381 c h
284.277 375 m 311.176 375 l 311.176 316.973 l 311.176 309.559 305.145 303.527
 297.727 303.527 c 290.312 303.527 284.277 309.559 284.277 316.973 c h
284.277 375 m f
0.321569 0.435294 0.666667 rg
102.723 378 m 69.824 378 l 69.824 316.973 l 69.824 307.891 77.191 300.523
 86.273 300.523 c 95.359 300.523 102.723 307.887 102.723 316.973 c h
102.723 378 m f
0.411765 0.0196078 0.537255 rg
102.723 381 m 69.824 381 l 68.168 381 66.824 379.656 66.824 378 c 66.824
 316.973 l 66.824 306.25 75.551 297.527 86.273 297.527 c 96.996 297.527 
105.723 306.25 105.723 316.973 c 105.723 378 l 105.723 379.656 104.379 381
 102.723 381 c h
72.824 375 m 99.723 375 l 99.723 316.973 l 99.723 309.559 93.688 303.527
 86.273 303.527 c 78.859 303.527 72.824 309.559 72.824 316.973 c h
72.824 375 m f
39.527 346.324 m 37.871 346.324 36.527 344.98 36.527 343.324 c 36.527 325.324
 l 36.527 323.668 37.871 322.324 39.527 322.324 c 41.184 322.324 42.527 
323.668 42.527 325.324 c 42.527 343.324 l 42.527 344.98 41.184 346.324 39.527
 346.324 c h
39.527 346.324 m f
0.956863 0.937255 0.929412 rg
175.762 6 m 92.309 6 l 87.684 6 83.934 9.75 83.934 14.375 c 83.934 66.828
 l 83.934 71.453 87.684 75.203 92.309 75.203 c 115.984 75.203 l 115.984 
88.637 l 129.422 75.203 l 175.762 75.203 l 180.387 75.203 184.137 71.453
 184.137 66.828 c 184.137 14.375 l 184.137 9.75 180.387 6 175.762 6 c h
175.762 6 m f
0.839216 0.819608 0.811765 rg
304.133 6 m 295.133 6 l 299.754 6 303.504 9.75 303.504 14.375 c 303.504
 66.832 l 303.504 71.457 299.754 75.207 295.133 75.207 c 304.133 75.207 
l 308.754 75.207 312.504 71.457 312.504 66.832 c 312.504 14.375 l 312.504
 9.75 308.758 6 304.133 6 c h
304.133 6 m f
1 g
92.309 75.207 m 101.309 75.207 l 96.684 75.207 92.934 71.457 92.934 66.832
 c 92.934 14.375 l 92.934 9.75 96.684 6 101.309 6 c 92.309 6 l 87.684 6 
83.934 9.75 83.934 14.375 c 83.934 66.832 l 83.934 71.457 87.684 75.207 
92.309 75.207 c h
92.309 75.207 m f
0.411765 0.0196078 0.537255 rg
115.984 91.641 m 115.598 91.641 115.211 91.566 114.84 91.41 c 113.719 90.945
 112.988 89.852 112.988 88.641 c 112.988 78.207 l 92.309 78.207 l 86.035
 78.207 80.934 73.102 80.934 66.832 c 80.934 14.375 l 80.934 8.102 86.035
 3 92.309 3 c 175.762 3 l 182.035 3 187.137 8.102 187.137 14.375 c 187.137
 66.828 l 187.137 73.102 182.035 78.203 175.762 78.203 c 130.664 78.203 
l 118.105 90.758 l 117.535 91.336 116.766 91.641 115.984 91.641 c h
92.309 9 m 89.344 9 86.934 11.41 86.934 14.375 c 86.934 66.828 l 86.934
 69.793 89.344 72.203 92.309 72.203 c 115.984 72.203 l 117.641 72.203 118.984
 73.547 118.984 75.203 c 118.984 81.395 l 127.301 73.082 l 127.863 72.52
 128.625 72.203 129.422 72.203 c 175.762 72.203 l 178.727 72.203 181.137
 69.793 181.137 66.828 c 181.137 14.375 l 181.137 11.41 178.727 9 175.762
 9 c h
92.309 9 m f
280.453 91.641 m 279.672 91.641 278.906 91.336 278.332 90.762 c 265.773
 78.207 l 220.676 78.207 l 214.402 78.207 209.301 73.102 209.301 66.832 
c 209.301 14.375 l 209.301 8.102 214.402 3 220.676 3 c 304.133 3 l 310.402
 3 315.504 8.102 315.504 14.375 c 315.504 66.828 l 315.504 73.102 310.402
 78.203 304.133 78.203 c 283.453 78.203 l 283.453 88.637 l 283.453 89.852
 282.723 90.945 281.602 91.41 c 281.23 91.566 280.84 91.641 280.453 91.641
 c h
220.676 9 m 217.711 9 215.301 11.41 215.301 14.375 c 215.301 66.828 l 215.301
 69.793 217.711 72.203 220.676 72.203 c 267.02 72.203 l 267.812 72.203 268.578
 72.52 269.141 73.082 c 277.453 81.395 l 277.453 75.203 l 277.453 73.547
 278.797 72.203 280.453 72.203 c 304.133 72.203 l 307.094 72.203 309.504
 69.793 309.504 66.828 c 309.504 14.375 l 309.504 11.41 307.094 9 304.133
 9 c h
220.676 9 m f
289.629 33.113 m 235.176 33.113 l 233.523 33.113 232.176 31.77 232.176 
30.113 c 232.176 28.457 233.523 27.113 235.176 27.113 c 289.629 27.113 l
 291.285 27.113 292.629 28.457 292.629 30.113 c 292.629 31.77 291.285 33.113
 289.629 33.113 c h
289.629 33.113 m f
289.629 54.699 m 235.176 54.699 l 233.523 54.699 232.176 53.355 232.176
 51.699 c 232.176 50.043 233.523 48.699 235.176 48.699 c 289.629 48.699 
l 291.285 48.699 292.629 50.043 292.629 51.699 c 292.629 53.355 291.285 
54.699 289.629 54.699 c h
289.629 54.699 m f
161.262 33.113 m 106.809 33.113 l 105.152 33.113 103.809 31.77 103.809 
30.113 c 103.809 28.457 105.152 27.113 106.809 27.113 c 161.262 27.113 l
 162.918 27.113 164.262 28.457 164.262 30.113 c 164.262 31.77 162.918 33.113
 161.262 33.113 c h
161.262 33.113 m f
161.262 54.699 m 106.809 54.699 l 105.152 54.699 103.809 53.355 103.809
 51.699 c 103.809 50.043 105.152 48.699 106.809 48.699 c 161.262 48.699 
l 162.918 48.699 164.262 50.043 164.262 51.699 c 164.262 53.355 162.918 
54.699 161.262 54.699 c h
161.262 54.699 m f
0.988235 0.760784 0.298039 rg
239.184 148.105 m 239.184 132.301 l 230.438 132.301 l 229.422 127.332 227.461
 122.711 224.762 118.621 c 230.953 112.43 l 219.777 101.25 l 213.582 107.445
 l 209.492 104.746 204.871 102.781 199.902 101.766 c 199.902 93.02 l 184.098
 93.02 l 184.098 101.766 l 179.129 102.781 174.508 104.746 170.418 107.445
 c 164.223 101.25 l 153.047 112.43 l 159.242 118.621 l 156.543 122.711 154.578
 127.332 153.562 132.301 c 144.816 132.301 l 144.816 148.105 l 153.562 148.105
 l 154.578 153.074 156.543 157.695 159.242 161.785 c 153.047 167.98 l 164.223
 179.156 l 170.418 172.965 l 174.508 175.664 179.129 177.625 184.098 178.641
 c 184.098 187.387 l 199.902 187.387 l 199.902 178.641 l 204.871 177.625
 209.492 175.664 213.582 172.965 c 219.777 179.156 l 230.953 167.98 l 224.762
 161.785 l 227.461 157.695 229.422 153.074 230.438 148.105 c h
192 163.859 m 178.938 163.859 168.344 153.27 168.344 140.203 c 168.344 
127.141 178.934 116.547 192 116.547 c 205.062 116.547 215.656 127.137 215.656
 140.203 c 215.656 153.27 205.062 163.859 192 163.859 c h
192 163.859 m f
0.411765 0.0196078 0.537255 rg
199.902 190.391 m 184.098 190.391 l 182.441 190.391 181.098 189.047 181.098
 187.391 c 181.098 181.016 l 177.512 180.062 174.086 178.641 170.859 176.766
 c 166.344 181.281 l 165.176 182.449 163.273 182.449 162.102 181.281 c 150.926
 170.102 l 149.754 168.93 149.754 167.031 150.926 165.859 c 155.438 161.348
 l 153.566 158.121 152.141 154.695 151.188 151.109 c 144.816 151.109 l 143.16
 151.109 141.816 149.766 141.816 148.109 c 141.816 132.301 l 141.816 130.645
 143.16 129.301 144.816 129.301 c 151.188 129.301 l 152.145 125.715 153.566
 122.289 155.438 119.062 c 150.926 114.551 l 150.363 113.988 150.047 113.223
 150.047 112.43 c 150.047 111.633 150.363 110.871 150.926 110.309 c 162.102
 99.129 l 163.273 97.961 165.176 97.961 166.344 99.129 c 170.859 103.645
 l 174.082 101.77 177.512 100.348 181.098 99.395 c 181.098 93.02 l 181.098
 91.363 182.441 90.02 184.098 90.02 c 199.902 90.02 l 201.559 90.02 202.902
 91.363 202.902 93.02 c 202.902 99.395 l 206.488 100.348 209.918 101.77 
213.141 103.645 c 217.656 99.129 l 218.824 97.961 220.727 97.961 221.898
 99.129 c 233.074 110.309 l 233.637 110.871 233.953 111.633 233.953 112.43
 c 233.953 113.223 233.637 113.988 233.074 114.551 c 228.562 119.062 l 230.434
 122.289 231.859 125.719 232.812 129.301 c 239.184 129.301 l 240.84 129.301
 242.184 130.645 242.184 132.301 c 242.184 148.109 l 242.184 149.766 240.84
 151.109 239.184 151.109 c 232.812 151.109 l 231.855 154.695 230.434 158.121
 228.562 161.348 c 233.074 165.859 l 234.246 167.031 234.246 168.93 233.074
 170.102 c 221.898 181.281 l 220.727 182.449 218.824 182.449 217.656 181.281
 c 213.141 176.766 l 209.914 178.641 206.488 180.062 202.902 181.016 c 202.902
 187.391 l 202.902 189.047 201.559 190.391 199.902 190.391 c h
187.098 184.391 m 196.902 184.391 l 196.902 178.641 l 196.902 177.215 197.906
 175.988 199.301 175.703 c 203.809 174.781 208.059 173.016 211.93 170.461
 c 213.121 169.676 214.699 169.836 215.703 170.844 c 219.777 174.914 l 226.711
 167.98 l 222.641 163.906 l 221.633 162.898 221.473 161.32 222.258 160.133
 c 224.816 156.258 226.578 152.012 227.5 147.504 c 227.785 146.109 229.016
 145.105 230.438 145.105 c 236.188 145.105 l 236.188 135.297 l 230.438 135.297
 l 229.016 135.297 227.785 134.297 227.5 132.898 c 226.578 128.395 224.816
 124.145 222.258 120.273 c 221.473 119.082 221.633 117.504 222.641 116.496
 c 226.711 112.426 l 219.777 105.492 l 215.703 109.562 l 214.699 110.57 
213.121 110.73 211.93 109.945 c 208.059 107.387 203.809 105.625 199.301 
104.703 c 197.906 104.418 196.902 103.191 196.902 101.766 c 196.902 96.02
 l 187.098 96.02 l 187.098 101.766 l 187.098 103.191 186.094 104.418 184.699
 104.703 c 180.191 105.625 175.941 107.391 172.07 109.945 c 170.883 110.734
 169.305 110.57 168.297 109.562 c 164.223 105.492 l 157.289 112.426 l 161.359
 116.496 l 162.367 117.504 162.527 119.082 161.742 120.273 c 159.188 124.145
 157.422 128.395 156.5 132.898 c 156.215 134.297 154.988 135.297 153.562
 135.297 c 147.816 135.297 l 147.816 145.105 l 153.562 145.105 l 154.988
 145.105 156.215 146.109 156.5 147.504 c 157.422 152.012 159.188 156.258
 161.742 160.133 c 162.527 161.32 162.367 162.898 161.359 163.906 c 157.289
 167.98 l 164.223 174.914 l 168.297 170.844 l 169.305 169.836 170.883 169.676
 172.07 170.461 c 175.945 173.016 180.195 174.781 184.699 175.703 c 186.094
 175.988 187.098 177.215 187.098 178.641 c h
192 166.859 m 177.305 166.859 165.344 154.902 165.344 140.203 c 165.344
 125.504 177.305 113.551 192 113.551 c 206.695 113.551 218.656 125.508 218.656
 140.203 c 218.656 154.902 206.695 166.859 192 166.859 c h
192 119.551 m 180.609 119.551 171.344 128.816 171.344 140.203 c 171.344
 151.594 180.609 160.859 192 160.859 c 203.391 160.859 212.656 151.594 212.656
 140.203 c 212.656 128.816 203.391 119.551 192 119.551 c h
192 119.551 m f
Q Q
showpage
%%Trailer
end
%%EOF
