%!PS-Adobe-3.0 EPSF-3.0
%%Creator: cairo 1.16.0 (https://cairographics.org)
%%CreationDate: Fri Jan 10 07:39:31 2020
%%Pages: 1
%%DocumentData: Clean7Bit
%%LanguageLevel: 2
%%BoundingBox: 64 3 320 381
%%EndComments
%%BeginProlog
50 dict begin
/q { gsave } bind def
/Q { grestore } bind def
/cm { 6 array astore concat } bind def
/w { setlinewidth } bind def
/J { setlinecap } bind def
/j { setlinejoin } bind def
/M { setmiterlimit } bind def
/d { setdash } bind def
/m { moveto } bind def
/l { lineto } bind def
/c { curveto } bind def
/h { closepath } bind def
/re { exch dup neg 3 1 roll 5 3 roll moveto 0 rlineto
      0 exch rlineto 0 rlineto closepath } bind def
/S { stroke } bind def
/f { fill } bind def
/f* { eofill } bind def
/n { newpath } bind def
/W { clip } bind def
/W* { eoclip } bind def
/BT { } bind def
/ET { } bind def
/BDC { mark 3 1 roll /BDC pdfmark } bind def
/EMC { mark /EMC pdfmark } bind def
/cairo_store_point { /cairo_point_y exch def /cairo_point_x exch def } def
/Tj { show currentpoint cairo_store_point } bind def
/TJ {
  {
    dup
    type /stringtype eq
    { show } { -0.001 mul 0 cairo_font_matrix dtransform rmoveto } ifelse
  } forall
  currentpoint cairo_store_point
} bind def
/cairo_selectfont { cairo_font_matrix aload pop pop pop 0 0 6 array astore
    cairo_font exch selectfont cairo_point_x cairo_point_y moveto } bind def
/Tf { pop /cairo_font exch def /cairo_font_matrix where
      { pop cairo_selectfont } if } bind def
/Td { matrix translate cairo_font_matrix matrix concatmatrix dup
      /cairo_font_matrix exch def dup 4 get exch 5 get cairo_store_point
      /cairo_font where { pop cairo_selectfont } if } bind def
/Tm { 2 copy 8 2 roll 6 array astore /cairo_font_matrix exch def
      cairo_store_point /cairo_font where { pop cairo_selectfont } if } bind def
/g { setgray } bind def
/rg { setrgbcolor } bind def
/d1 { setcachedevice } bind def
/cairo_data_source {
  CairoDataIndex CairoData length lt
    { CairoData CairoDataIndex get /CairoDataIndex CairoDataIndex 1 add def }
    { () } ifelse
} def
/cairo_flush_ascii85_file { cairo_ascii85_file status { cairo_ascii85_file flushfile } if } def
/cairo_image { image cairo_flush_ascii85_file } def
/cairo_imagemask { imagemask cairo_flush_ascii85_file } def
%%EndProlog
%%BeginSetup
%%EndSetup
%%Page: 1 1
%%BeginPageSetup
%%PageBoundingBox: 64 3 320 381
%%EndPageSetup
q 64 3 256 378 rectclip
1 0 0 -1 0 384 cm q
0.956863 0.937255 0.929412 rg
301.406 378 m 82.594 378 l 74.309 378 67.594 371.285 67.594 363 c 67.594
 21 l 67.594 12.715 74.309 6 82.594 6 c 301.406 6 l 309.691 6 316.406 12.715
 316.406 21 c 316.406 363 l 316.406 371.285 309.691 378 301.406 378 c h
301.406 378 m f
0.321569 0.435294 0.666667 rg
192 264.609 m 129.121 228.305 l 100.484 244.836 l 192 297.672 l 283.516
 244.836 l 254.879 228.305 l h
192 264.609 m f
0.988235 0.760784 0.298039 rg
192 86.328 m 192 119.391 l 254.879 155.695 l 254.879 228.305 l 283.516 
244.836 l 283.516 139.164 l h
192 86.328 m f
0.533333 0.321569 0.658824 rg
129.121 155.695 m 192 119.391 l 192 86.328 l 100.484 139.164 l 100.484 
244.836 l 129.121 228.305 l h
129.121 155.695 m f
0.839216 0.819608 0.811765 rg
301.406 6 m 286.406 6 l 294.691 6 301.406 12.715 301.406 21 c 301.406 363
 l 301.406 371.285 294.691 378 286.406 378 c 301.406 378 l 309.691 378 316.406
 371.285 316.406 363 c 316.406 21 l 316.406 12.715 309.691 6 301.406 6 c
 h
301.406 6 m f
1 g
82.594 378 m 97.594 378 l 89.309 378 82.594 371.285 82.594 363 c 82.594
 21 l 82.594 12.715 89.309 6 97.594 6 c 82.594 6 l 74.309 6 67.594 12.715
 67.594 21 c 67.594 363 l 67.594 371.285 74.309 378 82.594 378 c h
82.594 378 m f
0.321569 0.435294 0.666667 rg
239.777 41.418 m 144.219 41.418 l 138.195 41.418 132.758 37.812 130.41 
32.266 c 119.285 6 l 264.715 6 l 253.59 32.266 l 251.242 37.812 245.801 
41.418 239.777 41.418 c h
239.777 41.418 m f
0.411765 0.0196078 0.537255 rg
301.406 381 m 82.594 381 l 72.668 381 64.594 372.926 64.594 363 c 64.594
 21 l 64.594 11.074 72.668 3 82.594 3 c 301.406 3 l 311.332 3 319.406 11.074
 319.406 21 c 319.406 363 l 319.406 372.926 311.336 381 301.406 381 c h
82.594 9 m 75.977 9 70.594 14.383 70.594 21 c 70.594 363 l 70.594 369.617
 75.977 375 82.594 375 c 301.406 375 l 308.023 375 313.406 369.617 313.406
 363 c 313.406 21 l 313.406 14.383 308.023 9 301.406 9 c h
82.594 9 m f
82.594 63.496 m 80.938 63.496 79.594 62.152 79.594 60.496 c 79.594 42.496
 l 79.594 40.84 80.938 39.496 82.594 39.496 c 84.25 39.496 85.594 40.84 
85.594 42.496 c 85.594 60.496 l 85.594 62.152 84.25 63.496 82.594 63.496
 c h
82.594 63.496 m f
239.781 44.418 m 144.219 44.418 l 136.977 44.418 130.469 40.105 127.645
 33.438 c 116.523 7.172 l 116.129 6.242 116.227 5.184 116.781 4.344 c 117.34
 3.504 118.277 3 119.285 3 c 264.719 3 l 265.723 3 266.664 3.504 267.219
 4.344 c 267.773 5.184 267.871 6.246 267.48 7.172 c 256.355 33.438 l 253.527
 40.105 247.023 44.418 239.781 44.418 c h
123.812 9 m 133.172 31.098 l 135.055 35.543 139.391 38.418 144.219 38.418
 c 239.777 38.418 l 244.605 38.418 248.941 35.543 250.828 31.098 c 260.188
 9 l h
123.812 9 m f
192 300.672 m 191.484 300.672 190.965 300.539 190.5 300.273 c 98.984 247.434
 l 98.055 246.898 97.484 245.906 97.484 244.836 c 97.484 243.766 98.055 
242.773 98.984 242.238 c 127.621 225.703 l 128.547 225.168 129.691 225.168
 130.621 225.703 c 192 261.141 l 253.379 225.703 l 254.309 225.168 255.453
 225.168 256.379 225.703 c 285.016 242.238 l 285.945 242.773 286.516 243.766
 286.516 244.836 c 286.516 245.906 285.945 246.898 285.016 247.434 c 193.5
 300.273 l 193.035 300.539 192.516 300.672 192 300.672 c h
106.484 244.836 m 192 294.211 l 277.516 244.836 l 254.879 231.77 l 193.5
 267.207 l 192.57 267.742 191.43 267.742 190.5 267.207 c 129.121 231.77 
l h
106.484 244.836 m f
283.516 247.836 m 282.996 247.836 282.48 247.703 282.016 247.434 c 253.379
 230.902 l 252.453 230.367 251.879 229.375 251.879 228.305 c 251.879 157.43
 l 190.5 121.992 l 189.57 121.453 189 120.465 189 119.391 c 189 86.328 l
 189 85.254 189.57 84.266 190.5 83.727 c 191.43 83.191 192.57 83.191 193.5
 83.727 c 285.016 136.566 l 285.945 137.102 286.516 138.094 286.516 139.164
 c 286.516 244.836 l 286.516 245.91 285.945 246.898 285.016 247.434 c 284.551
 247.703 284.035 247.836 283.516 247.836 c h
257.879 226.57 m 280.516 239.641 l 280.516 140.895 l 195 91.523 l 195 117.66
 l 256.379 153.098 l 257.309 153.633 257.879 154.625 257.879 155.695 c h
257.879 226.57 m f
100.484 247.836 m 99.965 247.836 99.449 247.703 98.984 247.434 c 98.055
 246.898 97.484 245.91 97.484 244.836 c 97.484 139.164 l 97.484 138.09 98.055
 137.102 98.984 136.566 c 190.5 83.727 l 191.43 83.191 192.57 83.191 193.5
 83.727 c 194.43 84.266 195 85.254 195 86.328 c 195 119.391 l 195 120.465
 194.43 121.453 193.5 121.992 c 132.121 157.43 l 132.121 228.305 l 132.121
 229.375 131.547 230.367 130.621 230.902 c 101.984 247.434 l 101.52 247.703
 101 247.836 100.484 247.836 c h
103.484 140.895 m 103.484 239.641 l 126.121 226.57 l 126.121 155.695 l 
126.121 154.625 126.691 153.633 127.621 153.098 c 189 117.66 l 189 91.523
 l h
129.121 228.305 m 129.137 228.305 l h
129.121 228.305 m f
164.652 218.004 m 152.691 218.004 143.18 208.344 143.18 196.531 c 143.18
 170.086 l 143.18 167.781 144.965 166 147.266 166 c 149.496 166 151.43 167.781
 151.43 170.086 c 151.43 196.531 l 151.43 203.812 157.371 209.758 164.652
 209.758 c 172.008 209.758 177.875 203.812 177.875 196.531 c 177.875 170.086
 l 177.875 167.781 179.73 166 182.035 166 c 184.34 166 186.121 167.781 186.121
 170.086 c 186.121 196.531 l 186.121 208.344 176.539 218.004 164.652 218.004
 c h
164.652 218.004 m f
240.051 173.055 m 225.934 192.223 l 240.051 211.539 l 241.312 213.324 241.016
 215.922 239.16 217.184 c 238.414 217.707 237.602 218.004 236.781 218.004
 c 235.445 218.004 234.258 217.332 233.438 216.293 c 220.957 199.133 l 208.402
 216.293 l 207.586 217.336 206.398 218.004 205.133 218.004 c 204.242 218.004
 203.426 217.707 202.758 217.184 c 200.898 215.922 200.527 213.324 201.793
 211.539 c 215.906 192.223 l 201.793 173.055 l 200.527 171.199 200.898 168.672
 202.758 167.41 c 204.539 166 207.141 166.371 208.402 168.301 c 220.957 
185.387 l 233.438 168.301 l 234.852 166.371 237.301 165.996 239.16 167.41
 c 241.016 168.672 241.312 171.199 240.051 173.055 c h
240.051 173.055 m f
Q Q
showpage
%%Trailer
end
%%EOF
