%!PS-Adobe-3.0 EPSF-3.0
%%Creator: cairo 1.16.0 (https://cairographics.org)
%%CreationDate: Fri Jan 10 07:39:32 2020
%%Pages: 1
%%DocumentData: Clean7Bit
%%LanguageLevel: 2
%%BoundingBox: 3 50 381 334
%%EndComments
%%BeginProlog
50 dict begin
/q { gsave } bind def
/Q { grestore } bind def
/cm { 6 array astore concat } bind def
/w { setlinewidth } bind def
/J { setlinecap } bind def
/j { setlinejoin } bind def
/M { setmiterlimit } bind def
/d { setdash } bind def
/m { moveto } bind def
/l { lineto } bind def
/c { curveto } bind def
/h { closepath } bind def
/re { exch dup neg 3 1 roll 5 3 roll moveto 0 rlineto
      0 exch rlineto 0 rlineto closepath } bind def
/S { stroke } bind def
/f { fill } bind def
/f* { eofill } bind def
/n { newpath } bind def
/W { clip } bind def
/W* { eoclip } bind def
/BT { } bind def
/ET { } bind def
/BDC { mark 3 1 roll /BDC pdfmark } bind def
/EMC { mark /EMC pdfmark } bind def
/cairo_store_point { /cairo_point_y exch def /cairo_point_x exch def } def
/Tj { show currentpoint cairo_store_point } bind def
/TJ {
  {
    dup
    type /stringtype eq
    { show } { -0.001 mul 0 cairo_font_matrix dtransform rmoveto } ifelse
  } forall
  currentpoint cairo_store_point
} bind def
/cairo_selectfont { cairo_font_matrix aload pop pop pop 0 0 6 array astore
    cairo_font exch selectfont cairo_point_x cairo_point_y moveto } bind def
/Tf { pop /cairo_font exch def /cairo_font_matrix where
      { pop cairo_selectfont } if } bind def
/Td { matrix translate cairo_font_matrix matrix concatmatrix dup
      /cairo_font_matrix exch def dup 4 get exch 5 get cairo_store_point
      /cairo_font where { pop cairo_selectfont } if } bind def
/Tm { 2 copy 8 2 roll 6 array astore /cairo_font_matrix exch def
      cairo_store_point /cairo_font where { pop cairo_selectfont } if } bind def
/g { setgray } bind def
/rg { setrgbcolor } bind def
/d1 { setcachedevice } bind def
/cairo_data_source {
  CairoDataIndex CairoData length lt
    { CairoData CairoDataIndex get /CairoDataIndex CairoDataIndex 1 add def }
    { () } ifelse
} def
/cairo_flush_ascii85_file { cairo_ascii85_file status { cairo_ascii85_file flushfile } if } def
/cairo_image { image cairo_flush_ascii85_file } def
/cairo_imagemask { imagemask cairo_flush_ascii85_file } def
%%EndProlog
%%BeginSetup
%%EndSetup
%%Page: 1 1
%%BeginPageSetup
%%PageBoundingBox: 3 50 381 334
%%EndPageSetup
q 3 50 378 284 rectclip
1 0 0 -1 0 384 cm q
0.956863 0.937255 0.929412 rg
6 53.715 372 276.574 re f
0.839216 0.819608 0.811765 rg
363 53.715 15 276.574 re f
1 g
6 53.715 15 276.574 re f
0.321569 0.435294 0.666667 rg
170.047 125.492 m 170.047 141.969 156.691 155.328 140.215 155.328 c 123.738
 155.328 110.379 141.969 110.379 125.492 c 110.379 109.016 123.738 95.66
 140.215 95.66 c 156.691 95.66 170.047 109.016 170.047 125.492 c h
170.047 125.492 m f
229.715 125.492 m 229.715 141.969 216.359 155.328 199.883 155.328 c 183.406
 155.328 170.047 141.969 170.047 125.492 c 170.047 109.016 183.406 95.66
 199.883 95.66 c 216.359 95.66 229.715 109.016 229.715 125.492 c h
229.715 125.492 m f
0.988235 0.760784 0.298039 rg
151.137 125.492 m 151.137 131.523 146.246 136.414 140.215 136.414 c 134.184
 136.414 129.293 131.523 129.293 125.492 c 129.293 119.461 134.184 114.57
 140.215 114.57 c 146.246 114.57 151.137 119.461 151.137 125.492 c h
151.137 125.492 m f
210.801 125.492 m 210.801 131.523 205.914 136.414 199.883 136.414 c 193.848
 136.414 188.961 131.523 188.961 125.492 c 188.961 119.461 193.848 114.57
 199.883 114.57 c 205.914 114.57 210.801 119.461 210.801 125.492 c h
210.801 125.492 m f
0.321569 0.435294 0.666667 rg
225.059 254.219 m 115.035 254.219 l 110.895 254.219 107.535 250.859 107.535
 246.719 c 107.535 162.824 l 107.535 158.684 110.895 155.324 115.035 155.324
 c 225.059 155.324 l 229.199 155.324 232.559 158.684 232.559 162.824 c 232.559
 246.719 l 232.559 250.859 229.203 254.219 225.059 254.219 c h
225.059 254.219 m f
276.465 256.258 m 232.559 233.156 l 232.559 177.699 l 276.465 154.598 l
 h
276.465 256.258 m f
0.956863 0.937255 0.929412 rg
149.949 204.77 m 149.949 181.566 l 190.145 204.77 l 170.047 216.375 l 149.949
 227.977 l h
149.949 204.77 m f
0.411765 0.0196078 0.537255 rg
378 333.285 m 6 333.285 l 4.344 333.285 3 331.941 3 330.285 c 3 53.715 
l 3 52.059 4.344 50.715 6 50.715 c 378 50.715 l 379.656 50.715 381 52.059
 381 53.715 c 381 330.289 l 381 331.945 379.656 333.285 378 333.285 c h
9 327.285 m 375 327.285 l 375 56.715 l 9 56.715 l h
9 327.285 m f
18 154.578 m 16.344 154.578 15 153.234 15 151.578 c 15 133.578 l 15 131.922
 16.344 130.578 18 130.578 c 19.656 130.578 21 131.922 21 133.578 c 21 151.578
 l 21 153.234 19.656 154.578 18 154.578 c h
18 154.578 m f
140.215 158.328 m 122.109 158.328 107.379 143.598 107.379 125.492 c 107.379
 107.391 122.109 92.66 140.215 92.66 c 158.32 92.66 173.051 107.387 173.051
 125.492 c 173.047 143.598 158.32 158.328 140.215 158.328 c h
140.215 98.66 m 125.418 98.66 113.379 110.695 113.379 125.492 c 113.379
 140.289 125.418 152.328 140.215 152.328 c 155.012 152.328 167.051 140.289
 167.051 125.492 c 167.047 110.695 155.012 98.66 140.215 98.66 c h
140.215 98.66 m f
140.215 139.414 m 132.539 139.414 126.293 133.168 126.293 125.492 c 126.293
 117.816 132.539 111.57 140.215 111.57 c 147.891 111.57 154.137 117.816 
154.137 125.492 c 154.137 133.168 147.891 139.414 140.215 139.414 c h
140.215 117.57 m 135.848 117.57 132.293 121.125 132.293 125.492 c 132.293
 129.859 135.848 133.414 140.215 133.414 c 144.582 133.414 148.137 129.859
 148.137 125.492 c 148.137 121.125 144.582 117.57 140.215 117.57 c h
140.215 117.57 m f
199.883 139.414 m 192.203 139.414 185.961 133.168 185.961 125.492 c 185.961
 117.816 192.203 111.57 199.883 111.57 c 207.559 111.57 213.801 117.816 
213.801 125.492 c 213.801 133.168 207.559 139.414 199.883 139.414 c h
199.883 117.57 m 195.512 117.57 191.961 121.125 191.961 125.492 c 191.961
 129.859 195.512 133.414 199.883 133.414 c 204.25 133.414 207.801 129.859
 207.801 125.492 c 207.801 121.125 204.25 117.57 199.883 117.57 c h
199.883 117.57 m f
199.883 158.328 m 181.777 158.328 167.047 143.598 167.047 125.492 c 167.047
 107.391 181.777 92.66 199.883 92.66 c 217.984 92.66 232.715 107.387 232.715
 125.492 c 232.715 143.598 217.984 158.328 199.883 158.328 c h
199.883 98.66 m 185.086 98.66 173.047 110.695 173.047 125.492 c 173.047
 140.289 185.082 152.328 199.883 152.328 c 214.68 152.328 226.715 140.289
 226.715 125.492 c 226.715 110.695 214.676 98.66 199.883 98.66 c h
199.883 98.66 m f
225.059 257.219 m 115.035 257.219 l 109.246 257.219 104.535 252.508 104.535
 246.719 c 104.535 162.828 l 104.535 157.035 109.246 152.328 115.035 152.328
 c 225.059 152.328 l 230.848 152.328 235.559 157.035 235.559 162.828 c 235.559
 246.719 l 235.559 252.508 230.848 257.219 225.059 257.219 c h
115.035 158.328 m 112.555 158.328 110.535 160.344 110.535 162.828 c 110.535
 246.719 l 110.535 249.199 112.555 251.219 115.035 251.219 c 225.059 251.219
 l 227.539 251.219 229.559 249.199 229.559 246.719 c 229.559 162.828 l 229.559
 160.344 227.539 158.328 225.059 158.328 c h
115.035 158.328 m f
276.465 259.258 m 275.988 259.258 275.504 259.145 275.066 258.91 c 231.16
 235.809 l 230.176 235.293 229.559 234.27 229.559 233.156 c 229.559 177.699
 l 229.559 176.586 230.176 175.566 231.16 175.047 c 275.066 151.945 l 275.996
 151.453 277.117 151.488 278.016 152.031 c 278.914 152.574 279.465 153.547
 279.465 154.598 c 279.465 256.258 l 279.465 257.309 278.914 258.281 278.016
 258.824 c 277.539 259.113 277.004 259.258 276.465 259.258 c h
235.559 231.344 m 273.465 251.289 l 273.465 159.566 l 235.559 179.512 l
 h
235.559 231.344 m f
149.953 230.977 m 149.434 230.977 148.918 230.844 148.453 230.574 c 147.523
 230.039 146.953 229.047 146.953 227.977 c 146.953 181.566 l 146.953 180.496
 147.523 179.504 148.453 178.969 c 149.379 178.434 150.523 178.434 151.453
 178.969 c 191.645 202.176 l 192.574 202.711 193.145 203.703 193.145 204.773
 c 193.145 205.844 192.574 206.836 191.645 207.371 c 151.453 230.574 l 150.988
 230.844 150.469 230.977 149.953 230.977 c h
152.953 186.762 m 152.953 222.781 l 184.145 204.77 l h
152.953 186.762 m f
0.533333 0.321569 0.658824 rg
6 283.117 372 47.172 re f
0.415686 0.203922 0.541176 rg
363 283.117 15 47.172 re f
0.65098 0.439216 0.776471 rg
6 283.117 15 47.172 re f
0.988235 0.760784 0.298039 rg
55.477 306.703 m 55.477 311.691 51.43 315.738 46.441 315.738 c 41.449 315.738
 37.402 311.691 37.402 306.703 c 37.402 301.711 41.449 297.664 46.441 297.664
 c 51.43 297.664 55.477 301.711 55.477 306.703 c h
55.477 306.703 m f
0.411765 0.0196078 0.537255 rg
378 333.285 m 6 333.285 l 4.344 333.285 3 331.941 3 330.285 c 3 283.117
 l 3 281.461 4.344 280.117 6 280.117 c 378 280.117 l 379.656 280.117 381
 281.461 381 283.117 c 381 330.285 l 381 331.945 379.656 333.285 378 333.285
 c h
9 327.285 m 375 327.285 l 375 286.117 l 9 286.117 l h
9 327.285 m f
46.441 318.742 m 39.801 318.742 34.402 313.34 34.402 306.703 c 34.402 300.066
 39.805 294.664 46.441 294.664 c 53.078 294.664 58.48 300.066 58.48 306.703
 c 58.48 313.34 53.078 318.742 46.441 318.742 c h
46.441 300.664 m 43.113 300.664 40.402 303.371 40.402 306.699 c 40.402 
310.027 43.113 312.738 46.441 312.738 c 49.77 312.738 52.48 310.031 52.48
 306.699 c 52.48 303.371 49.773 300.664 46.441 300.664 c h
46.441 300.664 m f
346.598 309.703 m 72.344 309.703 l 70.688 309.703 69.344 308.359 69.344
 306.703 c 69.344 305.047 70.688 303.703 72.344 303.703 c 346.598 303.703
 l 348.254 303.703 349.598 305.047 349.598 306.703 c 349.598 308.359 348.254
 309.703 346.598 309.703 c h
346.598 309.703 m f
Q Q
showpage
%%Trailer
end
%%EOF
