%!PS-Adobe-3.0 EPSF-3.0
%%Creator: cairo 1.16.0 (https://cairographics.org)
%%CreationDate: Fri Jan 10 07:39:33 2020
%%Pages: 1
%%DocumentData: Clean7Bit
%%LanguageLevel: 2
%%BoundingBox: 3 3 381 381
%%EndComments
%%BeginProlog
50 dict begin
/q { gsave } bind def
/Q { grestore } bind def
/cm { 6 array astore concat } bind def
/w { setlinewidth } bind def
/J { setlinecap } bind def
/j { setlinejoin } bind def
/M { setmiterlimit } bind def
/d { setdash } bind def
/m { moveto } bind def
/l { lineto } bind def
/c { curveto } bind def
/h { closepath } bind def
/re { exch dup neg 3 1 roll 5 3 roll moveto 0 rlineto
      0 exch rlineto 0 rlineto closepath } bind def
/S { stroke } bind def
/f { fill } bind def
/f* { eofill } bind def
/n { newpath } bind def
/W { clip } bind def
/W* { eoclip } bind def
/BT { } bind def
/ET { } bind def
/BDC { mark 3 1 roll /BDC pdfmark } bind def
/EMC { mark /EMC pdfmark } bind def
/cairo_store_point { /cairo_point_y exch def /cairo_point_x exch def } def
/Tj { show currentpoint cairo_store_point } bind def
/TJ {
  {
    dup
    type /stringtype eq
    { show } { -0.001 mul 0 cairo_font_matrix dtransform rmoveto } ifelse
  } forall
  currentpoint cairo_store_point
} bind def
/cairo_selectfont { cairo_font_matrix aload pop pop pop 0 0 6 array astore
    cairo_font exch selectfont cairo_point_x cairo_point_y moveto } bind def
/Tf { pop /cairo_font exch def /cairo_font_matrix where
      { pop cairo_selectfont } if } bind def
/Td { matrix translate cairo_font_matrix matrix concatmatrix dup
      /cairo_font_matrix exch def dup 4 get exch 5 get cairo_store_point
      /cairo_font where { pop cairo_selectfont } if } bind def
/Tm { 2 copy 8 2 roll 6 array astore /cairo_font_matrix exch def
      cairo_store_point /cairo_font where { pop cairo_selectfont } if } bind def
/g { setgray } bind def
/rg { setrgbcolor } bind def
/d1 { setcachedevice } bind def
/cairo_data_source {
  CairoDataIndex CairoData length lt
    { CairoData CairoDataIndex get /CairoDataIndex CairoDataIndex 1 add def }
    { () } ifelse
} def
/cairo_flush_ascii85_file { cairo_ascii85_file status { cairo_ascii85_file flushfile } if } def
/cairo_image { image cairo_flush_ascii85_file } def
/cairo_imagemask { imagemask cairo_flush_ascii85_file } def
%%EndProlog
%%BeginSetup
%%EndSetup
%%Page: 1 1
%%BeginPageSetup
%%PageBoundingBox: 3 3 381 381
%%EndPageSetup
q 3 3 378 378 rectclip
1 0 0 -1 0 384 cm q
0.956863 0.937255 0.929412 rg
301.406 378 m 82.594 378 l 74.309 378 67.594 371.285 67.594 363 c 67.594
 21 l 67.594 12.715 74.309 6 82.594 6 c 301.406 6 l 309.691 6 316.406 12.715
 316.406 21 c 316.406 363 l 316.406 371.285 309.691 378 301.406 378 c h
301.406 378 m f
0.321569 0.435294 0.666667 rg
197.996 319.969 m 208.637 323.207 214.641 334.457 211.406 345.102 c 208.168
 355.742 196.918 361.746 186.273 358.512 c 175.633 355.273 169.629 344.023
 172.863 333.379 c 176.102 322.738 187.352 316.734 197.996 319.969 c h
197.996 319.969 m f
0.839216 0.819608 0.811765 rg
301.406 6 m 286.406 6 l 294.691 6 301.406 12.715 301.406 21 c 301.406 363
 l 301.406 371.285 294.691 378 286.406 378 c 301.406 378 l 309.691 378 316.406
 371.285 316.406 363 c 316.406 21 l 316.406 12.715 309.691 6 301.406 6 c
 h
301.406 6 m f
1 g
82.594 378 m 97.594 378 l 89.309 378 82.594 371.285 82.594 363 c 82.594
 21 l 82.594 12.715 89.309 6 97.594 6 c 82.594 6 l 74.309 6 67.594 12.715
 67.594 21 c 67.594 363 l 67.594 371.285 74.309 378 82.594 378 c h
82.594 378 m f
0.321569 0.435294 0.666667 rg
239.777 41.418 m 144.219 41.418 l 138.195 41.418 132.758 37.812 130.41 
32.266 c 119.285 6 l 264.715 6 l 253.59 32.266 l 251.242 37.812 245.801 
41.418 239.777 41.418 c h
239.777 41.418 m f
0.411765 0.0196078 0.537255 rg
301.406 381 m 82.594 381 l 72.668 381 64.594 372.926 64.594 363 c 64.594
 21 l 64.594 11.074 72.668 3 82.594 3 c 301.406 3 l 311.332 3 319.406 11.074
 319.406 21 c 319.406 363 l 319.406 372.926 311.336 381 301.406 381 c h
82.594 9 m 75.977 9 70.594 14.383 70.594 21 c 70.594 363 l 70.594 369.617
 75.977 375 82.594 375 c 301.406 375 l 308.023 375 313.406 369.617 313.406
 363 c 313.406 21 l 313.406 14.383 308.023 9 301.406 9 c h
82.594 9 m f
82.594 139.875 m 80.938 139.875 79.594 138.531 79.594 136.875 c 79.594 
116.004 l 79.594 114.348 80.938 113.004 82.594 113.004 c 84.25 113.004 85.594
 114.348 85.594 116.004 c 85.594 136.875 l 85.594 138.531 84.25 139.875 
82.594 139.875 c h
82.594 139.875 m f
239.781 44.418 m 144.219 44.418 l 136.977 44.418 130.469 40.105 127.645
 33.438 c 116.523 7.172 l 116.129 6.242 116.227 5.184 116.781 4.344 c 117.34
 3.504 118.277 3 119.285 3 c 264.719 3 l 265.723 3 266.664 3.504 267.219
 4.344 c 267.773 5.184 267.871 6.246 267.48 7.172 c 256.355 33.438 l 253.527
 40.105 247.023 44.418 239.781 44.418 c h
123.812 9 m 133.172 31.094 l 135.055 35.543 139.391 38.418 144.219 38.418
 c 239.777 38.418 l 244.605 38.418 248.941 35.543 250.828 31.094 c 260.188
 9 l h
123.812 9 m f
192 362.25 m 179.242 362.25 168.863 351.871 168.863 339.113 c 168.863 326.355
 179.242 315.977 192 315.977 c 204.758 315.977 215.137 326.355 215.137 339.113
 c 215.137 351.871 204.758 362.25 192 362.25 c h
192 321.977 m 182.551 321.977 174.863 329.664 174.863 339.113 c 174.863
 348.562 182.551 356.25 192 356.25 c 201.449 356.25 209.137 348.562 209.137
 339.113 c 209.137 329.664 201.449 321.977 192 321.977 c h
192 321.977 m f
0.988235 0.760784 0.298039 rg
267.609 181.25 m 267.609 139.492 233.758 105.641 192 105.641 c 150.242 
105.641 116.391 139.492 116.391 181.25 c 116.391 218.547 143.402 249.512
 178.926 255.711 c 182.48 261.867 l 192 278.359 l 201.52 261.867 l 205.074
 255.711 l 240.598 249.512 267.609 218.547 267.609 181.25 c h
267.609 181.25 m f
0.956863 0.937255 0.929412 rg
148.773 191.445 m 156.145 191.445 l 156.145 161.57 l 148.773 161.57 l 140.523
 161.57 133.832 168.258 133.832 176.508 c 133.832 184.758 140.523 191.445
 148.773 191.445 c h
148.773 191.445 m f
198.18 159.477 m 237.004 138.906 l 237.004 214.113 l 198.18 193.539 l h
198.18 159.477 m f
177.16 235.699 m 173.547 235.699 170.613 232.77 170.613 229.152 c 170.613
 181.266 l 183.711 181.266 l 183.711 229.152 l 183.711 232.77 180.777 235.699
 177.16 235.699 c h
177.16 235.699 m f
0.411765 0.0196078 0.537255 rg
177.16 238.703 m 171.898 238.703 167.613 234.422 167.613 229.156 c 167.613
 181.266 l 167.613 179.613 168.957 178.266 170.613 178.266 c 183.711 178.266
 l 185.367 178.266 186.711 179.613 186.711 181.266 c 186.711 229.156 l 186.711
 234.418 182.426 238.703 177.16 238.703 c h
173.613 184.266 m 173.613 229.156 l 173.613 231.109 175.207 232.703 177.16
 232.703 c 179.117 232.703 180.711 231.109 180.711 229.156 c 180.711 184.266
 l h
173.613 184.266 m f
0.533333 0.321569 0.658824 rg
192 198.758 m 162.324 198.758 l 158.91 198.758 156.145 195.992 156.145 
192.578 c 156.145 160.438 l 156.145 157.023 158.91 154.258 162.324 154.258
 c 192 154.258 l 195.41 154.258 198.18 157.027 198.18 160.438 c 198.18 192.578
 l 198.18 195.992 195.414 198.758 192 198.758 c h
192 198.758 m f
0.956863 0.937255 0.929412 rg
239.676 184.578 m 237.004 184.578 l 237.004 168.438 l 239.676 168.438 l
 244.133 168.438 247.746 172.051 247.746 176.508 c 247.746 180.965 244.133
 184.578 239.676 184.578 c h
239.676 184.578 m f
0.411765 0.0196078 0.537255 rg
239.676 187.578 m 237.004 187.578 l 235.348 187.578 234.004 186.234 234.004
 184.578 c 234.004 168.438 l 234.004 166.781 235.348 165.438 237.004 165.438
 c 239.676 165.438 l 245.781 165.438 250.746 170.406 250.746 176.508 c 250.746
 182.613 245.781 187.578 239.676 187.578 c h
240.004 171.449 m 240.004 181.566 l 242.648 181.398 244.746 179.191 244.746
 176.508 c 244.746 173.824 242.648 171.617 240.004 171.449 c h
240.004 171.449 m f
237.004 217.113 m 236.523 217.113 236.039 216.996 235.598 216.766 c 196.773
 196.191 l 195.793 195.672 195.18 194.652 195.18 193.539 c 195.18 159.477
 l 195.18 158.367 195.793 157.344 196.773 156.824 c 235.598 136.25 l 236.527
 135.758 237.648 135.789 238.551 136.332 c 239.453 136.875 240.004 137.852
 240.004 138.902 c 240.004 214.113 l 240.004 215.164 239.453 216.141 238.551
 216.684 c 238.078 216.969 237.539 217.113 237.004 217.113 c h
201.18 191.734 m 234.004 209.129 l 234.004 143.891 l 201.18 161.285 l h
201.18 191.734 m f
156.145 194.445 m 148.77 194.445 l 138.879 194.445 130.832 186.398 130.832
 176.508 c 130.832 166.617 138.879 158.57 148.77 158.57 c 156.145 158.57
 l 157.801 158.57 159.145 159.914 159.145 161.57 c 159.145 191.445 l 159.145
 193.102 157.801 194.445 156.145 194.445 c h
148.773 164.57 m 142.188 164.57 136.832 169.926 136.832 176.508 c 136.832
 183.09 142.188 188.445 148.773 188.445 c 153.145 188.445 l 153.145 164.57
 l h
148.773 164.57 m f
192 201.758 m 162.324 201.758 l 157.262 201.758 153.145 197.641 153.145
 192.578 c 153.145 160.438 l 153.145 155.375 157.266 151.258 162.324 151.258
 c 192 151.258 l 197.062 151.258 201.18 155.375 201.18 160.438 c 201.18 
192.578 l 201.18 197.641 197.062 201.758 192 201.758 c h
162.324 157.258 m 160.57 157.258 159.145 158.684 159.145 160.438 c 159.145
 192.578 l 159.145 194.332 160.57 195.758 162.324 195.758 c 192 195.758 
l 193.754 195.758 195.18 194.332 195.18 192.578 c 195.18 160.438 l 195.18
 158.684 193.754 157.258 192 157.258 c h
162.324 157.258 m f
192 281.359 m 190.93 281.359 189.938 280.785 189.402 279.859 c 177.02 258.41
 l 140.062 251.289 113.391 219.066 113.391 181.25 c 113.391 137.906 148.656
 102.641 192 102.641 c 235.348 102.641 270.609 137.906 270.609 181.25 c 
270.609 219.066 243.938 251.289 206.98 258.41 c 194.598 279.859 l 194.062
 280.785 193.07 281.359 192 281.359 c h
192 108.641 m 151.965 108.641 119.391 141.215 119.391 181.25 c 119.391 
216.613 144.645 246.684 179.438 252.754 c 180.312 252.91 181.078 253.441
 181.52 254.211 c 192 272.359 l 202.477 254.211 l 202.922 253.441 203.684
 252.906 204.559 252.754 c 239.355 246.684 264.609 216.613 264.609 181.25
 c 264.609 141.215 232.035 108.641 192 108.641 c h
192 108.641 m f
0.988235 0.760784 0.298039 rg
59.668 224.945 m 98.801 192 l 59.668 159.055 l 59.668 178.727 l 6.648 178.727
 l 6.648 205.273 l 59.668 205.273 l h
59.668 224.945 m f
0.411765 0.0196078 0.537255 rg
59.664 227.945 m 59.238 227.945 58.805 227.852 58.402 227.664 c 57.344 
227.172 56.668 226.113 56.668 224.945 c 56.668 208.273 l 6.648 208.273 l
 4.992 208.273 3.648 206.93 3.648 205.273 c 3.648 178.727 l 3.648 177.07
 4.992 175.727 6.648 175.727 c 56.668 175.727 l 56.668 159.055 l 56.668 
157.887 57.344 156.828 58.402 156.336 c 59.461 155.844 60.707 156.008 61.598
 156.758 c 100.734 189.703 l 101.41 190.273 101.801 191.113 101.801 192 
c 101.801 192.887 101.41 193.727 100.734 194.297 c 61.598 227.242 l 61.047
 227.707 60.359 227.945 59.664 227.945 c h
9.648 202.273 m 59.668 202.273 l 61.324 202.273 62.668 203.617 62.668 205.273
 c 62.668 218.5 l 94.141 192 l 62.668 165.5 l 62.668 178.727 l 62.668 180.383
 61.324 181.727 59.668 181.727 c 9.648 181.727 l h
9.648 202.273 m f
0.988235 0.760784 0.298039 rg
49.34 95.84 m 74.82 98.027 l 100.305 100.215 l 98.117 74.734 l 95.93 49.25
 l 82.02 63.16 l 44.531 25.668 l 25.758 44.441 l 63.246 81.93 l h
49.34 95.84 m f
0.411765 0.0196078 0.537255 rg
100.305 103.215 m 100.219 103.215 100.133 103.215 100.047 103.207 c 49.082
 98.828 l 47.918 98.73 46.922 97.965 46.52 96.867 c 46.117 95.773 46.391
 94.543 47.219 93.719 c 59.004 81.93 l 23.637 46.562 l 23.074 46 22.758 
45.238 22.758 44.441 c 22.758 43.648 23.074 42.883 23.637 42.32 c 42.41 
23.547 l 43.578 22.379 45.48 22.379 46.652 23.547 c 82.02 58.914 l 93.809
 47.129 l 94.633 46.305 95.859 46.035 96.957 46.43 c 98.055 46.832 98.82
 47.832 98.918 48.992 c 103.293 99.961 l 103.371 100.844 103.055 101.711
 102.426 102.336 c 101.863 102.902 101.098 103.215 100.305 103.215 c h
56.016 93.402 m 97.012 96.922 l 93.492 55.93 l 84.141 65.281 l 82.969 66.453
 81.07 66.453 79.898 65.281 c 44.531 29.91 l 30 44.441 l 65.367 79.809 l
 66.539 80.98 66.539 82.879 65.367 84.051 c h
56.016 93.402 m f
0.988235 0.760784 0.298039 rg
95.93 334.75 m 98.117 309.266 l 100.305 283.785 l 74.82 285.973 l 49.34
 288.16 l 63.246 302.07 l 25.758 339.559 l 44.531 358.332 l 82.02 320.84
 l h
95.93 334.75 m f
0.411765 0.0196078 0.537255 rg
44.531 361.332 m 43.762 361.332 42.996 361.039 42.41 360.453 c 23.637 341.68
 l 23.074 341.117 22.758 340.352 22.758 339.559 c 22.758 338.762 23.074 
338 23.637 337.438 c 59.004 302.07 l 47.219 290.281 l 46.391 289.457 46.121
 288.227 46.52 287.133 c 46.918 286.035 47.918 285.273 49.082 285.172 c 
100.047 280.793 l 100.938 280.719 101.801 281.035 102.426 281.664 c 103.051
 282.289 103.371 283.156 103.293 284.039 c 98.918 335.008 l 98.82 336.168
 98.055 337.168 96.957 337.57 c 95.859 337.965 94.633 337.695 93.809 336.871
 c 82.02 325.086 l 46.652 360.453 l 46.066 361.035 45.297 361.332 44.531
 361.332 c h
30 339.559 m 44.531 354.09 l 79.898 318.723 l 81.07 317.551 82.969 317.551
 84.141 318.723 c 93.492 328.07 l 97.012 287.078 l 56.016 290.598 l 65.367
 299.949 l 66.539 301.121 66.539 303.02 65.367 304.191 c h
30 339.559 m f
0.988235 0.760784 0.298039 rg
324.332 224.945 m 285.199 192 l 324.332 159.055 l 324.332 178.727 l 377.352
 178.727 l 377.352 205.273 l 324.332 205.273 l h
324.332 224.945 m f
0.411765 0.0196078 0.537255 rg
324.332 227.945 m 323.641 227.945 322.953 227.707 322.402 227.242 c 283.266
 194.297 l 282.59 193.727 282.199 192.887 282.199 192 c 282.199 191.113 
282.59 190.273 283.266 189.703 c 322.402 156.758 l 323.297 156.008 324.543
 155.844 325.598 156.336 c 326.656 156.828 327.332 157.887 327.332 159.055
 c 327.332 175.727 l 377.352 175.727 l 379.008 175.727 380.352 177.07 380.352
 178.727 c 380.352 205.273 l 380.352 206.93 379.008 208.273 377.352 208.273
 c 327.332 208.273 l 327.332 224.945 l 327.332 226.113 326.656 227.172 325.598
 227.664 c 325.195 227.852 324.762 227.945 324.332 227.945 c h
289.855 192 m 321.332 218.496 l 321.332 205.273 l 321.332 203.617 322.676
 202.273 324.332 202.273 c 374.352 202.273 l 374.352 181.727 l 324.332 181.727
 l 322.676 181.727 321.332 180.383 321.332 178.727 c 321.332 165.504 l h
289.855 192 m f
0.988235 0.760784 0.298039 rg
334.66 95.84 m 309.18 98.027 l 283.695 100.215 l 285.883 74.734 l 288.07
 49.25 l 301.98 63.16 l 339.469 25.668 l 358.242 44.441 l 320.754 81.93 
l h
334.66 95.84 m f
0.411765 0.0196078 0.537255 rg
283.695 103.215 m 282.902 103.215 282.137 102.902 281.574 102.336 c 280.949
 101.711 280.629 100.844 280.707 99.961 c 285.082 48.992 l 285.18 47.832
 285.945 46.832 287.043 46.43 c 288.137 46.035 289.367 46.305 290.191 47.129
 c 301.98 58.914 l 337.352 23.547 l 338.523 22.379 340.422 22.379 341.594
 23.547 c 360.363 42.32 l 360.926 42.883 361.242 43.648 361.242 44.441 c
 361.242 45.238 360.926 46 360.363 46.562 c 324.996 81.93 l 336.781 93.719
 l 337.609 94.543 337.879 95.773 337.48 96.867 c 337.082 97.965 336.082 
98.727 334.918 98.828 c 283.949 103.207 l 283.867 103.215 283.781 103.215
 283.695 103.215 c h
290.508 55.93 m 286.988 96.922 l 327.984 93.402 l 318.633 84.051 l 318.07
 83.488 317.754 82.727 317.754 81.93 c 317.754 81.137 318.07 80.371 318.633
 79.809 c 354 44.441 l 339.469 29.91 l 304.102 65.281 l 302.93 66.453 301.031
 66.453 299.859 65.281 c h
290.508 55.93 m f
0.988235 0.760784 0.298039 rg
288.07 334.75 m 285.883 309.266 l 283.695 283.785 l 309.18 285.973 l 334.66
 288.16 l 320.754 302.07 l 358.242 339.559 l 339.469 358.332 l 301.98 320.84
 l h
288.07 334.75 m f
0.411765 0.0196078 0.537255 rg
339.469 361.332 m 338.703 361.332 337.934 361.039 337.348 360.453 c 301.98
 325.086 l 290.191 336.871 l 289.363 337.699 288.137 337.965 287.043 337.57
 c 285.945 337.168 285.18 336.168 285.082 335.008 c 280.707 284.039 l 280.629
 283.156 280.945 282.289 281.574 281.664 c 282.199 281.035 283.074 280.723
 283.949 280.793 c 334.918 285.172 l 336.082 285.27 337.078 286.035 337.48
 287.133 c 337.883 288.227 337.609 289.457 336.781 290.281 c 324.996 302.07
 l 360.363 337.438 l 360.926 338 361.242 338.762 361.242 339.559 c 361.242
 340.352 360.926 341.117 360.363 341.68 c 341.59 360.453 l 341.004 361.035
 340.238 361.332 339.469 361.332 c h
301.98 317.844 m 302.746 317.844 303.516 318.137 304.102 318.723 c 339.469
 354.09 l 354 339.559 l 318.633 304.191 l 318.07 303.629 317.754 302.863
 317.754 302.07 c 317.754 301.273 318.07 300.512 318.633 299.949 c 327.984
 290.598 l 286.988 287.078 l 290.508 328.07 l 299.859 318.723 l 300.445 
318.137 301.215 317.844 301.98 317.844 c h
301.98 317.844 m f
Q Q
showpage
%%Trailer
end
%%EOF
