%!PS-Adobe-3.0 EPSF-3.0
%%Creator: cairo 1.16.0 (https://cairographics.org)
%%CreationDate: Fri Jan 10 07:39:33 2020
%%Pages: 1
%%DocumentData: Clean7Bit
%%LanguageLevel: 2
%%BoundingBox: 3 44 381 340
%%EndComments
%%BeginProlog
50 dict begin
/q { gsave } bind def
/Q { grestore } bind def
/cm { 6 array astore concat } bind def
/w { setlinewidth } bind def
/J { setlinecap } bind def
/j { setlinejoin } bind def
/M { setmiterlimit } bind def
/d { setdash } bind def
/m { moveto } bind def
/l { lineto } bind def
/c { curveto } bind def
/h { closepath } bind def
/re { exch dup neg 3 1 roll 5 3 roll moveto 0 rlineto
      0 exch rlineto 0 rlineto closepath } bind def
/S { stroke } bind def
/f { fill } bind def
/f* { eofill } bind def
/n { newpath } bind def
/W { clip } bind def
/W* { eoclip } bind def
/BT { } bind def
/ET { } bind def
/BDC { mark 3 1 roll /BDC pdfmark } bind def
/EMC { mark /EMC pdfmark } bind def
/cairo_store_point { /cairo_point_y exch def /cairo_point_x exch def } def
/Tj { show currentpoint cairo_store_point } bind def
/TJ {
  {
    dup
    type /stringtype eq
    { show } { -0.001 mul 0 cairo_font_matrix dtransform rmoveto } ifelse
  } forall
  currentpoint cairo_store_point
} bind def
/cairo_selectfont { cairo_font_matrix aload pop pop pop 0 0 6 array astore
    cairo_font exch selectfont cairo_point_x cairo_point_y moveto } bind def
/Tf { pop /cairo_font exch def /cairo_font_matrix where
      { pop cairo_selectfont } if } bind def
/Td { matrix translate cairo_font_matrix matrix concatmatrix dup
      /cairo_font_matrix exch def dup 4 get exch 5 get cairo_store_point
      /cairo_font where { pop cairo_selectfont } if } bind def
/Tm { 2 copy 8 2 roll 6 array astore /cairo_font_matrix exch def
      cairo_store_point /cairo_font where { pop cairo_selectfont } if } bind def
/g { setgray } bind def
/rg { setrgbcolor } bind def
/d1 { setcachedevice } bind def
/cairo_data_source {
  CairoDataIndex CairoData length lt
    { CairoData CairoDataIndex get /CairoDataIndex CairoDataIndex 1 add def }
    { () } ifelse
} def
/cairo_flush_ascii85_file { cairo_ascii85_file status { cairo_ascii85_file flushfile } if } def
/cairo_image { image cairo_flush_ascii85_file } def
/cairo_imagemask { imagemask cairo_flush_ascii85_file } def
%%EndProlog
%%BeginSetup
%%EndSetup
%%Page: 1 1
%%BeginPageSetup
%%PageBoundingBox: 3 44 381 340
%%EndPageSetup
q 3 44 378 296 rectclip
1 0 0 -1 0 384 cm q
0.956863 0.937255 0.929412 rg
364.727 286.977 m 19.273 286.977 l 11.941 286.977 6 281.035 6 273.703 c
 6 61.008 l 6 53.676 11.941 47.734 19.273 47.734 c 364.727 47.734 l 372.059
 47.734 378 53.676 378 61.008 c 378 273.703 l 378 281.035 372.059 286.977
 364.727 286.977 c h
364.727 286.977 m f
343.914 167.355 m 343.914 215.598 275.898 254.707 192 254.707 c 108.102
 254.707 40.086 215.598 40.086 167.355 c 40.086 119.113 108.102 80.004 192
 80.004 c 275.898 80.004 343.914 119.113 343.914 167.355 c h
343.914 167.355 m f
0.533333 0.321569 0.658824 rg
279.352 167.355 m 279.352 215.598 240.242 254.707 192 254.707 c 143.758
 254.707 104.648 215.598 104.648 167.355 c 104.648 119.113 143.758 80.004
 192 80.004 c 215.168 80.004 237.387 89.207 253.766 105.586 c 270.148 121.969
 279.352 144.188 279.352 167.355 c h
279.352 167.355 m f
0.839216 0.819608 0.811765 rg
364.727 47.734 m 349.727 47.734 l 357.059 47.734 363 53.676 363 61.008 
c 363 273.703 l 363 281.035 357.059 286.977 349.727 286.977 c 364.727 286.977
 l 372.059 286.977 378 281.035 378 273.703 c 378 61.008 l 378 53.676 372.059
 47.734 364.727 47.734 c h
364.727 47.734 m f
1 g
19.273 286.977 m 34.273 286.977 l 26.941 286.977 21 281.035 21 273.703 
c 21 61.008 l 21 53.676 26.941 47.734 34.273 47.734 c 19.273 47.734 l 11.941
 47.734 6 53.676 6 61.008 c 6 273.703 l 6 281.035 11.941 286.977 19.273 
286.977 c h
19.273 286.977 m f
0.321569 0.435294 0.666667 rg
313.352 336.266 m 70.648 336.266 l 70.648 318.484 l 70.648 311.152 76.59
 305.211 83.922 305.211 c 300.078 305.211 l 307.41 305.211 313.352 311.152
 313.352 318.484 c h
313.352 336.266 m f
0.203922 0.317647 0.54902 rg
300.078 305.211 m 285.078 305.211 l 292.41 305.211 298.352 311.152 298.352
 318.484 c 298.352 336.266 l 313.352 336.266 l 313.352 318.484 l 313.352
 311.152 307.41 305.211 300.078 305.211 c h
300.078 305.211 m f
0.439216 0.552941 0.784314 rg
83.922 305.211 m 98.922 305.211 l 91.59 305.211 85.648 311.152 85.648 318.484
 c 85.648 336.266 l 70.648 336.266 l 70.648 318.484 l 70.648 311.152 76.59
 305.211 83.922 305.211 c h
83.922 305.211 m f
0.203922 0.317647 0.54902 rg
120.754 286.977 142.488 18.234 re f
0.411765 0.0196078 0.537255 rg
18 103.539 m 16.344 103.539 15 102.195 15 100.539 c 15 82.539 l 15 80.883
 16.344 79.539 18 79.539 c 19.656 79.539 21 80.883 21 82.539 c 21 100.539
 l 21 102.195 19.656 103.539 18 103.539 c h
18 103.539 m f
313.352 339.266 m 70.648 339.266 l 68.992 339.266 67.648 337.922 67.648
 336.266 c 67.648 318.484 l 67.648 309.512 74.949 302.211 83.926 302.211
 c 300.078 302.211 l 309.051 302.211 316.355 309.512 316.355 318.484 c 316.355
 336.266 l 316.352 337.926 315.008 339.266 313.352 339.266 c h
73.648 333.266 m 310.352 333.266 l 310.352 318.484 l 310.352 312.82 305.742
 308.211 300.078 308.211 c 83.922 308.211 l 78.258 308.211 73.648 312.82
 73.648 318.484 c h
73.648 333.266 m f
263.246 308.211 m 120.754 308.211 l 119.098 308.211 117.754 306.867 117.754
 305.211 c 117.754 286.977 l 117.754 285.324 119.098 283.977 120.754 283.977
 c 263.246 283.977 l 264.902 283.977 266.246 285.324 266.246 286.977 c 266.246
 305.211 l 266.246 306.867 264.902 308.211 263.246 308.211 c h
123.754 302.211 m 260.246 302.211 l 260.246 289.977 l 123.754 289.977 l
 h
123.754 302.211 m f
364.727 289.977 m 19.273 289.977 l 10.301 289.977 3 282.676 3 273.703 c
 3 61.008 l 3 52.035 10.301 44.734 19.273 44.734 c 364.727 44.734 l 373.699
 44.734 381 52.035 381 61.008 c 381 273.703 l 381 282.676 373.699 289.977
 364.727 289.977 c h
19.273 50.734 m 13.609 50.734 9 55.344 9 61.008 c 9 273.703 l 9 279.367
 13.609 283.977 19.273 283.977 c 364.727 283.977 l 370.391 283.977 375 279.367
 375 273.703 c 375 61.008 l 375 55.344 370.391 50.734 364.727 50.734 c h
19.273 50.734 m f
192 257.707 m 128.676 257.707 69.473 223.664 37.492 168.867 c 36.949 167.934
 36.949 166.777 37.492 165.84 c 69.473 111.043 128.676 77 192 77 c 255.324
 77 314.527 111.043 346.508 165.84 c 347.051 166.777 347.051 167.934 346.508
 168.867 c 314.527 223.664 255.324 257.707 192 257.707 c h
43.57 167.355 m 74.676 219.434 131.387 251.707 192 251.707 c 252.613 251.707
 309.324 219.434 340.43 167.355 c 309.324 115.273 252.613 83 192 83 c 131.387
 83 74.676 115.273 43.57 167.355 c h
43.57 167.355 m f
192 257.707 m 142.18 257.707 101.648 217.176 101.648 167.355 c 101.648 
117.535 142.18 77 192 77 c 241.82 77 282.352 117.531 282.352 167.352 c 282.352
 217.176 241.82 257.707 192 257.707 c h
192 83 m 145.488 83 107.648 120.84 107.648 167.352 c 107.648 213.867 145.488
 251.707 192 251.707 c 238.512 251.707 276.352 213.867 276.352 167.355 c
 276.352 120.844 238.512 83 192 83 c h
192 83 m f
192 230.707 m 157.066 230.707 128.648 202.285 128.648 167.355 c 128.648
 132.422 157.066 104 192 104 c 226.934 104 255.352 132.422 255.352 167.352
 c 255.352 202.285 226.934 230.707 192 230.707 c h
192 110 m 160.375 110 134.648 135.73 134.648 167.352 c 134.648 198.977 
160.375 224.707 192 224.707 c 223.625 224.707 249.352 198.977 249.352 167.352
 c 249.352 135.73 223.625 110 192 110 c h
192 110 m f
0.988235 0.760784 0.298039 rg
242.812 214.812 m 231.965 260.445 l 213.473 213.715 l 194.984 166.984 l
 241.715 185.477 l 288.445 203.965 l h
242.812 214.812 m f
0.411765 0.0196078 0.537255 rg
231.965 263.445 m 230.742 263.445 229.629 262.699 229.176 261.547 c 192.199
 168.09 l 191.758 166.977 192.02 165.711 192.867 164.863 c 193.711 164.02
 194.98 163.758 196.09 164.195 c 289.547 201.172 l 290.766 201.652 291.531
 202.871 291.438 204.176 c 291.344 205.484 290.414 206.578 289.141 206.883
 c 245.305 217.305 l 234.883 261.137 l 234.582 262.414 233.484 263.344 232.18
 263.438 c 232.105 263.441 232.035 263.445 231.965 263.445 c h
200.324 172.324 m 231.25 250.48 l 239.895 214.117 l 240.156 213.016 241.016
 212.156 242.117 211.895 c 278.48 203.25 l h
200.324 172.324 m f
0.956863 0.937255 0.929412 rg
184.742 144.801 m 184.742 153.246 177.895 160.098 169.445 160.098 c 160.996
 160.098 154.148 153.246 154.148 144.801 c 154.148 136.352 160.996 129.504
 169.445 129.504 c 177.895 129.504 184.742 136.352 184.742 144.801 c h
184.742 144.801 m f
0.411765 0.0196078 0.537255 rg
169.445 163.094 m 159.355 163.094 151.148 154.887 151.148 144.797 c 151.148
 134.711 159.355 126.5 169.445 126.5 c 179.535 126.5 187.738 134.711 187.738
 144.797 c 187.738 154.887 179.531 163.094 169.445 163.094 c h
169.445 132.5 m 162.664 132.5 157.148 138.02 157.148 144.797 c 157.148 
151.578 162.664 157.094 169.445 157.094 c 176.223 157.094 181.738 151.578
 181.738 144.797 c 181.738 138.02 176.223 132.5 169.445 132.5 c h
169.445 132.5 m f
Q Q
showpage
%%Trailer
end
%%EOF
