%!PS-Adobe-3.0 EPSF-3.0
%%Creator: cairo 1.16.0 (https://cairographics.org)
%%CreationDate: Fri Jan 10 07:39:34 2020
%%Pages: 1
%%DocumentData: Clean7Bit
%%LanguageLevel: 2
%%BoundingBox: 51 3 333 381
%%EndComments
%%BeginProlog
50 dict begin
/q { gsave } bind def
/Q { grestore } bind def
/cm { 6 array astore concat } bind def
/w { setlinewidth } bind def
/J { setlinecap } bind def
/j { setlinejoin } bind def
/M { setmiterlimit } bind def
/d { setdash } bind def
/m { moveto } bind def
/l { lineto } bind def
/c { curveto } bind def
/h { closepath } bind def
/re { exch dup neg 3 1 roll 5 3 roll moveto 0 rlineto
      0 exch rlineto 0 rlineto closepath } bind def
/S { stroke } bind def
/f { fill } bind def
/f* { eofill } bind def
/n { newpath } bind def
/W { clip } bind def
/W* { eoclip } bind def
/BT { } bind def
/ET { } bind def
/BDC { mark 3 1 roll /BDC pdfmark } bind def
/EMC { mark /EMC pdfmark } bind def
/cairo_store_point { /cairo_point_y exch def /cairo_point_x exch def } def
/Tj { show currentpoint cairo_store_point } bind def
/TJ {
  {
    dup
    type /stringtype eq
    { show } { -0.001 mul 0 cairo_font_matrix dtransform rmoveto } ifelse
  } forall
  currentpoint cairo_store_point
} bind def
/cairo_selectfont { cairo_font_matrix aload pop pop pop 0 0 6 array astore
    cairo_font exch selectfont cairo_point_x cairo_point_y moveto } bind def
/Tf { pop /cairo_font exch def /cairo_font_matrix where
      { pop cairo_selectfont } if } bind def
/Td { matrix translate cairo_font_matrix matrix concatmatrix dup
      /cairo_font_matrix exch def dup 4 get exch 5 get cairo_store_point
      /cairo_font where { pop cairo_selectfont } if } bind def
/Tm { 2 copy 8 2 roll 6 array astore /cairo_font_matrix exch def
      cairo_store_point /cairo_font where { pop cairo_selectfont } if } bind def
/g { setgray } bind def
/rg { setrgbcolor } bind def
/d1 { setcachedevice } bind def
/cairo_data_source {
  CairoDataIndex CairoData length lt
    { CairoData CairoDataIndex get /CairoDataIndex CairoDataIndex 1 add def }
    { () } ifelse
} def
/cairo_flush_ascii85_file { cairo_ascii85_file status { cairo_ascii85_file flushfile } if } def
/cairo_image { image cairo_flush_ascii85_file } def
/cairo_imagemask { imagemask cairo_flush_ascii85_file } def
%%EndProlog
%%BeginSetup
%%EndSetup
%%Page: 1 1
%%BeginPageSetup
%%PageBoundingBox: 51 3 333 381
%%EndPageSetup
q 51 3 282 378 rectclip
1 0 0 -1 0 384 cm q
0.321569 0.435294 0.666667 rg
158.414 247.434 m 158.414 184.121 l 225.891 184.121 l 225.891 247.434 l
 286.816 247.434 l 310.418 247.465 329.523 266.844 329.496 290.445 c 329.496
 378 l 54.504 378 l 54.504 290.094 l 54.535 266.492 73.805 247.387 97.406
 247.414 c h
158.414 247.434 m f
1 0.623529 0.439216 rg
158.414 232.105 m 191.84 273.68 l 225.891 232.105 l 225.891 184.121 l 158.414
 184.121 l h
158.414 232.105 m f
0.203922 0.317647 0.54902 rg
286.816 247.434 m 271.824 247.434 l 295.426 247.465 314.535 266.824 314.504
 290.426 c 314.504 378 l 329.496 378 l 329.496 290.445 l 329.523 266.844
 310.418 247.465 286.816 247.434 c h
286.816 247.434 m f
0.439216 0.552941 0.784314 rg
97.402 247.414 m 112.395 247.434 l 88.793 247.406 69.523 266.512 69.496
 290.113 c 69.496 378 l 54.504 378 l 54.504 290.094 l 54.535 266.492 73.805
 247.387 97.402 247.414 c h
97.402 247.414 m f
0.411765 0.0196078 0.537255 rg
107.594 379.5 m 105.938 379.5 104.594 378.156 104.594 376.5 c 104.594 337.492
 l 104.594 335.836 105.938 334.492 107.594 334.492 c 109.246 334.492 110.594
 335.836 110.594 337.492 c 110.594 376.5 l 110.594 378.156 109.25 379.5 
107.594 379.5 c h
107.594 379.5 m f
276.406 379.5 m 274.754 379.5 273.406 378.156 273.406 376.5 c 273.406 337.492
 l 273.406 335.836 274.754 334.492 276.406 334.492 c 278.062 334.492 279.406
 335.836 279.406 337.492 c 279.406 376.5 l 279.406 378.156 278.066 379.5
 276.406 379.5 c h
276.406 379.5 m f
329.496 381 m 54.504 381 l 52.848 381 51.504 379.656 51.504 378 c 51.504
 290.094 l 51.535 264.891 72.098 244.414 97.348 244.414 c 97.41 244.414 
l 155.414 244.434 l 155.414 184.121 l 155.414 182.465 156.758 181.121 158.414
 181.121 c 225.891 181.121 l 227.547 181.121 228.891 182.465 228.891 184.121
 c 228.891 244.434 l 286.816 244.434 l 299.027 244.449 310.508 249.266 319.152
 257.992 c 327.77 266.695 332.512 278.223 332.496 290.449 c 332.496 378 
l 332.496 379.656 331.152 381 329.496 381 c h
57.504 375 m 326.496 375 l 326.496 290.445 l 326.508 279.809 322.387 269.785
 314.887 262.211 c 307.379 254.633 297.41 250.449 286.812 250.434 c 225.891
 250.434 l 224.234 250.434 222.891 249.09 222.891 247.434 c 222.891 187.121
 l 161.414 187.121 l 161.414 247.434 l 161.414 248.23 161.098 248.996 160.535
 249.559 c 159.973 250.121 159.207 250.434 158.414 250.434 c 97.406 250.414
 l 97.391 250.414 97.371 250.414 97.352 250.414 c 75.402 250.414 57.535 
268.203 57.508 290.098 c 57.508 375 l h
57.504 375 m f
0.988235 0.760784 0.298039 rg
254.23 60.113 m 254.23 57.535 l 254.23 46.734 247.664 37.469 238.305 33.508
 c 227.633 28.996 217.27 23.801 207.797 17.133 c 192.02 6.027 l 192.02 6
 l 192 6.012 l 191.98 6 l 191.98 6.027 l 176.203 17.133 l 166.73 23.801 
156.363 28.996 145.695 33.508 c 136.336 37.469 129.77 46.734 129.77 57.535
 c 129.77 60.113 l 114.562 60.113 102.582 73.074 103.773 88.234 c 108.215
 144.801 l 275.789 144.801 l 280.23 88.234 l 281.418 73.074 269.438 60.113
 254.23 60.113 c h
254.23 60.113 m f
0.870588 0.643137 0.180392 rg
254.23 60.113 m 254.23 57.535 l 254.23 46.734 247.664 37.469 238.305 33.508
 c 227.637 28.996 217.27 23.801 207.797 17.133 c 192.043 6.043 l 198.188
 18.648 213.246 29.004 223.902 33.508 c 233.262 37.469 239.832 46.734 239.832
 57.535 c 239.832 58.941 240.906 60.098 242.301 60.227 c 256.312 61.539 
266.953 73.902 265.828 88.23 c 261.387 144.801 l 275.785 144.801 l 280.227
 88.23 l 281.418 73.074 269.438 60.113 254.23 60.113 c h
254.23 60.113 m f
0.988235 0.878431 0.415686 rg
129.77 60.113 m 129.77 57.535 l 129.77 46.734 136.336 37.469 145.695 33.508
 c 156.367 28.996 166.73 23.801 176.203 17.133 c 191.957 6.043 l 185.812
 18.648 170.754 29.004 160.098 33.508 c 150.738 37.469 144.168 46.734 144.168
 57.535 c 144.168 58.941 143.094 60.098 141.699 60.227 c 127.688 61.539 
117.047 73.902 118.172 88.23 c 122.613 144.801 l 108.215 144.801 l 103.773
 88.23 l 102.582 73.074 114.562 60.113 129.77 60.113 c h
129.77 60.113 m f
0.411765 0.0196078 0.537255 rg
275.785 147.801 m 108.215 147.801 l 106.648 147.801 105.344 146.598 105.223
 145.039 c 100.781 88.469 l 100.148 80.41 102.93 72.387 108.418 66.453 c
 113.223 61.258 119.785 58.004 126.77 57.273 c 126.875 45.668 133.82 35.277
 144.523 30.75 c 156.699 25.598 166.215 20.492 174.473 14.684 c 190.059 
3.715 l 190.219 3.578 190.398 3.461 190.586 3.359 c 191.113 3.082 191.699
 2.969 192.273 3.023 c 192.66 3.055 193.043 3.164 193.398 3.352 c 193.598
 3.457 193.785 3.582 193.953 3.723 c 209.523 14.68 l 217.781 20.492 227.297
 25.598 239.469 30.75 c 250.176 35.277 257.121 45.668 257.227 57.273 c 264.211
 58.004 270.773 61.258 275.578 66.453 c 281.066 72.387 283.848 80.41 283.219
 88.469 c 278.777 145.039 l 278.656 146.598 277.352 147.801 275.785 147.801
 c h
110.988 141.801 m 273.012 141.801 l 277.238 87.996 l 277.746 81.508 275.594
 75.305 271.176 70.527 c 266.758 65.746 260.738 63.117 254.23 63.117 c 252.574
 63.117 251.23 61.773 251.23 60.117 c 251.23 57.539 l 251.23 48.242 245.699
 39.895 237.137 36.273 c 224.559 30.957 214.688 25.652 206.07 19.586 c 192
 9.684 l 177.93 19.586 l 169.312 25.648 159.441 30.953 146.863 36.273 c 
138.305 39.895 132.77 48.238 132.77 57.535 c 132.77 60.113 l 132.77 61.77
 131.426 63.113 129.77 63.113 c 123.262 63.113 117.242 65.746 112.824 70.523
 c 108.406 75.305 106.254 81.508 106.762 87.996 c h
110.988 141.801 m f
1 0.741176 0.556863 rg
125.18 126.363 m 120.402 126.363 l 108.059 126.363 98.051 136.367 98.051
 148.715 c 98.051 161.059 108.059 171.066 120.402 171.066 c 125.18 171.066
 l h
125.18 126.363 m f
0.882353 0.505882 0.321569 rg
263.723 126.363 m 258.945 126.363 l 258.945 171.066 l 263.723 171.066 l
 276.066 171.066 286.074 161.059 286.074 148.715 c 286.074 136.367 276.066
 126.363 263.723 126.363 c h
263.723 126.363 m f
1 0.623529 0.439216 rg
192.062 239.984 m 155.125 239.984 125.18 209.648 125.18 172.23 c 125.18
 125.328 l 125.18 87.906 155.125 57.574 192.062 57.574 c 229.004 57.574 
258.945 87.906 258.945 125.328 c 258.945 172.23 l 258.945 209.652 229.004
 239.984 192.062 239.984 c h
192.062 239.984 m f
0.882353 0.505882 0.321569 rg
192.062 57.574 m 189.492 57.574 186.957 57.734 184.461 58.023 c 217.82 
61.844 243.746 90.512 243.746 125.328 c 243.746 172.23 l 243.746 207.047
 217.82 235.711 184.461 239.535 c 186.957 239.824 189.492 239.984 192.062
 239.984 c 229.004 239.984 258.945 209.652 258.945 172.234 c 258.945 125.328
 l 258.945 87.906 229.004 57.574 192.062 57.574 c h
192.062 57.574 m f
1 0.741176 0.556863 rg
192.062 57.574 m 194.633 57.574 197.168 57.734 199.664 58.023 c 166.305
 61.844 140.379 90.512 140.379 125.328 c 140.379 172.23 l 140.379 207.047
 166.305 235.711 199.664 239.535 c 197.168 239.824 194.633 239.984 192.062
 239.984 c 155.125 239.984 125.18 209.652 125.18 172.234 c 125.18 125.328
 l 125.18 87.906 155.121 57.574 192.062 57.574 c h
192.062 57.574 m f
0.411765 0.0196078 0.537255 rg
192.062 242.984 m 153.531 242.984 122.18 211.242 122.18 172.23 c 122.18
 125.328 l 122.18 86.312 153.531 54.574 192.062 54.574 c 230.598 54.574 
261.945 86.316 261.945 125.328 c 261.945 172.23 l 261.945 211.246 230.598
 242.984 192.062 242.984 c h
192.062 60.574 m 156.836 60.574 128.18 89.621 128.18 125.324 c 128.18 172.23
 l 128.18 207.934 156.836 236.98 192.062 236.98 c 227.289 236.98 255.945
 207.934 255.945 172.23 c 255.945 125.324 l 255.945 89.621 227.289 60.574
 192.062 60.574 c h
192.062 60.574 m f
125.18 174.062 m 120.402 174.062 l 106.422 174.062 95.051 162.691 95.051
 148.711 c 95.051 134.734 106.422 123.359 120.402 123.359 c 125.18 123.359
 l 126.836 123.359 128.18 124.703 128.18 126.359 c 128.18 171.062 l 128.18
 172.719 126.836 174.062 125.18 174.062 c h
120.402 129.363 m 109.734 129.363 101.051 138.043 101.051 148.715 c 101.051
 159.383 109.734 168.066 120.402 168.066 c 122.18 168.066 l 122.18 129.363
 l h
120.402 129.363 m f
263.723 174.062 m 258.945 174.062 l 257.289 174.062 255.945 172.719 255.945
 171.062 c 255.945 126.363 l 255.945 124.707 257.289 123.363 258.945 123.363
 c 263.723 123.363 l 277.699 123.363 289.07 134.734 289.07 148.715 c 289.07
 162.691 277.699 174.062 263.723 174.062 c h
261.945 168.062 m 263.723 168.062 l 274.391 168.062 283.074 159.383 283.074
 148.711 c 283.074 138.039 274.391 129.359 263.723 129.359 c 261.945 129.359
 l h
261.945 168.062 m f
0.956863 0.937255 0.929412 rg
225.891 232.105 m 191.84 273.68 l 230.117 301.793 l 240.301 247.434 l h
225.891 232.105 m f
158.414 232.105 m 191.84 273.68 l 153.883 301.793 l 143.699 247.43 l h
158.414 232.105 m f
0.411765 0.0196078 0.537255 rg
230.117 304.793 m 229.488 304.793 228.867 304.598 228.344 304.211 c 190.059
 276.098 l 189.398 275.609 188.965 274.871 188.859 274.055 c 188.758 273.238
 188.992 272.418 189.516 271.777 c 223.57 230.203 l 224.113 229.539 224.922
 229.137 225.789 229.105 c 226.648 229.086 227.488 229.422 228.074 230.051
 c 242.484 245.379 l 243.141 246.078 243.422 247.047 243.246 247.988 c 233.066
 302.348 l 232.875 303.359 232.176 304.203 231.219 304.586 c 230.863 304.727
 230.488 304.793 230.117 304.793 c h
196.164 273.133 m 228.047 296.551 l 237.07 248.379 l 226.047 236.652 l 
h
196.164 273.133 m f
153.883 304.793 m 153.512 304.793 153.141 304.727 152.785 304.586 c 151.824
 304.211 151.125 303.363 150.934 302.348 c 140.75 247.98 l 140.574 247.027
 140.863 246.047 141.535 245.352 c 156.25 230.027 l 156.848 229.402 157.695
 229.074 158.547 229.105 c 159.406 229.145 160.211 229.551 160.754 230.223
 c 194.18 271.797 l 194.691 272.434 194.918 273.254 194.816 274.059 c 194.711
 274.867 194.281 275.602 193.625 276.09 c 155.668 304.203 l 155.145 304.594
 154.516 304.793 153.883 304.793 c h
146.934 248.395 m 155.949 296.531 l 187.547 273.125 l 158.215 236.645 l
 h
146.934 248.395 m f
69.496 329.973 m 67.84 329.973 66.496 328.629 66.496 326.973 c 66.496 308.973
 l 66.496 307.316 67.84 305.973 69.496 305.973 c 71.152 305.973 72.496 307.316
 72.496 308.973 c 72.496 326.973 l 72.496 328.629 71.152 329.973 69.496 
329.973 c h
69.496 329.973 m f
0.321569 0.435294 0.666667 rg
120.629 101.488 m 120.629 158.266 l 120.629 166.695 127.461 173.527 135.891
 173.527 c 169.293 173.527 l 177.719 173.527 184.551 166.695 184.551 158.266
 c 184.551 156.387 l 184.551 152.293 187.871 148.973 191.969 148.973 c 196.062
 148.973 199.383 152.293 199.383 156.387 c 199.383 158.266 l 199.383 166.695
 206.215 173.527 214.641 173.527 c 248.043 173.527 l 256.469 173.527 263.301
 166.695 263.301 158.266 c 263.301 101.488 l h
120.629 101.488 m f
1 g
108.422 147.273 m 120.629 147.273 l 120.629 101.488 l 108.422 101.488 l
 104.203 101.488 100.789 104.906 100.789 109.121 c 100.789 139.645 l 100.789
 143.859 104.207 147.273 108.422 147.273 c h
108.422 147.273 m f
0.839216 0.819608 0.811765 rg
275.512 101.488 m 263.301 101.488 l 263.301 147.273 l 275.512 147.273 l
 279.727 147.273 283.145 143.859 283.145 139.645 c 283.145 109.121 l 283.145
 104.906 279.727 101.488 275.512 101.488 c h
275.512 101.488 m f
0.411765 0.0196078 0.537255 rg
120.629 150.273 m 108.422 150.273 l 102.559 150.273 97.789 145.508 97.789
 139.645 c 97.789 109.121 l 97.789 103.258 102.559 98.488 108.422 98.488
 c 120.629 98.488 l 122.285 98.488 123.629 99.836 123.629 101.488 c 123.629
 147.273 l 123.629 148.934 122.285 150.273 120.629 150.273 c h
108.422 104.488 m 105.867 104.488 103.789 106.566 103.789 109.121 c 103.789
 139.645 l 103.789 142.199 105.867 144.273 108.422 144.273 c 117.629 144.273
 l 117.629 104.488 l h
108.422 104.488 m f
275.512 150.273 m 263.301 150.273 l 261.648 150.273 260.301 148.93 260.301
 147.273 c 260.301 101.488 l 260.301 99.836 261.648 98.488 263.301 98.488
 c 275.512 98.488 l 281.375 98.488 286.145 103.258 286.145 109.121 c 286.145
 139.645 l 286.145 145.508 281.375 150.273 275.512 150.273 c h
266.301 144.273 m 275.512 144.273 l 278.066 144.273 280.145 142.195 280.145
 139.645 c 280.145 109.121 l 280.145 106.566 278.066 104.488 275.512 104.488
 c 266.301 104.488 l h
266.301 144.273 m f
248.043 176.527 m 214.641 176.527 l 204.57 176.527 196.379 168.336 196.379
 158.266 c 196.379 156.387 l 196.379 153.953 194.398 151.977 191.965 151.977
 c 189.531 151.977 187.551 153.957 187.551 156.387 c 187.551 158.266 l 187.551
 168.336 179.359 176.527 169.289 176.527 c 135.891 176.527 l 125.824 176.527
 117.629 168.336 117.629 158.266 c 117.629 101.488 l 117.629 99.836 118.973
 98.488 120.629 98.488 c 263.301 98.488 l 264.957 98.488 266.301 99.836 
266.301 101.488 c 266.301 158.266 l 266.301 168.336 258.109 176.527 248.043
 176.527 c h
191.969 145.973 m 197.711 145.973 202.383 150.645 202.383 156.387 c 202.383
 158.262 l 202.383 165.023 207.883 170.523 214.641 170.523 c 248.043 170.523
 l 254.805 170.523 260.305 165.023 260.305 158.262 c 260.305 104.488 l 123.629
 104.488 l 123.629 158.266 l 123.629 165.027 129.129 170.527 135.891 170.527
 c 169.293 170.527 l 176.055 170.527 181.555 165.027 181.555 158.266 c 181.555
 156.387 l 181.551 150.645 186.223 145.973 191.969 145.973 c h
191.969 145.973 m f
0.956863 0.937255 0.929412 rg
155.273 163.305 m 152.902 163.305 150.762 161.879 149.844 159.695 c 132.398
 118.109 l 131.469 116.02 132.477 113.465 134.719 112.613 c 136.809 111.684
 139.285 112.691 140.215 114.859 c 155.305 150.691 l 170.395 114.859 l 171.324
 112.691 173.879 111.684 175.965 112.613 c 178.133 113.465 179.141 116.02
 178.289 118.109 c 160.691 159.711 l 159.773 161.887 157.637 163.305 155.273
 163.305 c h
155.273 163.305 m f
251.727 157.184 m 252.461 159.324 251.281 161.605 249.145 162.344 c 248.852
 162.418 248.262 162.566 247.523 162.566 c 247.523 162.566 247.523 162.566
 247.449 162.566 c 246.715 162.566 245.605 162.418 244.578 161.754 c 243.617
 161.164 242.805 160.207 242.219 159.176 c 241.188 157.035 240.672 154.383
 240.672 150.328 c 240.598 148.93 240.305 147.973 239.785 147.16 c 239.344
 146.352 238.461 145.613 237.574 145.023 c 236.027 143.992 234.109 143.402
 233.449 143.254 c 224.75 143.254 l 224.75 159.246 l 224.75 161.457 222.906
 163.301 220.621 163.301 c 218.34 163.301 216.57 161.457 216.57 159.246 
c 216.57 115.766 l 216.57 113.484 218.34 111.711 220.621 111.711 c 233.816
 111.711 l 242.586 111.711 249.59 118.789 249.59 127.559 c 249.59 132.422
 247.379 136.695 243.84 139.645 c 244.797 140.383 245.684 141.266 246.422
 142.371 c 247.895 144.512 248.852 147.238 248.852 150.332 c 248.777 152.543
 249 153.945 249.145 154.68 c 250.324 155.051 251.281 155.934 251.727 157.184
 c h
241.41 127.559 m 241.41 123.285 238.02 119.895 233.816 119.895 c 224.754
 119.895 l 224.754 135.078 l 233.816 135.078 l 238.02 135.078 241.41 131.684
 241.41 127.559 c h
241.41 127.559 m f
Q Q
showpage
%%Trailer
end
%%EOF
