%!PS-Adobe-3.0 EPSF-3.0
%%Creator: cairo 1.16.0 (https://cairographics.org)
%%CreationDate: Fri Jan 10 07:39:37 2020
%%Pages: 1
%%DocumentData: Clean7Bit
%%LanguageLevel: 2
%%BoundingBox: 3 52 381 332
%%EndComments
%%BeginProlog
50 dict begin
/q { gsave } bind def
/Q { grestore } bind def
/cm { 6 array astore concat } bind def
/w { setlinewidth } bind def
/J { setlinecap } bind def
/j { setlinejoin } bind def
/M { setmiterlimit } bind def
/d { setdash } bind def
/m { moveto } bind def
/l { lineto } bind def
/c { curveto } bind def
/h { closepath } bind def
/re { exch dup neg 3 1 roll 5 3 roll moveto 0 rlineto
      0 exch rlineto 0 rlineto closepath } bind def
/S { stroke } bind def
/f { fill } bind def
/f* { eofill } bind def
/n { newpath } bind def
/W { clip } bind def
/W* { eoclip } bind def
/BT { } bind def
/ET { } bind def
/BDC { mark 3 1 roll /BDC pdfmark } bind def
/EMC { mark /EMC pdfmark } bind def
/cairo_store_point { /cairo_point_y exch def /cairo_point_x exch def } def
/Tj { show currentpoint cairo_store_point } bind def
/TJ {
  {
    dup
    type /stringtype eq
    { show } { -0.001 mul 0 cairo_font_matrix dtransform rmoveto } ifelse
  } forall
  currentpoint cairo_store_point
} bind def
/cairo_selectfont { cairo_font_matrix aload pop pop pop 0 0 6 array astore
    cairo_font exch selectfont cairo_point_x cairo_point_y moveto } bind def
/Tf { pop /cairo_font exch def /cairo_font_matrix where
      { pop cairo_selectfont } if } bind def
/Td { matrix translate cairo_font_matrix matrix concatmatrix dup
      /cairo_font_matrix exch def dup 4 get exch 5 get cairo_store_point
      /cairo_font where { pop cairo_selectfont } if } bind def
/Tm { 2 copy 8 2 roll 6 array astore /cairo_font_matrix exch def
      cairo_store_point /cairo_font where { pop cairo_selectfont } if } bind def
/g { setgray } bind def
/rg { setrgbcolor } bind def
/d1 { setcachedevice } bind def
/cairo_data_source {
  CairoDataIndex CairoData length lt
    { CairoData CairoDataIndex get /CairoDataIndex CairoDataIndex 1 add def }
    { () } ifelse
} def
/cairo_flush_ascii85_file { cairo_ascii85_file status { cairo_ascii85_file flushfile } if } def
/cairo_image { image cairo_flush_ascii85_file } def
/cairo_imagemask { imagemask cairo_flush_ascii85_file } def
%%EndProlog
%%BeginSetup
%%EndSetup
%%Page: 1 1
%%BeginPageSetup
%%PageBoundingBox: 3 52 381 332
%%EndPageSetup
q 3 52 378 280 rectclip
1 0 0 -1 0 384 cm q
0.956863 0.937255 0.929412 rg
363 328.418 m 21 328.418 l 12.715 328.418 6 321.703 6 313.418 c 6 70.582
 l 6 62.297 12.715 55.582 21 55.582 c 363 55.582 l 371.285 55.582 378 62.297
 378 70.582 c 378 313.418 l 378 321.703 371.285 328.418 363 328.418 c h
363 328.418 m f
1 g
21 328.418 m 36 328.418 l 27.715 328.418 21 321.703 21 313.418 c 21 70.582
 l 21 62.297 27.715 55.582 36 55.582 c 21 55.582 l 12.715 55.582 6 62.297
 6 70.582 c 6 313.418 l 6 321.703 12.715 328.418 21 328.418 c h
21 328.418 m f
0.839216 0.819608 0.811765 rg
363 55.582 m 348 55.582 l 356.285 55.582 363 62.297 363 70.582 c 363 313.418
 l 363 321.703 356.285 328.418 348 328.418 c 363 328.418 l 371.285 328.418
 378 321.703 378 313.418 c 378 70.582 l 378 62.297 371.285 55.582 363 55.582
 c h
363 55.582 m f
0.533333 0.321569 0.658824 rg
363 55.582 m 21 55.582 l 12.715 55.582 6 62.297 6 70.582 c 6 117.605 l 
378 117.605 l 378 70.582 l 378 62.297 371.285 55.582 363 55.582 c h
363 55.582 m f
0.415686 0.203922 0.541176 rg
363 70.582 m 363 117.605 l 378 117.605 l 378 70.582 l 378 62.836 372.129
 56.465 364.594 55.668 c 364.523 55.66 364.453 55.656 364.383 55.652 c 363.93
 55.609 363.465 55.582 363 55.582 c 348 55.582 l 356.285 55.582 363 62.297
 363 70.582 c h
363 70.582 m f
0.65098 0.439216 0.776471 rg
21 70.582 m 21 117.605 l 6 117.605 l 6 70.582 l 6 62.836 11.871 56.465 
19.402 55.668 c 19.477 55.66 19.543 55.656 19.613 55.652 c 20.07 55.609 
20.531 55.582 21 55.582 c 36 55.582 l 27.715 55.582 21 62.297 21 70.582 
c h
21 70.582 m f
0.321569 0.435294 0.666667 rg
79.379 208.465 225.246 89.566 re f
0.533333 0.321569 0.658824 rg
49.82 144.211 284.359 42.566 re f
0.411765 0.0196078 0.537255 rg
378 120.605 m 6 120.605 l 4.344 120.605 3 119.262 3 117.605 c 3 70.582 
l 3 60.656 11.074 52.582 21 52.582 c 363 52.582 l 372.926 52.582 381 60.656
 381 70.582 c 381 117.605 l 381 119.262 379.656 120.605 378 120.605 c h
9 114.605 m 375 114.605 l 375 70.582 l 375 63.965 369.617 58.582 363 58.582
 c 21 58.582 l 14.383 58.582 9 63.965 9 70.582 c h
9 114.605 m f
363 331.418 m 21 331.418 l 11.074 331.418 3 323.344 3 313.418 c 3 70.582
 l 3 60.656 11.074 52.582 21 52.582 c 363 52.582 l 372.926 52.582 381 60.656
 381 70.582 c 381 313.418 l 381 323.344 372.926 331.418 363 331.418 c h
21 58.582 m 14.383 58.582 9 63.965 9 70.582 c 9 313.418 l 9 320.035 14.383
 325.418 21 325.418 c 363 325.418 l 369.617 325.418 375 320.035 375 313.418
 c 375 70.582 l 375 63.965 369.617 58.582 363 58.582 c h
21 58.582 m f
18 164.77 m 16.344 164.77 15 163.426 15 161.77 c 15 143.77 l 15 142.113
 16.344 140.77 18 140.77 c 19.656 140.77 21 142.113 21 143.77 c 21 161.77
 l 21 163.426 19.656 164.77 18 164.77 c h
18 164.77 m f
334.18 189.777 m 49.82 189.777 l 48.164 189.777 46.82 188.434 46.82 186.777
 c 46.82 144.211 l 46.82 142.555 48.164 141.211 49.82 141.211 c 334.18 141.211
 l 335.836 141.211 337.18 142.555 337.18 144.211 c 337.18 186.777 l 337.18
 188.434 335.84 189.777 334.18 189.777 c h
52.82 183.777 m 331.18 183.777 l 331.18 147.211 l 52.82 147.211 l h
52.82 183.777 m f
304.625 301.031 m 79.375 301.031 l 77.719 301.031 76.375 299.688 76.375
 298.031 c 76.375 208.465 l 76.375 206.809 77.719 205.465 79.375 205.465
 c 304.621 205.465 l 306.277 205.465 307.621 206.809 307.621 208.465 c 307.621
 298.031 l 307.625 299.691 306.281 301.031 304.625 301.031 c h
82.375 295.031 m 301.621 295.031 l 301.621 211.465 l 82.375 211.465 l h
82.375 295.031 m f
0.956863 0.937255 0.929412 rg
128.117 270.062 m 121.613 254.668 l 115.105 270.062 l 114.41 271.707 112.797
 272.777 111.012 272.777 c 111.008 272.777 l 109.223 272.777 107.605 271.707
 106.914 270.059 c 93.688 238.719 l 93.047 237.141 93.746 235.215 95.441
 234.57 c 97.02 233.871 98.945 234.629 99.59 236.266 c 111.039 263.316 l
 118.574 245.379 l 119.102 244.094 120.328 243.395 121.609 243.395 c 122.84
 243.395 124.066 244.094 124.648 245.379 c 132.184 263.316 l 143.574 236.266
 l 144.277 234.629 146.148 233.871 147.84 234.57 c 149.418 235.215 150.176
 237.141 149.477 238.719 c 136.309 270.055 l 135.613 271.703 134 272.777
 132.211 272.777 c 130.426 272.777 128.812 271.707 128.117 270.062 c h
128.117 270.062 m f
151.93 258.887 m 151.984 251.332 157.875 245 165.484 245 c 172.707 245 
178.426 250.391 178.871 257.891 c 178.871 258.168 l 178.871 258.277 178.871
 258.555 178.816 258.668 c 178.648 260 177.484 260.891 175.926 260.891 c
 158.262 260.891 l 158.539 262.168 159.152 263.613 160.152 264.555 c 161.32
 265.887 163.539 266.891 165.484 267.055 c 167.484 267.223 169.871 266.723
 171.262 265.668 c 172.43 264.445 174.707 264.609 175.43 265.5 c 176.148
 266.277 176.707 267.945 175.43 269.109 c 172.707 271.609 169.43 272.777
 165.484 272.777 c 157.875 272.723 151.984 266.445 151.93 258.887 c h
157.984 256.168 m 173.707 256.168 l 173.148 253.945 170.316 250.668 165.484
 250.277 c 160.762 250.5 158.43 253.887 157.984 256.168 c h
157.984 256.168 m f
187.695 258.945 m 187.695 258.887 187.695 258.887 187.695 258.887 c 187.695
 236.891 l 187.695 235.281 189.031 233.891 190.695 233.891 c 192.418 233.891
 193.754 235.281 193.754 236.891 c 193.754 247.332 l 195.809 245.891 198.473
 245 201.195 245 c 208.695 245 214.695 251.332 214.695 258.941 c 214.695
 266.441 208.695 272.773 201.195 272.773 c 198.418 272.773 195.75 271.828
 193.641 270.387 c 193.363 271.719 192.195 272.773 190.695 272.773 c 189.031
 272.773 187.695 271.383 187.695 269.773 c h
193.754 258.945 m 193.754 261.055 194.586 263.055 195.973 264.441 c 197.363
 265.887 199.141 266.723 201.195 266.723 c 203.195 266.723 205.027 265.887
 206.418 264.441 c 207.805 263.055 208.641 261.055 208.641 258.945 c 208.641
 256.723 207.805 254.723 206.418 253.332 c 205.027 251.891 203.195 251.055
 201.195 251.055 c 199.141 251.055 197.363 251.891 195.973 253.332 c 194.586
 254.723 193.754 256.723 193.754 258.945 c h
193.754 258.945 m f
223.242 252.836 m 223.242 241.668 232.461 232.781 243.738 232.781 c 248.461
 232.781 252.961 234.391 256.402 237.113 c 257.848 238.168 258.07 240.223
 257.016 241.613 c 255.961 242.945 253.906 243.223 252.516 242.113 c 250.129
 240.277 247.074 239.113 243.738 239.113 c 239.738 239.113 236.238 240.613
 233.742 243.168 c 231.129 245.668 229.574 249.059 229.574 252.836 c 229.574
 256.5 231.129 259.887 233.742 262.391 c 236.238 264.945 239.738 266.445
 243.738 266.445 c 246.516 266.445 249.129 265.609 251.352 264.336 c 251.352
 256.723 l 243.406 256.723 l 241.684 256.723 240.238 255.277 240.238 253.559
 c 240.238 251.781 241.684 250.445 243.406 250.445 c 254.461 250.445 l 256.238
 250.445 257.684 251.781 257.684 253.559 c 257.684 265.836 l 257.684 266.223
 257.57 266.445 257.516 266.777 c 257.461 266.891 257.461 266.945 257.406
 267.055 c 257.406 267.109 l 257.238 267.609 256.906 268.055 256.348 268.445
 c 252.848 271.168 248.461 272.777 243.738 272.777 c 232.461 272.777 223.242
 263.941 223.242 252.836 c h
223.242 252.836 m f
267.395 269.723 m 267.395 236.945 l 267.395 235.281 268.727 233.891 270.449
 233.891 c 272.172 233.891 273.562 235.281 273.562 236.945 c 273.562 266.609
 l 288.613 266.609 l 290.227 266.609 291.672 267.996 291.672 269.719 c 291.672
 271.387 290.227 272.773 288.613 272.773 c 270.617 272.773 l 270.504 272.773
 270.504 272.773 270.504 272.773 c 270.449 272.773 270.449 272.773 270.449
 272.773 c 268.727 272.777 267.395 271.387 267.395 269.723 c h
267.395 269.723 m f
0.988235 0.760784 0.298039 rg
329.039 290.824 m 320.457 313.68 l 310.766 288.273 l 301.078 262.863 l 
351.898 282.238 l h
329.039 290.824 m f
0.411765 0.0196078 0.537255 rg
320.457 316.68 m 319.211 316.68 318.098 315.914 317.652 314.75 c 298.273
 263.93 l 297.852 262.828 298.121 261.578 298.957 260.742 c 299.793 259.906
 301.043 259.637 302.148 260.059 c 352.965 279.438 l 354.129 279.879 354.898
 281 354.898 282.246 c 354.895 283.496 354.117 284.609 352.953 285.047 c
 331.371 293.152 l 323.262 314.734 l 322.824 315.902 321.711 316.68 320.465
 316.68 c 320.461 316.68 320.457 316.68 320.457 316.68 c h
306.266 268.051 m 320.434 305.207 l 326.23 289.77 l 326.535 288.961 327.176
 288.32 327.984 288.016 c 343.422 282.219 l h
306.266 268.051 m f
0.988235 0.760784 0.298039 rg
40.508 87.215 m 40.508 92.191 36.477 96.227 31.5 96.227 c 26.523 96.227
 22.492 92.191 22.492 87.215 c 22.492 82.242 26.523 78.207 31.5 78.207 c
 36.477 78.207 40.508 82.242 40.508 87.215 c h
40.508 87.215 m f
69.777 87.215 m 69.777 92.191 65.742 96.227 60.766 96.227 c 55.789 96.227
 51.758 92.191 51.758 87.215 c 51.758 82.242 55.789 78.207 60.766 78.207
 c 65.742 78.207 69.777 82.242 69.777 87.215 c h
69.777 87.215 m f
99.039 87.215 m 99.039 92.191 95.008 96.227 90.031 96.227 c 85.055 96.227
 81.023 92.191 81.023 87.215 c 81.023 82.242 85.055 78.207 90.031 78.207
 c 95.008 78.207 99.039 82.242 99.039 87.215 c h
99.039 87.215 m f
0.411765 0.0196078 0.537255 rg
31.5 99.227 m 24.879 99.227 19.492 93.84 19.492 87.215 c 19.492 80.594 
24.879 75.207 31.5 75.207 c 38.121 75.207 43.508 80.594 43.508 87.215 c 
43.508 93.836 38.121 99.227 31.5 99.227 c h
31.5 81.207 m 28.188 81.207 25.492 83.902 25.492 87.215 c 25.492 90.531
 28.188 93.227 31.5 93.227 c 34.812 93.227 37.508 90.531 37.508 87.215 c
 37.508 83.902 34.812 81.207 31.5 81.207 c h
31.5 81.207 m f
60.766 99.227 m 54.141 99.227 48.758 93.84 48.758 87.215 c 48.758 80.594
 54.141 75.207 60.766 75.207 c 67.387 75.207 72.773 80.594 72.773 87.215
 c 72.773 93.836 67.387 99.227 60.766 99.227 c h
60.766 81.207 m 57.453 81.207 54.758 83.902 54.758 87.215 c 54.758 90.531
 57.453 93.227 60.766 93.227 c 64.078 93.227 66.773 90.531 66.773 87.215
 c 66.773 83.902 64.078 81.207 60.766 81.207 c h
60.766 81.207 m f
90.031 99.227 m 83.41 99.227 78.023 93.84 78.023 87.215 c 78.023 80.594
 83.41 75.207 90.031 75.207 c 96.652 75.207 102.039 80.594 102.039 87.215
 c 102.039 93.836 96.652 99.227 90.031 99.227 c h
90.031 81.207 m 86.719 81.207 84.023 83.902 84.023 87.215 c 84.023 90.531
 86.719 93.227 90.031 93.227 c 93.344 93.227 96.039 90.531 96.039 87.215
 c 96.039 83.902 93.344 81.207 90.031 81.207 c h
90.031 81.207 m f
Q Q
showpage
%%Trailer
end
%%EOF
