%!PS-Adobe-3.0 EPSF-3.0
%%Creator: cairo 1.16.0 (https://cairographics.org)
%%CreationDate: Thu Aug 15 09:28:51 2019
%%Pages: 1
%%DocumentData: Clean7Bit
%%LanguageLevel: 2
%%BoundingBox: 18 30 366 366
%%EndComments
%%BeginProlog
50 dict begin
/q { gsave } bind def
/Q { grestore } bind def
/cm { 6 array astore concat } bind def
/w { setlinewidth } bind def
/J { setlinecap } bind def
/j { setlinejoin } bind def
/M { setmiterlimit } bind def
/d { setdash } bind def
/m { moveto } bind def
/l { lineto } bind def
/c { curveto } bind def
/h { closepath } bind def
/re { exch dup neg 3 1 roll 5 3 roll moveto 0 rlineto
      0 exch rlineto 0 rlineto closepath } bind def
/S { stroke } bind def
/f { fill } bind def
/f* { eofill } bind def
/n { newpath } bind def
/W { clip } bind def
/W* { eoclip } bind def
/BT { } bind def
/ET { } bind def
/BDC { mark 3 1 roll /BDC pdfmark } bind def
/EMC { mark /EMC pdfmark } bind def
/cairo_store_point { /cairo_point_y exch def /cairo_point_x exch def } def
/Tj { show currentpoint cairo_store_point } bind def
/TJ {
  {
    dup
    type /stringtype eq
    { show } { -0.001 mul 0 cairo_font_matrix dtransform rmoveto } ifelse
  } forall
  currentpoint cairo_store_point
} bind def
/cairo_selectfont { cairo_font_matrix aload pop pop pop 0 0 6 array astore
    cairo_font exch selectfont cairo_point_x cairo_point_y moveto } bind def
/Tf { pop /cairo_font exch def /cairo_font_matrix where
      { pop cairo_selectfont } if } bind def
/Td { matrix translate cairo_font_matrix matrix concatmatrix dup
      /cairo_font_matrix exch def dup 4 get exch 5 get cairo_store_point
      /cairo_font where { pop cairo_selectfont } if } bind def
/Tm { 2 copy 8 2 roll 6 array astore /cairo_font_matrix exch def
      cairo_store_point /cairo_font where { pop cairo_selectfont } if } bind def
/g { setgray } bind def
/rg { setrgbcolor } bind def
/d1 { setcachedevice } bind def
/cairo_data_source {
  CairoDataIndex CairoData length lt
    { CairoData CairoDataIndex get /CairoDataIndex CairoDataIndex 1 add def }
    { () } ifelse
} def
/cairo_flush_ascii85_file { cairo_ascii85_file status { cairo_ascii85_file flushfile } if } def
/cairo_image { image cairo_flush_ascii85_file } def
/cairo_imagemask { imagemask cairo_flush_ascii85_file } def
%%EndProlog
%%BeginSetup
%%EndSetup
%%Page: 1 1
%%BeginPageSetup
%%PageBoundingBox: 18 30 366 366
%%EndPageSetup
q 18 30 348 336 rectclip
1 0 0 -1 0 384 cm q
0.188235 0.52549 0.803922 rg
258 84 m 318 84 l 344.594 84 366 105.406 366 132 c 366 186 l 366 212.594
 344.594 234 318 234 c 258 234 l 231.406 234 210 212.594 210 186 c 210 132
 l 210 105.406 231.406 84 258 84 c h
258 84 m f
0.164706 0.439216 0.670588 rg
258 60 60 24 re f
0.188235 0.52549 0.803922 rg
258 60 m 252 18 l 276 36 l 288 18 l 300 36 l 324 18 l 318 60 l h
258 60 m f
0.984314 0.407843 0.356863 rg
19.5 258 m 364.5 258 l 365.332 258 366 258.668 366 259.5 c 366 280.5 l 
366 281.332 365.332 282 364.5 282 c 19.5 282 l 18.668 282 18 281.332 18 
280.5 c 18 259.5 l 18 258.668 18.668 258 19.5 258 c h
19.5 258 m f
0.301961 0.717647 0.898039 rg
18 18 156 216 re f
0.176471 0.490196 0.74902 rg
114 42 36 24 re f
48 84 24 12 re f
84 84 72 12 re f
36 108 54 12 re f
102 108 54 12 re f
60 132 24 12 re f
96 132 24 12 re f
132 132 24 12 re f
0.952941 0.321569 0.266667 rg
171.273 282 m 239.453 282 l 225.273 258 l 184.363 258 l h
171.273 282 m f
0.858824 0.254902 0.196078 rg
120 354 m 270 354 l 192 222 l h
120 354 m f
0.945098 0.552941 0 rg
240 210 48 24 re f
0.992157 0.713726 0.184314 rg
240 186 48 24 re f
288 162 48 24 re f
0.945098 0.552941 0 rg
288 186 48 24 re f
0.992157 0.713726 0.184314 rg
288 210 48 24 re f
0.941176 0.501961 0 rg
270 210 18 24 re f
0.988235 0.654902 0.0745098 rg
270 186 18 24 re f
0.941176 0.501961 0 rg
318 186 18 24 re f
0.988235 0.654902 0.0745098 rg
318 162 18 24 re f
318 210 18 24 re f
0.584314 0.796078 0.215686 rg
18 162 108 72 re f
0.266667 0.529412 0.0117647 rg
18 180 108 12 re f
48 204 24 12 re f
84 204 24 12 re f
0.984314 0.407843 0.356863 rg
192 318 m 184.719 318 178.156 313.613 175.371 306.887 c 172.586 300.164
 174.125 292.422 179.273 287.273 c 184.422 282.125 192.164 280.586 198.887
 283.371 c 205.613 286.156 210 292.719 210 300 c 209.988 309.938 201.938
 317.988 192 318 c h
192 294 m 189.574 294 187.387 295.461 186.457 297.703 c 185.527 299.945
 186.043 302.527 187.758 304.242 c 189.473 305.957 192.055 306.473 194.297
 305.543 c 196.539 304.613 198 302.426 198 300 c 197.996 296.688 195.312
 294.004 192 294 c h
192 294 m f
Q Q
showpage
%%Trailer
end
%%EOF
