%!PS-Adobe-3.0 EPSF-3.0
%%Creator: cairo 1.16.0 (https://cairographics.org)
%%CreationDate: Thu Aug 15 09:28:51 2019
%%Pages: 1
%%DocumentData: Clean7Bit
%%LanguageLevel: 2
%%BoundingBox: 18 18 366 366
%%EndComments
%%BeginProlog
50 dict begin
/q { gsave } bind def
/Q { grestore } bind def
/cm { 6 array astore concat } bind def
/w { setlinewidth } bind def
/J { setlinecap } bind def
/j { setlinejoin } bind def
/M { setmiterlimit } bind def
/d { setdash } bind def
/m { moveto } bind def
/l { lineto } bind def
/c { curveto } bind def
/h { closepath } bind def
/re { exch dup neg 3 1 roll 5 3 roll moveto 0 rlineto
      0 exch rlineto 0 rlineto closepath } bind def
/S { stroke } bind def
/f { fill } bind def
/f* { eofill } bind def
/n { newpath } bind def
/W { clip } bind def
/W* { eoclip } bind def
/BT { } bind def
/ET { } bind def
/BDC { mark 3 1 roll /BDC pdfmark } bind def
/EMC { mark /EMC pdfmark } bind def
/cairo_store_point { /cairo_point_y exch def /cairo_point_x exch def } def
/Tj { show currentpoint cairo_store_point } bind def
/TJ {
  {
    dup
    type /stringtype eq
    { show } { -0.001 mul 0 cairo_font_matrix dtransform rmoveto } ifelse
  } forall
  currentpoint cairo_store_point
} bind def
/cairo_selectfont { cairo_font_matrix aload pop pop pop 0 0 6 array astore
    cairo_font exch selectfont cairo_point_x cairo_point_y moveto } bind def
/Tf { pop /cairo_font exch def /cairo_font_matrix where
      { pop cairo_selectfont } if } bind def
/Td { matrix translate cairo_font_matrix matrix concatmatrix dup
      /cairo_font_matrix exch def dup 4 get exch 5 get cairo_store_point
      /cairo_font where { pop cairo_selectfont } if } bind def
/Tm { 2 copy 8 2 roll 6 array astore /cairo_font_matrix exch def
      cairo_store_point /cairo_font where { pop cairo_selectfont } if } bind def
/g { setgray } bind def
/rg { setrgbcolor } bind def
/d1 { setcachedevice } bind def
/cairo_data_source {
  CairoDataIndex CairoData length lt
    { CairoData CairoDataIndex get /CairoDataIndex CairoDataIndex 1 add def }
    { () } ifelse
} def
/cairo_flush_ascii85_file { cairo_ascii85_file status { cairo_ascii85_file flushfile } if } def
/cairo_image { image cairo_flush_ascii85_file } def
/cairo_imagemask { imagemask cairo_flush_ascii85_file } def
%%EndProlog
%%BeginSetup
%%EndSetup
%%Page: 1 1
%%BeginPageSetup
%%PageBoundingBox: 18 18 366 366
%%EndPageSetup
q 18 18 348 348 rectclip
1 0 0 -1 0 384 cm q
0.278431 0.635294 0.831373 rg
48 96 264 36 re f
0.188235 0.52549 0.803922 rg
174 96 m 138 132 l 120 132 l 156 96 l h
174 96 m f
270 96 m 306 132 l 288 132 l 252 96 l h
270 96 m f
0.301961 0.717647 0.898039 rg
60 132 240 198 re f
0.988235 0.654902 0.0745098 rg
156 60 48 36 re f
0.992157 0.772549 0.356863 rg
156 60 m 114 18 l 78 54 l 120 96 l 156 96 l h
156 60 m f
240 96 m 282 54 l 246 18 l 204 60 l 204 96 l h
240 96 m f
0.945098 0.552941 0 rg
162 132 36 198 re f
0.988235 0.654902 0.0745098 rg
162 96 36 36 re f
0.992157 0.713726 0.184314 rg
102 96 m 18 180 l 48 180 l 48 210 l 162 96 l h
102 96 m f
258 96 m 342 180 l 312 180 l 312 210 l 198 96 l h
258 96 m f
0.945098 0.552941 0 rg
174 60 12 18 re f
0.992157 0.713726 0.184314 rg
124.242 55.758 m 115.758 64.242 l 147.516 96 l 156 96 l 156 87.516 l h
124.242 55.758 m f
235.758 55.758 m 204 87.516 l 204 96 l 212.484 96 l 244.242 64.242 l h
235.758 55.758 m f
0.992157 0.772549 0.356863 rg
233.996 228 m 233.996 257.82 209.82 281.992 180.004 281.992 c 150.184 281.992
 126.012 257.82 126.012 228 c 126.012 198.18 150.184 174.008 180.004 174.008
 c 209.82 174.008 233.996 198.18 233.996 228 c h
233.996 228 m f
0.831373 0.32549 0.109804 rg
168 210 m 168 213.312 165.312 216 162 216 c 158.688 216 156 213.312 156
 210 c 156 206.688 158.688 204 162 204 c 165.312 204 168 206.688 168 210
 c h
168 210 m f
204 246 m 204 249.312 201.312 252 198 252 c 194.688 252 192 249.312 192
 246 c 192 242.688 194.688 240 198 240 c 201.312 240 204 242.688 204 246
 c h
204 246 m f
151.719 247.75 m 199.711 199.758 l 208.195 208.238 l 160.203 256.234 l 
h
151.719 247.75 m f
0.729412 0.254902 0 rg
222 342 144 24 re f
0.831373 0.32549 0.109804 rg
342 150 24 192 re f
294 246 24 96 re f
246 270 24 72 re f
0.92549 0.494118 0.32549 rg
270 222 24 120 re f
318 180 24 162 re f
222 294 24 48 re f
0.945098 0.552941 0 rg
123.516 96 m 97.758 121.758 l 106.242 130.242 l 140.484 96 l h
123.516 96 m f
219.516 96 m 253.758 130.242 l 262.242 121.758 l 236.484 96 l h
219.516 96 m f
0.992157 0.713726 0.184314 rg
144 96 m 156 96 l 156 60 l 149.371 60 144 65.371 144 72 c h
144 96 m f
0.988235 0.654902 0.0745098 rg
144 92.484 m 147.516 96 l 156 96 l 156 87.516 l 144 75.516 l h
144 92.484 m f
0.992157 0.713726 0.184314 rg
204 60 m 204 96 l 240 96 l 240 89.371 234.629 84 228 84 c 216 84 l 216 
72 l 216 65.371 210.629 60 204 60 c h
204 60 m f
0.988235 0.654902 0.0745098 rg
216 84 m 216 75.516 l 204 87.516 l 204 96 l 212.484 96 l 224.484 84 l h
216 84 m f
0.945098 0.552941 0 rg
156 84 m 156 96 l 168 96 l 161.371 96 156 90.629 156 84 c h
156 84 m f
204 84 m 204 96 l 192 96 l 198.629 96 204 90.629 204 84 c h
204 84 m f
Q Q
showpage
%%Trailer
end
%%EOF
