%!PS-Adobe-3.0 EPSF-3.0
%%Creator: cairo 1.16.0 (https://cairographics.org)
%%CreationDate: Thu Aug 15 09:28:51 2019
%%Pages: 1
%%DocumentData: Clean7Bit
%%LanguageLevel: 2
%%BoundingBox: 18 84 366 312
%%EndComments
%%BeginProlog
50 dict begin
/q { gsave } bind def
/Q { grestore } bind def
/cm { 6 array astore concat } bind def
/w { setlinewidth } bind def
/J { setlinecap } bind def
/j { setlinejoin } bind def
/M { setmiterlimit } bind def
/d { setdash } bind def
/m { moveto } bind def
/l { lineto } bind def
/c { curveto } bind def
/h { closepath } bind def
/re { exch dup neg 3 1 roll 5 3 roll moveto 0 rlineto
      0 exch rlineto 0 rlineto closepath } bind def
/S { stroke } bind def
/f { fill } bind def
/f* { eofill } bind def
/n { newpath } bind def
/W { clip } bind def
/W* { eoclip } bind def
/BT { } bind def
/ET { } bind def
/BDC { mark 3 1 roll /BDC pdfmark } bind def
/EMC { mark /EMC pdfmark } bind def
/cairo_store_point { /cairo_point_y exch def /cairo_point_x exch def } def
/Tj { show currentpoint cairo_store_point } bind def
/TJ {
  {
    dup
    type /stringtype eq
    { show } { -0.001 mul 0 cairo_font_matrix dtransform rmoveto } ifelse
  } forall
  currentpoint cairo_store_point
} bind def
/cairo_selectfont { cairo_font_matrix aload pop pop pop 0 0 6 array astore
    cairo_font exch selectfont cairo_point_x cairo_point_y moveto } bind def
/Tf { pop /cairo_font exch def /cairo_font_matrix where
      { pop cairo_selectfont } if } bind def
/Td { matrix translate cairo_font_matrix matrix concatmatrix dup
      /cairo_font_matrix exch def dup 4 get exch 5 get cairo_store_point
      /cairo_font where { pop cairo_selectfont } if } bind def
/Tm { 2 copy 8 2 roll 6 array astore /cairo_font_matrix exch def
      cairo_store_point /cairo_font where { pop cairo_selectfont } if } bind def
/g { setgray } bind def
/rg { setrgbcolor } bind def
/d1 { setcachedevice } bind def
/cairo_data_source {
  CairoDataIndex CairoData length lt
    { CairoData CairoDataIndex get /CairoDataIndex CairoDataIndex 1 add def }
    { () } ifelse
} def
/cairo_flush_ascii85_file { cairo_ascii85_file status { cairo_ascii85_file flushfile } if } def
/cairo_image { image cairo_flush_ascii85_file } def
/cairo_imagemask { imagemask cairo_flush_ascii85_file } def
%%EndProlog
%%BeginSetup
%%EndSetup
%%Page: 1 1
%%BeginPageSetup
%%PageBoundingBox: 18 84 366 312
%%EndPageSetup
q 18 84 348 228 rectclip
1 0 0 -1 0 384 cm q
0.584314 0.796078 0.215686 rg
18 72 348 228 re f
0.411765 0.654902 0.0352941 rg
306 276 m 78 276 l 78 256.117 61.883 240 42 240 c 42 126 l 58.57 126 72
 112.57 72 96 c 306 96 l 306 115.883 322.117 132 342 132 c 342 240 l 322.117
 240 306 256.117 306 276 c h
306 276 m f
0.952941 0.321569 0.266667 rg
18 168 138 48 re f
228 168 138 48 re f
0.188235 0.52549 0.803922 rg
144 150 m 144 192 l 144 207.109 151.113 221.336 163.199 230.398 c 192 252
 l 220.801 230.398 l 232.887 221.336 240 207.109 240 192 c 240 150 l 226.746
 150 216 139.254 216 126 c 168 126 l 168 139.254 157.254 150 144 150 c h
144 150 m f
0.952941 0.321569 0.266667 rg
174 174 36 30 re f
0.992157 0.713726 0.184314 rg
210 174 m 198 174 l 198 162 l 198 158.688 195.312 156 192 156 c 188.688
 156 186 158.688 186 162 c 186 174 l 174 174 l 174 162 l 174 152.059 182.059
 144 192 144 c 201.941 144 210 152.059 210 162 c h
210 174 m f
36 186 12 12 re f
60 186 12 12 re f
84 186 12 12 re f
108 186 12 12 re f
264 186 12 12 re f
288 186 12 12 re f
312 186 12 12 re f
336 186 12 12 re f
Q Q
showpage
%%Trailer
end
%%EOF
