%!PS-Adobe-3.0 EPSF-3.0
%%Creator: cairo 1.16.0 (https://cairographics.org)
%%CreationDate: Thu Aug 15 09:28:52 2019
%%Pages: 1
%%DocumentData: Clean7Bit
%%LanguageLevel: 2
%%BoundingBox: 18 12 366 366
%%EndComments
%%BeginProlog
50 dict begin
/q { gsave } bind def
/Q { grestore } bind def
/cm { 6 array astore concat } bind def
/w { setlinewidth } bind def
/J { setlinecap } bind def
/j { setlinejoin } bind def
/M { setmiterlimit } bind def
/d { setdash } bind def
/m { moveto } bind def
/l { lineto } bind def
/c { curveto } bind def
/h { closepath } bind def
/re { exch dup neg 3 1 roll 5 3 roll moveto 0 rlineto
      0 exch rlineto 0 rlineto closepath } bind def
/S { stroke } bind def
/f { fill } bind def
/f* { eofill } bind def
/n { newpath } bind def
/W { clip } bind def
/W* { eoclip } bind def
/BT { } bind def
/ET { } bind def
/BDC { mark 3 1 roll /BDC pdfmark } bind def
/EMC { mark /EMC pdfmark } bind def
/cairo_store_point { /cairo_point_y exch def /cairo_point_x exch def } def
/Tj { show currentpoint cairo_store_point } bind def
/TJ {
  {
    dup
    type /stringtype eq
    { show } { -0.001 mul 0 cairo_font_matrix dtransform rmoveto } ifelse
  } forall
  currentpoint cairo_store_point
} bind def
/cairo_selectfont { cairo_font_matrix aload pop pop pop 0 0 6 array astore
    cairo_font exch selectfont cairo_point_x cairo_point_y moveto } bind def
/Tf { pop /cairo_font exch def /cairo_font_matrix where
      { pop cairo_selectfont } if } bind def
/Td { matrix translate cairo_font_matrix matrix concatmatrix dup
      /cairo_font_matrix exch def dup 4 get exch 5 get cairo_store_point
      /cairo_font where { pop cairo_selectfont } if } bind def
/Tm { 2 copy 8 2 roll 6 array astore /cairo_font_matrix exch def
      cairo_store_point /cairo_font where { pop cairo_selectfont } if } bind def
/g { setgray } bind def
/rg { setrgbcolor } bind def
/d1 { setcachedevice } bind def
/cairo_data_source {
  CairoDataIndex CairoData length lt
    { CairoData CairoDataIndex get /CairoDataIndex CairoDataIndex 1 add def }
    { () } ifelse
} def
/cairo_flush_ascii85_file { cairo_ascii85_file status { cairo_ascii85_file flushfile } if } def
/cairo_image { image cairo_flush_ascii85_file } def
/cairo_imagemask { imagemask cairo_flush_ascii85_file } def
%%EndProlog
%%BeginSetup
%%EndSetup
%%Page: 1 1
%%BeginPageSetup
%%PageBoundingBox: 18 12 366 366
%%EndPageSetup
q 18 12 348 354 rectclip
1 0 0 -1 0 384 cm q
0.266667 0.529412 0.0117647 rg
174 102 156 138 re f
0.584314 0.796078 0.215686 rg
174 102 156 90 re f
0.411765 0.654902 0.0352941 rg
174 102 m 210 102 l 210 121.883 193.883 138 174 138 c h
174 102 m f
330 102 m 330 138 l 310.117 138 294 121.883 294 102 c h
330 102 m f
330 192 m 294 192 l 294 172.117 310.117 156 330 156 c h
330 192 m f
174 192 m 174 156 l 193.883 156 210 172.117 210 192 c h
174 192 m f
0.152941 0.419608 0.00784314 rg
308.477 192 m 301.148 210.129 283.555 221.996 264 222 c 174 222 l 174 240
 l 330 240 l 330 192 l h
308.477 192 m f
0.988235 0.654902 0.0745098 rg
234 102 36 90 re f
0.976471 0.521569 0 rg
234 192 36 48 re f
0.188235 0.52549 0.803922 rg
162 78 m 222 78 l 248.508 78 270 99.492 270 126 c 270 216 l 270 229.254
 259.254 240 246 240 c 138 240 l 124.746 240 114 229.254 114 216 c 114 126
 l 114 99.492 135.492 78 162 78 c h
162 78 m f
0.164706 0.439216 0.670588 rg
162 54 60 24 re f
0.188235 0.52549 0.803922 rg
162 54 m 156 18 l 180 30 l 192 18 l 204 30 l 228 18 l 222 54 l h
162 54 m f
0.266667 0.529412 0.0117647 rg
174 102 156 138 re f
0.584314 0.796078 0.215686 rg
174 102 156 90 re f
0.411765 0.654902 0.0352941 rg
174 102 m 210 102 l 210 121.883 193.883 138 174 138 c h
174 102 m f
330 102 m 330 138 l 310.117 138 294 121.883 294 102 c h
330 102 m f
330 192 m 294 192 l 294 172.117 310.117 156 330 156 c h
330 192 m f
174 192 m 174 156 l 193.883 156 210 172.117 210 192 c h
174 192 m f
0.152941 0.419608 0.00784314 rg
308.477 192 m 301.148 210.129 283.555 221.996 264 222 c 174 222 l 174 240
 l 330 240 l 330 192 l h
308.477 192 m f
0.988235 0.654902 0.0745098 rg
234 102 36 90 re f
0.976471 0.521569 0 rg
234 192 36 48 re f
0.992157 0.713726 0.184314 rg
114 168 60 24 re f
0.945098 0.552941 0 rg
54 168 60 24 re f
0.992157 0.713726 0.184314 rg
54 144 60 24 re f
0.945098 0.552941 0 rg
114 192 60 24 re f
0.992157 0.713726 0.184314 rg
54 192 60 24 re f
114 216 60 24 re f
0.945098 0.552941 0 rg
54 216 60 24 re f
0.941176 0.501961 0 rg
90 216 24 24 re f
0.988235 0.654902 0.0745098 rg
90 192 24 24 re f
0.941176 0.501961 0 rg
90 168 24 24 re f
0.988235 0.654902 0.0745098 rg
150 216 24 24 re f
0.941176 0.501961 0 rg
150 192 24 24 re f
0.988235 0.654902 0.0745098 rg
150 168 24 24 re f
90 144 24 24 re f
0.203922 0.529412 0.796078 rg
18 348 108 24 re f
0.301961 0.717647 0.898039 rg
30 324 84 24 re f
1 0.854902 0.823529 rg
96 252 m 90 246 l 90 210 l 90 200.059 81.941 192 72 192 c 62.059 192 54
 200.059 54 210 c 54 114 l 54 104.059 45.941 96 36 96 c 26.059 96 18 104.059
 18 114 c 18 244.734 l 18 272.945 26.352 300.527 42 324 c 96 324 l 105.547
 314.453 110.91 301.504 110.91 288 c 110.91 274.496 105.547 261.547 96 252
 c h
96 252 m f
1 0.623529 0.607843 rg
48 264 m 44.688 264 42 261.312 42 258 c 42 210 l 42 206.688 44.688 204 
48 204 c 51.312 204 54 206.688 54 210 c 54 258 l 54 261.312 51.312 264 48
 264 c h
48 264 m f
0.203922 0.529412 0.796078 rg
258 348 108 24 re f
0.301961 0.717647 0.898039 rg
270 324 84 24 re f
1 0.854902 0.823529 rg
348 96 m 343.227 96 338.648 97.895 335.273 101.273 c 331.895 104.648 330
 109.227 330 114 c 330 210 l 330 200.059 321.941 192 312 192 c 302.059 192
 294 200.059 294 210 c 294 246 l 288 252 l 278.453 261.547 273.09 274.496
 273.09 288 c 273.09 301.504 278.453 314.453 288 324 c 342 324 l 357.648
 300.527 366 272.945 366 244.734 c 366 114 l 366 109.227 364.105 104.648
 360.727 101.273 c 357.352 97.895 352.773 96 348 96 c h
348 96 m f
1 0.623529 0.607843 rg
336 264 m 332.688 264 330 261.312 330 258 c 330 210 l 330 206.688 332.688
 204 336 204 c 339.312 204 342 206.688 342 210 c 342 258 l 342 261.312 339.312
 264 336 264 c h
336 264 m f
Q Q
showpage
%%Trailer
end
%%EOF
