%!PS-Adobe-3.0 EPSF-3.0
%%Creator: cairo 1.16.0 (https://cairographics.org)
%%CreationDate: Thu Aug 15 09:28:52 2019
%%Pages: 1
%%DocumentData: Clean7Bit
%%LanguageLevel: 2
%%BoundingBox: 18 12 369 367
%%EndComments
%%BeginProlog
50 dict begin
/q { gsave } bind def
/Q { grestore } bind def
/cm { 6 array astore concat } bind def
/w { setlinewidth } bind def
/J { setlinecap } bind def
/j { setlinejoin } bind def
/M { setmiterlimit } bind def
/d { setdash } bind def
/m { moveto } bind def
/l { lineto } bind def
/c { curveto } bind def
/h { closepath } bind def
/re { exch dup neg 3 1 roll 5 3 roll moveto 0 rlineto
      0 exch rlineto 0 rlineto closepath } bind def
/S { stroke } bind def
/f { fill } bind def
/f* { eofill } bind def
/n { newpath } bind def
/W { clip } bind def
/W* { eoclip } bind def
/BT { } bind def
/ET { } bind def
/BDC { mark 3 1 roll /BDC pdfmark } bind def
/EMC { mark /EMC pdfmark } bind def
/cairo_store_point { /cairo_point_y exch def /cairo_point_x exch def } def
/Tj { show currentpoint cairo_store_point } bind def
/TJ {
  {
    dup
    type /stringtype eq
    { show } { -0.001 mul 0 cairo_font_matrix dtransform rmoveto } ifelse
  } forall
  currentpoint cairo_store_point
} bind def
/cairo_selectfont { cairo_font_matrix aload pop pop pop 0 0 6 array astore
    cairo_font exch selectfont cairo_point_x cairo_point_y moveto } bind def
/Tf { pop /cairo_font exch def /cairo_font_matrix where
      { pop cairo_selectfont } if } bind def
/Td { matrix translate cairo_font_matrix matrix concatmatrix dup
      /cairo_font_matrix exch def dup 4 get exch 5 get cairo_store_point
      /cairo_font where { pop cairo_selectfont } if } bind def
/Tm { 2 copy 8 2 roll 6 array astore /cairo_font_matrix exch def
      cairo_store_point /cairo_font where { pop cairo_selectfont } if } bind def
/g { setgray } bind def
/rg { setrgbcolor } bind def
/d1 { setcachedevice } bind def
/cairo_data_source {
  CairoDataIndex CairoData length lt
    { CairoData CairoDataIndex get /CairoDataIndex CairoDataIndex 1 add def }
    { () } ifelse
} def
/cairo_flush_ascii85_file { cairo_ascii85_file status { cairo_ascii85_file flushfile } if } def
/cairo_image { image cairo_flush_ascii85_file } def
/cairo_imagemask { imagemask cairo_flush_ascii85_file } def
%%EndProlog
%%BeginSetup
%%EndSetup
%%Page: 1 1
%%BeginPageSetup
%%PageBoundingBox: 18 12 369 367
%%EndPageSetup
q 18 12 351 355 rectclip
1 0 0 -1 0 384 cm q
0.992157 0.772549 0.356863 rg
18 18 348 354 re f
0.984314 0.407843 0.356863 rg
136.473 163.219 m 108 186 l 79.527 163.219 l 59.598 147.281 48 123.145 
48 97.629 c 48 72 l 61.254 72 72 61.254 72 48 c 144 48 l 144 61.254 154.746
 72 168 72 c 168 97.629 l 168 123.145 156.402 147.281 136.473 163.219 c 
h
136.473 163.219 m f
0.858824 0.254902 0.196078 rg
108 144 m 78 114 l 74.816 110.816 73.031 106.5 73.031 102 c 73.031 97.5
 74.816 93.184 78 90 c 81.184 86.816 85.5 85.031 90 85.031 c 94.5 85.031
 98.816 86.816 102 90 c 108 96 l 114 90 l 117.184 86.816 121.5 85.031 126
 85.031 c 130.5 85.031 134.816 86.816 138 90 c 141.184 93.184 142.969 97.5
 142.969 102 c 142.969 106.5 141.184 110.816 138 114 c h
108 144 m f
0.952941 0.321569 0.266667 rg
155.574 68.441 m 152.324 112.246 124.18 150.277 83.238 166.188 c 108 186
 l 136.473 163.219 l 156.402 147.281 168 123.145 168 97.629 c 168 72 l 163.609
 71.984 159.309 70.75 155.574 68.441 c h
155.574 68.441 m f
0.203922 0.529412 0.796078 rg
366 251.789 m 354.543 234.738 337.609 222.113 318 216 c 258 222 l 210.098
 244.355 l 183.223 256.895 162.688 279.938 153.309 308.07 c 132 372 l 366
 372 l h
366 251.789 m f
0.258824 0.627451 0.882353 rg
366 251.789 m 354.543 234.738 337.609 222.113 318 216 c 258 222 l 209.512
 266.758 l 183.52 290.75 176.52 329.035 192.336 360.676 c 198 372 l 366 
372 l h
366 251.789 m f
0.203922 0.529412 0.796078 rg
366 231 m 318 216 l 308.199 235.602 l 287.023 277.953 276 324.652 276 372
 c 366 372 l h
366 231 m f
1 0.854902 0.823529 rg
311.523 151.254 m 318 216 l 258 222 l 264 183 l 276 180 l 294 156 l h
311.523 151.254 m f
0.360784 0.215686 0.141176 rg
348 120 m 360.352 132.352 l 367.492 139.492 369.984 150.051 366.793 159.625
 c 366.074 161.777 l 362.445 172.66 352.262 180 340.789 180 c 338.52 180
 l 324.828 180 313.363 169.625 312 156 c 312 144 l h
348 120 m f
0.458824 0.27451 0.180392 rg
353.57 81.422 m 352.566 75.395 l 349.422 56.531 338.621 39.801 322.723 
29.168 c 306.824 18.535 287.238 14.945 268.598 19.246 c 264.598 20.168 l
 244.703 24.793 227.867 37.961 218.59 56.156 c 288 114 l 302.359 99.641 
l 307.418 94.582 315.527 94.293 320.934 98.98 c 326.336 103.668 327.199 
111.734 322.906 117.457 c 294 156 l 301.793 156 l 312.25 156 322.363 152.258
 330.305 145.453 c 348.738 129.656 357.562 105.367 353.57 81.422 c h
353.57 81.422 m f
1 0.854902 0.823529 rg
321.641 99.641 m 316.316 94.316 307.684 94.316 302.359 99.641 c 288 114
 l 218.59 56.156 l 215.867 61.383 213.828 66.934 212.516 72.68 c 198 138
 l 216 138 l 228 192 l 276 180 l 294 156 l 322.906 117.457 l 326.977 112.031
 326.438 104.438 321.641 99.641 c h
321.641 99.641 m f
1 0.623529 0.607843 rg
280.973 191.121 m 282.312 190.789 283.496 190.004 284.32 188.902 c 292.801
 177.598 l 294.781 174.945 294.242 171.191 291.594 169.207 c 288.945 167.219
 285.188 167.754 283.199 170.402 c 276 180 l 264 183 l 262.023 195.859 l
 h
280.973 191.121 m f
0.188235 0.247059 0.301961 rg
228 102 m 240 102 l 243.324 102 246 104.676 246 108 c 246 111.324 243.324
 114 240 114 c 228 114 l 224.676 114 222 111.324 222 108 c 222 104.676 224.676
 102 228 102 c h
228 102 m f
0.266667 0.529412 0.0117647 rg
18 252 144 114 re f
0.152941 0.419608 0.00784314 rg
138 252 m 138 306 l 138 329.195 119.195 348 96 348 c 18 348 l 18 366 l 
162 366 l 162 252 l h
138 252 m f
0.584314 0.796078 0.215686 rg
18 252 144 72 re f
0.411765 0.654902 0.0352941 rg
48 324 m 18 324 l 18 294 l 34.566 294.008 47.992 307.434 48 324 c h
48 324 m f
18 252 m 48 252 l 47.992 268.566 34.566 281.992 18 282 c h
18 252 m f
162 252 m 162 282 l 145.434 281.992 132.008 268.566 132 252 c h
162 252 m f
162 294 m 162 324 l 132 324 l 132.008 307.434 145.434 294.008 162 294 c
 h
162 294 m f
132 252 m 132.008 268.566 145.434 281.992 162 282 c f
132 324 m 132.008 307.434 145.434 294.008 162 294 c f
18 294 m 34.566 294.008 47.992 307.434 48 324 c f
18 282 m 34.566 281.992 47.992 268.566 48 252 c f
0.976471 0.521569 0 rg
72 324 36 42 re f
0.988235 0.654902 0.0745098 rg
72 252 36 72 re f
Q Q
showpage
%%Trailer
end
%%EOF
