%!PS-Adobe-3.0 EPSF-3.0
%%Creator: cairo 1.16.0 (https://cairographics.org)
%%CreationDate: Thu Aug 15 09:28:52 2019
%%Pages: 1
%%DocumentData: Clean7Bit
%%LanguageLevel: 2
%%BoundingBox: 18 18 366 366
%%EndComments
%%BeginProlog
50 dict begin
/q { gsave } bind def
/Q { grestore } bind def
/cm { 6 array astore concat } bind def
/w { setlinewidth } bind def
/J { setlinecap } bind def
/j { setlinejoin } bind def
/M { setmiterlimit } bind def
/d { setdash } bind def
/m { moveto } bind def
/l { lineto } bind def
/c { curveto } bind def
/h { closepath } bind def
/re { exch dup neg 3 1 roll 5 3 roll moveto 0 rlineto
      0 exch rlineto 0 rlineto closepath } bind def
/S { stroke } bind def
/f { fill } bind def
/f* { eofill } bind def
/n { newpath } bind def
/W { clip } bind def
/W* { eoclip } bind def
/BT { } bind def
/ET { } bind def
/BDC { mark 3 1 roll /BDC pdfmark } bind def
/EMC { mark /EMC pdfmark } bind def
/cairo_store_point { /cairo_point_y exch def /cairo_point_x exch def } def
/Tj { show currentpoint cairo_store_point } bind def
/TJ {
  {
    dup
    type /stringtype eq
    { show } { -0.001 mul 0 cairo_font_matrix dtransform rmoveto } ifelse
  } forall
  currentpoint cairo_store_point
} bind def
/cairo_selectfont { cairo_font_matrix aload pop pop pop 0 0 6 array astore
    cairo_font exch selectfont cairo_point_x cairo_point_y moveto } bind def
/Tf { pop /cairo_font exch def /cairo_font_matrix where
      { pop cairo_selectfont } if } bind def
/Td { matrix translate cairo_font_matrix matrix concatmatrix dup
      /cairo_font_matrix exch def dup 4 get exch 5 get cairo_store_point
      /cairo_font where { pop cairo_selectfont } if } bind def
/Tm { 2 copy 8 2 roll 6 array astore /cairo_font_matrix exch def
      cairo_store_point /cairo_font where { pop cairo_selectfont } if } bind def
/g { setgray } bind def
/rg { setrgbcolor } bind def
/d1 { setcachedevice } bind def
/cairo_data_source {
  CairoDataIndex CairoData length lt
    { CairoData CairoDataIndex get /CairoDataIndex CairoDataIndex 1 add def }
    { () } ifelse
} def
/cairo_flush_ascii85_file { cairo_ascii85_file status { cairo_ascii85_file flushfile } if } def
/cairo_image { image cairo_flush_ascii85_file } def
/cairo_imagemask { imagemask cairo_flush_ascii85_file } def
%%EndProlog
%%BeginSetup
%%EndSetup
%%Page: 1 1
%%BeginPageSetup
%%PageBoundingBox: 18 18 366 366
%%EndPageSetup
q 18 18 348 348 rectclip
1 0 0 -1 0 384 cm q
0.203922 0.529412 0.796078 rg
96 168 96 198 re f
0.164706 0.439216 0.670588 rg
186 168 m 186 192 l 185.977 242.66 146.562 284.566 96 287.695 c 96 366 
l 192 366 l 192 168 l h
186 168 m f
192 168 96 198 re f
0.12549 0.380392 0.6 rg
192 168 m 192 366 l 288 366 l 288 240 l 284.215 240 l 240.598 240 202.578
 210.316 192 168 c h
192 168 m f
0.203922 0.529412 0.796078 rg
120 120 72 48 re f
0.164706 0.439216 0.670588 rg
186 120 m 186 129.547 182.207 138.703 175.457 145.457 c 168.703 152.207
 159.547 156 150 156 c 120 156 l 120 168 l 192 168 l 192 120 l h
186 120 m f
192 120 72 48 re f
0.12549 0.380392 0.6 rg
258 150 m 238.445 149.996 220.852 138.129 213.523 120 c 192 120 l 192 168
 l 264 168 l 264 150 l h
258 150 m f
0.203922 0.529412 0.796078 rg
144 84 48 36 re f
0.164706 0.439216 0.670588 rg
156 114 m 144 114 l 144 120 l 192 120 l 192 84 l 191.461 84 l 188.543 101.312
 173.555 113.992 156 114 c h
156 114 m f
192 84 48 36 re f
0.12549 0.380392 0.6 rg
234 114 m 216.445 113.992 201.457 101.312 198.539 84 c 192 84 l 192 120
 l 240 120 l 240 114 l h
234 114 m f
0.203922 0.529412 0.796078 rg
174 54 36 30 re f
0.164706 0.439216 0.670588 rg
180 78 m 174 78 l 174 84 l 210 84 l 210 54 l 209.395 54 l 206.543 67.969
 194.254 78 180 78 c h
180 78 m f
0.203922 0.529412 0.796078 rg
180 18 24 36 re f
0.164706 0.439216 0.670588 rg
180 54 m 204 54 l 204 30 l 204 43.254 193.254 54 180 54 c h
180 54 m f
0.301961 0.717647 0.898039 rg
114 186 12 12 re f
138 186 12 12 re f
162 186 12 12 re f
114 216 12 12 re f
138 216 12 12 re f
162 216 12 12 re f
114 246 12 12 re f
138 246 12 12 re f
162 246 12 12 re f
114 276 12 12 re f
138 276 12 12 re f
162 276 12 12 re f
210 186 12 12 re f
234 186 12 12 re f
258 186 12 12 re f
210 216 12 12 re f
234 216 12 12 re f
258 216 12 12 re f
210 246 12 12 re f
234 246 12 12 re f
258 246 12 12 re f
210 276 12 12 re f
234 276 12 12 re f
258 276 12 12 re f
138 138 12 12 re f
162 138 12 12 re f
210 138 12 12 re f
234 138 12 12 re f
210 96 12 12 re f
162 96 12 12 re f
0.266667 0.529412 0.0117647 rg
198 228 168 138 re f
0.152941 0.419608 0.00784314 rg
344.477 318 m 337.148 336.129 319.555 347.996 300 348 c 198 348 l 198 366
 l 366 366 l 366 318 l h
344.477 318 m f
0.584314 0.796078 0.215686 rg
198 228 168 90 re f
0.976471 0.521569 0 rg
264 318 36 48 re f
0.988235 0.654902 0.0745098 rg
264 228 36 90 re f
0.411765 0.654902 0.0352941 rg
234 318 m 198 318 l 198 282 l 217.875 282.016 233.984 298.125 234 318 c
 h
234 318 m f
198 228 m 234 228 l 233.984 247.875 217.875 263.984 198 264 c h
198 228 m f
366 228 m 366 264 l 346.125 263.984 330.016 247.875 330 228 c h
366 228 m f
366 282 m 366 318 l 330 318 l 330.016 298.125 346.125 282.016 366 282 c
 h
366 282 m f
0.945098 0.552941 0 rg
162 318 66 24 re f
0.992157 0.713726 0.184314 rg
96 318 66 24 re f
150 342 66 24 re f
0.945098 0.552941 0 rg
84 342 66 24 re f
0.992157 0.713726 0.184314 rg
150 294 66 24 re f
0.945098 0.552941 0 rg
84 294 66 24 re f
30 318 66 24 re f
0.992157 0.713726 0.184314 rg
18 342 66 24 re f
18 294 66 24 re f
0.945098 0.552941 0 rg
36 270 60 24 re f
0.941176 0.501961 0 rg
72 270 24 24 re f
72 318 24 24 re f
0.988235 0.654902 0.0745098 rg
60 294 24 24 re f
60 342 24 24 re f
192 294 24 24 re f
192 342 24 24 re f
138 318 24 24 re f
0.941176 0.501961 0 rg
126 294 24 24 re f
126 342 24 24 re f
204 318 24 24 re f
Q Q
showpage
%%Trailer
end
%%EOF
