%!PS-Adobe-3.0 EPSF-3.0
%%Creator: cairo 1.16.0 (https://cairographics.org)
%%CreationDate: Thu Aug 15 09:28:52 2019
%%Pages: 1
%%DocumentData: Clean7Bit
%%LanguageLevel: 2
%%BoundingBox: 18 12 372 366
%%EndComments
%%BeginProlog
50 dict begin
/q { gsave } bind def
/Q { grestore } bind def
/cm { 6 array astore concat } bind def
/w { setlinewidth } bind def
/J { setlinecap } bind def
/j { setlinejoin } bind def
/M { setmiterlimit } bind def
/d { setdash } bind def
/m { moveto } bind def
/l { lineto } bind def
/c { curveto } bind def
/h { closepath } bind def
/re { exch dup neg 3 1 roll 5 3 roll moveto 0 rlineto
      0 exch rlineto 0 rlineto closepath } bind def
/S { stroke } bind def
/f { fill } bind def
/f* { eofill } bind def
/n { newpath } bind def
/W { clip } bind def
/W* { eoclip } bind def
/BT { } bind def
/ET { } bind def
/BDC { mark 3 1 roll /BDC pdfmark } bind def
/EMC { mark /EMC pdfmark } bind def
/cairo_store_point { /cairo_point_y exch def /cairo_point_x exch def } def
/Tj { show currentpoint cairo_store_point } bind def
/TJ {
  {
    dup
    type /stringtype eq
    { show } { -0.001 mul 0 cairo_font_matrix dtransform rmoveto } ifelse
  } forall
  currentpoint cairo_store_point
} bind def
/cairo_selectfont { cairo_font_matrix aload pop pop pop 0 0 6 array astore
    cairo_font exch selectfont cairo_point_x cairo_point_y moveto } bind def
/Tf { pop /cairo_font exch def /cairo_font_matrix where
      { pop cairo_selectfont } if } bind def
/Td { matrix translate cairo_font_matrix matrix concatmatrix dup
      /cairo_font_matrix exch def dup 4 get exch 5 get cairo_store_point
      /cairo_font where { pop cairo_selectfont } if } bind def
/Tm { 2 copy 8 2 roll 6 array astore /cairo_font_matrix exch def
      cairo_store_point /cairo_font where { pop cairo_selectfont } if } bind def
/g { setgray } bind def
/rg { setrgbcolor } bind def
/d1 { setcachedevice } bind def
/cairo_data_source {
  CairoDataIndex CairoData length lt
    { CairoData CairoDataIndex get /CairoDataIndex CairoDataIndex 1 add def }
    { () } ifelse
} def
/cairo_flush_ascii85_file { cairo_ascii85_file status { cairo_ascii85_file flushfile } if } def
/cairo_image { image cairo_flush_ascii85_file } def
/cairo_imagemask { imagemask cairo_flush_ascii85_file } def
%%EndProlog
%%BeginSetup
%%EndSetup
%%Page: 1 1
%%BeginPageSetup
%%PageBoundingBox: 18 12 372 366
%%EndPageSetup
q 18 12 354 354 rectclip
1 0 0 -1 0 384 cm q
0.992157 0.772549 0.356863 rg
18 18 354 354 re f
0.945098 0.552941 0 rg
48 48 300 48 re f
48 264 84 12 re f
48 240 12 12 re f
72 216 12 36 re f
96 228 12 24 re f
120 204 12 48 re f
132 186 m 132 174 l 54 174 l 54 120 l 42 120 l 42 180 l 42 181.59 42.633
 183.117 43.758 184.242 c 44.883 185.367 46.41 186 48 186 c h
132 186 m f
90 146.484 m 97.758 154.242 l 98.883 155.367 100.41 156 102 156 c 103.59
 156 105.117 155.367 106.242 154.242 c 120 140.484 l 120 150 l 132 150 l
 132 126 l 132 124.41 131.367 122.883 130.242 121.758 c 129.117 120.633 
127.59 120 126 120 c 102 120 l 102 132 l 111.516 132 l 102 141.516 l 94.242
 133.758 l 93.117 132.633 91.59 132 90 132 c 88.41 132 86.883 132.633 85.758
 133.758 c 67.758 151.758 l 76.242 160.242 l h
90 146.484 m f
198 120 150 12 re f
168 150 36 12 re f
216 150 132 12 re f
168 180 72 12 re f
168 210 48 12 re f
168 240 24 12 re f
204 300 30 12 re f
192 324 42 12 re f
103.758 289.758 m 94.52 298.996 l 81.633 290.469 64.383 293.086 54.609 
305.051 c 44.832 317.016 45.707 334.441 56.633 345.367 c 67.559 356.293 
84.984 357.168 96.949 347.391 c 108.914 337.617 111.531 320.367 103.004 
307.48 c 110.484 300 l 156 300 l 156 288 l 108 288 l 106.41 288 104.883 
288.633 103.758 289.758 c h
96 324 m 96 331.281 91.613 337.844 84.887 340.629 c 78.164 343.414 70.422
 341.875 65.273 336.727 c 60.125 331.578 58.586 323.836 61.371 317.113 c
 64.156 310.387 70.719 306 78 306 c 80.672 306.016 83.309 306.629 85.711
 307.805 c 73.758 319.758 l 82.242 328.242 l 94.195 316.289 l 95.371 318.691
 95.984 321.328 96 324 c h
96 324 m f
1 0.854902 0.823529 rg
305.859 189.953 m 298.188 187.395 289.867 187.551 282.297 190.391 c 256.012
 200.246 l 250.441 202.336 247.543 208.484 249.48 214.113 c 250.238 216.316
 l 251.07 218.738 252.723 220.789 254.914 222.117 c 250.27 225.82 249.41
 232.543 252.973 237.293 c 264 252 l 257.371 258.629 257.371 269.371 264
 276 c 282 294 l 312 294 l 330 258 l 330 223.449 l 330 208.25 320.277 194.758
 305.859 189.953 c h
306 237.156 m 286.199 243.41 l 270.305 223.781 l 269.727 223.074 269.059
 222.438 268.324 221.895 c 306 210.488 l h
306 237.156 m f
0.301961 0.717647 0.898039 rg
264 294 60 24 re f
0.203922 0.529412 0.796078 rg
252 318 78 54 re f
1 0.623529 0.607843 rg
302.684 260.227 m 300.871 260.23 299.152 259.41 298.012 258 c 286.199 243.41
 l 284.121 240.832 284.523 237.059 287.098 234.977 c 289.668 232.895 293.445
 233.293 295.527 235.863 c 307.34 250.453 l 308.797 252.25 309.086 254.723
 308.094 256.809 c 307.098 258.895 304.996 260.223 302.684 260.227 c h
302.684 260.227 m f
0.176471 0.490196 0.74902 rg
366 218.211 m 286.199 243.422 l 270.301 223.801 l 269.715 223.086 269.051
 222.441 268.32 221.879 c 360 194.211 l h
366 218.211 m f
263.039 250.738 m 240 258 l 204 258 l 228 234 l 251.52 226.922 l 251.039
 228.145 250.797 229.445 250.801 230.762 c 250.777 233.117 251.539 235.418
 252.961 237.301 c h
263.039 250.738 m f
Q Q
showpage
%%Trailer
end
%%EOF
