%!PS-Adobe-3.0 EPSF-3.0
%%Creator: cairo 1.16.0 (https://cairographics.org)
%%CreationDate: Thu Aug 15 09:28:53 2019
%%Pages: 1
%%DocumentData: Clean7Bit
%%LanguageLevel: 2
%%BoundingBox: 18 18 366 366
%%EndComments
%%BeginProlog
50 dict begin
/q { gsave } bind def
/Q { grestore } bind def
/cm { 6 array astore concat } bind def
/w { setlinewidth } bind def
/J { setlinecap } bind def
/j { setlinejoin } bind def
/M { setmiterlimit } bind def
/d { setdash } bind def
/m { moveto } bind def
/l { lineto } bind def
/c { curveto } bind def
/h { closepath } bind def
/re { exch dup neg 3 1 roll 5 3 roll moveto 0 rlineto
      0 exch rlineto 0 rlineto closepath } bind def
/S { stroke } bind def
/f { fill } bind def
/f* { eofill } bind def
/n { newpath } bind def
/W { clip } bind def
/W* { eoclip } bind def
/BT { } bind def
/ET { } bind def
/BDC { mark 3 1 roll /BDC pdfmark } bind def
/EMC { mark /EMC pdfmark } bind def
/cairo_store_point { /cairo_point_y exch def /cairo_point_x exch def } def
/Tj { show currentpoint cairo_store_point } bind def
/TJ {
  {
    dup
    type /stringtype eq
    { show } { -0.001 mul 0 cairo_font_matrix dtransform rmoveto } ifelse
  } forall
  currentpoint cairo_store_point
} bind def
/cairo_selectfont { cairo_font_matrix aload pop pop pop 0 0 6 array astore
    cairo_font exch selectfont cairo_point_x cairo_point_y moveto } bind def
/Tf { pop /cairo_font exch def /cairo_font_matrix where
      { pop cairo_selectfont } if } bind def
/Td { matrix translate cairo_font_matrix matrix concatmatrix dup
      /cairo_font_matrix exch def dup 4 get exch 5 get cairo_store_point
      /cairo_font where { pop cairo_selectfont } if } bind def
/Tm { 2 copy 8 2 roll 6 array astore /cairo_font_matrix exch def
      cairo_store_point /cairo_font where { pop cairo_selectfont } if } bind def
/g { setgray } bind def
/rg { setrgbcolor } bind def
/d1 { setcachedevice } bind def
/cairo_data_source {
  CairoDataIndex CairoData length lt
    { CairoData CairoDataIndex get /CairoDataIndex CairoDataIndex 1 add def }
    { () } ifelse
} def
/cairo_flush_ascii85_file { cairo_ascii85_file status { cairo_ascii85_file flushfile } if } def
/cairo_image { image cairo_flush_ascii85_file } def
/cairo_imagemask { imagemask cairo_flush_ascii85_file } def
%%EndProlog
%%BeginSetup
%%EndSetup
%%Page: 1 1
%%BeginPageSetup
%%PageBoundingBox: 18 18 366 366
%%EndPageSetup
q 18 18 348 348 rectclip
1 0 0 -1 0 384 cm q
0.203922 0.560784 0.85098 rg
66 42 204 276 re f
0.301961 0.717647 0.898039 rg
90 18 204 276.75 re f
0.176471 0.490196 0.74902 rg
114 42 156 24 re f
120 90 42 12 re f
174 90 102 12 re f
108 120 102 12 re f
108 150 72 12 re f
108 180 72 12 re f
204 150 36 12 re f
252 150 24 12 re f
204 180 36 12 re f
108 210 72 12 re f
204 210 36 12 re f
252 180 24 12 re f
0.945098 0.552941 0 rg
18 318 66 24 re f
0.992157 0.713726 0.184314 rg
84 318 66 24 re f
30 342 66 24 re f
0.945098 0.552941 0 rg
96 342 66 24 re f
0.992157 0.713726 0.184314 rg
30 294 66 24 re f
0.945098 0.552941 0 rg
96 294 66 24 re f
150 318 72 24 re f
0.992157 0.713726 0.184314 rg
162 342 66 24 re f
162 294 66 24 re f
0.945098 0.552941 0 rg
66 270 60 24 re f
0.941176 0.501961 0 rg
102 270 24 24 re f
138 294 24 24 re f
138 342 24 24 re f
66 318 18 24 re f
0.988235 0.654902 0.0745098 rg
72 294 24 24 re f
126 318 24 24 re f
72 342 24 24 re f
204 294 24 24 re f
204 342 24 24 re f
0.917647 0.290196 0.231373 rg
222 342 144 24 re f
0.952941 0.321569 0.266667 rg
342 150 24 192 re f
294 186 24 156 re f
246 258 24 84 re f
0.984314 0.407843 0.356863 rg
270 222 24 120 re f
318 204 24 138 re f
222 240 24 102 re f
0.941176 0.501961 0 rg
198 318 24 24 re f
Q Q
showpage
%%Trailer
end
%%EOF
