%!PS-Adobe-3.0 EPSF-3.0
%%Creator: cairo 1.16.0 (https://cairographics.org)
%%CreationDate: Thu Aug 15 09:28:53 2019
%%Pages: 1
%%DocumentData: Clean7Bit
%%LanguageLevel: 2
%%BoundingBox: 36 12 348 366
%%EndComments
%%BeginProlog
50 dict begin
/q { gsave } bind def
/Q { grestore } bind def
/cm { 6 array astore concat } bind def
/w { setlinewidth } bind def
/J { setlinecap } bind def
/j { setlinejoin } bind def
/M { setmiterlimit } bind def
/d { setdash } bind def
/m { moveto } bind def
/l { lineto } bind def
/c { curveto } bind def
/h { closepath } bind def
/re { exch dup neg 3 1 roll 5 3 roll moveto 0 rlineto
      0 exch rlineto 0 rlineto closepath } bind def
/S { stroke } bind def
/f { fill } bind def
/f* { eofill } bind def
/n { newpath } bind def
/W { clip } bind def
/W* { eoclip } bind def
/BT { } bind def
/ET { } bind def
/BDC { mark 3 1 roll /BDC pdfmark } bind def
/EMC { mark /EMC pdfmark } bind def
/cairo_store_point { /cairo_point_y exch def /cairo_point_x exch def } def
/Tj { show currentpoint cairo_store_point } bind def
/TJ {
  {
    dup
    type /stringtype eq
    { show } { -0.001 mul 0 cairo_font_matrix dtransform rmoveto } ifelse
  } forall
  currentpoint cairo_store_point
} bind def
/cairo_selectfont { cairo_font_matrix aload pop pop pop 0 0 6 array astore
    cairo_font exch selectfont cairo_point_x cairo_point_y moveto } bind def
/Tf { pop /cairo_font exch def /cairo_font_matrix where
      { pop cairo_selectfont } if } bind def
/Td { matrix translate cairo_font_matrix matrix concatmatrix dup
      /cairo_font_matrix exch def dup 4 get exch 5 get cairo_store_point
      /cairo_font where { pop cairo_selectfont } if } bind def
/Tm { 2 copy 8 2 roll 6 array astore /cairo_font_matrix exch def
      cairo_store_point /cairo_font where { pop cairo_selectfont } if } bind def
/g { setgray } bind def
/rg { setrgbcolor } bind def
/d1 { setcachedevice } bind def
/cairo_data_source {
  CairoDataIndex CairoData length lt
    { CairoData CairoDataIndex get /CairoDataIndex CairoDataIndex 1 add def }
    { () } ifelse
} def
/cairo_flush_ascii85_file { cairo_ascii85_file status { cairo_ascii85_file flushfile } if } def
/cairo_image { image cairo_flush_ascii85_file } def
/cairo_imagemask { imagemask cairo_flush_ascii85_file } def
%%EndProlog
%%BeginSetup
%%EndSetup
%%Page: 1 1
%%BeginPageSetup
%%PageBoundingBox: 36 12 348 366
%%EndPageSetup
q 36 12 312 354 rectclip
1 0 0 -1 0 384 cm q
0.917647 0.290196 0.231373 rg
36 18 228 318 re f
0.811765 0.231373 0.180392 rg
174 48 24 12 re f
102 48 60 12 re f
78 102 54 12 re f
144 102 102 12 re f
222 126 24 12 re f
114 126 96 12 re f
54 126 48 12 re f
162 150 48 12 re f
54 150 96 12 re f
78 198 54 12 re f
144 198 66 12 re f
114 222 72 12 re f
54 222 48 12 re f
138 246 30 12 re f
54 246 72 12 re f
90 174 66 12 re f
66 174 12 12 re f
90 78 66 12 re f
66 78 12 12 re f
168 276 36 12 re f
156 300 60 12 re f
1 0.854902 0.823529 rg
287.859 189.953 m 280.184 187.402 271.867 187.555 264.293 190.387 c 238.012
 200.242 l 232.441 202.336 229.547 208.48 231.48 214.109 c 232.238 216.316
 l 233.066 218.738 234.719 220.793 236.91 222.121 c 232.262 225.816 231.402
 232.543 234.969 237.293 c 246 252 l 242.816 255.184 241.027 259.5 241.027
 264 c 241.027 268.5 242.816 272.816 246 276 c 264 294 l 294 294 l 312 258
 l 312 223.449 l 311.996 208.25 302.273 194.762 287.859 189.953 c h
288 237.156 m 268.199 243.414 l 252.301 223.785 l 251.727 223.074 251.062
 222.438 250.328 221.895 c 288 210.488 l h
288 237.156 m f
0.301961 0.717647 0.898039 rg
246 294 60 24 re f
0.164706 0.439216 0.670588 rg
234 318 78 54 re f
1 0.623529 0.607843 rg
284.684 260.227 m 282.871 260.23 281.152 259.41 280.012 258 c 268.199 243.41
 l 266.121 240.832 266.523 237.059 269.098 234.977 c 271.668 232.895 275.445
 233.293 277.527 235.863 c 289.34 250.453 l 290.797 252.25 291.086 254.723
 290.094 256.809 c 289.098 258.895 286.996 260.223 284.684 260.227 c h
284.684 260.227 m f
0.164706 0.439216 0.670588 rg
348 218.211 m 268.199 243.422 l 252.301 223.801 l 251.715 223.086 251.051
 222.441 250.32 221.879 c 342 194.211 l h
348 218.211 m f
245.039 250.738 m 222 258 l 186 258 l 210 234 l 233.52 226.922 l 233.039
 228.145 232.797 229.445 232.801 230.762 c 232.777 233.117 233.539 235.418
 234.961 237.301 c h
245.039 250.738 m f
Q Q
showpage
%%Trailer
end
%%EOF
