%!PS-Adobe-3.0 EPSF-3.0
%%Creator: cairo 1.16.0 (https://cairographics.org)
%%CreationDate: Thu Aug 15 09:28:53 2019
%%Pages: 1
%%DocumentData: Clean7Bit
%%LanguageLevel: 2
%%BoundingBox: 18 18 366 366
%%EndComments
%%BeginProlog
50 dict begin
/q { gsave } bind def
/Q { grestore } bind def
/cm { 6 array astore concat } bind def
/w { setlinewidth } bind def
/J { setlinecap } bind def
/j { setlinejoin } bind def
/M { setmiterlimit } bind def
/d { setdash } bind def
/m { moveto } bind def
/l { lineto } bind def
/c { curveto } bind def
/h { closepath } bind def
/re { exch dup neg 3 1 roll 5 3 roll moveto 0 rlineto
      0 exch rlineto 0 rlineto closepath } bind def
/S { stroke } bind def
/f { fill } bind def
/f* { eofill } bind def
/n { newpath } bind def
/W { clip } bind def
/W* { eoclip } bind def
/BT { } bind def
/ET { } bind def
/BDC { mark 3 1 roll /BDC pdfmark } bind def
/EMC { mark /EMC pdfmark } bind def
/cairo_store_point { /cairo_point_y exch def /cairo_point_x exch def } def
/Tj { show currentpoint cairo_store_point } bind def
/TJ {
  {
    dup
    type /stringtype eq
    { show } { -0.001 mul 0 cairo_font_matrix dtransform rmoveto } ifelse
  } forall
  currentpoint cairo_store_point
} bind def
/cairo_selectfont { cairo_font_matrix aload pop pop pop 0 0 6 array astore
    cairo_font exch selectfont cairo_point_x cairo_point_y moveto } bind def
/Tf { pop /cairo_font exch def /cairo_font_matrix where
      { pop cairo_selectfont } if } bind def
/Td { matrix translate cairo_font_matrix matrix concatmatrix dup
      /cairo_font_matrix exch def dup 4 get exch 5 get cairo_store_point
      /cairo_font where { pop cairo_selectfont } if } bind def
/Tm { 2 copy 8 2 roll 6 array astore /cairo_font_matrix exch def
      cairo_store_point /cairo_font where { pop cairo_selectfont } if } bind def
/g { setgray } bind def
/rg { setrgbcolor } bind def
/d1 { setcachedevice } bind def
/cairo_data_source {
  CairoDataIndex CairoData length lt
    { CairoData CairoDataIndex get /CairoDataIndex CairoDataIndex 1 add def }
    { () } ifelse
} def
/cairo_flush_ascii85_file { cairo_ascii85_file status { cairo_ascii85_file flushfile } if } def
/cairo_image { image cairo_flush_ascii85_file } def
/cairo_imagemask { imagemask cairo_flush_ascii85_file } def
%%EndProlog
%%BeginSetup
%%EndSetup
%%Page: 1 1
%%BeginPageSetup
%%PageBoundingBox: 18 18 366 366
%%EndPageSetup
q 18 18 348 348 rectclip
1 0 0 -1 0 384 cm q
0.176471 0.490196 0.74902 rg
120 312 m 114 342 l 96 366 l 192 366 l 174 342 l 168 312 l h
120 312 m f
0.164706 0.439216 0.670588 rg
150 348 m 153.312 348 156 345.312 156 342 c 156 338.688 153.312 336 150
 336 c 115.199 336 l 114 342 l 109.5 348 l h
150 348 m f
0.203922 0.560784 0.85098 rg
18 144 252 168 re f
0.301961 0.717647 0.898039 rg
18 144 252 144 re f
0.176471 0.490196 0.74902 rg
42 168 108 24 re f
54 210 36 12 re f
102 210 150 12 re f
36 234 84 12 re f
144 234 24 12 re f
192 234 24 12 re f
228 234 24 12 re f
36 258 84 12 re f
144 258 24 12 re f
192 258 24 12 re f
228 258 24 12 re f
0.917647 0.290196 0.231373 rg
366 168 m 216 168 l 192 192 l 192 168 l 174 168 l 174 18 l 366 18 l h
366 168 m f
0.984314 0.407843 0.356863 rg
198 42 144 126 re f
0.917647 0.290196 0.231373 rg
222 66 96 24 re f
216 108 36 12 re f
216 132 36 12 re f
264 108 24 12 re f
264 132 24 12 re f
300 108 24 12 re f
300 132 24 12 re f
Q Q
showpage
%%Trailer
end
%%EOF
