%!PS-Adobe-3.0 EPSF-3.0
%%Creator: cairo 1.16.0 (https://cairographics.org)
%%CreationDate: Thu Aug 15 09:28:53 2019
%%Pages: 1
%%DocumentData: Clean7Bit
%%LanguageLevel: 2
%%BoundingBox: 12 18 372 366
%%EndComments
%%BeginProlog
50 dict begin
/q { gsave } bind def
/Q { grestore } bind def
/cm { 6 array astore concat } bind def
/w { setlinewidth } bind def
/J { setlinecap } bind def
/j { setlinejoin } bind def
/M { setmiterlimit } bind def
/d { setdash } bind def
/m { moveto } bind def
/l { lineto } bind def
/c { curveto } bind def
/h { closepath } bind def
/re { exch dup neg 3 1 roll 5 3 roll moveto 0 rlineto
      0 exch rlineto 0 rlineto closepath } bind def
/S { stroke } bind def
/f { fill } bind def
/f* { eofill } bind def
/n { newpath } bind def
/W { clip } bind def
/W* { eoclip } bind def
/BT { } bind def
/ET { } bind def
/BDC { mark 3 1 roll /BDC pdfmark } bind def
/EMC { mark /EMC pdfmark } bind def
/cairo_store_point { /cairo_point_y exch def /cairo_point_x exch def } def
/Tj { show currentpoint cairo_store_point } bind def
/TJ {
  {
    dup
    type /stringtype eq
    { show } { -0.001 mul 0 cairo_font_matrix dtransform rmoveto } ifelse
  } forall
  currentpoint cairo_store_point
} bind def
/cairo_selectfont { cairo_font_matrix aload pop pop pop 0 0 6 array astore
    cairo_font exch selectfont cairo_point_x cairo_point_y moveto } bind def
/Tf { pop /cairo_font exch def /cairo_font_matrix where
      { pop cairo_selectfont } if } bind def
/Td { matrix translate cairo_font_matrix matrix concatmatrix dup
      /cairo_font_matrix exch def dup 4 get exch 5 get cairo_store_point
      /cairo_font where { pop cairo_selectfont } if } bind def
/Tm { 2 copy 8 2 roll 6 array astore /cairo_font_matrix exch def
      cairo_store_point /cairo_font where { pop cairo_selectfont } if } bind def
/g { setgray } bind def
/rg { setrgbcolor } bind def
/d1 { setcachedevice } bind def
/cairo_data_source {
  CairoDataIndex CairoData length lt
    { CairoData CairoDataIndex get /CairoDataIndex CairoDataIndex 1 add def }
    { () } ifelse
} def
/cairo_flush_ascii85_file { cairo_ascii85_file status { cairo_ascii85_file flushfile } if } def
/cairo_image { image cairo_flush_ascii85_file } def
/cairo_imagemask { imagemask cairo_flush_ascii85_file } def
%%EndProlog
%%BeginSetup
%%EndSetup
%%Page: 1 1
%%BeginPageSetup
%%PageBoundingBox: 12 18 372 366
%%EndPageSetup
q 12 18 360 348 rectclip
1 0 0 -1 0 384 cm q
1 0.623529 0.607843 rg
138 48 m 115.082 48 l 110.426 48 105.832 49.086 101.664 51.168 c 72 66 
l 72 96 l 75.094 100.641 l 80.656 108.988 90.023 114 100.055 114 c 102 114
 l h
138 48 m f
0.266667 0.529412 0.0117647 rg
222 54 m 168 156 l 96 120 l 150 18 l h
222 54 m f
0.584314 0.796078 0.215686 rg
150 18 m 198 42 l 144 144 l 96 120 l h
150 18 m f
0.411765 0.654902 0.0352941 rg
176.578 31.262 m 174.871 34.582 173.984 38.266 174 42 c 173.992 50.887 
178.914 59.043 186.781 63.18 c 198 42 l h
176.578 31.262 m f
150 42 m 159.082 42.02 167.387 36.879 171.422 28.738 c 150 18 l 138.781
 39.18 l 142.227 41.039 146.082 42.008 150 42 c h
150 42 m f
122.578 133.262 m 144 144 l 155.219 122.82 l 151.773 120.961 147.918 119.992
 144 120 c 134.918 119.98 126.613 125.121 122.578 133.262 c h
122.578 133.262 m f
96 120 m 117.422 130.738 l 119.129 127.418 120.016 123.734 120 120 c 120.008
 111.113 115.086 102.957 107.219 98.82 c h
96 120 m f
0.988235 0.654902 0.0745098 rg
113.66 86.641 m 161.66 110.641 l 175.395 84.699 l 127.395 60.699 l h
113.66 86.641 m f
0.976471 0.521569 0 rg
161.66 110.641 m 185.66 122.641 l 199.395 96.699 l 175.395 84.699 l h
161.66 110.641 m f
1 0.854902 0.823529 rg
146.281 86.34 m 146.273 88.48 145.625 90.57 144.422 92.34 c 142.766 94.855
 140.141 96.57 137.176 97.082 c 134.207 97.594 131.16 96.855 128.762 95.039
 c 114 84 l 107.359 90.602 96.641 90.602 90 84 c 72 66 l 101.641 51.18 l
 105.812 49.086 110.414 47.996 115.078 48 c 134.16 48 l 125.461 64.379 l
 142.141 77.699 l 144.758 79.805 146.281 82.98 146.281 86.34 c h
146.281 86.34 m f
0.301961 0.717647 0.898039 rg
48 54 24 60 re f
0.164706 0.439216 0.670588 rg
12 48 36 78 re f
0.858824 0.254902 0.196078 rg
60 234 264 24 re f
0.984314 0.407843 0.356863 rg
84 162 24 72 re f
0.952941 0.321569 0.266667 rg
132 180 24 54 re f
0.984314 0.407843 0.356863 rg
180 180 24 54 re f
0.952941 0.321569 0.266667 rg
228 96 24 138 re f
0.984314 0.407843 0.356863 rg
276 66 24 168 re f
1 0.623529 0.607843 rg
246 258 m 268.918 258 l 273.574 258 278.168 259.086 282.336 261.168 c 312
 276 l 312 306 l 308.906 310.641 l 303.344 318.988 293.977 324 283.945 324
 c 282 324 l h
246 258 m f
0.266667 0.529412 0.0117647 rg
162 264 m 216 366 l 288 330 l 234 228 l h
162 264 m f
0.584314 0.796078 0.215686 rg
234 228 m 186 252 l 240 354 l 288 330 l h
234 228 m f
0.411765 0.654902 0.0352941 rg
207.422 241.262 m 209.129 244.582 210.016 248.266 210 252 c 210.008 260.887
 205.086 269.043 197.219 273.18 c 186 252 l h
207.422 241.262 m f
234 252 m 224.918 252.02 216.613 246.879 212.578 238.738 c 234 228 l 245.219
 249.18 l 241.773 251.039 237.918 252.008 234 252 c h
234 252 m f
261.422 343.262 m 240 354 l 228.781 332.82 l 232.227 330.961 236.082 329.992
 240 330 c 249.082 329.98 257.387 335.121 261.422 343.262 c h
261.422 343.262 m f
288 330 m 266.578 340.738 l 264.871 337.418 263.984 333.734 264 330 c 263.992
 321.113 268.914 312.957 276.781 308.82 c h
288 330 m f
0.988235 0.654902 0.0745098 rg
270.34 296.641 m 222.34 320.641 l 208.605 294.699 l 256.605 270.699 l h
270.34 296.641 m f
0.976471 0.521569 0 rg
222.34 320.641 m 198.34 332.641 l 184.605 306.699 l 208.605 294.699 l h
222.34 320.641 m f
1 0.854902 0.823529 rg
237.719 296.34 m 237.727 298.48 238.375 300.57 239.578 302.34 c 241.234
 304.855 243.859 306.57 246.824 307.082 c 249.793 307.594 252.84 306.855
 255.238 305.039 c 270 294 l 276.641 300.602 287.359 300.602 294 294 c 312
 276 l 282.359 261.18 l 278.188 259.086 273.586 257.996 268.922 258 c 249.84
 258 l 258.539 274.379 l 241.859 287.699 l 239.242 289.805 237.719 292.98
 237.719 296.34 c h
237.719 296.34 m f
0.301961 0.717647 0.898039 rg
312 264 24 60 re f
0.164706 0.439216 0.670588 rg
336 258 36 78 re f
Q Q
showpage
%%Trailer
end
%%EOF
