%!PS-Adobe-3.0 EPSF-3.0
%%Creator: cairo 1.16.0 (https://cairographics.org)
%%CreationDate: Thu Aug 15 09:28:53 2019
%%Pages: 1
%%DocumentData: Clean7Bit
%%LanguageLevel: 2
%%BoundingBox: 18 17 372 366
%%EndComments
%%BeginProlog
50 dict begin
/q { gsave } bind def
/Q { grestore } bind def
/cm { 6 array astore concat } bind def
/w { setlinewidth } bind def
/J { setlinecap } bind def
/j { setlinejoin } bind def
/M { setmiterlimit } bind def
/d { setdash } bind def
/m { moveto } bind def
/l { lineto } bind def
/c { curveto } bind def
/h { closepath } bind def
/re { exch dup neg 3 1 roll 5 3 roll moveto 0 rlineto
      0 exch rlineto 0 rlineto closepath } bind def
/S { stroke } bind def
/f { fill } bind def
/f* { eofill } bind def
/n { newpath } bind def
/W { clip } bind def
/W* { eoclip } bind def
/BT { } bind def
/ET { } bind def
/BDC { mark 3 1 roll /BDC pdfmark } bind def
/EMC { mark /EMC pdfmark } bind def
/cairo_store_point { /cairo_point_y exch def /cairo_point_x exch def } def
/Tj { show currentpoint cairo_store_point } bind def
/TJ {
  {
    dup
    type /stringtype eq
    { show } { -0.001 mul 0 cairo_font_matrix dtransform rmoveto } ifelse
  } forall
  currentpoint cairo_store_point
} bind def
/cairo_selectfont { cairo_font_matrix aload pop pop pop 0 0 6 array astore
    cairo_font exch selectfont cairo_point_x cairo_point_y moveto } bind def
/Tf { pop /cairo_font exch def /cairo_font_matrix where
      { pop cairo_selectfont } if } bind def
/Td { matrix translate cairo_font_matrix matrix concatmatrix dup
      /cairo_font_matrix exch def dup 4 get exch 5 get cairo_store_point
      /cairo_font where { pop cairo_selectfont } if } bind def
/Tm { 2 copy 8 2 roll 6 array astore /cairo_font_matrix exch def
      cairo_store_point /cairo_font where { pop cairo_selectfont } if } bind def
/g { setgray } bind def
/rg { setrgbcolor } bind def
/d1 { setcachedevice } bind def
/cairo_data_source {
  CairoDataIndex CairoData length lt
    { CairoData CairoDataIndex get /CairoDataIndex CairoDataIndex 1 add def }
    { () } ifelse
} def
/cairo_flush_ascii85_file { cairo_ascii85_file status { cairo_ascii85_file flushfile } if } def
/cairo_image { image cairo_flush_ascii85_file } def
/cairo_imagemask { imagemask cairo_flush_ascii85_file } def
%%EndProlog
%%BeginSetup
%%EndSetup
%%Page: 1 1
%%BeginPageSetup
%%PageBoundingBox: 18 17 372 366
%%EndPageSetup
q 18 17 354 349 rectclip
1 0 0 -1 0 384 cm q
0.301961 0.717647 0.898039 rg
90 18 204 318 re f
0.176471 0.490196 0.74902 rg
114 42 156 24 re f
120 90 42 12 re f
174 90 102 12 re f
108 120 102 12 re f
108 150 72 12 re f
108 174 72 12 re f
204 150 36 12 re f
252 150 24 12 re f
204 174 36 12 re f
252 174 24 12 re f
108 198 72 12 re f
204 198 36 12 re f
0.992157 0.713726 0.184314 rg
102 306 m 30 306 l 18 366 l 114 366 l h
102 306 m f
198 306 m 126 306 l 114 366 l 210 366 l h
198 306 m f
0.988235 0.654902 0.0745098 rg
198 306 m 181.055 306 l 178.031 329.992 157.633 347.988 133.449 348 c 117.602
 348 l 114 366 l 210 366 l h
198 306 m f
102 306 m 85.055 306 l 82.031 329.992 61.633 347.988 37.449 348 c 21.602
 348 l 18 366 l 114 366 l h
102 306 m f
0.992157 0.713726 0.184314 rg
150 246 m 78 246 l 66 306 l 162 306 l h
150 246 m f
0.988235 0.654902 0.0745098 rg
150 246 m 133.055 246 l 130.031 269.992 109.633 287.988 85.449 288 c 69.602
 288 l 66 306 l 162 306 l h
150 246 m f
0.984314 0.407843 0.356863 rg
342 312 m 342.008 337.785 323.789 359.98 298.496 365 c 273.203 370.02 247.891
 356.461 238.051 332.625 c 228.215 308.789 236.594 281.324 258.066 267.043
 c 279.535 252.762 308.105 255.645 326.289 273.93 c 336.348 284.047 341.996
 297.734 342 312 c h
342 312 m f
0.952941 0.321569 0.266667 rg
342 312 m 341.996 337.965 323.516 360.25 298.004 365.062 c 272.492 369.879
 247.164 355.855 237.699 331.68 c 255.742 349.832 284.047 352.824 305.488
 338.848 c 326.93 324.871 335.613 297.766 326.289 273.93 c 336.367 284.035
 342.016 297.73 342 312 c h
342 312 m f
0.917647 0.290196 0.231373 rg
274.242 334.242 m 265.758 325.758 l 282 309.516 l 282 276 l 294 276 l 294
 312 l 294 313.59 293.367 315.117 292.242 316.242 c h
274.242 334.242 m f
0.952941 0.321569 0.266667 rg
364.016 271.984 m 358.141 277.859 l 350.496 262.176 337.824 249.504 322.141
 241.859 c 328.016 235.984 l 337.945 226.055 354.246 225.531 364.199 235.438
 c 364.32 235.559 364.441 235.68 364.562 235.801 c 374.469 245.754 373.945
 262.055 364.016 271.984 c h
364.016 271.984 m f
253.859 241.859 m 238.176 249.504 225.504 262.176 217.859 277.859 c 211.984
 271.984 l 202.055 262.055 201.531 245.754 211.438 235.801 c 211.559 235.68
 211.68 235.559 211.801 235.438 c 221.754 225.531 238.055 226.055 247.984
 235.984 c h
253.859 241.859 m f
276 210 24 24 re f
Q Q
showpage
%%Trailer
end
%%EOF
