%!PS-Adobe-3.0 EPSF-3.0
%%Creator: cairo 1.16.0 (https://cairographics.org)
%%CreationDate: Thu Aug 15 09:28:54 2019
%%Pages: 1
%%DocumentData: Clean7Bit
%%LanguageLevel: 2
%%BoundingBox: 18 18 372 366
%%EndComments
%%BeginProlog
50 dict begin
/q { gsave } bind def
/Q { grestore } bind def
/cm { 6 array astore concat } bind def
/w { setlinewidth } bind def
/J { setlinecap } bind def
/j { setlinejoin } bind def
/M { setmiterlimit } bind def
/d { setdash } bind def
/m { moveto } bind def
/l { lineto } bind def
/c { curveto } bind def
/h { closepath } bind def
/re { exch dup neg 3 1 roll 5 3 roll moveto 0 rlineto
      0 exch rlineto 0 rlineto closepath } bind def
/S { stroke } bind def
/f { fill } bind def
/f* { eofill } bind def
/n { newpath } bind def
/W { clip } bind def
/W* { eoclip } bind def
/BT { } bind def
/ET { } bind def
/BDC { mark 3 1 roll /BDC pdfmark } bind def
/EMC { mark /EMC pdfmark } bind def
/cairo_store_point { /cairo_point_y exch def /cairo_point_x exch def } def
/Tj { show currentpoint cairo_store_point } bind def
/TJ {
  {
    dup
    type /stringtype eq
    { show } { -0.001 mul 0 cairo_font_matrix dtransform rmoveto } ifelse
  } forall
  currentpoint cairo_store_point
} bind def
/cairo_selectfont { cairo_font_matrix aload pop pop pop 0 0 6 array astore
    cairo_font exch selectfont cairo_point_x cairo_point_y moveto } bind def
/Tf { pop /cairo_font exch def /cairo_font_matrix where
      { pop cairo_selectfont } if } bind def
/Td { matrix translate cairo_font_matrix matrix concatmatrix dup
      /cairo_font_matrix exch def dup 4 get exch 5 get cairo_store_point
      /cairo_font where { pop cairo_selectfont } if } bind def
/Tm { 2 copy 8 2 roll 6 array astore /cairo_font_matrix exch def
      cairo_store_point /cairo_font where { pop cairo_selectfont } if } bind def
/g { setgray } bind def
/rg { setrgbcolor } bind def
/d1 { setcachedevice } bind def
/cairo_data_source {
  CairoDataIndex CairoData length lt
    { CairoData CairoDataIndex get /CairoDataIndex CairoDataIndex 1 add def }
    { () } ifelse
} def
/cairo_flush_ascii85_file { cairo_ascii85_file status { cairo_ascii85_file flushfile } if } def
/cairo_image { image cairo_flush_ascii85_file } def
/cairo_imagemask { imagemask cairo_flush_ascii85_file } def
%%EndProlog
%%BeginSetup
%%EndSetup
%%Page: 1 1
%%BeginPageSetup
%%PageBoundingBox: 18 18 372 366
%%EndPageSetup
q 18 18 354 348 rectclip
1 0 0 -1 0 384 cm q
0.952941 0.321569 0.266667 rg
366 60 m 366 96 l 18 96 l 18 60 l 192 18 l h
366 60 m f
0.984314 0.407843 0.356863 rg
192 78 m 184.719 78 178.156 73.613 175.371 66.887 c 172.586 60.164 174.125
 52.422 179.273 47.273 c 184.422 42.125 192.164 40.586 198.887 43.371 c 
205.613 46.156 210 52.719 210 60 c 209.988 69.938 201.938 77.988 192 78 
c h
192 54 m 189.574 54 187.387 55.461 186.457 57.703 c 185.527 59.945 186.043
 62.527 187.758 64.242 c 189.473 65.957 192.055 66.473 194.297 65.543 c 
196.539 64.613 198 62.426 198 60 c 197.996 56.688 195.312 54.004 192 54 
c h
192 54 m f
0.858824 0.254902 0.196078 rg
48 144 24 24 re f
72 144 24 24 re f
0.917647 0.290196 0.231373 rg
72 168 24 126 re f
48 168 24 126 re f
0.858824 0.254902 0.196078 rg
144 144 24 24 re f
0.917647 0.290196 0.231373 rg
144 168 24 126 re f
0.858824 0.254902 0.196078 rg
216 144 24 24 re f
0.917647 0.290196 0.231373 rg
216 168 24 126 re f
0.858824 0.254902 0.196078 rg
288 144 24 24 re f
312 144 24 24 re f
0.917647 0.290196 0.231373 rg
288 168 24 126 re f
312 168 24 126 re f
0.952941 0.321569 0.266667 rg
78 144 m 48 144 l 41.371 144 36 138.629 36 132 c 36 120 l 78 120 l h
78 144 m f
0.917647 0.290196 0.231373 rg
36 120 42 12 re f
0.858824 0.254902 0.196078 rg
54 132 m 54 120 l 78 120 l 78 144 l 66 144 l 59.371 144 54 138.629 54 132
 c h
54 132 m f
0.952941 0.321569 0.266667 rg
66 120 m 108 120 l 108 132 l 108 138.629 102.629 144 96 144 c 78 144 l 
71.371 144 66 138.629 66 132 c h
66 120 m f
132 120 m 180 120 l 180 132 l 180 138.629 174.629 144 168 144 c 144 144
 l 137.371 144 132 138.629 132 132 c h
132 120 m f
306 144 m 336 144 l 342.629 144 348 138.629 348 132 c 348 120 l 306 120
 l h
306 144 m f
0.917647 0.290196 0.231373 rg
306 120 42 12 re f
0.858824 0.254902 0.196078 rg
330 132 m 330 120 l 306 120 l 306 144 l 318 144 l 324.629 144 330 138.629
 330 132 c h
330 132 m f
0.952941 0.321569 0.266667 rg
306 144 m 288 144 l 281.371 144 276 138.629 276 132 c 276 120 l 318 120
 l 318 132 l 318 138.629 312.629 144 306 144 c h
306 144 m f
240 144 m 216 144 l 209.371 144 204 138.629 204 132 c 204 120 l 252 120
 l 252 132 l 252 138.629 246.629 144 240 144 c h
240 144 m f
0.917647 0.290196 0.231373 rg
276 120 42 12 re f
204 120 48 12 re f
132 120 48 12 re f
66 120 42 12 re f
0.952941 0.321569 0.266667 rg
306 294 m 336 294 l 342.629 294 348 299.371 348 306 c 348 318 l 306 318
 l h
306 294 m f
0.917647 0.290196 0.231373 rg
306 306 42 12 re f
0.858824 0.254902 0.196078 rg
330 306 m 330 318 l 306 318 l 306 294 l 318 294 l 324.629 294 330 299.371
 330 306 c h
330 306 m f
0.952941 0.321569 0.266667 rg
318 318 m 276 318 l 276 306 l 276 299.371 281.371 294 288 294 c 306 294
 l 312.629 294 318 299.371 318 306 c h
318 318 m f
252 318 m 204 318 l 204 306 l 204 299.371 209.371 294 216 294 c 240 294
 l 246.629 294 252 299.371 252 306 c h
252 318 m f
78 294 m 48 294 l 41.371 294 36 299.371 36 306 c 36 318 l 78 318 l h
78 294 m f
0.917647 0.290196 0.231373 rg
36 306 42 12 re f
0.858824 0.254902 0.196078 rg
54 306 m 54 318 l 78 318 l 78 294 l 66 294 l 59.371 294 54 299.371 54 306
 c h
54 306 m f
0.952941 0.321569 0.266667 rg
78 294 m 96 294 l 102.629 294 108 299.371 108 306 c 108 318 l 66 318 l 
66 306 l 66 299.371 71.371 294 78 294 c h
78 294 m f
144 294 m 168 294 l 174.629 294 180 299.371 180 306 c 180 318 l 132 318
 l 132 306 l 132 299.371 137.371 294 144 294 c h
144 294 m f
0.917647 0.290196 0.231373 rg
66 306 42 12 re f
132 306 48 12 re f
204 306 48 12 re f
276 306 42 12 re f
0.729412 0.2 0.152941 rg
72 168 m 60 168 l 60 156 l 48 156 l 48 144 l 72 144 l h
72 168 m f
0.858824 0.254902 0.196078 rg
60 168 12 126 re f
0.729412 0.2 0.152941 rg
312 168 m 324 168 l 324 156 l 336 156 l 336 144 l 312 144 l h
312 168 m f
0.858824 0.254902 0.196078 rg
312 168 12 126 re f
0.952941 0.321569 0.266667 rg
36 318 312 24 re f
0.917647 0.290196 0.231373 rg
18 342 348 24 re f
0.984314 0.407843 0.356863 rg
222 54 12 12 re f
150 54 12 12 re f
0.952941 0.321569 0.266667 rg
36 96 312 24 re f
0.811765 0.231373 0.180392 rg
72 144 24 12 re f
144 144 24 12 re f
216 144 24 12 re f
288 144 24 12 re f
0.917647 0.290196 0.231373 rg
36 96 312 12 re f
1 0.623529 0.607843 rg
312 234 m 294 234 l 274.371 222.223 251.906 216 229.016 216 c 162 216 l
 162 312 l 264 312 l 294 294 l 312 294 l h
312 234 m f
0.266667 0.529412 0.0117647 rg
90 192 m 192 366 l 288 312 l 186 138 l h
90 192 m f
0.584314 0.796078 0.215686 rg
186 138 m 113.344 178.867 l 215.344 352.867 l 288 312 l h
186 138 m f
0.411765 0.654902 0.0352941 rg
144.66 161.219 m 148.176 166.852 150.027 173.363 150 180 c 150.031 192.781
 143.238 204.609 132.18 211.02 c 113.34 178.859 l h
144.66 161.219 m f
204.18 169.02 m 198.684 172.297 192.398 174.02 186 174 c 172.988 174.004
 160.992 166.984 154.621 155.641 c 186 138 l h
204.18 169.02 m f
246.66 335.219 m 215.34 352.859 l 197.82 322.98 l 203.316 319.703 209.602
 317.98 216 318 c 228.523 318 240.141 324.527 246.66 335.219 c h
246.66 335.219 m f
288 312 m 256.621 329.641 l 246.992 312.535 252.871 290.875 269.82 280.98
 c h
288 312 m f
0.203922 0.529412 0.796078 rg
336 210 36 120 re f
0.976471 0.521569 0 rg
155.5 250.781 m 132.156 263.914 l 153.977 301.137 l 177.324 288.008 l h
155.5 250.781 m f
0.988235 0.654902 0.0745098 rg
177.324 288.008 m 249.977 247.137 l 228 210 l 155.5 250.781 l h
177.324 288.008 m f
0.301961 0.717647 0.898039 rg
312 222 24 84 re f
1 0.854902 0.823529 rg
213 255 m 210.453 257.547 209.102 261.059 209.289 264.656 c 209.477 268.258
 211.176 271.609 213.977 273.883 c 219.129 278.098 226.805 277.195 231.512
 272.488 c 246 258 l 252.012 264.012 l 261.945 273.945 278.055 273.945 287.988
 264.012 c 312 240 l 312 234 l 294 234 l 275.168 222.723 253.723 216.555
 231.777 216.094 c 239.219 228.781 l h
213 255 m f
Q Q
showpage
%%Trailer
end
%%EOF
