%!PS-Adobe-3.0 EPSF-3.0
%%Creator: cairo 1.16.0 (https://cairographics.org)
%%CreationDate: Thu Aug 15 09:28:54 2019
%%Pages: 1
%%DocumentData: Clean7Bit
%%LanguageLevel: 2
%%BoundingBox: 18 18 372 366
%%EndComments
%%BeginProlog
50 dict begin
/q { gsave } bind def
/Q { grestore } bind def
/cm { 6 array astore concat } bind def
/w { setlinewidth } bind def
/J { setlinecap } bind def
/j { setlinejoin } bind def
/M { setmiterlimit } bind def
/d { setdash } bind def
/m { moveto } bind def
/l { lineto } bind def
/c { curveto } bind def
/h { closepath } bind def
/re { exch dup neg 3 1 roll 5 3 roll moveto 0 rlineto
      0 exch rlineto 0 rlineto closepath } bind def
/S { stroke } bind def
/f { fill } bind def
/f* { eofill } bind def
/n { newpath } bind def
/W { clip } bind def
/W* { eoclip } bind def
/BT { } bind def
/ET { } bind def
/BDC { mark 3 1 roll /BDC pdfmark } bind def
/EMC { mark /EMC pdfmark } bind def
/cairo_store_point { /cairo_point_y exch def /cairo_point_x exch def } def
/Tj { show currentpoint cairo_store_point } bind def
/TJ {
  {
    dup
    type /stringtype eq
    { show } { -0.001 mul 0 cairo_font_matrix dtransform rmoveto } ifelse
  } forall
  currentpoint cairo_store_point
} bind def
/cairo_selectfont { cairo_font_matrix aload pop pop pop 0 0 6 array astore
    cairo_font exch selectfont cairo_point_x cairo_point_y moveto } bind def
/Tf { pop /cairo_font exch def /cairo_font_matrix where
      { pop cairo_selectfont } if } bind def
/Td { matrix translate cairo_font_matrix matrix concatmatrix dup
      /cairo_font_matrix exch def dup 4 get exch 5 get cairo_store_point
      /cairo_font where { pop cairo_selectfont } if } bind def
/Tm { 2 copy 8 2 roll 6 array astore /cairo_font_matrix exch def
      cairo_store_point /cairo_font where { pop cairo_selectfont } if } bind def
/g { setgray } bind def
/rg { setrgbcolor } bind def
/d1 { setcachedevice } bind def
/cairo_data_source {
  CairoDataIndex CairoData length lt
    { CairoData CairoDataIndex get /CairoDataIndex CairoDataIndex 1 add def }
    { () } ifelse
} def
/cairo_flush_ascii85_file { cairo_ascii85_file status { cairo_ascii85_file flushfile } if } def
/cairo_image { image cairo_flush_ascii85_file } def
/cairo_imagemask { imagemask cairo_flush_ascii85_file } def
%%EndProlog
%%BeginSetup
%%EndSetup
%%Page: 1 1
%%BeginPageSetup
%%PageBoundingBox: 18 18 372 366
%%EndPageSetup
q 18 18 354 348 rectclip
1 0 0 -1 0 384 cm q
0.301961 0.717647 0.898039 rg
18 174 240 192 re f
0.188235 0.52549 0.803922 rg
54 222 24 24 re f
102 222 24 24 re f
150 222 24 24 re f
198 222 24 24 re f
54 270 24 24 re f
150 270 24 24 re f
198 270 24 24 re f
54 318 24 24 re f
102 318 24 24 re f
150 318 24 24 re f
198 318 24 24 re f
0.984314 0.407843 0.356863 rg
130.242 274.242 m 121.758 265.758 l 114 273.516 l 106.242 265.758 l 97.758
 274.242 l 105.516 282 l 97.758 289.758 l 106.242 298.242 l 114 290.484 
l 121.758 298.242 l 130.242 289.758 l 122.484 282 l h
130.242 274.242 m f
0.203922 0.560784 0.85098 rg
18 174 240 24 re f
0.278431 0.635294 0.831373 rg
18 198 240 12 re f
1 0.623529 0.607843 rg
312 114 m 294 114 l 274.371 102.223 251.906 96 229.016 96 c 162 96 l 162
 192 l 264 192 l 294 174 l 312 174 l h
312 114 m f
0.266667 0.529412 0.0117647 rg
90 72 m 192 246 l 288 192 l 186 18 l h
90 72 m f
0.584314 0.796078 0.215686 rg
186 18 m 113.344 58.867 l 215.344 232.867 l 288 192 l h
186 18 m f
0.427451 0.733333 0.141176 rg
144.66 41.219 m 148.176 46.852 150.027 53.363 150 60 c 150.031 72.781 143.238
 84.609 132.18 91.02 c 113.34 58.859 l h
144.66 41.219 m f
204.18 49.02 m 198.684 52.297 192.398 54.02 186 54 c 172.988 54.004 160.992
 46.984 154.621 35.641 c 186 18 l h
204.18 49.02 m f
246.66 215.219 m 215.34 232.859 l 197.82 202.98 l 203.316 199.703 209.602
 197.98 216 198 c 228.523 198 240.141 204.527 246.66 215.219 c h
246.66 215.219 m f
288 192 m 256.621 209.641 l 246.992 192.535 252.871 170.875 269.82 160.98
 c h
288 192 m f
0.164706 0.439216 0.670588 rg
336 90 36 120 re f
0.976471 0.521569 0 rg
155.5 130.781 m 132.156 143.914 l 153.977 181.137 l 177.324 168.008 l h
155.5 130.781 m f
0.988235 0.654902 0.0745098 rg
177.324 168.008 m 249.977 127.137 l 228 90 l 155.5 130.781 l h
177.324 168.008 m f
0.301961 0.717647 0.898039 rg
312 102 24 84 re f
1 0.854902 0.823529 rg
213 135 m 210.453 137.547 209.102 141.059 209.289 144.656 c 209.477 148.258
 211.176 151.609 213.977 153.883 c 219.129 158.098 226.805 157.195 231.512
 152.488 c 246 138 l 252.012 144.012 l 261.945 153.945 278.055 153.945 287.988
 144.012 c 312 120 l 312 114 l 294 114 l 275.168 102.723 253.723 96.555 
231.777 96.094 c 239.219 108.781 l h
213 135 m f
Q Q
showpage
%%Trailer
end
%%EOF
