%!PS-Adobe-3.0 EPSF-3.0
%%Creator: cairo 1.16.0 (https://cairographics.org)
%%CreationDate: Thu Aug 15 09:28:54 2019
%%Pages: 1
%%DocumentData: Clean7Bit
%%LanguageLevel: 2
%%BoundingBox: 58 12 330 372
%%EndComments
%%BeginProlog
50 dict begin
/q { gsave } bind def
/Q { grestore } bind def
/cm { 6 array astore concat } bind def
/w { setlinewidth } bind def
/J { setlinecap } bind def
/j { setlinejoin } bind def
/M { setmiterlimit } bind def
/d { setdash } bind def
/m { moveto } bind def
/l { lineto } bind def
/c { curveto } bind def
/h { closepath } bind def
/re { exch dup neg 3 1 roll 5 3 roll moveto 0 rlineto
      0 exch rlineto 0 rlineto closepath } bind def
/S { stroke } bind def
/f { fill } bind def
/f* { eofill } bind def
/n { newpath } bind def
/W { clip } bind def
/W* { eoclip } bind def
/BT { } bind def
/ET { } bind def
/BDC { mark 3 1 roll /BDC pdfmark } bind def
/EMC { mark /EMC pdfmark } bind def
/cairo_store_point { /cairo_point_y exch def /cairo_point_x exch def } def
/Tj { show currentpoint cairo_store_point } bind def
/TJ {
  {
    dup
    type /stringtype eq
    { show } { -0.001 mul 0 cairo_font_matrix dtransform rmoveto } ifelse
  } forall
  currentpoint cairo_store_point
} bind def
/cairo_selectfont { cairo_font_matrix aload pop pop pop 0 0 6 array astore
    cairo_font exch selectfont cairo_point_x cairo_point_y moveto } bind def
/Tf { pop /cairo_font exch def /cairo_font_matrix where
      { pop cairo_selectfont } if } bind def
/Td { matrix translate cairo_font_matrix matrix concatmatrix dup
      /cairo_font_matrix exch def dup 4 get exch 5 get cairo_store_point
      /cairo_font where { pop cairo_selectfont } if } bind def
/Tm { 2 copy 8 2 roll 6 array astore /cairo_font_matrix exch def
      cairo_store_point /cairo_font where { pop cairo_selectfont } if } bind def
/g { setgray } bind def
/rg { setrgbcolor } bind def
/d1 { setcachedevice } bind def
/cairo_data_source {
  CairoDataIndex CairoData length lt
    { CairoData CairoDataIndex get /CairoDataIndex CairoDataIndex 1 add def }
    { () } ifelse
} def
/cairo_flush_ascii85_file { cairo_ascii85_file status { cairo_ascii85_file flushfile } if } def
/cairo_image { image cairo_flush_ascii85_file } def
/cairo_imagemask { imagemask cairo_flush_ascii85_file } def
%%EndProlog
%%BeginSetup
%%EndSetup
%%Page: 1 1
%%BeginPageSetup
%%PageBoundingBox: 58 12 330 372
%%EndPageSetup
q 58 12 272 360 rectclip
1 0 0 -1 0 384 cm q
0.278431 0.635294 0.831373 rg
105.637 118.145 m 102.348 87.559 l 58.699 77.859 l 61.301 66.141 l 109.148
 76.777 l 111.66 77.336 113.535 79.434 113.812 81.988 c 117.566 116.855 
l h
105.637 118.145 m f
0.584314 0.796078 0.215686 rg
202.312 138 m 201.715 143.164 200.582 148.254 198.938 153.188 c 186 192
 l 124.125 192 l 114 84 l 144 72 l 192 90 l 198.547 100.91 202.25 113.289
 202.77 126 c 202.945 130.004 202.789 134.02 202.312 138 c h
202.312 138 m f
0.411765 0.654902 0.0352941 rg
202.312 138 m 183.602 138 l 174.652 123.09 l 172.945 120.25 173.867 116.562
 176.707 114.855 c 179.551 113.148 183.234 114.07 184.941 116.91 c 190.395
 126 l 202.77 126 l 202.945 130.004 202.789 134.02 202.312 138 c h
202.312 138 m f
1 0.854902 0.823529 rg
210 36 m 210 18 l 168 18 l 144 72 l 162 102 l 192 90 l 186 78 l 204 78 
l 204 60 l 216 60 l h
210 36 m f
0.419608 0.25098 0.164706 rg
228 24 m 165.332 24 l 165.332 17.371 170.707 12 177.332 12 c 228 12 l h
228 24 m f
0.584314 0.796078 0.215686 rg
183.602 138 m 144 72 l 114 84 l 118.504 125.984 l 162 168 l 216 168 l 222
 138 l h
183.602 138 m f
0.411765 0.654902 0.0352941 rg
190 180 m 194 168 l 162 168 l 118.52 125.996 l 120.523 144.617 l 157.148
 180 l h
190 180 m f
1 0.854902 0.823529 rg
234.531 142.176 m 222 138 l 216 168 l 252 174 l 255.387 160.457 247.773
 146.59 234.531 142.176 c h
234.531 142.176 m f
0.584314 0.796078 0.215686 rg
124.121 192 m 132 252 l 234 252 l 234 288 l 270 324 l 282 318 l 258 216
 l 186 216 l 186 192 l h
124.121 192 m f
1 0.854902 0.823529 rg
330 324 m 282 354 l 270 324 l 282 318 l h
330 324 m f
0.301961 0.717647 0.898039 rg
117.227 114 m 78 114 l 108 276 l 240 276 l 240 252 l 132 252 l h
117.227 114 m f
0.203922 0.560784 0.85098 rg
234 192 m 92.445 192 l 88 168 l 210 168 l 223.254 168 234 178.746 234 192
 c h
234 192 m f
0.278431 0.635294 0.831373 rg
216 192 12 60 re f
0.176471 0.490196 0.74902 rg
132 234 12 54 re f
142.199 287.262 m 181.711 247.75 l 190.191 256.234 l 150.684 295.742 l 
h
142.199 287.262 m f
150 294 48 12 re f
142.191 312.711 m 150.676 304.23 l 190.188 343.738 l 181.703 352.223 l 
h
142.191 312.711 m f
132 312 12 54 re f
85.715 343.73 m 125.223 304.223 l 133.707 312.707 l 94.195 352.215 l h
85.715 343.73 m f
72 294 54 12 re f
85.719 256.227 m 94.203 247.746 l 133.715 287.254 l 125.23 295.738 l h
85.719 256.227 m f
0.301961 0.717647 0.898039 rg
150 300 m 150 306.629 144.629 312 138 312 c 131.371 312 126 306.629 126
 300 c 126 293.371 131.371 288 138 288 c 144.629 288 150 293.371 150 300
 c h
150 300 m f
0.0823529 0.294118 0.478431 rg
138 372 m 108.879 372 82.625 354.457 71.48 327.555 c 60.336 300.648 66.496
 269.68 87.09 249.09 c 107.68 228.496 138.648 222.336 165.555 233.48 c 192.457
 244.625 210 270.879 210 300 c 209.957 339.746 177.746 371.957 138 372 c
 h
138 240 m 113.73 240 91.855 254.617 82.566 277.039 c 73.281 299.461 78.414
 325.266 95.574 342.426 c 112.734 359.586 138.539 364.719 160.961 355.434
 c 183.383 346.145 198 324.27 198 300 c 197.961 266.879 171.121 240.039 
138 240 c h
138 240 m f
138 318 m 130.719 318 124.156 313.613 121.371 306.887 c 118.586 300.164
 120.125 292.422 125.273 287.273 c 130.422 282.125 138.164 280.586 144.887
 283.371 c 151.613 286.156 156 292.719 156 300 c 155.988 309.938 147.938
 317.988 138 318 c h
138 294 m 135.574 294 133.387 295.461 132.457 297.703 c 131.527 299.945
 132.043 302.527 133.758 304.242 c 135.473 305.957 138.055 306.473 140.297
 305.543 c 142.539 304.613 144 302.426 144 300 c 143.996 296.688 141.312
 294.004 138 294 c h
138 294 m f
0.301961 0.717647 0.898039 rg
252 348 m 252 357.941 243.941 366 234 366 c 224.059 366 216 357.941 216
 348 c 216 338.059 224.059 330 234 330 c 243.941 330 252 338.059 252 348
 c h
252 348 m f
0.0823529 0.294118 0.478431 rg
234 372 m 224.293 372 215.543 366.152 211.828 357.184 c 208.113 348.215
 210.164 337.895 217.031 331.031 c 223.895 324.164 234.215 322.113 243.184
 325.828 c 252.152 329.543 258 338.293 258 348 c 257.988 361.25 247.25 371.988
 234 372 c h
234 336 m 229.145 336 224.77 338.922 222.914 343.406 c 221.055 347.891 
222.082 353.055 225.516 356.484 c 228.945 359.918 234.109 360.945 238.594
 359.086 c 243.078 357.23 246 352.855 246 348 c 245.992 341.375 240.625 
336.008 234 336 c h
234 336 m f
0.278431 0.635294 0.831373 rg
228 276 12 72 re f
1 0.623529 0.607843 rg
180 66 m 178.52 63.035 174.914 61.836 171.949 63.316 c 168.984 64.797 167.785
 68.402 169.266 71.367 c 180.82 94.473 l 192 90 l h
180 66 m f
0.411765 0.654902 0.0352941 rg
162 216 m 186 216 l 186 204 l 162 204 l 158.688 204 156 206.688 156 210
 c 156 213.312 158.688 216 162 216 c h
162 216 m f
Q Q
showpage
%%Trailer
end
%%EOF
