%!PS-Adobe-3.0 EPSF-3.0
%%Creator: cairo 1.16.0 (https://cairographics.org)
%%CreationDate: Thu Aug 15 09:28:54 2019
%%Pages: 1
%%DocumentData: Clean7Bit
%%LanguageLevel: 2
%%BoundingBox: 18 18 366 366
%%EndComments
%%BeginProlog
50 dict begin
/q { gsave } bind def
/Q { grestore } bind def
/cm { 6 array astore concat } bind def
/w { setlinewidth } bind def
/J { setlinecap } bind def
/j { setlinejoin } bind def
/M { setmiterlimit } bind def
/d { setdash } bind def
/m { moveto } bind def
/l { lineto } bind def
/c { curveto } bind def
/h { closepath } bind def
/re { exch dup neg 3 1 roll 5 3 roll moveto 0 rlineto
      0 exch rlineto 0 rlineto closepath } bind def
/S { stroke } bind def
/f { fill } bind def
/f* { eofill } bind def
/n { newpath } bind def
/W { clip } bind def
/W* { eoclip } bind def
/BT { } bind def
/ET { } bind def
/BDC { mark 3 1 roll /BDC pdfmark } bind def
/EMC { mark /EMC pdfmark } bind def
/cairo_store_point { /cairo_point_y exch def /cairo_point_x exch def } def
/Tj { show currentpoint cairo_store_point } bind def
/TJ {
  {
    dup
    type /stringtype eq
    { show } { -0.001 mul 0 cairo_font_matrix dtransform rmoveto } ifelse
  } forall
  currentpoint cairo_store_point
} bind def
/cairo_selectfont { cairo_font_matrix aload pop pop pop 0 0 6 array astore
    cairo_font exch selectfont cairo_point_x cairo_point_y moveto } bind def
/Tf { pop /cairo_font exch def /cairo_font_matrix where
      { pop cairo_selectfont } if } bind def
/Td { matrix translate cairo_font_matrix matrix concatmatrix dup
      /cairo_font_matrix exch def dup 4 get exch 5 get cairo_store_point
      /cairo_font where { pop cairo_selectfont } if } bind def
/Tm { 2 copy 8 2 roll 6 array astore /cairo_font_matrix exch def
      cairo_store_point /cairo_font where { pop cairo_selectfont } if } bind def
/g { setgray } bind def
/rg { setrgbcolor } bind def
/d1 { setcachedevice } bind def
/cairo_data_source {
  CairoDataIndex CairoData length lt
    { CairoData CairoDataIndex get /CairoDataIndex CairoDataIndex 1 add def }
    { () } ifelse
} def
/cairo_flush_ascii85_file { cairo_ascii85_file status { cairo_ascii85_file flushfile } if } def
/cairo_image { image cairo_flush_ascii85_file } def
/cairo_imagemask { imagemask cairo_flush_ascii85_file } def
%%EndProlog
%%BeginSetup
%%EndSetup
%%Page: 1 1
%%BeginPageSetup
%%PageBoundingBox: 18 18 366 366
%%EndPageSetup
q 18 18 348 348 rectclip
1 0 0 -1 0 384 cm q
0.164706 0.439216 0.670588 rg
114 294 m 120 143.621 l 143.543 143.621 l 150 294 l h
114 294 m f
0.301961 0.717647 0.898039 rg
216.941 81.512 m 213.57 76.445 209.75 71.691 205.527 67.309 c 214.176 58.988
 l 218.891 63.891 223.16 69.203 226.934 74.863 c h
216.941 81.512 m f
235.363 186.145 m 224.488 181.074 l 237.508 153.035 237.145 120.609 223.5
 92.871 c 234.258 87.551 l 249.516 118.559 249.922 154.805 235.363 186.145
 c h
235.363 186.145 m f
139.199 251.777 m 138.449 239.801 l 144.523 239.422 150.551 238.504 156.461
 237.051 c 159.324 248.699 l 152.723 250.324 145.984 251.355 139.199 251.777
 c h
139.199 251.777 m f
124.551 251.762 m 89.684 249.578 57.773 231.441 38.059 202.598 c 47.941
 195.793 l 65.578 221.598 94.129 237.832 125.324 239.785 c h
124.551 251.762 m f
33.988 109.664 m 22.457 106.336 l 24.344 99.797 26.816 93.441 29.844 87.348
 c 40.59 92.691 l 37.883 98.137 35.676 103.82 33.988 109.664 c h
33.988 109.664 m f
47.168 81.348 m 37.195 74.668 l 56.363 45.828 87.652 27.324 122.156 24.422
 c 123.184 36.375 l 92.309 38.973 64.312 55.535 47.168 81.348 c h
47.168 81.348 m f
0.203922 0.560784 0.85098 rg
126.668 127.336 m 114 102 l 120 18 l 144 18 l 150 102 l 137.332 127.336
 l h
126.668 127.336 m f
125.43 147.953 m 109.824 171.59 l 34.078 208.395 l 22.078 187.609 l 91.824
 140.41 l 120.074 138.715 l h
125.43 147.953 m f
143.902 138.715 m 172.176 140.41 l 241.922 187.605 l 229.922 208.391 l 
154.176 171.59 l 138.57 147.949 l h
143.902 138.715 m f
0.301961 0.717647 0.898039 rg
143.926 138 m 143.926 144.586 138.586 149.926 132 149.926 c 125.414 149.926
 120.074 144.586 120.074 138 c 120.074 131.414 125.414 126.074 132 126.074
 c 138.586 126.074 143.926 131.414 143.926 138 c h
143.926 138 m f
0.945098 0.552941 0 rg
18 318 66 24 re f
0.992157 0.713726 0.184314 rg
84 318 66 24 re f
30 342 66 24 re f
0.945098 0.552941 0 rg
96 342 66 24 re f
0.992157 0.713726 0.184314 rg
30 294 66 24 re f
0.945098 0.552941 0 rg
96 294 66 24 re f
150 318 72 24 re f
0.992157 0.713726 0.184314 rg
162 342 66 24 re f
162 294 66 24 re f
0.945098 0.552941 0 rg
66 270 60 24 re f
0.941176 0.501961 0 rg
102 270 24 24 re f
138 294 24 24 re f
138 342 24 24 re f
66 318 18 24 re f
0.988235 0.654902 0.0745098 rg
72 294 24 24 re f
126 318 24 24 re f
72 342 24 24 re f
204 294 24 24 re f
204 342 24 24 re f
0.952941 0.321569 0.266667 rg
342 114 24 156 re f
294 150 24 120 re f
246 222 24 48 re f
0.984314 0.407843 0.356863 rg
270 186 24 84 re f
318 168 24 102 re f
222 234 24 36 re f
0.266667 0.529412 0.0117647 rg
198 318 156 48 re f
0.152941 0.419608 0.00784314 rg
332.477 318 m 325.148 336.129 307.555 347.996 288 348 c 198 348 l 198 366
 l 354 366 l 354 318 l h
332.477 318 m f
0.976471 0.521569 0 rg
258 318 36 48 re f
0.266667 0.529412 0.0117647 rg
210 270 156 48 re f
0.152941 0.419608 0.00784314 rg
344.477 270 m 337.148 288.129 319.555 299.996 300 300 c 210 300 l 210 318
 l 366 318 l 366 270 l h
344.477 270 m f
0.976471 0.521569 0 rg
270 270 36 48 re f
Q Q
showpage
%%Trailer
end
%%EOF
