%!PS-Adobe-3.0 EPSF-3.0
%%Creator: cairo 1.16.0 (https://cairographics.org)
%%CreationDate: Thu Aug 15 09:28:54 2019
%%Pages: 1
%%DocumentData: Clean7Bit
%%LanguageLevel: 2
%%BoundingBox: 18 12 368 366
%%EndComments
%%BeginProlog
50 dict begin
/q { gsave } bind def
/Q { grestore } bind def
/cm { 6 array astore concat } bind def
/w { setlinewidth } bind def
/J { setlinecap } bind def
/j { setlinejoin } bind def
/M { setmiterlimit } bind def
/d { setdash } bind def
/m { moveto } bind def
/l { lineto } bind def
/c { curveto } bind def
/h { closepath } bind def
/re { exch dup neg 3 1 roll 5 3 roll moveto 0 rlineto
      0 exch rlineto 0 rlineto closepath } bind def
/S { stroke } bind def
/f { fill } bind def
/f* { eofill } bind def
/n { newpath } bind def
/W { clip } bind def
/W* { eoclip } bind def
/BT { } bind def
/ET { } bind def
/BDC { mark 3 1 roll /BDC pdfmark } bind def
/EMC { mark /EMC pdfmark } bind def
/cairo_store_point { /cairo_point_y exch def /cairo_point_x exch def } def
/Tj { show currentpoint cairo_store_point } bind def
/TJ {
  {
    dup
    type /stringtype eq
    { show } { -0.001 mul 0 cairo_font_matrix dtransform rmoveto } ifelse
  } forall
  currentpoint cairo_store_point
} bind def
/cairo_selectfont { cairo_font_matrix aload pop pop pop 0 0 6 array astore
    cairo_font exch selectfont cairo_point_x cairo_point_y moveto } bind def
/Tf { pop /cairo_font exch def /cairo_font_matrix where
      { pop cairo_selectfont } if } bind def
/Td { matrix translate cairo_font_matrix matrix concatmatrix dup
      /cairo_font_matrix exch def dup 4 get exch 5 get cairo_store_point
      /cairo_font where { pop cairo_selectfont } if } bind def
/Tm { 2 copy 8 2 roll 6 array astore /cairo_font_matrix exch def
      cairo_store_point /cairo_font where { pop cairo_selectfont } if } bind def
/g { setgray } bind def
/rg { setrgbcolor } bind def
/d1 { setcachedevice } bind def
/cairo_data_source {
  CairoDataIndex CairoData length lt
    { CairoData CairoDataIndex get /CairoDataIndex CairoDataIndex 1 add def }
    { () } ifelse
} def
/cairo_flush_ascii85_file { cairo_ascii85_file status { cairo_ascii85_file flushfile } if } def
/cairo_image { image cairo_flush_ascii85_file } def
/cairo_imagemask { imagemask cairo_flush_ascii85_file } def
%%EndProlog
%%BeginSetup
%%EndSetup
%%Page: 1 1
%%BeginPageSetup
%%PageBoundingBox: 18 12 368 366
%%EndPageSetup
q 18 12 350 354 rectclip
1 0 0 -1 0 384 cm q
0.992157 0.772549 0.356863 rg
18 18 348 354 re f
0.976471 0.521569 0 rg
72 96 m 60 96 l 53.371 96 48 90.629 48 84 c 48 77.371 53.371 72 60 72 c
 72 72 l 78.625 72.008 83.992 77.375 84 84 c 96 84 l 95.984 70.75 85.25 
60.016 72 60 c 72 48 l 60 48 l 60 60 l 46.746 60 36 70.746 36 84 c 36 97.254
 46.746 108 60 108 c 72 108 l 78.629 108 84 113.371 84 120 c 84 126.629 
78.629 132 72 132 c 60 132 l 53.375 131.992 48.008 126.625 48 120 c 36 120
 l 36.016 133.25 46.75 143.984 60 144 c 60 156 l 72 156 l 72 144 l 85.254
 144 96 133.254 96 120 c 96 106.746 85.254 96 72 96 c h
72 96 m f
120 54 36 12 re f
168 54 24 12 re f
108 84 72 12 re f
108 114 60 12 re f
108 144 48 12 re f
0.992157 0.482353 0.184314 rg
42 240 24 36 re f
0.956863 0.419608 0.152941 rg
66 222 24 54 re f
0.992157 0.482353 0.184314 rg
90 240 24 36 re f
0.956863 0.419608 0.152941 rg
114 210 24 66 re f
0.992157 0.482353 0.184314 rg
138 186 24 90 re f
0.878431 0.384314 0.141176 rg
42 276 120 24 re f
1 0.854902 0.823529 rg
228 48 m 225 48 l 216.715 48 210 41.285 210 33 c 210 24.715 216.715 18 
225 18 c 331.219 18 l 341.547 18 351.375 22.434 358.207 30.176 c 365.043
 37.918 368.223 48.219 366.941 58.465 c 354 162 l 354 198 l 333.422 228 
l 276 228 l 276 204 l 216 204 l 216 126 l 186 126 l h
228 48 m f
0.188235 0.52549 0.803922 rg
342 228 m 312 372 l 144 372 l 147.797 334.016 168.41 299.727 200.172 278.551
 c 276 228 l h
342 228 m f
0.301961 0.717647 0.898039 rg
240 252 m 233.922 260.684 l 210.129 294.676 191.922 332.258 180 372 c 312
 372 l 342 228 l 276 228 l h
240 252 m f
0.419608 0.25098 0.164706 rg
276 48 m 225 48 l 216.715 48 210 41.285 210 33 c 210 24.715 216.715 18 
225 18 c 331.219 18 l 341.547 18 351.375 22.434 358.207 30.176 c 365.043
 37.918 368.223 48.219 366.941 58.465 c 354 162 l 324 126 l 336 102 l 306
 90 l 276 126 l h
276 48 m f
0.278431 0.635294 0.831373 rg
276 228 m 338.734 228 l 312 270 l h
276 228 m f
0.164706 0.439216 0.670588 rg
366 201.332 m 354 198 l 318.387 245.484 292.98 299.828 279.387 357.609 
c 276 372 l 366 372 l h
366 201.332 m f
0.188235 0.52549 0.803922 rg
276 228 m 240 252 l 246 276 l 264 282 l 295.383 250.617 l h
276 228 m f
0.164706 0.439216 0.670588 rg
258 372 m 264 282 l 246 276 l 226.801 372 l h
258 372 m f
0.188235 0.52549 0.803922 rg
366 330 m 366 201.332 l 354 198 l 318.387 245.484 292.98 299.828 279.387
 357.609 c 276 372 l 330 372 l 318 354 l h
366 330 m f
0.419608 0.25098 0.164706 rg
234 84 m 246 84 l 249.324 84 252 86.676 252 90 c 252 93.324 249.324 96 
246 96 c 234 96 l 230.676 96 228 93.324 228 90 c 228 86.676 230.676 84 234
 84 c h
234 84 m f
1 0.623529 0.607843 rg
276 220.969 m 320.484 176.484 l 322.828 174.141 322.828 170.344 320.484
 168 c 318.141 165.656 314.344 165.656 312 168 c 276 204 l h
276 220.969 m f
Q Q
showpage
%%Trailer
end
%%EOF
