%!PS-Adobe-3.0 EPSF-3.0
%%Creator: cairo 1.16.0 (https://cairographics.org)
%%CreationDate: Thu Aug 15 09:28:56 2019
%%Pages: 1
%%DocumentData: Clean7Bit
%%LanguageLevel: 2
%%BoundingBox: 12 18 372 366
%%EndComments
%%BeginProlog
50 dict begin
/q { gsave } bind def
/Q { grestore } bind def
/cm { 6 array astore concat } bind def
/w { setlinewidth } bind def
/J { setlinecap } bind def
/j { setlinejoin } bind def
/M { setmiterlimit } bind def
/d { setdash } bind def
/m { moveto } bind def
/l { lineto } bind def
/c { curveto } bind def
/h { closepath } bind def
/re { exch dup neg 3 1 roll 5 3 roll moveto 0 rlineto
      0 exch rlineto 0 rlineto closepath } bind def
/S { stroke } bind def
/f { fill } bind def
/f* { eofill } bind def
/n { newpath } bind def
/W { clip } bind def
/W* { eoclip } bind def
/BT { } bind def
/ET { } bind def
/BDC { mark 3 1 roll /BDC pdfmark } bind def
/EMC { mark /EMC pdfmark } bind def
/cairo_store_point { /cairo_point_y exch def /cairo_point_x exch def } def
/Tj { show currentpoint cairo_store_point } bind def
/TJ {
  {
    dup
    type /stringtype eq
    { show } { -0.001 mul 0 cairo_font_matrix dtransform rmoveto } ifelse
  } forall
  currentpoint cairo_store_point
} bind def
/cairo_selectfont { cairo_font_matrix aload pop pop pop 0 0 6 array astore
    cairo_font exch selectfont cairo_point_x cairo_point_y moveto } bind def
/Tf { pop /cairo_font exch def /cairo_font_matrix where
      { pop cairo_selectfont } if } bind def
/Td { matrix translate cairo_font_matrix matrix concatmatrix dup
      /cairo_font_matrix exch def dup 4 get exch 5 get cairo_store_point
      /cairo_font where { pop cairo_selectfont } if } bind def
/Tm { 2 copy 8 2 roll 6 array astore /cairo_font_matrix exch def
      cairo_store_point /cairo_font where { pop cairo_selectfont } if } bind def
/g { setgray } bind def
/rg { setrgbcolor } bind def
/d1 { setcachedevice } bind def
/cairo_data_source {
  CairoDataIndex CairoData length lt
    { CairoData CairoDataIndex get /CairoDataIndex CairoDataIndex 1 add def }
    { () } ifelse
} def
/cairo_flush_ascii85_file { cairo_ascii85_file status { cairo_ascii85_file flushfile } if } def
/cairo_image { image cairo_flush_ascii85_file } def
/cairo_imagemask { imagemask cairo_flush_ascii85_file } def
%%EndProlog
%%BeginSetup
%%EndSetup
%%Page: 1 1
%%BeginPageSetup
%%PageBoundingBox: 12 18 372 366
%%EndPageSetup
q 12 18 360 348 rectclip
1 0 0 -1 0 384 cm q
0.164706 0.439216 0.670588 rg
336 84 36 132 re f
0.301961 0.717647 0.898039 rg
312 90 24 108 re f
1 0.623529 0.607843 rg
312 108 m 288 108 l 246 90 l 204 90 l 204 198 l 270 198 l 288 180 l 312
 180 l h
312 108 m f
0.266667 0.529412 0.0117647 rg
174 18 m 42 88.398 l 150 286.398 l 282 216 l h
174 18 m f
0.976471 0.521569 0 rg
151.895 190.473 m 109.922 212.879 l 87.18 171.238 l 129.188 148.844 l h
151.895 190.473 m f
0.584314 0.796078 0.215686 rg
174 18 m 84 66 l 192 264 l 282 216 l h
174 18 m f
0.427451 0.733333 0.141176 rg
126.359 43.441 m 138.746 66.664 130.094 95.531 106.98 108.121 c 84 66 l
 h
126.359 43.441 m f
174 66 m 156.254 66.035 139.949 56.242 131.641 40.559 c 174 18 l 196.98
 60.121 l 189.938 63.984 182.031 66.004 174 66 c h
174 66 m f
234.359 241.441 m 192 264 l 169.02 221.879 l 180.262 215.73 193.5 214.34
 205.773 218.016 c 218.051 221.688 228.344 230.125 234.359 241.441 c h
234.359 241.441 m f
282 216 m 239.641 238.559 l 227.254 215.336 235.906 186.469 259.02 173.879
 c h
282 216 m f
0.988235 0.654902 0.0745098 rg
241.859 142.441 m 151.895 190.473 l 129.188 148.844 l 219.18 100.859 l 
h
241.859 142.441 m f
1 0.854902 0.823529 rg
204 138 m 197.379 144.629 197.383 155.367 204.008 161.992 c 210.633 168.617
 221.371 168.621 228 162 c 252 138 l 265.254 151.254 286.746 151.254 300
 138 c 312 126 l 312 108 l 288 108 l 246 90 l 213.273 90 l 226.879 115.121
 l h
204 138 m f
0.164706 0.439216 0.670588 rg
12 258 24 108 re f
0.301961 0.717647 0.898039 rg
36 270 24 84 re f
1 0.854902 0.823529 rg
132 288 m 138 294 l 174 294 l 183.941 294 192 302.059 192 312 c 192 321.941
 183.941 330 174 330 c 270 330 l 279.941 330 288 338.059 288 348 c 288 357.941
 279.941 366 270 366 c 139.266 366 l 111.055 366 83.473 357.648 60 342 c
 60 288 l 69.547 278.453 82.496 273.09 96 273.09 c 109.504 273.09 122.453
 278.453 132 288 c h
132 288 m f
1 0.623529 0.607843 rg
120 336 m 120 339.312 122.688 342 126 342 c 174 342 l 177.312 342 180 339.312
 180 336 c 180 332.688 177.312 330 174 330 c 126 330 l 122.688 330 120 332.688
 120 336 c h
120 336 m f
Q Q
showpage
%%Trailer
end
%%EOF
