%!PS-Adobe-3.0 EPSF-3.0
%%Creator: cairo 1.16.0 (https://cairographics.org)
%%CreationDate: Thu Aug 15 09:28:56 2019
%%Pages: 1
%%DocumentData: Clean7Bit
%%LanguageLevel: 2
%%BoundingBox: 18 48 372 342
%%EndComments
%%BeginProlog
50 dict begin
/q { gsave } bind def
/Q { grestore } bind def
/cm { 6 array astore concat } bind def
/w { setlinewidth } bind def
/J { setlinecap } bind def
/j { setlinejoin } bind def
/M { setmiterlimit } bind def
/d { setdash } bind def
/m { moveto } bind def
/l { lineto } bind def
/c { curveto } bind def
/h { closepath } bind def
/re { exch dup neg 3 1 roll 5 3 roll moveto 0 rlineto
      0 exch rlineto 0 rlineto closepath } bind def
/S { stroke } bind def
/f { fill } bind def
/f* { eofill } bind def
/n { newpath } bind def
/W { clip } bind def
/W* { eoclip } bind def
/BT { } bind def
/ET { } bind def
/BDC { mark 3 1 roll /BDC pdfmark } bind def
/EMC { mark /EMC pdfmark } bind def
/cairo_store_point { /cairo_point_y exch def /cairo_point_x exch def } def
/Tj { show currentpoint cairo_store_point } bind def
/TJ {
  {
    dup
    type /stringtype eq
    { show } { -0.001 mul 0 cairo_font_matrix dtransform rmoveto } ifelse
  } forall
  currentpoint cairo_store_point
} bind def
/cairo_selectfont { cairo_font_matrix aload pop pop pop 0 0 6 array astore
    cairo_font exch selectfont cairo_point_x cairo_point_y moveto } bind def
/Tf { pop /cairo_font exch def /cairo_font_matrix where
      { pop cairo_selectfont } if } bind def
/Td { matrix translate cairo_font_matrix matrix concatmatrix dup
      /cairo_font_matrix exch def dup 4 get exch 5 get cairo_store_point
      /cairo_font where { pop cairo_selectfont } if } bind def
/Tm { 2 copy 8 2 roll 6 array astore /cairo_font_matrix exch def
      cairo_store_point /cairo_font where { pop cairo_selectfont } if } bind def
/g { setgray } bind def
/rg { setrgbcolor } bind def
/d1 { setcachedevice } bind def
/cairo_data_source {
  CairoDataIndex CairoData length lt
    { CairoData CairoDataIndex get /CairoDataIndex CairoDataIndex 1 add def }
    { () } ifelse
} def
/cairo_flush_ascii85_file { cairo_ascii85_file status { cairo_ascii85_file flushfile } if } def
/cairo_image { image cairo_flush_ascii85_file } def
/cairo_imagemask { imagemask cairo_flush_ascii85_file } def
%%EndProlog
%%BeginSetup
%%EndSetup
%%Page: 1 1
%%BeginPageSetup
%%PageBoundingBox: 18 48 372 342
%%EndPageSetup
q 18 48 354 294 rectclip
1 0 0 -1 0 384 cm q
0.203922 0.529412 0.796078 rg
330 120 42 156 re f
0.301961 0.717647 0.898039 rg
300 138 30 108 re f
1 0.623529 0.607843 rg
300 150 m 276 150 l 258.262 142.117 l 234.352 131.492 208.48 126 182.316
 126 c 114 126 l 114 252 l 234 252 l 276 228 l 300 228 l h
300 150 m f
0.266667 0.529412 0.0117647 rg
18 108 m 150 336 l 270 264 l 138 42 l h
18 108 m f
0.584314 0.796078 0.215686 rg
138 42 m 44.137 93.625 l 177.387 319.566 l 270 264 l h
138 42 m f
0.411765 0.654902 0.0352941 rg
214.02 297.539 m 177.359 319.559 l 154.199 280.262 l 175.68 270.555 201.027
 277.875 214.02 297.539 c h
214.02 297.539 m f
270 264 m 226.441 290.16 l 215.609 266.77 225.199 239 248.16 227.281 c 
h
270 264 m f
90 96 m 90.02 111.902 82.125 126.77 68.941 135.66 c 44.16 93.602 l 83.52
 71.941 l 87.781 79.238 90.02 87.547 90 96 c h
90 96 m f
162.539 83.219 m 155.133 87.676 146.645 90.02 138 90 c 120.48 90.02 104.348
 80.469 95.941 65.102 c 138 42 l h
162.539 83.219 m f
0.976471 0.521569 0 rg
100.445 189.102 m 73.211 203.367 l 100.863 251.129 l 128.488 236.656 l 
h
100.445 189.102 m f
0.988235 0.654902 0.0745098 rg
128.488 236.656 m 223.996 186.629 l 195.773 139.168 l 100.445 189.102 l
 h
128.488 236.656 m f
1 0.854902 0.823529 rg
174 174 m 170.707 177.293 168.91 181.801 169.035 186.457 c 169.16 191.113
 171.195 195.516 174.664 198.629 c 181.492 204.777 192.18 203.82 198.68 
197.32 c 216 180 l 221.988 185.988 l 228.355 192.355 236.992 195.934 246
 195.934 c 255.008 195.934 263.645 192.355 270.012 185.988 c 300 156 l 300
 150 l 276 150 l 258.262 142.117 l 236.109 132.293 212.258 126.871 188.035
 126.148 c 200.645 147.355 l h
174 174 m f
Q Q
showpage
%%Trailer
end
%%EOF
