%!PS-Adobe-3.0 EPSF-3.0
%%Creator: cairo 1.16.0 (https://cairographics.org)
%%CreationDate: Thu Aug 15 09:28:56 2019
%%Pages: 1
%%DocumentData: Clean7Bit
%%LanguageLevel: 2
%%BoundingBox: 18 18 366 366
%%EndComments
%%BeginProlog
50 dict begin
/q { gsave } bind def
/Q { grestore } bind def
/cm { 6 array astore concat } bind def
/w { setlinewidth } bind def
/J { setlinecap } bind def
/j { setlinejoin } bind def
/M { setmiterlimit } bind def
/d { setdash } bind def
/m { moveto } bind def
/l { lineto } bind def
/c { curveto } bind def
/h { closepath } bind def
/re { exch dup neg 3 1 roll 5 3 roll moveto 0 rlineto
      0 exch rlineto 0 rlineto closepath } bind def
/S { stroke } bind def
/f { fill } bind def
/f* { eofill } bind def
/n { newpath } bind def
/W { clip } bind def
/W* { eoclip } bind def
/BT { } bind def
/ET { } bind def
/BDC { mark 3 1 roll /BDC pdfmark } bind def
/EMC { mark /EMC pdfmark } bind def
/cairo_store_point { /cairo_point_y exch def /cairo_point_x exch def } def
/Tj { show currentpoint cairo_store_point } bind def
/TJ {
  {
    dup
    type /stringtype eq
    { show } { -0.001 mul 0 cairo_font_matrix dtransform rmoveto } ifelse
  } forall
  currentpoint cairo_store_point
} bind def
/cairo_selectfont { cairo_font_matrix aload pop pop pop 0 0 6 array astore
    cairo_font exch selectfont cairo_point_x cairo_point_y moveto } bind def
/Tf { pop /cairo_font exch def /cairo_font_matrix where
      { pop cairo_selectfont } if } bind def
/Td { matrix translate cairo_font_matrix matrix concatmatrix dup
      /cairo_font_matrix exch def dup 4 get exch 5 get cairo_store_point
      /cairo_font where { pop cairo_selectfont } if } bind def
/Tm { 2 copy 8 2 roll 6 array astore /cairo_font_matrix exch def
      cairo_store_point /cairo_font where { pop cairo_selectfont } if } bind def
/g { setgray } bind def
/rg { setrgbcolor } bind def
/d1 { setcachedevice } bind def
/cairo_data_source {
  CairoDataIndex CairoData length lt
    { CairoData CairoDataIndex get /CairoDataIndex CairoDataIndex 1 add def }
    { () } ifelse
} def
/cairo_flush_ascii85_file { cairo_ascii85_file status { cairo_ascii85_file flushfile } if } def
/cairo_image { image cairo_flush_ascii85_file } def
/cairo_imagemask { imagemask cairo_flush_ascii85_file } def
%%EndProlog
%%BeginSetup
%%EndSetup
%%Page: 1 1
%%BeginPageSetup
%%PageBoundingBox: 18 18 366 366
%%EndPageSetup
q 18 18 348 348 rectclip
1 0 0 -1 0 384 cm q
0.266667 0.529412 0.0117647 rg
186 294 180 72 re f
0.152941 0.419608 0.00784314 rg
345.73 294 m 337.512 325.789 308.836 347.996 276 348 c 186 348 l 186 366
 l 366 366 l 366 294 l h
345.73 294 m f
0.945098 0.552941 0 rg
258 294 36 72 re f
0.266667 0.529412 0.0117647 rg
162 222 180 72 re f
0.152941 0.419608 0.00784314 rg
321.73 222 m 313.512 253.789 284.836 275.996 252 276 c 162 276 l 162 294
 l 342 294 l 342 222 l h
321.73 222 m f
0.945098 0.552941 0 rg
234 222 36 72 re f
0.992157 0.713726 0.184314 rg
30 342 60 24 re f
0.945098 0.552941 0 rg
18 318 60 24 re f
0.992157 0.713726 0.184314 rg
30 294 60 24 re f
0.945098 0.552941 0 rg
90 342 60 24 re f
0.992157 0.713726 0.184314 rg
78 318 60 24 re f
0.945098 0.552941 0 rg
90 294 60 24 re f
0.992157 0.713726 0.184314 rg
150 342 60 24 re f
0.945098 0.552941 0 rg
138 318 60 24 re f
0.992157 0.713726 0.184314 rg
150 294 60 24 re f
0.945098 0.552941 0 rg
210 342 60 24 re f
0.992157 0.713726 0.184314 rg
198 318 60 24 re f
270 342 60 24 re f
0.945098 0.552941 0 rg
138 270 60 24 re f
0.992157 0.713726 0.184314 rg
126 246 60 24 re f
0.945098 0.552941 0 rg
138 222 60 24 re f
0.992157 0.713726 0.184314 rg
78 270 60 24 re f
0.988235 0.654902 0.0745098 rg
66 342 24 24 re f
66 294 24 24 re f
114 318 24 24 re f
234 318 24 24 re f
186 342 24 24 re f
306 342 24 24 re f
186 294 24 24 re f
0.941176 0.501961 0 rg
174 222 24 24 re f
54 318 24 24 re f
126 294 24 24 re f
126 342 24 24 re f
174 318 24 24 re f
174 270 24 24 re f
0.988235 0.654902 0.0745098 rg
162 246 24 24 re f
0.941176 0.501961 0 rg
246 342 24 24 re f
0.411765 0.654902 0.0352941 rg
192 18 m 189.488 22.52 l 172.527 53.051 173.488 90.383 192 120 c 210.512
 90.383 211.473 53.051 194.512 22.52 c h
192 18 m f
0.584314 0.796078 0.215686 rg
188.957 42.336 m 192 18 l 189.488 22.52 l 172.527 53.051 173.488 90.383
 192 120 c 188.633 89.703 l 186.883 73.957 186.992 58.059 188.957 42.336
 c h
188.957 42.336 m f
0.152941 0.419608 0.00784314 rg
192 192 m 184.844 171.957 l 171.328 134.117 134.332 109.844 94.234 112.52
 c 72 114 l 79.156 134.043 l 92.672 171.883 129.668 196.156 169.766 193.48
 c h
192 192 m f
0.184314 0.356863 0.00392157 rg
171.336 171.336 m 149.379 149.379 122.875 132.5 93.691 121.887 c 72 114
 l 79.156 134.043 l 92.672 171.883 129.668 196.156 169.766 193.48 c 192 
192 l h
171.336 171.336 m f
0.411765 0.654902 0.0352941 rg
192 156 m 194.121 149.641 l 207.188 110.441 243.871 84 285.191 84 c 294
 84 l 288.617 96.922 l 273.711 132.695 238.754 156 200 156 c h
192 156 m f
0.152941 0.419608 0.00784314 rg
284.387 87.496 m 247.594 100.875 215.492 124.68 192 156 c 200 156 l 238.754
 156 273.711 132.695 288.617 96.922 c 294 84 l h
284.387 87.496 m f
0.729412 0.2 0.152941 rg
198 222 m 186 222 l 186 114 l 186 110.688 188.688 108 192 108 c 195.312
 108 198 110.688 198 114 c h
198 222 m f
Q Q
showpage
%%Trailer
end
%%EOF
