%!PS-Adobe-3.0 EPSF-3.0
%%Creator: cairo 1.16.0 (https://cairographics.org)
%%CreationDate: Thu Aug 15 09:28:56 2019
%%Pages: 1
%%DocumentData: Clean7Bit
%%LanguageLevel: 2
%%BoundingBox: 78 18 306 366
%%EndComments
%%BeginProlog
50 dict begin
/q { gsave } bind def
/Q { grestore } bind def
/cm { 6 array astore concat } bind def
/w { setlinewidth } bind def
/J { setlinecap } bind def
/j { setlinejoin } bind def
/M { setmiterlimit } bind def
/d { setdash } bind def
/m { moveto } bind def
/l { lineto } bind def
/c { curveto } bind def
/h { closepath } bind def
/re { exch dup neg 3 1 roll 5 3 roll moveto 0 rlineto
      0 exch rlineto 0 rlineto closepath } bind def
/S { stroke } bind def
/f { fill } bind def
/f* { eofill } bind def
/n { newpath } bind def
/W { clip } bind def
/W* { eoclip } bind def
/BT { } bind def
/ET { } bind def
/BDC { mark 3 1 roll /BDC pdfmark } bind def
/EMC { mark /EMC pdfmark } bind def
/cairo_store_point { /cairo_point_y exch def /cairo_point_x exch def } def
/Tj { show currentpoint cairo_store_point } bind def
/TJ {
  {
    dup
    type /stringtype eq
    { show } { -0.001 mul 0 cairo_font_matrix dtransform rmoveto } ifelse
  } forall
  currentpoint cairo_store_point
} bind def
/cairo_selectfont { cairo_font_matrix aload pop pop pop 0 0 6 array astore
    cairo_font exch selectfont cairo_point_x cairo_point_y moveto } bind def
/Tf { pop /cairo_font exch def /cairo_font_matrix where
      { pop cairo_selectfont } if } bind def
/Td { matrix translate cairo_font_matrix matrix concatmatrix dup
      /cairo_font_matrix exch def dup 4 get exch 5 get cairo_store_point
      /cairo_font where { pop cairo_selectfont } if } bind def
/Tm { 2 copy 8 2 roll 6 array astore /cairo_font_matrix exch def
      cairo_store_point /cairo_font where { pop cairo_selectfont } if } bind def
/g { setgray } bind def
/rg { setrgbcolor } bind def
/d1 { setcachedevice } bind def
/cairo_data_source {
  CairoDataIndex CairoData length lt
    { CairoData CairoDataIndex get /CairoDataIndex CairoDataIndex 1 add def }
    { () } ifelse
} def
/cairo_flush_ascii85_file { cairo_ascii85_file status { cairo_ascii85_file flushfile } if } def
/cairo_image { image cairo_flush_ascii85_file } def
/cairo_imagemask { imagemask cairo_flush_ascii85_file } def
%%EndProlog
%%BeginSetup
%%EndSetup
%%Page: 1 1
%%BeginPageSetup
%%PageBoundingBox: 78 18 306 366
%%EndPageSetup
q 78 18 228 348 rectclip
1 0 0 -1 0 384 cm q
0.176471 0.490196 0.74902 rg
78 18 228 348 re f
0.301961 0.717647 0.898039 rg
102 42 180 276 re f
174 336 36 12 re f
0.176471 0.490196 0.74902 rg
126 66 132 36 re f
126 240 60 54 re f
216 240 48 12 re f
204 264 60 12 re f
204 288 48 12 re f
210 210 m 132 210 l 132 150 l 120 150 l 120 216 l 120 217.59 120.633 219.117
 121.758 220.242 c 122.883 221.367 124.41 222 126 222 c 210 222 l h
210 210 m f
168 182.484 m 175.758 190.242 l 176.883 191.367 178.41 192 180 192 c 181.59
 192 183.117 191.367 184.242 190.242 c 198 176.484 l 198 186 l 210 186 l
 210 162 l 210 160.41 209.367 158.883 208.242 157.758 c 207.117 156.633 
205.59 156 204 156 c 180 156 l 180 168 l 189.516 168 l 180 177.516 l 172.242
 169.758 l 171.117 168.633 169.59 168 168 168 c 166.41 168 164.883 168.633
 163.758 169.758 c 145.758 187.758 l 154.242 196.242 l h
168 182.484 m f
150 126 60 12 re f
222 126 42 12 re f
222 150 42 12 re f
222 174 42 12 re f
Q Q
showpage
%%Trailer
end
%%EOF
