%!PS-Adobe-3.0 EPSF-3.0
%%Creator: cairo 1.16.0 (https://cairographics.org)
%%CreationDate: Thu Aug 15 09:28:57 2019
%%Pages: 1
%%DocumentData: Clean7Bit
%%LanguageLevel: 2
%%BoundingBox: 18 18 366 366
%%EndComments
%%BeginProlog
50 dict begin
/q { gsave } bind def
/Q { grestore } bind def
/cm { 6 array astore concat } bind def
/w { setlinewidth } bind def
/J { setlinecap } bind def
/j { setlinejoin } bind def
/M { setmiterlimit } bind def
/d { setdash } bind def
/m { moveto } bind def
/l { lineto } bind def
/c { curveto } bind def
/h { closepath } bind def
/re { exch dup neg 3 1 roll 5 3 roll moveto 0 rlineto
      0 exch rlineto 0 rlineto closepath } bind def
/S { stroke } bind def
/f { fill } bind def
/f* { eofill } bind def
/n { newpath } bind def
/W { clip } bind def
/W* { eoclip } bind def
/BT { } bind def
/ET { } bind def
/BDC { mark 3 1 roll /BDC pdfmark } bind def
/EMC { mark /EMC pdfmark } bind def
/cairo_store_point { /cairo_point_y exch def /cairo_point_x exch def } def
/Tj { show currentpoint cairo_store_point } bind def
/TJ {
  {
    dup
    type /stringtype eq
    { show } { -0.001 mul 0 cairo_font_matrix dtransform rmoveto } ifelse
  } forall
  currentpoint cairo_store_point
} bind def
/cairo_selectfont { cairo_font_matrix aload pop pop pop 0 0 6 array astore
    cairo_font exch selectfont cairo_point_x cairo_point_y moveto } bind def
/Tf { pop /cairo_font exch def /cairo_font_matrix where
      { pop cairo_selectfont } if } bind def
/Td { matrix translate cairo_font_matrix matrix concatmatrix dup
      /cairo_font_matrix exch def dup 4 get exch 5 get cairo_store_point
      /cairo_font where { pop cairo_selectfont } if } bind def
/Tm { 2 copy 8 2 roll 6 array astore /cairo_font_matrix exch def
      cairo_store_point /cairo_font where { pop cairo_selectfont } if } bind def
/g { setgray } bind def
/rg { setrgbcolor } bind def
/d1 { setcachedevice } bind def
/cairo_data_source {
  CairoDataIndex CairoData length lt
    { CairoData CairoDataIndex get /CairoDataIndex CairoDataIndex 1 add def }
    { () } ifelse
} def
/cairo_flush_ascii85_file { cairo_ascii85_file status { cairo_ascii85_file flushfile } if } def
/cairo_image { image cairo_flush_ascii85_file } def
/cairo_imagemask { imagemask cairo_flush_ascii85_file } def
%%EndProlog
%%BeginSetup
%%EndSetup
%%Page: 1 1
%%BeginPageSetup
%%PageBoundingBox: 18 18 366 366
%%EndPageSetup
q 18 18 348 348 rectclip
1 0 0 -1 0 384 cm q
0.301961 0.717647 0.898039 rg
348 192 m 348 278.16 278.16 348 192 348 c 105.84 348 36 278.16 36 192 c
 35.977 183.273 36.719 174.559 38.219 165.961 c 47.531 110.832 85.645 64.91
 138.113 45.598 c 190.582 26.285 249.371 36.543 292.199 72.48 c 294.66 74.52
 297.059 76.68 299.34 78.898 c 330.379 108.336 347.969 149.223 348 192 c
 h
348 192 m f
0.203922 0.560784 0.85098 rg
270 228 m 270 258 l 246 276 l 234 342 l 198 324 l 180 306 l 138 306 l 120
 276 l 126 234 l 90 228 l 66 216 l 38.219 165.961 l 45.75 121.086 72.57 
81.766 111.602 58.379 c 120 78 l 102 108 l 138 96 l 156 114 l 132 144 l 
150 168 l 96 168 l 90 198 l 150 210 l 192 210 l 210 222 l 246 210 l h
270 228 m f
292.199 72.48 m 270 78 l 246 108 l 222 102 l 228 78 l 204 78 l 192 36 l
 228.66 35.934 264.16 48.859 292.199 72.48 c h
292.199 72.48 m f
346.801 172.801 m 324 150 l 306 174 l 282 162 l 264 126 l 299.34 78.898
 l 325.625 103.707 342.414 136.922 346.801 172.801 c h
346.801 172.801 m f
0.109804 0.341176 0.541176 rg
281.262 221.297 m 269.344 222.703 l 269.781 226.453 270 230.227 270 234
 c 282 234 l 282 229.754 281.754 225.512 281.262 221.297 c h
281.262 221.297 m f
275.082 195.887 m 263.855 200.113 l 265.242 203.801 266.402 207.57 267.324
 211.402 c 278.996 208.598 l 277.953 204.285 276.648 200.039 275.082 195.887
 c h
275.082 195.887 m f
261.34 170.465 m 251.648 177.535 l 254.266 181.133 256.633 184.906 258.73
 188.832 c 269.316 183.168 l 266.953 178.754 264.289 174.512 261.34 170.465
 c h
261.34 170.465 m f
230.465 156.355 m 234.473 159.277 238.25 162.504 241.762 166.004 c 250.238
 157.504 l 246.285 153.57 242.039 149.941 237.535 146.652 c h
230.465 156.355 m f
207.887 144.145 m 211.77 145.613 215.551 147.332 219.211 149.293 c 224.871
 138.707 l 220.75 136.504 216.488 134.57 212.113 132.918 c h
207.887 144.145 m f
190.992 117.328 m 181.008 110.672 l 169.008 128.672 l 167.668 130.688 167.668
 133.312 169.008 135.328 c 181.008 153.328 l 190.992 146.672 l 185.695 138.727
 l 189.363 139.164 193 139.816 196.594 140.672 c 199.406 129.012 l 194.609
 127.867 189.734 127.055 184.824 126.578 c h
190.992 117.328 m f
0.266667 0.529412 0.0117647 rg
222 324 144 42 re f
0.152941 0.419608 0.00784314 rg
343.902 324 m 336.965 338.648 322.211 347.992 306 348 c 222 348 l 222 366
 l 366 366 l 366 324 l h
343.902 324 m f
0.976471 0.521569 0 rg
276 324 36 42 re f
0.584314 0.796078 0.215686 rg
222 252 144 72 re f
0.411765 0.654902 0.0352941 rg
366 294 m 366 324 l 336 324 l 336 307.43 349.43 294 366 294 c h
366 294 m f
336 252 m 366 252 l 366 282 l 349.43 282 336 268.57 336 252 c h
336 252 m f
222 282 m 222 252 l 252 252 l 252 268.57 238.57 282 222 282 c h
222 282 m f
252 324 m 222 324 l 222 294 l 238.57 294 252 307.43 252 324 c h
252 324 m f
0.988235 0.654902 0.0745098 rg
276 252 36 72 re f
0.729412 0.254902 0 rg
18 162 144 24 re f
0.92549 0.494118 0.32549 rg
126 18 24 144 re f
78 54 24 108 re f
30 126 24 36 re f
0.831373 0.32549 0.109804 rg
54 90 24 72 re f
102 84 24 78 re f
Q Q
showpage
%%Trailer
end
%%EOF
