%!PS-Adobe-3.0 EPSF-3.0
%%Creator: cairo 1.16.0 (https://cairographics.org)
%%CreationDate: Thu Aug 15 09:28:57 2019
%%Pages: 1
%%DocumentData: Clean7Bit
%%LanguageLevel: 2
%%BoundingBox: 18 18 360 366
%%EndComments
%%BeginProlog
50 dict begin
/q { gsave } bind def
/Q { grestore } bind def
/cm { 6 array astore concat } bind def
/w { setlinewidth } bind def
/J { setlinecap } bind def
/j { setlinejoin } bind def
/M { setmiterlimit } bind def
/d { setdash } bind def
/m { moveto } bind def
/l { lineto } bind def
/c { curveto } bind def
/h { closepath } bind def
/re { exch dup neg 3 1 roll 5 3 roll moveto 0 rlineto
      0 exch rlineto 0 rlineto closepath } bind def
/S { stroke } bind def
/f { fill } bind def
/f* { eofill } bind def
/n { newpath } bind def
/W { clip } bind def
/W* { eoclip } bind def
/BT { } bind def
/ET { } bind def
/BDC { mark 3 1 roll /BDC pdfmark } bind def
/EMC { mark /EMC pdfmark } bind def
/cairo_store_point { /cairo_point_y exch def /cairo_point_x exch def } def
/Tj { show currentpoint cairo_store_point } bind def
/TJ {
  {
    dup
    type /stringtype eq
    { show } { -0.001 mul 0 cairo_font_matrix dtransform rmoveto } ifelse
  } forall
  currentpoint cairo_store_point
} bind def
/cairo_selectfont { cairo_font_matrix aload pop pop pop 0 0 6 array astore
    cairo_font exch selectfont cairo_point_x cairo_point_y moveto } bind def
/Tf { pop /cairo_font exch def /cairo_font_matrix where
      { pop cairo_selectfont } if } bind def
/Td { matrix translate cairo_font_matrix matrix concatmatrix dup
      /cairo_font_matrix exch def dup 4 get exch 5 get cairo_store_point
      /cairo_font where { pop cairo_selectfont } if } bind def
/Tm { 2 copy 8 2 roll 6 array astore /cairo_font_matrix exch def
      cairo_store_point /cairo_font where { pop cairo_selectfont } if } bind def
/g { setgray } bind def
/rg { setrgbcolor } bind def
/d1 { setcachedevice } bind def
/cairo_data_source {
  CairoDataIndex CairoData length lt
    { CairoData CairoDataIndex get /CairoDataIndex CairoDataIndex 1 add def }
    { () } ifelse
} def
/cairo_flush_ascii85_file { cairo_ascii85_file status { cairo_ascii85_file flushfile } if } def
/cairo_image { image cairo_flush_ascii85_file } def
/cairo_imagemask { imagemask cairo_flush_ascii85_file } def
%%EndProlog
%%BeginSetup
%%EndSetup
%%Page: 1 1
%%BeginPageSetup
%%PageBoundingBox: 18 18 360 366
%%EndPageSetup
q 18 18 342 348 rectclip
1 0 0 -1 0 384 cm q
0.301961 0.717647 0.898039 rg
18 42 240 192 re f
0.176471 0.490196 0.74902 rg
198 18 24 24 re f
126 18 24 24 re f
54 18 24 24 re f
198 78 24 24 re f
150 78 24 24 re f
102 78 24 24 re f
54 78 24 24 re f
150 126 24 24 re f
102 126 24 24 re f
54 126 24 24 re f
198 174 24 24 re f
102 174 24 24 re f
54 174 24 24 re f
0.984314 0.407843 0.356863 rg
246 138 m 282 174 l 282 192 l 360 192 l 360 96 l 282 96 l 282 138 l h
246 138 m f
162 222 m 162 258 l 204 258 l 204 366 l 72 366 l 72 258 l 126 258 l h
162 222 m f
0.917647 0.290196 0.231373 rg
102 282 84 12 re f
90 306 24 12 re f
126 306 60 12 re f
90 330 72 12 re f
312 114 30 12 re f
300 138 42 12 re f
300 162 30 12 re f
0.984314 0.407843 0.356863 rg
178.242 178.242 m 169.758 169.758 l 162 177.516 l 154.242 169.758 l 145.758
 178.242 l 153.516 186 l 145.758 193.758 l 154.242 202.242 l 162 194.484
 l 169.758 202.242 l 178.242 193.758 l 170.484 186 l h
178.242 178.242 m f
226.242 130.242 m 217.758 121.758 l 210 129.516 l 202.242 121.758 l 193.758
 130.242 l 201.516 138 l 193.758 145.758 l 202.242 154.242 l 210 146.484
 l 217.758 154.242 l 226.242 145.758 l 218.484 138 l h
226.242 130.242 m f
Q Q
showpage
%%Trailer
end
%%EOF
