%!PS-Adobe-3.0 EPSF-3.0
%%Creator: cairo 1.16.0 (https://cairographics.org)
%%CreationDate: Thu Aug 15 09:28:57 2019
%%Pages: 1
%%DocumentData: Clean7Bit
%%LanguageLevel: 2
%%BoundingBox: 18 18 366 366
%%EndComments
%%BeginProlog
50 dict begin
/q { gsave } bind def
/Q { grestore } bind def
/cm { 6 array astore concat } bind def
/w { setlinewidth } bind def
/J { setlinecap } bind def
/j { setlinejoin } bind def
/M { setmiterlimit } bind def
/d { setdash } bind def
/m { moveto } bind def
/l { lineto } bind def
/c { curveto } bind def
/h { closepath } bind def
/re { exch dup neg 3 1 roll 5 3 roll moveto 0 rlineto
      0 exch rlineto 0 rlineto closepath } bind def
/S { stroke } bind def
/f { fill } bind def
/f* { eofill } bind def
/n { newpath } bind def
/W { clip } bind def
/W* { eoclip } bind def
/BT { } bind def
/ET { } bind def
/BDC { mark 3 1 roll /BDC pdfmark } bind def
/EMC { mark /EMC pdfmark } bind def
/cairo_store_point { /cairo_point_y exch def /cairo_point_x exch def } def
/Tj { show currentpoint cairo_store_point } bind def
/TJ {
  {
    dup
    type /stringtype eq
    { show } { -0.001 mul 0 cairo_font_matrix dtransform rmoveto } ifelse
  } forall
  currentpoint cairo_store_point
} bind def
/cairo_selectfont { cairo_font_matrix aload pop pop pop 0 0 6 array astore
    cairo_font exch selectfont cairo_point_x cairo_point_y moveto } bind def
/Tf { pop /cairo_font exch def /cairo_font_matrix where
      { pop cairo_selectfont } if } bind def
/Td { matrix translate cairo_font_matrix matrix concatmatrix dup
      /cairo_font_matrix exch def dup 4 get exch 5 get cairo_store_point
      /cairo_font where { pop cairo_selectfont } if } bind def
/Tm { 2 copy 8 2 roll 6 array astore /cairo_font_matrix exch def
      cairo_store_point /cairo_font where { pop cairo_selectfont } if } bind def
/g { setgray } bind def
/rg { setrgbcolor } bind def
/d1 { setcachedevice } bind def
/cairo_data_source {
  CairoDataIndex CairoData length lt
    { CairoData CairoDataIndex get /CairoDataIndex CairoDataIndex 1 add def }
    { () } ifelse
} def
/cairo_flush_ascii85_file { cairo_ascii85_file status { cairo_ascii85_file flushfile } if } def
/cairo_image { image cairo_flush_ascii85_file } def
/cairo_imagemask { imagemask cairo_flush_ascii85_file } def
%%EndProlog
%%BeginSetup
%%EndSetup
%%Page: 1 1
%%BeginPageSetup
%%PageBoundingBox: 18 18 366 366
%%EndPageSetup
q 18 18 348 348 rectclip
1 0 0 -1 0 384 cm q
0.831373 0.32549 0.109804 rg
126 126 36 156 re f
0.92549 0.494118 0.32549 rg
90 174 36 108 re f
162 96 36 186 re f
0.831373 0.32549 0.109804 rg
198 144 36 138 re f
0.92549 0.494118 0.32549 rg
234 18 36 264 re f
0.729412 0.254902 0 rg
336 120 m 336 66 l 318 48 l 300 66 l 300 120 l 318 102 l h
336 120 m f
0.92549 0.494118 0.32549 rg
18 198 36 84 re f
0.729412 0.254902 0 rg
18 282 312 24 re f
0.831373 0.32549 0.109804 rg
54 150 36 132 re f
0.584314 0.796078 0.215686 rg
366 306 m 366 282 l 352.789 282 l 351.25 274.484 348.273 267.336 344.023
 260.945 c 353.395 251.574 l 336.426 234.605 l 327.055 243.977 l 320.664
 239.727 313.516 236.75 306 235.211 c 306 222 l 282 222 l 282 235.211 l 
279.238 235.773 276.523 236.531 273.871 237.484 c 269.316 239.121 264.977
 241.301 260.945 243.977 c 251.574 234.605 l 234.605 251.574 l 243.977 260.945
 l 242.832 262.672 241.777 264.453 240.816 266.285 c 238.215 271.234 236.328
 276.523 235.211 282 c 222 282 l 222 306 l 235.211 306 l 236.453 312.09 
238.648 317.945 241.711 323.355 c 242.422 324.617 243.18 325.852 243.977
 327.055 c 234.605 336.426 l 251.574 353.395 l 260.945 344.023 l 267.336
 348.273 274.484 351.25 282 352.789 c 282 366 l 306 366 l 306 352.789 l 
313.516 351.25 320.664 348.273 327.055 344.023 c 336.426 353.395 l 353.395
 336.426 l 344.023 327.055 l 348.273 320.664 351.25 313.516 352.789 306 
c h
366 306 m f
0.266667 0.529412 0.0117647 rg
311.387 306.066 m 310.875 300.855 308.051 296.148 303.691 293.25 c 290.965
 284.766 l 289.605 283.855 288.723 282.383 288.562 280.754 c 288.402 279.125
 288.977 277.512 290.133 276.352 c 292.27 274.219 295.73 274.219 297.867
 276.352 c 301.758 280.242 l 310.242 271.758 l 306.352 267.867 l 304.555
 266.086 302.383 264.719 300 263.867 c 300 252 l 288 252 l 288 263.867 l
 281.824 266.113 277.438 271.645 276.656 278.172 c 275.875 284.699 278.836
 291.109 284.309 294.75 c 297.035 303.234 l 298.395 304.145 299.277 305.617
 299.438 307.246 c 299.598 308.875 299.023 310.488 297.867 311.648 c 295.73
 313.781 292.27 313.781 290.133 311.648 c 286.242 307.758 l 277.758 316.242
 l 281.648 320.133 l 283.445 321.914 285.617 323.281 288 324.133 c 288 336
 l 300 336 l 300 324.133 l 307.504 321.449 312.203 313.992 311.387 306.066
 c h
311.387 306.066 m f
0.729412 0.254902 0 rg
322.242 133.758 m 321.117 132.633 319.59 132 318 132 c 316.41 132 314.883
 132.633 313.758 133.758 c 295.758 151.758 l 304.242 160.242 l 318 146.484
 l 331.758 160.242 l 340.242 151.758 l h
322.242 133.758 m f
313.758 169.758 m 295.758 187.758 l 304.242 196.242 l 318 182.484 l 331.758
 196.242 l 340.242 187.758 l 322.242 169.758 l 321.117 168.633 319.59 168
 318 168 c 316.41 168 314.883 168.633 313.758 169.758 c h
313.758 169.758 m f
Q Q
showpage
%%Trailer
end
%%EOF
