%!PS-Adobe-3.0 EPSF-3.0
%%Creator: cairo 1.16.0 (https://cairographics.org)
%%CreationDate: Thu Aug 15 09:28:59 2019
%%Pages: 1
%%DocumentData: Clean7Bit
%%LanguageLevel: 2
%%BoundingBox: 48 18 372 366
%%EndComments
%%BeginProlog
50 dict begin
/q { gsave } bind def
/Q { grestore } bind def
/cm { 6 array astore concat } bind def
/w { setlinewidth } bind def
/J { setlinecap } bind def
/j { setlinejoin } bind def
/M { setmiterlimit } bind def
/d { setdash } bind def
/m { moveto } bind def
/l { lineto } bind def
/c { curveto } bind def
/h { closepath } bind def
/re { exch dup neg 3 1 roll 5 3 roll moveto 0 rlineto
      0 exch rlineto 0 rlineto closepath } bind def
/S { stroke } bind def
/f { fill } bind def
/f* { eofill } bind def
/n { newpath } bind def
/W { clip } bind def
/W* { eoclip } bind def
/BT { } bind def
/ET { } bind def
/BDC { mark 3 1 roll /BDC pdfmark } bind def
/EMC { mark /EMC pdfmark } bind def
/cairo_store_point { /cairo_point_y exch def /cairo_point_x exch def } def
/Tj { show currentpoint cairo_store_point } bind def
/TJ {
  {
    dup
    type /stringtype eq
    { show } { -0.001 mul 0 cairo_font_matrix dtransform rmoveto } ifelse
  } forall
  currentpoint cairo_store_point
} bind def
/cairo_selectfont { cairo_font_matrix aload pop pop pop 0 0 6 array astore
    cairo_font exch selectfont cairo_point_x cairo_point_y moveto } bind def
/Tf { pop /cairo_font exch def /cairo_font_matrix where
      { pop cairo_selectfont } if } bind def
/Td { matrix translate cairo_font_matrix matrix concatmatrix dup
      /cairo_font_matrix exch def dup 4 get exch 5 get cairo_store_point
      /cairo_font where { pop cairo_selectfont } if } bind def
/Tm { 2 copy 8 2 roll 6 array astore /cairo_font_matrix exch def
      cairo_store_point /cairo_font where { pop cairo_selectfont } if } bind def
/g { setgray } bind def
/rg { setrgbcolor } bind def
/d1 { setcachedevice } bind def
/cairo_data_source {
  CairoDataIndex CairoData length lt
    { CairoData CairoDataIndex get /CairoDataIndex CairoDataIndex 1 add def }
    { () } ifelse
} def
/cairo_flush_ascii85_file { cairo_ascii85_file status { cairo_ascii85_file flushfile } if } def
/cairo_image { image cairo_flush_ascii85_file } def
/cairo_imagemask { imagemask cairo_flush_ascii85_file } def
%%EndProlog
%%BeginSetup
%%EndSetup
%%Page: 1 1
%%BeginPageSetup
%%PageBoundingBox: 48 18 372 366
%%EndPageSetup
q 48 18 324 348 rectclip
1 0 0 -1 0 384 cm q
0.176471 0.490196 0.74902 rg
48 18 156 312 re f
0.301961 0.717647 0.898039 rg
72 42 42 24 re f
138 42 42 24 re f
72 90 42 24 re f
138 90 42 24 re f
72 138 42 24 re f
72 186 42 24 re f
90 252 24 78 re f
0.203922 0.560784 0.85098 rg
114 114 132 216 re f
0.301961 0.717647 0.898039 rg
138 138 30 24 re f
192 138 30 24 re f
138 186 30 24 re f
192 186 30 24 re f
138 234 30 24 re f
192 234 30 24 re f
156 282 48 48 re f
0.164706 0.439216 0.670588 rg
348 258 24 108 re f
0.301961 0.717647 0.898039 rg
324 270 24 84 re f
1 0.854902 0.823529 rg
252 288 m 246 294 l 210 294 l 200.059 294 192 302.059 192 312 c 192 321.941
 200.059 330 210 330 c 114 330 l 104.059 330 96 338.059 96 348 c 96 357.941
 104.059 366 114 366 c 244.734 366 l 272.945 366 300.527 357.648 324 342
 c 324 288 l 314.453 278.453 301.504 273.09 288 273.09 c 274.496 273.09 
261.547 278.453 252 288 c h
252 288 m f
1 0.623529 0.607843 rg
264 336 m 264 339.312 261.312 342 258 342 c 210 342 l 206.688 342 204 339.312
 204 336 c 204 332.688 206.688 330 210 330 c 258 330 l 261.312 330 264 332.688
 264 336 c h
264 336 m f
Q Q
showpage
%%Trailer
end
%%EOF
