%!PS-Adobe-3.0 EPSF-3.0
%%Creator: cairo 1.16.0 (https://cairographics.org)
%%CreationDate: Thu Aug 15 09:28:59 2019
%%Pages: 1
%%DocumentData: Clean7Bit
%%LanguageLevel: 2
%%BoundingBox: 18 12 366 366
%%EndComments
%%BeginProlog
50 dict begin
/q { gsave } bind def
/Q { grestore } bind def
/cm { 6 array astore concat } bind def
/w { setlinewidth } bind def
/J { setlinecap } bind def
/j { setlinejoin } bind def
/M { setmiterlimit } bind def
/d { setdash } bind def
/m { moveto } bind def
/l { lineto } bind def
/c { curveto } bind def
/h { closepath } bind def
/re { exch dup neg 3 1 roll 5 3 roll moveto 0 rlineto
      0 exch rlineto 0 rlineto closepath } bind def
/S { stroke } bind def
/f { fill } bind def
/f* { eofill } bind def
/n { newpath } bind def
/W { clip } bind def
/W* { eoclip } bind def
/BT { } bind def
/ET { } bind def
/BDC { mark 3 1 roll /BDC pdfmark } bind def
/EMC { mark /EMC pdfmark } bind def
/cairo_store_point { /cairo_point_y exch def /cairo_point_x exch def } def
/Tj { show currentpoint cairo_store_point } bind def
/TJ {
  {
    dup
    type /stringtype eq
    { show } { -0.001 mul 0 cairo_font_matrix dtransform rmoveto } ifelse
  } forall
  currentpoint cairo_store_point
} bind def
/cairo_selectfont { cairo_font_matrix aload pop pop pop 0 0 6 array astore
    cairo_font exch selectfont cairo_point_x cairo_point_y moveto } bind def
/Tf { pop /cairo_font exch def /cairo_font_matrix where
      { pop cairo_selectfont } if } bind def
/Td { matrix translate cairo_font_matrix matrix concatmatrix dup
      /cairo_font_matrix exch def dup 4 get exch 5 get cairo_store_point
      /cairo_font where { pop cairo_selectfont } if } bind def
/Tm { 2 copy 8 2 roll 6 array astore /cairo_font_matrix exch def
      cairo_store_point /cairo_font where { pop cairo_selectfont } if } bind def
/g { setgray } bind def
/rg { setrgbcolor } bind def
/d1 { setcachedevice } bind def
/cairo_data_source {
  CairoDataIndex CairoData length lt
    { CairoData CairoDataIndex get /CairoDataIndex CairoDataIndex 1 add def }
    { () } ifelse
} def
/cairo_flush_ascii85_file { cairo_ascii85_file status { cairo_ascii85_file flushfile } if } def
/cairo_image { image cairo_flush_ascii85_file } def
/cairo_imagemask { imagemask cairo_flush_ascii85_file } def
%%EndProlog
%%BeginSetup
%%EndSetup
%%Page: 1 1
%%BeginPageSetup
%%PageBoundingBox: 18 12 366 366
%%EndPageSetup
q 18 12 348 354 rectclip
1 0 0 -1 0 384 cm q
0.992157 0.772549 0.356863 rg
18 42 348 270 re f
0.988235 0.654902 0.0745098 rg
18 42 348 12 re f
0.203922 0.529412 0.796078 rg
176.598 297.492 m 168 276 l 144 282 l 126 258 l 106.191 267.902 l 96.609
 272.695 91.363 283.262 93.336 293.793 c 84 342 l 90 366 l 156 366 l 176.871
 314.609 l 178.887 309.066 178.789 302.973 176.598 297.492 c h
176.598 297.492 m f
1 0.854902 0.823529 rg
180 228 m 180 216 l 144 216 l 126 258 l 144 282 l 168 276 l 162 270 l 174
 270 l 174 252 l 186 252 l h
180 228 m f
0.301961 0.717647 0.898039 rg
176.598 297.492 m 168 276 l 144 282 l 138 366 l 156 366 l 176.871 314.609
 l 178.887 309.066 178.789 302.973 176.598 297.492 c h
176.598 297.492 m f
0.419608 0.25098 0.164706 rg
198 222 m 141.43 222 l 141.43 215.371 146.801 210 153.43 210 c 198 210 
l h
198 222 m f
1 0.623529 0.607843 rg
141.516 258 m 140.391 259.125 139.758 260.652 139.758 262.242 c 139.758
 263.832 140.391 265.359 141.516 266.484 c 154.426 279.395 l 168 276 l 150
 258 l 148.875 256.875 147.348 256.242 145.758 256.242 c 144.168 256.242
 142.641 256.875 141.516 258 c h
141.516 258 m f
0.203922 0.529412 0.796078 rg
122.598 297.492 m 114 276 l 90 282 l 72 258 l 52.191 267.902 l 42.609 272.695
 37.363 283.262 39.336 293.793 c 30 342 l 36 366 l 102 366 l 122.871 314.609
 l 124.887 309.066 124.789 302.973 122.598 297.492 c h
122.598 297.492 m f
1 0.854902 0.823529 rg
126 228 m 126 216 l 90 216 l 72 258 l 90 282 l 114 276 l 108 270 l 120 
270 l 120 252 l 132 252 l h
126 228 m f
0.301961 0.717647 0.898039 rg
122.598 297.492 m 114 276 l 90 282 l 84 366 l 102 366 l 122.871 314.609
 l 124.887 309.066 124.789 302.973 122.598 297.492 c h
122.598 297.492 m f
0.419608 0.25098 0.164706 rg
144 222 m 87.43 222 l 87.43 218.816 88.691 215.766 90.941 213.516 c 93.195
 211.266 96.246 210 99.43 210 c 144 210 l h
144 222 m f
1 0.623529 0.607843 rg
87.516 258 m 86.391 259.125 85.758 260.652 85.758 262.242 c 85.758 263.832
 86.391 265.359 87.516 266.484 c 100.426 279.395 l 114 276 l 96 258 l 94.875
 256.875 93.348 256.242 91.758 256.242 c 90.168 256.242 88.641 256.875 87.516
 258 c h
87.516 258 m f
0.203922 0.529412 0.796078 rg
68.598 297.492 m 60 276 l 36 282 l 18 258 l 18 366 l 48 366 l 68.871 314.609
 l 70.887 309.066 70.789 302.973 68.598 297.492 c h
68.598 297.492 m f
1 0.854902 0.823529 rg
72 228 m 72 216 l 36 216 l 18 258 l 36 282 l 60 276 l 54 270 l 66 270 l
 66 252 l 78 252 l h
72 228 m f
0.301961 0.717647 0.898039 rg
68.598 297.492 m 60 276 l 36 282 l 30 366 l 48 366 l 68.871 314.609 l 70.887
 309.066 70.789 302.973 68.598 297.492 c h
68.598 297.492 m f
0.419608 0.25098 0.164706 rg
90 222 m 33.43 222 l 33.43 215.371 38.801 210 45.43 210 c 90 210 l h
90 222 m f
1 0.623529 0.607843 rg
33.516 258 m 32.391 259.125 31.758 260.652 31.758 262.242 c 31.758 263.832
 32.391 265.359 33.516 266.484 c 46.426 279.395 l 60 276 l 42 258 l 40.875
 256.875 39.348 256.242 37.758 256.242 c 36.168 256.242 34.641 256.875 33.516
 258 c h
33.516 258 m f
0.992157 0.482353 0.184314 rg
210 270 78 42 re f
0.956863 0.419608 0.152941 rg
210 312 m 216 372 l 270 372 l 270 312 l h
210 312 m f
0.945098 0.552941 0 rg
72 120 m 60 120 l 53.371 120 48 114.629 48 108 c 48 101.371 53.371 96 60
 96 c 72 96 l 78.625 96.008 83.992 101.375 84 108 c 96 108 l 95.984 94.75
 85.25 84.016 72 84 c 72 72 l 60 72 l 60 84 l 46.746 84 36 94.746 36 108
 c 36 121.254 46.746 132 60 132 c 72 132 l 78.629 132 84 137.371 84 144 
c 84 150.629 78.629 156 72 156 c 60 156 l 53.375 155.992 48.008 150.625 
48 144 c 36 144 l 36.016 157.25 46.75 167.984 60 168 c 60 180 l 72 180 l
 72 168 l 85.254 168 96 157.254 96 144 c 96 130.746 85.254 120 72 120 c 
h
72 120 m f
120 72 228 12 re f
108 108 78 12 re f
198 108 60 12 re f
108 144 84 12 re f
108 180 72 12 re f
18 18 348 24 re f
1 0.854902 0.823529 rg
246 192 m 234 192 l 234 162 l 234 158.688 236.688 156 240 156 c 243.312
 156 246 158.688 246 162 c h
246 192 m f
324 120 m 288 120 l 288 132 l 282 156 l 294 156 l 294 174 l 306 174 l 300
 180 l 324 186 l 342 162 l h
324 120 m f
207.535 170.465 m 205.055 172.945 203.699 176.34 203.793 179.848 c 203.887
 183.355 205.414 186.672 208.023 189.023 c 245.367 222.633 l 264 204 l 225.008
 169.883 l 219.938 165.445 212.301 165.699 207.535 170.465 c h
207.535 170.465 m f
0.203922 0.529412 0.796078 rg
264 204 m 241.602 184.398 l 223.262 202.738 l 258 234 l 293.828 226.027
 l 300 180 l h
264 204 m f
0.301961 0.717647 0.898039 rg
362.598 262.148 m 360 276 l 312 276 l 308.32 265.883 l 291.129 218.609 
l 289.113 213.066 289.211 206.973 291.402 201.496 c 300 180 l 324 186 l 
342 162 l 366 180 l h
362.598 262.148 m f
0.419608 0.25098 0.164706 rg
326.57 126 m 270 126 l 270 114 l 314.57 114 l 321.199 114 326.57 119.371
 326.57 126 c h
326.57 126 m f
1 0.854902 0.823529 rg
240.27 282.539 m 243.488 288.977 251.164 291.785 257.777 288.953 c 294.762
 273.102 l 283.355 247.219 l 246.73 264.125 l 243.391 265.664 240.82 268.496
 239.602 271.965 c 238.383 275.434 238.625 279.25 240.27 282.539 c h
240.27 282.539 m f
1 0.623529 0.607843 rg
326.484 170.484 m 328.824 168.141 328.82 164.344 326.48 162.004 c 324.141
 159.664 320.344 159.66 318 162 c 300.293 179.707 l 300.199 179.801 300.168
 179.926 300.086 180.02 c 313.574 183.395 l h
326.484 170.484 m f
0.203922 0.529412 0.796078 rg
366 372 m 366 283.5 l 360 276 l 312 276 l 312 372 l h
366 372 m f
0.176471 0.490196 0.74902 rg
348 372 m 348 324 l 348 320.688 345.312 318 342 318 c 338.688 318 336 320.688
 336 324 c 336 372 l h
348 372 m f
0.203922 0.529412 0.796078 rg
361.809 171.902 m 342 162 l 324 186 l 324 196.656 l 324.008 203.316 324.914
 209.941 326.688 216.359 c 312 234 l 263.25 256.5 l 275.648 281.293 l 330
 258 l 342.375 245.625 l 348.961 253.242 356.992 259.484 366 263.988 c 366
 174.652 l 364.703 173.594 363.297 172.672 361.809 171.902 c h
361.809 171.902 m f
0.278431 0.635294 0.831373 rg
352.207 235.793 m 330 258 l 308.766 267.102 l 312 276 l 318.461 276 l 336.852
 268.121 l 360.691 244.277 l 363.035 241.934 363.035 238.137 360.691 235.793
 c 358.348 233.449 354.551 233.449 352.207 235.793 c h
352.207 235.793 m f
341.227 189.52 m 338.68 187.402 334.898 187.746 332.777 190.293 c 304.512
 224.238 l 294.809 228.719 l 298.922 240.035 l 312 234 l 342 197.973 l 344.121
 195.426 343.773 191.641 341.227 189.52 c h
341.227 189.52 m f
0.176471 0.490196 0.74902 rg
332.777 190.293 m 324.145 200.664 l 324.426 205.973 325.281 211.234 326.688
 216.359 c 342 197.973 l 343.02 196.746 343.512 195.168 343.367 193.586 
c 343.223 192 342.453 190.535 341.23 189.516 c 340.008 188.496 338.43 188.008
 336.844 188.152 c 335.258 188.301 333.793 189.07 332.777 190.293 c h
332.777 190.293 m f
352.27 235.73 m 342.375 245.625 l 345 248.652 347.859 251.465 350.93 254.039
 c 360.754 244.215 l 363.09 241.871 363.09 238.078 360.75 235.734 c 358.406
 233.395 354.613 233.395 352.27 235.73 c h
352.27 235.73 m f
Q Q
showpage
%%Trailer
end
%%EOF
