%!PS-Adobe-3.0 EPSF-3.0
%%Creator: cairo 1.16.0 (https://cairographics.org)
%%CreationDate: Thu Aug 15 09:29:00 2019
%%Pages: 1
%%DocumentData: Clean7Bit
%%LanguageLevel: 2
%%BoundingBox: 18 18 366 366
%%EndComments
%%BeginProlog
50 dict begin
/q { gsave } bind def
/Q { grestore } bind def
/cm { 6 array astore concat } bind def
/w { setlinewidth } bind def
/J { setlinecap } bind def
/j { setlinejoin } bind def
/M { setmiterlimit } bind def
/d { setdash } bind def
/m { moveto } bind def
/l { lineto } bind def
/c { curveto } bind def
/h { closepath } bind def
/re { exch dup neg 3 1 roll 5 3 roll moveto 0 rlineto
      0 exch rlineto 0 rlineto closepath } bind def
/S { stroke } bind def
/f { fill } bind def
/f* { eofill } bind def
/n { newpath } bind def
/W { clip } bind def
/W* { eoclip } bind def
/BT { } bind def
/ET { } bind def
/BDC { mark 3 1 roll /BDC pdfmark } bind def
/EMC { mark /EMC pdfmark } bind def
/cairo_store_point { /cairo_point_y exch def /cairo_point_x exch def } def
/Tj { show currentpoint cairo_store_point } bind def
/TJ {
  {
    dup
    type /stringtype eq
    { show } { -0.001 mul 0 cairo_font_matrix dtransform rmoveto } ifelse
  } forall
  currentpoint cairo_store_point
} bind def
/cairo_selectfont { cairo_font_matrix aload pop pop pop 0 0 6 array astore
    cairo_font exch selectfont cairo_point_x cairo_point_y moveto } bind def
/Tf { pop /cairo_font exch def /cairo_font_matrix where
      { pop cairo_selectfont } if } bind def
/Td { matrix translate cairo_font_matrix matrix concatmatrix dup
      /cairo_font_matrix exch def dup 4 get exch 5 get cairo_store_point
      /cairo_font where { pop cairo_selectfont } if } bind def
/Tm { 2 copy 8 2 roll 6 array astore /cairo_font_matrix exch def
      cairo_store_point /cairo_font where { pop cairo_selectfont } if } bind def
/g { setgray } bind def
/rg { setrgbcolor } bind def
/d1 { setcachedevice } bind def
/cairo_data_source {
  CairoDataIndex CairoData length lt
    { CairoData CairoDataIndex get /CairoDataIndex CairoDataIndex 1 add def }
    { () } ifelse
} def
/cairo_flush_ascii85_file { cairo_ascii85_file status { cairo_ascii85_file flushfile } if } def
/cairo_image { image cairo_flush_ascii85_file } def
/cairo_imagemask { imagemask cairo_flush_ascii85_file } def
%%EndProlog
%%BeginSetup
%%EndSetup
%%Page: 1 1
%%BeginPageSetup
%%PageBoundingBox: 18 18 366 366
%%EndPageSetup
q 18 18 348 348 rectclip
1 0 0 -1 0 384 cm q
0.988235 0.654902 0.0745098 rg
366 180 m 366 258 l 366 301.078 331.078 336 288 336 c 222 336 l 222 366
 l 150 294 l 222 222 l 222 252 l 294 252 l 313.094 252 331.41 244.414 344.91
 230.91 c 358.414 217.41 366 199.094 366 180 c h
366 180 m f
0.941176 0.501961 0 rg
199.703 307.762 m 235.699 271.77 l 244.184 280.254 l 208.188 316.246 l 
h
199.703 307.762 m f
246 312 m 246 315.312 243.312 318 240 318 c 236.688 318 234 315.312 234
 312 c 234 308.688 236.688 306 240 306 c 243.312 306 246 308.688 246 312
 c h
246 312 m f
210 276 m 210 279.312 207.312 282 204 282 c 200.688 282 198 279.312 198
 276 c 198 272.688 200.688 270 204 270 c 207.312 270 210 272.688 210 276
 c h
210 276 m f
0.976471 0.521569 0 rg
252 102 m 288 102 l 331.078 102 366 136.922 366 180 c 366 210 l 366 190.906
 358.414 172.59 344.91 159.09 c 331.41 145.586 313.094 138 294 138 c 252
 138 l h
252 102 m f
0.952941 0.321569 0.266667 rg
234 18 24 186 re f
186 54 24 150 re f
0.984314 0.407843 0.356863 rg
162 90 24 114 re f
114 96 24 108 re f
0.952941 0.321569 0.266667 rg
138 108 24 95.875 re f
0.984314 0.407843 0.356863 rg
210 72 24 132 re f
0.203922 0.529412 0.796078 rg
18 126 24 108 re f
0.301961 0.717647 0.898039 rg
42 138 24 84 re f
1 0.854902 0.823529 rg
66 156 m 73.957 148.043 84.746 143.574 96 143.574 c 107.254 143.574 118.043
 148.043 126 156 c 132 162 l 171 162 l 179.285 162 186 168.715 186 177 c
 186 185.285 179.285 192 171 192 c 237 192 l 245.285 192 252 198.715 252
 207 c 252 215.285 245.285 222 237 222 c 109.883 222 l 97.152 222 84.941
 216.941 75.941 207.941 c 66 198 l h
66 156 m f
1 0.623529 0.607843 rg
174 198 m 120 198 l 116.688 198 114 195.312 114 192 c 114 188.688 116.688
 186 120 186 c 174 186 l 177.312 186 180 188.688 180 192 c 180 195.312 177.312
 198 174 198 c h
174 198 m f
Q Q
showpage
%%Trailer
end
%%EOF
