%!PS-Adobe-3.0 EPSF-3.0
%%Creator: cairo 1.16.0 (https://cairographics.org)
%%CreationDate: Thu Aug 15 09:29:00 2019
%%Pages: 1
%%DocumentData: Clean7Bit
%%LanguageLevel: 2
%%BoundingBox: 12 12 372 366
%%EndComments
%%BeginProlog
50 dict begin
/q { gsave } bind def
/Q { grestore } bind def
/cm { 6 array astore concat } bind def
/w { setlinewidth } bind def
/J { setlinecap } bind def
/j { setlinejoin } bind def
/M { setmiterlimit } bind def
/d { setdash } bind def
/m { moveto } bind def
/l { lineto } bind def
/c { curveto } bind def
/h { closepath } bind def
/re { exch dup neg 3 1 roll 5 3 roll moveto 0 rlineto
      0 exch rlineto 0 rlineto closepath } bind def
/S { stroke } bind def
/f { fill } bind def
/f* { eofill } bind def
/n { newpath } bind def
/W { clip } bind def
/W* { eoclip } bind def
/BT { } bind def
/ET { } bind def
/BDC { mark 3 1 roll /BDC pdfmark } bind def
/EMC { mark /EMC pdfmark } bind def
/cairo_store_point { /cairo_point_y exch def /cairo_point_x exch def } def
/Tj { show currentpoint cairo_store_point } bind def
/TJ {
  {
    dup
    type /stringtype eq
    { show } { -0.001 mul 0 cairo_font_matrix dtransform rmoveto } ifelse
  } forall
  currentpoint cairo_store_point
} bind def
/cairo_selectfont { cairo_font_matrix aload pop pop pop 0 0 6 array astore
    cairo_font exch selectfont cairo_point_x cairo_point_y moveto } bind def
/Tf { pop /cairo_font exch def /cairo_font_matrix where
      { pop cairo_selectfont } if } bind def
/Td { matrix translate cairo_font_matrix matrix concatmatrix dup
      /cairo_font_matrix exch def dup 4 get exch 5 get cairo_store_point
      /cairo_font where { pop cairo_selectfont } if } bind def
/Tm { 2 copy 8 2 roll 6 array astore /cairo_font_matrix exch def
      cairo_store_point /cairo_font where { pop cairo_selectfont } if } bind def
/g { setgray } bind def
/rg { setrgbcolor } bind def
/d1 { setcachedevice } bind def
/cairo_data_source {
  CairoDataIndex CairoData length lt
    { CairoData CairoDataIndex get /CairoDataIndex CairoDataIndex 1 add def }
    { () } ifelse
} def
/cairo_flush_ascii85_file { cairo_ascii85_file status { cairo_ascii85_file flushfile } if } def
/cairo_image { image cairo_flush_ascii85_file } def
/cairo_imagemask { imagemask cairo_flush_ascii85_file } def
%%EndProlog
%%BeginSetup
%%EndSetup
%%Page: 1 1
%%BeginPageSetup
%%PageBoundingBox: 12 12 372 366
%%EndPageSetup
q 12 12 360 354 rectclip
1 0 0 -1 0 384 cm q
1 0.854902 0.823529 rg
199.219 18 m 93 18 l 84.715 18 78 24.715 78 33 c 78 41.285 84.715 48 93
 48 c 96 48 l 54 126 l 84 126 l 84 204 l 144 204 l 144 228 l 201.422 228
 l 222 198 l 222 162 l 234.941 58.465 l 236.223 48.219 233.043 37.918 226.207
 30.176 c 219.375 22.434 209.547 18 199.219 18 c h
199.219 18 m f
0.188235 0.52549 0.803922 rg
210 228 m 180 372 l 12 372 l 15.797 334.016 36.41 299.727 68.172 278.551
 c 144 228 l h
210 228 m f
0.301961 0.717647 0.898039 rg
108 252 m 101.922 260.684 l 78.129 294.676 59.922 332.258 48 372 c 180 
372 l 210 228 l 144 228 l h
108 252 m f
0.678431 0.807843 0.909804 rg
144 48 m 93 48 l 84.715 48 78 41.285 78 33 c 78 24.715 84.715 18 93 18 
c 199.219 18 l 209.547 18 219.375 22.434 226.207 30.176 c 233.043 37.918
 236.223 48.219 234.941 58.465 c 222 162 l 192 126 l 204 102 l 174 90 l 
144 126 l h
144 48 m f
0.278431 0.635294 0.831373 rg
144 228 m 206.734 228 l 180 270 l h
144 228 m f
0.164706 0.439216 0.670588 rg
222 198 m 186.387 245.484 160.98 299.828 147.387 357.609 c 144 372 l 366
 372 l 366 276 l 342.656 244.879 309.672 222.355 272.188 211.941 c h
222 198 m f
0.188235 0.52549 0.803922 rg
144 228 m 108 252 l 114 276 l 132 282 l 163.383 250.617 l h
144 228 m f
0.164706 0.439216 0.670588 rg
126 372 m 132 282 l 114 276 l 94.801 372 l h
126 372 m f
0.188235 0.52549 0.803922 rg
234 330 m 234 201.332 l 222 198 l 186.387 245.484 160.98 299.828 147.387
 357.609 c 144 372 l 198 372 l 186 354 l h
234 330 m f
0.678431 0.807843 0.909804 rg
116.945 159.762 m 120.48 158.879 123.387 156.375 124.781 153.008 c 126.176
 149.645 125.891 145.816 124.016 142.695 c 117.801 132.336 106.609 126 94.531
 126 c 84 126 l 84 150 l 102 150 l 103.875 153.75 l 106.285 158.57 111.719
 161.07 116.945 159.762 c h
116.945 159.762 m f
84 168 m 96 180 l 168 180 l 144 204 l 84 204 l h
84 168 m f
0.419608 0.25098 0.164706 rg
102 84 m 114 84 l 117.324 84 120 86.676 120 90 c 120 93.324 117.324 96 
114 96 c 102 96 l 98.676 96 96 93.324 96 90 c 96 86.676 98.676 84 102 84
 c h
102 84 m f
1 0.623529 0.607843 rg
144 220.969 m 188.484 176.484 l 190.828 174.141 190.828 170.344 188.484
 168 c 186.141 165.656 182.344 165.656 180 168 c 144 204 l h
144 220.969 m f
0.992157 0.772549 0.356863 rg
264.195 132.586 m 276 168 l 324 168 l 335.805 132.586 l 336.652 130.047
 335.75 127.25 333.578 125.688 c 331.406 124.121 328.469 124.148 326.328
 125.754 c 326.324 125.754 l 321.547 129.34 314.863 128.863 310.641 124.641
 c 304.328 118.328 l 303.18 117.18 301.625 116.535 300 116.535 c 298.375
 116.535 296.82 117.18 295.672 118.328 c 289.359 124.641 l 285.137 128.863
 278.453 129.34 273.676 125.754 c 273.672 125.754 l 271.531 124.148 268.594
 124.121 266.422 125.688 c 264.25 127.25 263.348 130.047 264.195 132.586
 c h
264.195 132.586 m f
0.945098 0.552941 0 rg
306 168 m 294 168 l 294 150 l 294 146.688 296.688 144 300 144 c 303.312
 144 306 146.688 306 150 c h
306 168 m f
0.992157 0.772549 0.356863 rg
276 192 m 324 192 l 350.508 192 372 213.492 372 240 c 372 336 l 372 352.57
 358.57 366 342 366 c 258 366 l 241.43 366 228 352.57 228 336 c 228 240 
l 228 213.492 249.492 192 276 192 c h
276 192 m f
0.988235 0.654902 0.0745098 rg
276 168 48 24 re f
0.945098 0.552941 0 rg
309.602 334.801 m 300 342 l 290.398 334.801 l 266.227 316.672 252 288.215
 252 258 c 252 240 l 258.363 240 264.469 237.473 268.969 232.969 c 273.473
 228.469 276 222.363 276 216 c 324 216 l 324 229.254 334.746 240 348 240
 c 348 258 l 348 288.215 333.773 316.672 309.602 334.801 c h
309.602 334.801 m f
0.878431 0.384314 0.141176 rg
317.383 288.066 m 316.875 282.852 314.051 278.148 309.688 275.25 c 296.969
 266.766 l 295.605 265.855 294.723 264.387 294.559 262.758 c 294.398 261.125
 294.977 259.512 296.133 258.352 c 298.27 256.219 301.73 256.219 303.867
 258.352 c 307.758 262.242 l 316.242 253.758 l 312.352 249.867 l 310.551
 248.086 308.383 246.719 306 245.867 c 306 234 l 294 234 l 294 245.867 l
 287.824 248.113 283.438 253.648 282.66 260.176 c 281.879 266.699 284.84
 273.109 290.312 276.75 c 303.031 285.234 l 304.395 286.145 305.277 287.613
 305.441 289.242 c 305.602 290.875 305.023 292.488 303.867 293.648 c 301.73
 295.781 298.27 295.781 296.133 293.648 c 292.242 289.758 l 283.758 298.242
 l 287.648 302.133 l 289.445 303.914 291.617 305.281 294 306.133 c 294 318
 l 306 318 l 306 306.133 l 313.504 303.449 318.203 295.988 317.383 288.066
 c h
317.383 288.066 m f
Q Q
showpage
%%Trailer
end
%%EOF
