%!PS-Adobe-3.0 EPSF-3.0
%%Creator: cairo 1.16.0 (https://cairographics.org)
%%CreationDate: Thu Aug 15 09:29:01 2019
%%Pages: 1
%%DocumentData: Clean7Bit
%%LanguageLevel: 2
%%BoundingBox: 18 24 366 342
%%EndComments
%%BeginProlog
50 dict begin
/q { gsave } bind def
/Q { grestore } bind def
/cm { 6 array astore concat } bind def
/w { setlinewidth } bind def
/J { setlinecap } bind def
/j { setlinejoin } bind def
/M { setmiterlimit } bind def
/d { setdash } bind def
/m { moveto } bind def
/l { lineto } bind def
/c { curveto } bind def
/h { closepath } bind def
/re { exch dup neg 3 1 roll 5 3 roll moveto 0 rlineto
      0 exch rlineto 0 rlineto closepath } bind def
/S { stroke } bind def
/f { fill } bind def
/f* { eofill } bind def
/n { newpath } bind def
/W { clip } bind def
/W* { eoclip } bind def
/BT { } bind def
/ET { } bind def
/BDC { mark 3 1 roll /BDC pdfmark } bind def
/EMC { mark /EMC pdfmark } bind def
/cairo_store_point { /cairo_point_y exch def /cairo_point_x exch def } def
/Tj { show currentpoint cairo_store_point } bind def
/TJ {
  {
    dup
    type /stringtype eq
    { show } { -0.001 mul 0 cairo_font_matrix dtransform rmoveto } ifelse
  } forall
  currentpoint cairo_store_point
} bind def
/cairo_selectfont { cairo_font_matrix aload pop pop pop 0 0 6 array astore
    cairo_font exch selectfont cairo_point_x cairo_point_y moveto } bind def
/Tf { pop /cairo_font exch def /cairo_font_matrix where
      { pop cairo_selectfont } if } bind def
/Td { matrix translate cairo_font_matrix matrix concatmatrix dup
      /cairo_font_matrix exch def dup 4 get exch 5 get cairo_store_point
      /cairo_font where { pop cairo_selectfont } if } bind def
/Tm { 2 copy 8 2 roll 6 array astore /cairo_font_matrix exch def
      cairo_store_point /cairo_font where { pop cairo_selectfont } if } bind def
/g { setgray } bind def
/rg { setrgbcolor } bind def
/d1 { setcachedevice } bind def
/cairo_data_source {
  CairoDataIndex CairoData length lt
    { CairoData CairoDataIndex get /CairoDataIndex CairoDataIndex 1 add def }
    { () } ifelse
} def
/cairo_flush_ascii85_file { cairo_ascii85_file status { cairo_ascii85_file flushfile } if } def
/cairo_image { image cairo_flush_ascii85_file } def
/cairo_imagemask { imagemask cairo_flush_ascii85_file } def
%%EndProlog
%%BeginSetup
%%EndSetup
%%Page: 1 1
%%BeginPageSetup
%%PageBoundingBox: 18 24 366 342
%%EndPageSetup
q 18 24 348 318 rectclip
1 0 0 -1 0 384 cm q
0.176471 0.490196 0.74902 rg
156 288 m 150 336 l 132 360 l 252 360 l 234 336 l 228 288 l h
156 288 m f
0.164706 0.439216 0.670588 rg
204 342 m 207.312 342 210 339.312 210 336 c 210 332.688 207.312 330 204
 330 c 150.75 330 l 150 336 l 145.5 342 l h
204 342 m f
0.203922 0.560784 0.85098 rg
18 42 348 246 re f
0.301961 0.717647 0.898039 rg
18 42 348 198 re f
198 264 m 198 267.312 195.312 270 192 270 c 188.688 270 186 267.312 186
 264 c 186 260.688 188.688 258 192 258 c 195.312 258 198 260.688 198 264
 c h
198 264 m f
0.176471 0.490196 0.74902 rg
60 66 m 48 66 l 48 210 l 48 211.59 48.633 213.117 49.758 214.242 c 50.883
 215.367 52.41 216 54 216 c 336 216 l 336 204 l 60 204 l h
60 66 m f
120 158.484 m 139.758 178.242 l 140.883 179.367 142.41 180 144 180 c 145.59
 180 147.117 179.367 148.242 178.242 c 186 140.484 l 229.758 184.242 l 238.242
 175.758 l 190.242 127.758 l 189.117 126.633 187.59 126 186 126 c 184.41
 126 182.883 126.633 181.758 127.758 c 144 165.516 l 124.242 145.758 l 123.117
 144.633 121.59 144 120 144 c 118.41 144 116.883 144.633 115.758 145.758
 c 79.758 181.758 l 88.242 190.242 l h
120 158.484 m f
235.715 157.766 m 247.715 145.77 l 256.199 154.254 l 244.199 166.25 l h
235.715 157.766 m f
259.715 133.773 m 271.715 121.773 l 280.199 130.258 l 268.199 142.254 l
 h
259.715 133.773 m f
283.715 109.777 m 295.715 97.781 l 304.199 106.262 l 292.199 118.262 l 
h
283.715 109.777 m f
330 66 m 306 66 l 306 78 l 315.516 78 l 307.758 85.758 l 316.242 94.242
 l 324 86.484 l 324 96 l 336 96 l 336 72 l 336 70.41 335.367 68.883 334.242
 67.758 c 333.117 66.633 331.59 66 330 66 c h
330 66 m f
Q Q
showpage
%%Trailer
end
%%EOF
