%!PS-Adobe-3.0 EPSF-3.0
%%Creator: cairo 1.16.0 (https://cairographics.org)
%%CreationDate: Thu Aug 15 09:29:01 2019
%%Pages: 1
%%DocumentData: Clean7Bit
%%LanguageLevel: 2
%%BoundingBox: 18 18 372 366
%%EndComments
%%BeginProlog
50 dict begin
/q { gsave } bind def
/Q { grestore } bind def
/cm { 6 array astore concat } bind def
/w { setlinewidth } bind def
/J { setlinecap } bind def
/j { setlinejoin } bind def
/M { setmiterlimit } bind def
/d { setdash } bind def
/m { moveto } bind def
/l { lineto } bind def
/c { curveto } bind def
/h { closepath } bind def
/re { exch dup neg 3 1 roll 5 3 roll moveto 0 rlineto
      0 exch rlineto 0 rlineto closepath } bind def
/S { stroke } bind def
/f { fill } bind def
/f* { eofill } bind def
/n { newpath } bind def
/W { clip } bind def
/W* { eoclip } bind def
/BT { } bind def
/ET { } bind def
/BDC { mark 3 1 roll /BDC pdfmark } bind def
/EMC { mark /EMC pdfmark } bind def
/cairo_store_point { /cairo_point_y exch def /cairo_point_x exch def } def
/Tj { show currentpoint cairo_store_point } bind def
/TJ {
  {
    dup
    type /stringtype eq
    { show } { -0.001 mul 0 cairo_font_matrix dtransform rmoveto } ifelse
  } forall
  currentpoint cairo_store_point
} bind def
/cairo_selectfont { cairo_font_matrix aload pop pop pop 0 0 6 array astore
    cairo_font exch selectfont cairo_point_x cairo_point_y moveto } bind def
/Tf { pop /cairo_font exch def /cairo_font_matrix where
      { pop cairo_selectfont } if } bind def
/Td { matrix translate cairo_font_matrix matrix concatmatrix dup
      /cairo_font_matrix exch def dup 4 get exch 5 get cairo_store_point
      /cairo_font where { pop cairo_selectfont } if } bind def
/Tm { 2 copy 8 2 roll 6 array astore /cairo_font_matrix exch def
      cairo_store_point /cairo_font where { pop cairo_selectfont } if } bind def
/g { setgray } bind def
/rg { setrgbcolor } bind def
/d1 { setcachedevice } bind def
/cairo_data_source {
  CairoDataIndex CairoData length lt
    { CairoData CairoDataIndex get /CairoDataIndex CairoDataIndex 1 add def }
    { () } ifelse
} def
/cairo_flush_ascii85_file { cairo_ascii85_file status { cairo_ascii85_file flushfile } if } def
/cairo_image { image cairo_flush_ascii85_file } def
/cairo_imagemask { imagemask cairo_flush_ascii85_file } def
%%EndProlog
%%BeginSetup
%%EndSetup
%%Page: 1 1
%%BeginPageSetup
%%PageBoundingBox: 18 18 372 366
%%EndPageSetup
q 18 18 354 348 rectclip
1 0 0 -1 0 384 cm q
0.831373 0.32549 0.109804 rg
270 18 24 282 re f
174 84 24 216 re f
78 108 24 192 re f
0.92549 0.494118 0.32549 rg
126 54 24 246 re f
222 48 24 252 re f
30 204 24 96 re f
0.729412 0.254902 0 rg
18 300 294 30 re f
0.729412 0.2 0.152941 rg
162 180 m 102 240 l 126 240 l 126 264 l 186 204 l h
162 180 m f
186 204 m 246 264 l 246 240 l 270 240 l 210 180 l h
186 204 m f
0.811765 0.231373 0.180392 rg
234 174 m 234 200.508 212.508 222 186 222 c 159.492 222 138 200.508 138
 174 c 138 147.492 159.492 126 186 126 c 212.508 126 234 147.492 234 174
 c h
234 174 m f
0.992157 0.772549 0.356863 rg
186 135.168 m 194.719 162 l 222.934 162 l 200.105 178.582 l 208.824 205.418
 l 186 188.832 l 163.176 205.418 l 171.895 178.582 l 149.066 162 l 177.281
 162 l h
186 135.168 m f
0.164706 0.439216 0.670588 rg
348 258 24 108 re f
0.301961 0.717647 0.898039 rg
324 270 24 84 re f
1 0.854902 0.823529 rg
252 288 m 246 294 l 210 294 l 200.059 294 192 302.059 192 312 c 192 321.941
 200.059 330 210 330 c 114 330 l 104.059 330 96 338.059 96 348 c 96 357.941
 104.059 366 114 366 c 244.734 366 l 272.945 366 300.527 357.648 324 342
 c 324 288 l 314.453 278.453 301.504 273.09 288 273.09 c 274.496 273.09 
261.547 278.453 252 288 c h
252 288 m f
1 0.623529 0.607843 rg
264 336 m 264 339.312 261.312 342 258 342 c 210 342 l 206.688 342 204 339.312
 204 336 c 204 332.688 206.688 330 210 330 c 258 330 l 261.312 330 264 332.688
 264 336 c h
264 336 m f
Q Q
showpage
%%Trailer
end
%%EOF
