%!PS-Adobe-3.0 EPSF-3.0
%%Creator: cairo 1.16.0 (https://cairographics.org)
%%CreationDate: Thu Aug 15 09:29:02 2019
%%Pages: 1
%%DocumentData: Clean7Bit
%%LanguageLevel: 2
%%BoundingBox: 18 18 366 366
%%EndComments
%%BeginProlog
50 dict begin
/q { gsave } bind def
/Q { grestore } bind def
/cm { 6 array astore concat } bind def
/w { setlinewidth } bind def
/J { setlinecap } bind def
/j { setlinejoin } bind def
/M { setmiterlimit } bind def
/d { setdash } bind def
/m { moveto } bind def
/l { lineto } bind def
/c { curveto } bind def
/h { closepath } bind def
/re { exch dup neg 3 1 roll 5 3 roll moveto 0 rlineto
      0 exch rlineto 0 rlineto closepath } bind def
/S { stroke } bind def
/f { fill } bind def
/f* { eofill } bind def
/n { newpath } bind def
/W { clip } bind def
/W* { eoclip } bind def
/BT { } bind def
/ET { } bind def
/BDC { mark 3 1 roll /BDC pdfmark } bind def
/EMC { mark /EMC pdfmark } bind def
/cairo_store_point { /cairo_point_y exch def /cairo_point_x exch def } def
/Tj { show currentpoint cairo_store_point } bind def
/TJ {
  {
    dup
    type /stringtype eq
    { show } { -0.001 mul 0 cairo_font_matrix dtransform rmoveto } ifelse
  } forall
  currentpoint cairo_store_point
} bind def
/cairo_selectfont { cairo_font_matrix aload pop pop pop 0 0 6 array astore
    cairo_font exch selectfont cairo_point_x cairo_point_y moveto } bind def
/Tf { pop /cairo_font exch def /cairo_font_matrix where
      { pop cairo_selectfont } if } bind def
/Td { matrix translate cairo_font_matrix matrix concatmatrix dup
      /cairo_font_matrix exch def dup 4 get exch 5 get cairo_store_point
      /cairo_font where { pop cairo_selectfont } if } bind def
/Tm { 2 copy 8 2 roll 6 array astore /cairo_font_matrix exch def
      cairo_store_point /cairo_font where { pop cairo_selectfont } if } bind def
/g { setgray } bind def
/rg { setrgbcolor } bind def
/d1 { setcachedevice } bind def
/cairo_data_source {
  CairoDataIndex CairoData length lt
    { CairoData CairoDataIndex get /CairoDataIndex CairoDataIndex 1 add def }
    { () } ifelse
} def
/cairo_flush_ascii85_file { cairo_ascii85_file status { cairo_ascii85_file flushfile } if } def
/cairo_image { image cairo_flush_ascii85_file } def
/cairo_imagemask { imagemask cairo_flush_ascii85_file } def
%%EndProlog
%%BeginSetup
%%EndSetup
%%Page: 1 1
%%BeginPageSetup
%%PageBoundingBox: 18 18 366 366
%%EndPageSetup
q 18 18 348 348 rectclip
1 0 0 -1 0 384 cm q
0.266667 0.529412 0.0117647 rg
198 228 168 138 re f
0.152941 0.419608 0.00784314 rg
344.477 318 m 337.148 336.129 319.555 347.996 300 348 c 198 348 l 198 366
 l 366 366 l 366 318 l h
344.477 318 m f
0.584314 0.796078 0.215686 rg
198 228 168 90 re f
0.976471 0.521569 0 rg
264 318 36 48 re f
0.988235 0.654902 0.0745098 rg
264 228 36 90 re f
0.411765 0.654902 0.0352941 rg
234 318 m 198 318 l 198 282 l 217.875 282.016 233.984 298.125 234 318 c
 h
234 318 m f
198 228 m 234 228 l 233.984 247.875 217.875 263.984 198 264 c h
198 228 m f
366 228 m 366 264 l 346.125 263.984 330.016 247.875 330 228 c h
366 228 m f
366 282 m 366 318 l 330 318 l 330.016 298.125 346.125 282.016 366 282 c
 h
366 282 m f
0.188235 0.52549 0.803922 rg
366 84 m 366 18 l 300 18 l 300 42 l 324 42 l 222 144 l 156 78 l 30 204 
l 48 222 l 156 114 l 222 180 l 342 60 l 342 84 l h
366 84 m f
0.992157 0.713726 0.184314 rg
162 318 66 24 re f
0.945098 0.552941 0 rg
96 318 66 24 re f
150 342 66 24 re f
0.992157 0.713726 0.184314 rg
84 342 66 24 re f
0.945098 0.552941 0 rg
150 294 66 24 re f
0.992157 0.713726 0.184314 rg
84 294 66 24 re f
30 318 66 24 re f
0.945098 0.552941 0 rg
18 342 66 24 re f
18 294 66 24 re f
0.992157 0.713726 0.184314 rg
30 270 66 24 re f
84 246 66 24 re f
0.945098 0.552941 0 rg
102 222 66 24 re f
96 270 66 24 re f
0.992157 0.713726 0.184314 rg
162 270 66 24 re f
0.941176 0.501961 0 rg
66 342 18 24 re f
66 294 18 24 re f
0.988235 0.654902 0.0745098 rg
78 318 18 24 re f
78 270 18 24 re f
132 342 18 24 re f
132 294 18 24 re f
0.941176 0.501961 0 rg
144 318 18 24 re f
144 270 18 24 re f
0.988235 0.654902 0.0745098 rg
132 246 18 24 re f
210 318 18 24 re f
210 270 18 24 re f
0.941176 0.501961 0 rg
150 222 18 24 re f
198 342 18 24 re f
198 294 18 24 re f
Q Q
showpage
%%Trailer
end
%%EOF
