%!PS-Adobe-3.0 EPSF-3.0
%%Creator: cairo 1.16.0 (https://cairographics.org)
%%CreationDate: Thu Aug 15 09:29:03 2019
%%Pages: 1
%%DocumentData: Clean7Bit
%%LanguageLevel: 2
%%BoundingBox: 78 12 306 366
%%EndComments
%%BeginProlog
50 dict begin
/q { gsave } bind def
/Q { grestore } bind def
/cm { 6 array astore concat } bind def
/w { setlinewidth } bind def
/J { setlinecap } bind def
/j { setlinejoin } bind def
/M { setmiterlimit } bind def
/d { setdash } bind def
/m { moveto } bind def
/l { lineto } bind def
/c { curveto } bind def
/h { closepath } bind def
/re { exch dup neg 3 1 roll 5 3 roll moveto 0 rlineto
      0 exch rlineto 0 rlineto closepath } bind def
/S { stroke } bind def
/f { fill } bind def
/f* { eofill } bind def
/n { newpath } bind def
/W { clip } bind def
/W* { eoclip } bind def
/BT { } bind def
/ET { } bind def
/BDC { mark 3 1 roll /BDC pdfmark } bind def
/EMC { mark /EMC pdfmark } bind def
/cairo_store_point { /cairo_point_y exch def /cairo_point_x exch def } def
/Tj { show currentpoint cairo_store_point } bind def
/TJ {
  {
    dup
    type /stringtype eq
    { show } { -0.001 mul 0 cairo_font_matrix dtransform rmoveto } ifelse
  } forall
  currentpoint cairo_store_point
} bind def
/cairo_selectfont { cairo_font_matrix aload pop pop pop 0 0 6 array astore
    cairo_font exch selectfont cairo_point_x cairo_point_y moveto } bind def
/Tf { pop /cairo_font exch def /cairo_font_matrix where
      { pop cairo_selectfont } if } bind def
/Td { matrix translate cairo_font_matrix matrix concatmatrix dup
      /cairo_font_matrix exch def dup 4 get exch 5 get cairo_store_point
      /cairo_font where { pop cairo_selectfont } if } bind def
/Tm { 2 copy 8 2 roll 6 array astore /cairo_font_matrix exch def
      cairo_store_point /cairo_font where { pop cairo_selectfont } if } bind def
/g { setgray } bind def
/rg { setrgbcolor } bind def
/d1 { setcachedevice } bind def
/cairo_data_source {
  CairoDataIndex CairoData length lt
    { CairoData CairoDataIndex get /CairoDataIndex CairoDataIndex 1 add def }
    { () } ifelse
} def
/cairo_flush_ascii85_file { cairo_ascii85_file status { cairo_ascii85_file flushfile } if } def
/cairo_image { image cairo_flush_ascii85_file } def
/cairo_imagemask { imagemask cairo_flush_ascii85_file } def
%%EndProlog
%%BeginSetup
%%EndSetup
%%Page: 1 1
%%BeginPageSetup
%%PageBoundingBox: 78 12 306 366
%%EndPageSetup
q 78 12 228 354 rectclip
1 0 0 -1 0 384 cm q
0.301961 0.717647 0.898039 rg
102 66 m 78 66 l 78 18 l 306 18 l 306 66 l 282 66 l f
0.164706 0.439216 0.670588 rg
120 306 126 66 re f
0.301961 0.717647 0.898039 rg
144 282 90 24 re f
1 0.854902 0.823529 rg
222 282 m 222 264 l 246 216 l 246 168.457 l 138 168.457 l 138 228 l 156
 264 l 156 282 l h
222 282 m f
0.584314 0.796078 0.215686 rg
102 114 180 96 re f
0.411765 0.654902 0.0352941 rg
282 114 m 282 150 l 262.117 150 246 133.883 246 114 c h
282 114 m f
282 210 m 246 210 l 246 190.117 262.117 174 282 174 c h
282 210 m f
102 210 m 102 174 l 121.883 174 138 190.117 138 210 c h
102 210 m f
102 114 m 138 114 l 138 133.883 121.883 150 102 150 c h
102 114 m f
216 162 m 216 175.254 205.254 186 192 186 c 178.746 186 168 175.254 168
 162 c 168 148.746 178.746 138 192 138 c 205.254 138 216 148.746 216 162
 c h
216 162 m f
1 0.623529 0.607843 rg
246 210 m 234 210 l 201.5 177.5 l 196.457 172.457 188.355 172.234 183.043
 176.988 c 177.73 181.742 177.059 189.82 181.512 195.387 c 198 216 l 184.723
 228.672 184.164 249.688 196.754 263.043 c 214.617 282 l 222 282 l 222 264
 l 246 216 l h
246 210 m f
0.584314 0.796078 0.215686 rg
102 41.223 180.648 48.777 re f
0.411765 0.654902 0.0352941 rg
168.051 42 m 168.051 55.227 178.773 65.949 192 65.949 c 205.227 65.949 
215.949 55.227 215.949 42 c h
168.051 42 m f
102 54 m 121.883 54 138 70.117 138 90 c 102 90 l h
102 54 m f
246 90 m 246 70.117 262.117 54 282 54 c 282 90 l h
246 90 m f
0.992157 0.772549 0.356863 rg
150 330 m 150 333.312 147.312 336 144 336 c 140.688 336 138 333.312 138
 330 c 138 326.688 140.688 324 144 324 c 147.312 324 150 326.688 150 330
 c h
150 330 m f
Q Q
showpage
%%Trailer
end
%%EOF
