%!PS-Adobe-3.0 EPSF-3.0
%%Creator: cairo 1.14.2 (http://cairographics.org)
%%CreationDate: Thu Jan 17 08:42:36 2019
%%Pages: 1
%%DocumentData: Clean7Bit
%%LanguageLevel: 2
%%BoundingBox: 8 0 472 480
%%EndComments
%%BeginProlog
save
50 dict begin
/q { gsave } bind def
/Q { grestore } bind def
/cm { 6 array astore concat } bind def
/w { setlinewidth } bind def
/J { setlinecap } bind def
/j { setlinejoin } bind def
/M { setmiterlimit } bind def
/d { setdash } bind def
/m { moveto } bind def
/l { lineto } bind def
/c { curveto } bind def
/h { closepath } bind def
/re { exch dup neg 3 1 roll 5 3 roll moveto 0 rlineto
      0 exch rlineto 0 rlineto closepath } bind def
/S { stroke } bind def
/f { fill } bind def
/f* { eofill } bind def
/n { newpath } bind def
/W { clip } bind def
/W* { eoclip } bind def
/BT { } bind def
/ET { } bind def
/pdfmark where { pop globaldict /?pdfmark /exec load put }
    { globaldict begin /?pdfmark /pop load def /pdfmark
    /cleartomark load def end } ifelse
/BDC { mark 3 1 roll /BDC pdfmark } bind def
/EMC { mark /EMC pdfmark } bind def
/cairo_store_point { /cairo_point_y exch def /cairo_point_x exch def } def
/Tj { show currentpoint cairo_store_point } bind def
/TJ {
  {
    dup
    type /stringtype eq
    { show } { -0.001 mul 0 cairo_font_matrix dtransform rmoveto } ifelse
  } forall
  currentpoint cairo_store_point
} bind def
/cairo_selectfont { cairo_font_matrix aload pop pop pop 0 0 6 array astore
    cairo_font exch selectfont cairo_point_x cairo_point_y moveto } bind def
/Tf { pop /cairo_font exch def /cairo_font_matrix where
      { pop cairo_selectfont } if } bind def
/Td { matrix translate cairo_font_matrix matrix concatmatrix dup
      /cairo_font_matrix exch def dup 4 get exch 5 get cairo_store_point
      /cairo_font where { pop cairo_selectfont } if } bind def
/Tm { 2 copy 8 2 roll 6 array astore /cairo_font_matrix exch def
      cairo_store_point /cairo_font where { pop cairo_selectfont } if } bind def
/g { setgray } bind def
/rg { setrgbcolor } bind def
/d1 { setcachedevice } bind def
%%EndProlog
%%BeginSetup
%%EndSetup
%%Page: 1 1
%%BeginPageSetup
%%PageBoundingBox: 8 0 472 480
%%EndPageSetup
q 8 0 464 480 rectclip q
0.439216 g
264 128 56 -32 re f
0.937255 g
456 480 m 456 294.629 l 456 290.383 454.312 286.312 451.312 283.312 c 364.688
 196.688 l 361.688 193.688 357.617 192 353.371 192 c 24 192 l 15.164 192
 8 199.164 8 208 c 8 480 l h
456 480 m f
0.839216 g
451.312 283.312 m 364.688 196.688 l 363.328 195.348 361.742 194.266 360
 193.488 c 360 272 l 360 280.836 367.164 288 376 288 c 454.512 288 l 453.734
 286.258 452.652 284.672 451.312 283.312 c h
451.312 283.312 m f
0.45098 0.788235 0.486275 rg
424 384 m 424 348.652 395.348 320 360 320 c 324.652 320 296 348.652 296
 384 c 296 419.348 324.652 448 360 448 c 395.348 448 424 419.348 424 384
 c h
424 384 m f
0.392157 0.686275 0.423529 rg
296 384 m 344 384 l 352.836 384 360 376.836 360 368 c 360 320 l 324.652
 320 296 348.652 296 384 c h
296 384 m f
0.458824 0.756863 1 rg
248 320 m 216 320 l 207.164 320 200 327.164 200 336 c 200 368 l 200 376.836
 207.164 384 216 384 c 248 384 l 256.836 384 264 376.836 264 368 c 264 336
 l 264 327.164 256.836 320 248 320 c h
248 320 m f
1 0.403922 0.356863 rg
56 288 m 88 288 l 92.418 288 96 284.418 96 280 c 96 248 l 96 243.582 92.418
 240 88 240 c 56 240 l 51.582 240 48 243.582 48 248 c 48 280 l 48 284.418
 51.582 288 56 288 c h
56 288 m f
1 0.815686 0.290196 rg
56 456 m 72 456 l 80.836 456 88 448.836 88 440 c 88 424 l 88 415.164 80.836
 408 72 408 c 56 408 l 47.164 408 40 415.164 40 424 c 40 440 l 40 448.836
 47.164 456 56 456 c h
56 456 m f
0.737255 g
120 256 16 -16 re f
152 256 136 -16 re f
304 256 16 -16 re f
120 288 16 -16 re f
152 288 136 -16 re f
304 288 16 -16 re f
160 360 16 -16 re f
160 328 16 -16 re f
160 392 16 -16 re f
40 392 16 -16 re f
72 392 72 -16 re f
40 360 16 -16 re f
72 360 72 -16 re f
40 328 16 -16 re f
72 328 72 -16 re f
104 424 16 -16 re f
136 424 96 -16 re f
248 424 16 -16 re f
104 456 16 -16 re f
136 456 96 -16 re f
248 456 16 -16 re f
0.458824 0.756863 1 rg
264 112 m 264 54.562 217.438 8 160 8 c 102.562 8 56 54.562 56 112 c 56 
169.438 102.562 216 160 216 c 217.438 216 264 169.438 264 112 c h
264 112 m f
0.537255 g
160 0 m 98.145 0 48 50.145 48 112 c 48 173.855 98.145 224 160 224 c 221.855
 224 272 173.855 272 112 c 271.93 50.172 221.828 0.07 160 0 c h
160 208 m 106.98 208 64 165.02 64 112 c 64 58.98 106.98 16 160 16 c 213.02
 16 256 58.98 256 112 c 255.941 164.996 212.996 207.941 160 208 c h
160 208 m f
0.8 0.6 0.368627 rg
472 152 m 336 152 l 327.164 152 320 144.836 320 136 c 320 88 l 320 79.164
 327.164 72 336 72 c 472 72 l f
Q Q
showpage
%%Trailer
end restore
%%EOF
