%!PS-Adobe-3.0 EPSF-3.0
%%Creator: cairo 1.14.2 (http://cairographics.org)
%%CreationDate: Thu Jan 17 08:42:36 2019
%%Pages: 1
%%DocumentData: Clean7Bit
%%LanguageLevel: 2
%%BoundingBox: 8 0 472 480
%%EndComments
%%BeginProlog
save
50 dict begin
/q { gsave } bind def
/Q { grestore } bind def
/cm { 6 array astore concat } bind def
/w { setlinewidth } bind def
/J { setlinecap } bind def
/j { setlinejoin } bind def
/M { setmiterlimit } bind def
/d { setdash } bind def
/m { moveto } bind def
/l { lineto } bind def
/c { curveto } bind def
/h { closepath } bind def
/re { exch dup neg 3 1 roll 5 3 roll moveto 0 rlineto
      0 exch rlineto 0 rlineto closepath } bind def
/S { stroke } bind def
/f { fill } bind def
/f* { eofill } bind def
/n { newpath } bind def
/W { clip } bind def
/W* { eoclip } bind def
/BT { } bind def
/ET { } bind def
/pdfmark where { pop globaldict /?pdfmark /exec load put }
    { globaldict begin /?pdfmark /pop load def /pdfmark
    /cleartomark load def end } ifelse
/BDC { mark 3 1 roll /BDC pdfmark } bind def
/EMC { mark /EMC pdfmark } bind def
/cairo_store_point { /cairo_point_y exch def /cairo_point_x exch def } def
/Tj { show currentpoint cairo_store_point } bind def
/TJ {
  {
    dup
    type /stringtype eq
    { show } { -0.001 mul 0 cairo_font_matrix dtransform rmoveto } ifelse
  } forall
  currentpoint cairo_store_point
} bind def
/cairo_selectfont { cairo_font_matrix aload pop pop pop 0 0 6 array astore
    cairo_font exch selectfont cairo_point_x cairo_point_y moveto } bind def
/Tf { pop /cairo_font exch def /cairo_font_matrix where
      { pop cairo_selectfont } if } bind def
/Td { matrix translate cairo_font_matrix matrix concatmatrix dup
      /cairo_font_matrix exch def dup 4 get exch 5 get cairo_store_point
      /cairo_font where { pop cairo_selectfont } if } bind def
/Tm { 2 copy 8 2 roll 6 array astore /cairo_font_matrix exch def
      cairo_store_point /cairo_font where { pop cairo_selectfont } if } bind def
/g { setgray } bind def
/rg { setrgbcolor } bind def
/d1 { setcachedevice } bind def
%%EndProlog
%%BeginSetup
%%EndSetup
%%Page: 1 1
%%BeginPageSetup
%%PageBoundingBox: 8 0 472 480
%%EndPageSetup
q 8 0 464 480 rectclip q
0.839216 g
8 48 m 8 432 l 8 440.836 15.164 448 24 448 c 40 448 l 48.836 448 56 440.836
 56 432 c 56 48 l 56 39.164 48.836 32 40 32 c 24 32 l 15.164 32 8 39.164
 8 48 c h
8 48 m f
0.537255 g
24 32 16 -32 re f
24 480 16 -32 re f
0.937255 g
56 56 m 56 424 l 456 424 l 464.836 424 472 416.836 472 408 c 472 72 l 472
 63.164 464.836 56 456 56 c h
56 56 m f
0.8 0.65098 0.231373 rg
384 128 56 -16 re f
282.879 153.855 m 293.121 166.145 l 341.121 126.145 l 330.879 113.855 l
 h
282.879 153.855 m f
186.879 126.145 m 234.879 166.145 l 245.121 153.855 l 197.121 113.855 l
 h
186.879 126.145 m f
256 200 m 272 200 l 280.836 200 288 192.836 288 184 c 288 168 l 288 159.164
 280.836 152 272 152 c 256 152 l 247.164 152 240 159.164 240 168 c 240 184
 l 240 192.836 247.164 200 256 200 c h
256 200 m f
1 0.815686 0.290196 rg
272 144 m 256 144 l 242.75 144.016 232.016 154.75 232 168 c 232 184 l 232.016
 197.25 242.75 207.984 256 208 c 272 208 l 285.25 207.984 295.984 197.25
 296 184 c 296 168 l 295.984 154.75 285.25 144.016 272 144 c h
256 192 m 251.586 191.996 248.004 188.414 248 184 c 248 168 l 248.004 163.586
 251.586 160.004 256 160 c 272 160 l 276.414 160.004 279.996 163.586 280
 168 c 280 184 l 279.996 188.414 276.414 191.996 272 192 c h
256 192 m f
0.8 0.65098 0.231373 rg
352 144 m 368 144 l 376.836 144 384 136.836 384 128 c 384 112 l 384 103.164
 376.836 96 368 96 c 352 96 l 343.164 96 336 103.164 336 112 c 336 128 l
 336 136.836 343.164 144 352 144 c h
352 144 m f
1 0.815686 0.290196 rg
368 88 m 352 88 l 338.75 88.016 328.016 98.75 328 112 c 328 128 l 328.016
 141.25 338.75 151.984 352 152 c 368 152 l 381.25 151.984 391.984 141.25
 392 128 c 392 112 l 391.984 98.75 381.25 88.016 368 88 c h
352 136 m 347.586 135.996 344.004 132.414 344 128 c 344 112 l 344.004 107.586
 347.586 104.004 352 104 c 368 104 l 372.414 104.004 375.996 107.586 376
 112 c 376 128 l 375.996 132.414 372.414 135.996 368 136 c h
352 136 m f
0.8 0.65098 0.231373 rg
88 128 56 -16 re f
1 0.403922 0.356863 rg
224 320 m 224 284.652 195.348 256 160 256 c 124.652 256 96 284.652 96 320
 c 96 355.348 124.652 384 160 384 c 195.348 384 224 355.348 224 320 c h
224 320 m f
0.8 0.321569 0.286275 rg
224 320 m 176 320 l 167.164 320 160 327.164 160 336 c 160 384 l 195.348
 384 224 355.348 224 320 c h
224 320 m f
0.737255 g
320 384 16 -16 re f
352 384 56 -16 re f
424 384 16 -16 re f
320 352 16 -16 re f
352 352 56 -16 re f
424 352 16 -16 re f
256 288 16 -16 re f
288 288 56 -16 re f
360 288 16 -16 re f
256 320 16 -16 re f
288 320 120 -16 re f
424 320 16 -16 re f
0.45098 0.788235 0.486275 rg
272 384 m 288 384 l 296.836 384 304 376.836 304 368 c 304 352 l 304 343.164
 296.836 336 288 336 c 272 336 l 263.164 336 256 343.164 256 352 c 256 368
 l 256 376.836 263.164 384 272 384 c h
272 384 m f
0.458824 0.756863 1 rg
408 288 m 424 288 l 432.836 288 440 280.836 440 272 c 440 256 l 440 247.164
 432.836 240 424 240 c 408 240 l 399.164 240 392 247.164 392 256 c 392 272
 l 392 280.836 399.164 288 408 288 c h
408 288 m f
0.737255 g
256 256 16 -16 re f
288 256 56 -16 re f
360 256 16 -16 re f
0.8 0.65098 0.231373 rg
160 144 m 176 144 l 184.836 144 192 136.836 192 128 c 192 112 l 192 103.164
 184.836 96 176 96 c 160 96 l 151.164 96 144 103.164 144 112 c 144 128 l
 144 136.836 151.164 144 160 144 c h
160 144 m f
1 0.815686 0.290196 rg
176 88 m 160 88 l 146.75 88.016 136.016 98.75 136 112 c 136 128 l 136.016
 141.25 146.75 151.984 160 152 c 176 152 l 189.25 151.984 199.984 141.25
 200 128 c 200 112 l 199.984 98.75 189.25 88.016 176 88 c h
160 136 m 155.586 135.996 152.004 132.414 152 128 c 152 112 l 152.004 107.586
 155.586 104.004 160 104 c 176 104 l 180.414 104.004 183.996 107.586 184
 112 c 184 128 l 183.996 132.414 180.414 135.996 176 136 c h
160 136 m f
Q Q
showpage
%%Trailer
end restore
%%EOF
