%!PS-Adobe-3.0 EPSF-3.0
%%Creator: cairo 1.14.2 (http://cairographics.org)
%%CreationDate: Thu Jan 17 08:42:36 2019
%%Pages: 1
%%DocumentData: Clean7Bit
%%LanguageLevel: 2
%%BoundingBox: 0 40 464 424
%%EndComments
%%BeginProlog
save
50 dict begin
/q { gsave } bind def
/Q { grestore } bind def
/cm { 6 array astore concat } bind def
/w { setlinewidth } bind def
/J { setlinecap } bind def
/j { setlinejoin } bind def
/M { setmiterlimit } bind def
/d { setdash } bind def
/m { moveto } bind def
/l { lineto } bind def
/c { curveto } bind def
/h { closepath } bind def
/re { exch dup neg 3 1 roll 5 3 roll moveto 0 rlineto
      0 exch rlineto 0 rlineto closepath } bind def
/S { stroke } bind def
/f { fill } bind def
/f* { eofill } bind def
/n { newpath } bind def
/W { clip } bind def
/W* { eoclip } bind def
/BT { } bind def
/ET { } bind def
/pdfmark where { pop globaldict /?pdfmark /exec load put }
    { globaldict begin /?pdfmark /pop load def /pdfmark
    /cleartomark load def end } ifelse
/BDC { mark 3 1 roll /BDC pdfmark } bind def
/EMC { mark /EMC pdfmark } bind def
/cairo_store_point { /cairo_point_y exch def /cairo_point_x exch def } def
/Tj { show currentpoint cairo_store_point } bind def
/TJ {
  {
    dup
    type /stringtype eq
    { show } { -0.001 mul 0 cairo_font_matrix dtransform rmoveto } ifelse
  } forall
  currentpoint cairo_store_point
} bind def
/cairo_selectfont { cairo_font_matrix aload pop pop pop 0 0 6 array astore
    cairo_font exch selectfont cairo_point_x cairo_point_y moveto } bind def
/Tf { pop /cairo_font exch def /cairo_font_matrix where
      { pop cairo_selectfont } if } bind def
/Td { matrix translate cairo_font_matrix matrix concatmatrix dup
      /cairo_font_matrix exch def dup 4 get exch 5 get cairo_store_point
      /cairo_font where { pop cairo_selectfont } if } bind def
/Tm { 2 copy 8 2 roll 6 array astore /cairo_font_matrix exch def
      cairo_store_point /cairo_font where { pop cairo_selectfont } if } bind def
/g { setgray } bind def
/rg { setrgbcolor } bind def
/d1 { setcachedevice } bind def
%%EndProlog
%%BeginSetup
%%EndSetup
%%Page: 1 1
%%BeginPageSetup
%%PageBoundingBox: 0 40 464 424
%%EndPageSetup
q 0 40 464 384 rectclip q
0.701961 0.52549 0.321569 rg
16 248 m 448 248 l 448 56 l 448 47.164 440.836 40 432 40 c 32 40 l 23.164
 40 16 47.164 16 56 c h
16 248 m f
0.8 0.6 0.368627 rg
400.738 192 m 405.352 192 409.742 193.992 412.781 197.465 c 460.043 251.477
 l 462.594 254.391 464 258.137 464 262.012 c 464 320 l 464 328.836 456.836
 336 448 336 c 16 336 l 7.164 336 0 328.836 0 320 c 0 262.012 l 0 258.137
 1.406 254.391 3.957 251.477 c 51.219 197.465 l 54.258 193.992 58.648 192
 63.262 192 c h
400.738 192 m f
0.901961 0.67451 0.415686 rg
200 192 m 200 240 l 200 248.836 192.836 256 184 256 c 120 256 l 111.164
 256 104 248.836 104 240 c 104 128 l 152 96 l 200 128 l h
200 192 m f
360 192 m 360 240 l 360 248.836 352.836 256 344 256 c 280 256 l 271.164
 256 264 248.836 264 240 c 264 128 l 312 96 l 360 128 l h
360 192 m f
0.6 0.45098 0.27451 rg
80 168 136 -16 re f
248 168 128 -16 re f
0.501961 0.376471 0.227451 rg
144 200 16 -16 re f
144 232 16 -16 re f
304 232 16 -16 re f
304 200 16 -16 re f
0.701961 0.52549 0.321569 rg
152 424 m 312 424 l 320.836 424 328 416.836 328 408 c 328 392 l 328 383.164
 320.836 376 312 376 c 152 376 l 143.164 376 136 383.164 136 392 c 136 408
 l 136 416.836 143.164 424 152 424 c h
152 424 m f
0.6 0.45098 0.27451 rg
104 336 m 88 336 l 88 384 l 88.016 397.25 98.75 407.984 112 408 c 136 408
 l 136 392 l 112 392 l 107.586 391.996 104.004 388.414 104 384 c h
104 336 m f
376 336 m 360 336 l 360 384 l 359.996 388.414 356.414 391.996 352 392 c
 328 392 l 328 408 l 352 408 l 365.25 407.984 375.984 397.25 376 384 c h
376 336 m f
Q Q
showpage
%%Trailer
end restore
%%EOF
