%!PS-Adobe-3.0 EPSF-3.0
%%Creator: cairo 1.14.2 (http://cairographics.org)
%%CreationDate: Thu Jan 17 08:42:36 2019
%%Pages: 1
%%DocumentData: Clean7Bit
%%LanguageLevel: 2
%%BoundingBox: 0 4 480 476
%%EndComments
%%BeginProlog
save
50 dict begin
/q { gsave } bind def
/Q { grestore } bind def
/cm { 6 array astore concat } bind def
/w { setlinewidth } bind def
/J { setlinecap } bind def
/j { setlinejoin } bind def
/M { setmiterlimit } bind def
/d { setdash } bind def
/m { moveto } bind def
/l { lineto } bind def
/c { curveto } bind def
/h { closepath } bind def
/re { exch dup neg 3 1 roll 5 3 roll moveto 0 rlineto
      0 exch rlineto 0 rlineto closepath } bind def
/S { stroke } bind def
/f { fill } bind def
/f* { eofill } bind def
/n { newpath } bind def
/W { clip } bind def
/W* { eoclip } bind def
/BT { } bind def
/ET { } bind def
/pdfmark where { pop globaldict /?pdfmark /exec load put }
    { globaldict begin /?pdfmark /pop load def /pdfmark
    /cleartomark load def end } ifelse
/BDC { mark 3 1 roll /BDC pdfmark } bind def
/EMC { mark /EMC pdfmark } bind def
/cairo_store_point { /cairo_point_y exch def /cairo_point_x exch def } def
/Tj { show currentpoint cairo_store_point } bind def
/TJ {
  {
    dup
    type /stringtype eq
    { show } { -0.001 mul 0 cairo_font_matrix dtransform rmoveto } ifelse
  } forall
  currentpoint cairo_store_point
} bind def
/cairo_selectfont { cairo_font_matrix aload pop pop pop 0 0 6 array astore
    cairo_font exch selectfont cairo_point_x cairo_point_y moveto } bind def
/Tf { pop /cairo_font exch def /cairo_font_matrix where
      { pop cairo_selectfont } if } bind def
/Td { matrix translate cairo_font_matrix matrix concatmatrix dup
      /cairo_font_matrix exch def dup 4 get exch 5 get cairo_store_point
      /cairo_font where { pop cairo_selectfont } if } bind def
/Tm { 2 copy 8 2 roll 6 array astore /cairo_font_matrix exch def
      cairo_store_point /cairo_font where { pop cairo_selectfont } if } bind def
/g { setgray } bind def
/rg { setrgbcolor } bind def
/d1 { setcachedevice } bind def
%%EndProlog
%%BeginSetup
%%EndSetup
%%Page: 1 1
%%BeginPageSetup
%%PageBoundingBox: 0 4 480 476
%%EndPageSetup
q 0 4 480 472 rectclip q
0.8 0.65098 0.231373 rg
155.203 437.602 m 164.797 450.398 l 228.797 402.398 l 219.203 389.602 l
 h
155.203 437.602 m f
59.199 402.406 m 123.207 450.391 l 132.801 437.594 l 68.793 389.609 l h
59.199 402.406 m f
0 396 32 -16 re f
256 396 56 -16 re f
136 468 m 152 468 l 156.418 468 160 464.418 160 460 c 160 444 l 160 439.582
 156.418 436 152 436 c 136 436 l 131.582 436 128 439.582 128 444 c 128 460
 l 128 464.418 131.582 468 136 468 c h
136 468 m f
1 0.815686 0.290196 rg
152 428 m 136 428 l 127.168 428.012 120.012 435.168 120 444 c 120 460 l
 120.012 468.832 127.168 475.988 136 476 c 152 476 l 160.832 475.988 167.988
 468.832 168 460 c 168 444 l 167.988 435.168 160.832 428.012 152 428 c h
136 460 m 136 444 l 152.016 444 l 152 460 l h
136 460 m f
0.8 0.65098 0.231373 rg
232 404 m 248 404 l 252.418 404 256 400.418 256 396 c 256 380 l 256 375.582
 252.418 372 248 372 c 232 372 l 227.582 372 224 375.582 224 380 c 224 396
 l 224 400.418 227.582 404 232 404 c h
232 404 m f
1 0.815686 0.290196 rg
248 364 m 232 364 l 223.168 364.012 216.012 371.168 216 380 c 216 396 l
 216.012 404.832 223.168 411.988 232 412 c 248 412 l 256.832 411.988 263.988
 404.832 264 396 c 264 380 l 263.988 371.168 256.832 364.012 248 364 c h
232 396 m 232 380 l 248.016 380 l 248 396 l h
232 396 m f
0.701961 0.52549 0.321569 rg
392 164 m 392 20 l 392 11.164 384.836 4 376 4 c 40 4 l 31.164 4 24 11.164
 24 20 c 24 164 l h
392 164 m f
0.8 0.65098 0.231373 rg
40 404 m 56 404 l 60.418 404 64 400.418 64 396 c 64 380 l 64 375.582 60.418
 372 56 372 c 40 372 l 35.582 372 32 375.582 32 380 c 32 396 l 32 400.418
 35.582 404 40 404 c h
40 404 m f
1 0.815686 0.290196 rg
56 364 m 40 364 l 31.168 364.012 24.012 371.168 24 380 c 24 396 l 24.012
 404.832 31.168 411.988 40 412 c 56 412 l 64.832 411.988 71.988 404.832 
72 396 c 72 380 l 71.988 371.168 64.832 364.012 56 364 c h
40 396 m 40 380 l 56.016 380 l 56 396 l h
40 396 m f
0.8 0.6 0.368627 rg
353.371 132 m 357.617 132 361.688 133.688 364.688 136.688 c 403.312 175.312
 l 406.312 178.312 408 182.383 408 186.629 c 408 228 l 408 236.836 400.836
 244 392 244 c 24 244 l 15.164 244 8 236.836 8 228 c 8 186.629 l 8 182.383
 9.688 178.312 12.688 175.312 c 51.312 136.688 l 54.312 133.688 58.383 132
 62.629 132 c h
353.371 132 m f
1 0.815686 0.290196 rg
472 388 m 472 343.816 436.184 308 392 308 c 347.816 308 312 343.816 312
 388 c 312 432.184 347.816 468 392 468 c 436.184 468 472 432.184 472 388
 c h
472 388 m f
0.901961 0.733333 0.262745 rg
472 388 m 408 388 l 399.164 388 392 395.164 392 404 c 392 468 l 436.184
 468 472 432.184 472 388 c h
472 388 m f
0.796078 0.647059 0.239216 rg
392 300 m 343.398 300 304 339.398 304 388 c 304 436.602 343.398 476 392
 476 c 440.602 476 480 436.602 480 388 c 479.945 339.422 440.578 300.055
 392 300 c h
392 460 m 352.234 460 320 427.766 320 388 c 320 348.234 352.234 316 392
 316 c 431.766 316 464 348.234 464 388 c 463.957 427.746 431.746 459.957
 392 460 c h
392 460 m f
0.901961 0.67451 0.415686 rg
184 132 m 184 180 l 184 188.836 176.836 196 168 196 c 104 196 l 95.164 
196 88 188.836 88 180 c 88 72.281 l 88 69.605 89.336 67.109 91.562 65.625
 c 131.562 38.957 l 134.25 37.168 137.75 37.168 140.438 38.957 c 180.438
 65.625 l 182.664 67.109 184 69.605 184 72.281 c h
184 132 m f
0.8 0.6 0.368627 rg
152 308 m 264 308 l 268.418 308 272 304.418 272 300 c 272 284 l 272 279.582
 268.418 276 264 276 c 152 276 l 147.582 276 144 279.582 144 284 c 144 300
 l 144 304.418 147.582 308 152 308 c h
152 308 m f
0.501961 0.376471 0.227451 rg
112 244 m 96 244 l 96 276 l 96.016 289.25 106.75 299.984 120 300 c 144 
300 l 144 284 l 120 284 l 115.582 283.996 112.004 280.418 112 276 c h
112 244 m f
320 244 m 304 244 l 304 276 l 303.996 280.418 300.418 283.996 296 284 c
 272 284 l 272 300 l 296 300 l 309.25 299.984 319.984 289.25 320 276 c h
320 244 m f
0.8 0.6 0.368627 rg
88 72.281 m 88 69.605 89.336 67.109 91.562 65.625 c 131.562 38.957 l 134.25
 37.168 137.75 37.168 140.438 38.957 c 180.438 65.625 l 182.664 67.109 184
 69.605 184 72.281 c 184 100 l 88 100 l h
88 72.281 m f
0.501961 0.376471 0.227451 rg
128 172 16 -16 re f
128 140 16 -16 re f
0.901961 0.67451 0.415686 rg
328 132 m 328 180 l 328 188.836 320.836 196 312 196 c 248 196 l 239.164
 196 232 188.836 232 180 c 232 72.281 l 232 69.605 233.336 67.109 235.562
 65.625 c 275.562 38.957 l 278.25 37.168 281.75 37.168 284.438 38.957 c 
324.438 65.625 l 326.664 67.109 328 69.605 328 72.281 c h
328 132 m f
0.501961 0.376471 0.227451 rg
272 172 16 -16 re f
0.8 0.6 0.368627 rg
232 72.281 m 232 69.605 233.336 67.109 235.562 65.625 c 275.562 38.957 
l 278.25 37.168 281.75 37.168 284.438 38.957 c 324.438 65.625 l 326.664 
67.109 328 69.605 328 72.281 c 328 100 l 232 100 l h
232 72.281 m f
0.501961 0.376471 0.227451 rg
272 140 16 -16 re f
Q Q
showpage
%%Trailer
end restore
%%EOF
