%!PS-Adobe-3.0 EPSF-3.0
%%Creator: cairo 1.14.2 (http://cairographics.org)
%%CreationDate: Thu Jan 17 08:42:36 2019
%%Pages: 1
%%DocumentData: Clean7Bit
%%LanguageLevel: 2
%%BoundingBox: 4 0 468 472
%%EndComments
%%BeginProlog
save
50 dict begin
/q { gsave } bind def
/Q { grestore } bind def
/cm { 6 array astore concat } bind def
/w { setlinewidth } bind def
/J { setlinecap } bind def
/j { setlinejoin } bind def
/M { setmiterlimit } bind def
/d { setdash } bind def
/m { moveto } bind def
/l { lineto } bind def
/c { curveto } bind def
/h { closepath } bind def
/re { exch dup neg 3 1 roll 5 3 roll moveto 0 rlineto
      0 exch rlineto 0 rlineto closepath } bind def
/S { stroke } bind def
/f { fill } bind def
/f* { eofill } bind def
/n { newpath } bind def
/W { clip } bind def
/W* { eoclip } bind def
/BT { } bind def
/ET { } bind def
/pdfmark where { pop globaldict /?pdfmark /exec load put }
    { globaldict begin /?pdfmark /pop load def /pdfmark
    /cleartomark load def end } ifelse
/BDC { mark 3 1 roll /BDC pdfmark } bind def
/EMC { mark /EMC pdfmark } bind def
/cairo_store_point { /cairo_point_y exch def /cairo_point_x exch def } def
/Tj { show currentpoint cairo_store_point } bind def
/TJ {
  {
    dup
    type /stringtype eq
    { show } { -0.001 mul 0 cairo_font_matrix dtransform rmoveto } ifelse
  } forall
  currentpoint cairo_store_point
} bind def
/cairo_selectfont { cairo_font_matrix aload pop pop pop 0 0 6 array astore
    cairo_font exch selectfont cairo_point_x cairo_point_y moveto } bind def
/Tf { pop /cairo_font exch def /cairo_font_matrix where
      { pop cairo_selectfont } if } bind def
/Td { matrix translate cairo_font_matrix matrix concatmatrix dup
      /cairo_font_matrix exch def dup 4 get exch 5 get cairo_store_point
      /cairo_font where { pop cairo_selectfont } if } bind def
/Tm { 2 copy 8 2 roll 6 array astore /cairo_font_matrix exch def
      cairo_store_point /cairo_font where { pop cairo_selectfont } if } bind def
/g { setgray } bind def
/rg { setrgbcolor } bind def
/d1 { setcachedevice } bind def
%%EndProlog
%%BeginSetup
%%EndSetup
%%Page: 1 1
%%BeginPageSetup
%%PageBoundingBox: 4 0 468 472
%%EndPageSetup
q 4 0 464 472 rectclip q
0.701961 0.52549 0.321569 rg
116 128 m 468 128 l 468 16 l 468 7.164 460.836 0 452 0 c 132 0 l 123.164
 0 116 7.164 116 16 c h
116 128 m f
0.8 0.6 0.368627 rg
132 216 m 452 216 l 460.836 216 468 208.836 468 200 c 468 128 l 116 128
 l 116 200 l 116 208.836 123.164 216 132 216 c h
132 216 m f
0.901961 0.67451 0.415686 rg
244 176 m 212 176 l 203.164 176 196 168.836 196 160 c 196 64 l 216.688 
43.312 l 222.934 37.066 233.066 37.066 239.312 43.312 c 260 64 l 260 160
 l 260 168.836 252.836 176 244 176 c h
244 176 m f
0.6 0.447059 0.27451 rg
172 88 112 -16 re f
0.901961 0.67451 0.415686 rg
372 176 m 340 176 l 331.164 176 324 168.836 324 160 c 324 64 l 344.688 
43.312 l 350.934 37.066 361.066 37.066 367.312 43.312 c 388 64 l 388 160
 l 388 168.836 380.836 176 372 176 c h
372 176 m f
0.6 0.447059 0.27451 rg
300 88 112 -16 re f
0.501961 0.376471 0.227451 rg
348 152 16 -16 re f
348 120 16 -16 re f
404 216 m 388 216 l 388 248 l 387.996 252.418 384.418 255.996 380 256 c
 348 256 l 348 272 l 380 272 l 393.25 271.984 403.984 261.25 404 248 c h
404 216 m f
0.8 0.6 0.368627 rg
236 280 m 348 280 l 356.836 280 364 272.836 364 264 c 364 255.164 356.836
 248 348 248 c 236 248 l 227.164 248 220 255.164 220 264 c 220 272.836 227.164
 280 236 280 c h
236 280 m f
1 0.815686 0.290196 rg
20 312 m 228 312 l 236.836 312 244 304.836 244 296 c 244 136 l 244 127.164
 236.836 120 228 120 c 20 120 l 11.164 120 4 127.164 4 136 c 4 296 l 4 304.836
 11.164 312 20 312 c h
20 312 m f
0.639216 g
44 368 16 -56 re f
204 312 m 188 312 l 188 392 l 188 427.348 159.348 456 124 456 c 88.652 
456 60 427.348 60 392 c 60 384 l 44 384 l 44 392 l 44 436.184 79.816 472
 124 472 c 168.184 472 204 436.184 204 392 c h
204 312 m f
0.8 0.65098 0.231373 rg
156 232 m 156.074 247.547 144.961 260.898 129.656 263.648 c 114.352 266.395
 99.289 257.746 93.949 243.145 c 88.605 228.543 94.535 212.211 108 204.438
 c 108 176 l 108 171.582 111.582 168 116 168 c 132 168 l 136.418 168 140
 171.582 140 176 c 140 204.438 l 149.875 210.105 155.973 220.613 156 232
 c h
156 232 m f
4 224 64 -16 re f
180 224 64 -16 re f
Q Q
showpage
%%Trailer
end restore
%%EOF
