%!PS-Adobe-3.0 EPSF-3.0
%%Creator: cairo 1.14.2 (http://cairographics.org)
%%CreationDate: Thu Jan 17 08:42:36 2019
%%Pages: 1
%%DocumentData: Clean7Bit
%%LanguageLevel: 2
%%BoundingBox: 0 0 464 464
%%EndComments
%%BeginProlog
save
50 dict begin
/q { gsave } bind def
/Q { grestore } bind def
/cm { 6 array astore concat } bind def
/w { setlinewidth } bind def
/J { setlinecap } bind def
/j { setlinejoin } bind def
/M { setmiterlimit } bind def
/d { setdash } bind def
/m { moveto } bind def
/l { lineto } bind def
/c { curveto } bind def
/h { closepath } bind def
/re { exch dup neg 3 1 roll 5 3 roll moveto 0 rlineto
      0 exch rlineto 0 rlineto closepath } bind def
/S { stroke } bind def
/f { fill } bind def
/f* { eofill } bind def
/n { newpath } bind def
/W { clip } bind def
/W* { eoclip } bind def
/BT { } bind def
/ET { } bind def
/pdfmark where { pop globaldict /?pdfmark /exec load put }
    { globaldict begin /?pdfmark /pop load def /pdfmark
    /cleartomark load def end } ifelse
/BDC { mark 3 1 roll /BDC pdfmark } bind def
/EMC { mark /EMC pdfmark } bind def
/cairo_store_point { /cairo_point_y exch def /cairo_point_x exch def } def
/Tj { show currentpoint cairo_store_point } bind def
/TJ {
  {
    dup
    type /stringtype eq
    { show } { -0.001 mul 0 cairo_font_matrix dtransform rmoveto } ifelse
  } forall
  currentpoint cairo_store_point
} bind def
/cairo_selectfont { cairo_font_matrix aload pop pop pop 0 0 6 array astore
    cairo_font exch selectfont cairo_point_x cairo_point_y moveto } bind def
/Tf { pop /cairo_font exch def /cairo_font_matrix where
      { pop cairo_selectfont } if } bind def
/Td { matrix translate cairo_font_matrix matrix concatmatrix dup
      /cairo_font_matrix exch def dup 4 get exch 5 get cairo_store_point
      /cairo_font where { pop cairo_selectfont } if } bind def
/Tm { 2 copy 8 2 roll 6 array astore /cairo_font_matrix exch def
      cairo_store_point /cairo_font where { pop cairo_selectfont } if } bind def
/g { setgray } bind def
/rg { setrgbcolor } bind def
/d1 { setcachedevice } bind def
%%EndProlog
%%BeginSetup
%%EndSetup
%%Page: 1 1
%%BeginPageSetup
%%PageBoundingBox: 0 0 464 464
%%EndPageSetup
q 0 0 464 464 rectclip q
0.839216 g
85.727 372.742 m 100.742 378.273 l 162.273 211.258 l 147.258 205.727 l 
h
85.727 372.742 m f
13.73 211.258 m 75.254 378.273 l 90.27 372.742 l 28.746 205.727 l h
13.73 211.258 m f
373.727 372.742 m 388.742 378.273 l 450.273 211.258 l 435.258 205.727 l
 h
373.727 372.742 m f
301.73 211.258 m 363.254 378.273 l 378.27 372.742 l 316.746 205.727 l h
301.73 211.258 m f
128 40 m 336 40 l 344.836 40 352 32.836 352 24 c 352 8 l 352 3.582 348.418
 0 344 0 c 120 0 l 115.582 0 112 3.582 112 8 c 112 24 l 112 32.836 119.164
 40 128 40 c h
128 40 m f
0.937255 g
160 184 m 16 184 l 7.164 184 0 191.164 0 200 c 0 208 l 0 212.418 3.582 
216 8 216 c 168 216 l 172.418 216 176 212.418 176 208 c 176 200 l 176 191.164
 168.836 184 160 184 c h
160 184 m f
265.754 72 m 198.246 72 l 194.574 72 191.375 69.5 190.484 65.941 c 184 
40 l 280 40 l 273.516 65.941 l 272.625 69.5 269.426 72 265.754 72 c h
265.754 72 m f
1 0.815686 0.290196 rg
208 408 m 256 408 l 260.418 408 264 404.418 264 400 c 264 352 l 264 347.582
 260.418 344 256 344 c 208 344 l 203.582 344 200 347.582 200 352 c 200 400
 l 200 404.418 203.582 408 208 408 c h
208 408 m f
0.901961 0.733333 0.262745 rg
248 408 m 248 448 l 248 456.836 240.836 464 232 464 c 223.164 464 216 456.836
 216 448 c 216 408 l h
248 408 m f
0.701961 0.52549 0.321569 rg
216 344 32 -272 re f
96 384 104 -16 re f
264 384 104 -16 re f
0.8 0.65098 0.231373 rg
104 376 m 104 367.164 96.836 360 88 360 c 79.164 360 72 367.164 72 376 
c 72 384.836 79.164 392 88 392 c 96.836 392 104 384.836 104 376 c h
104 376 m f
1 0.815686 0.290196 rg
88 352 m 74.746 352 64 362.746 64 376 c 64 389.254 74.746 400 88 400 c 
101.254 400 112 389.254 112 376 c 111.984 362.75 101.25 352.016 88 352 c
 h
88 384 m 83.582 384 80 380.418 80 376 c 80 371.582 83.582 368 88 368 c 
92.418 368 96 371.582 96 376 c 95.996 380.418 92.418 383.996 88 384 c h
88 384 m f
0.937255 g
448 184 m 304 184 l 295.164 184 288 191.164 288 200 c 288 208 l 288 212.418
 291.582 216 296 216 c 456 216 l 460.418 216 464 212.418 464 208 c 464 200
 l 464 191.164 456.836 184 448 184 c h
448 184 m f
0.8 0.65098 0.231373 rg
392 376 m 392 367.164 384.836 360 376 360 c 367.164 360 360 367.164 360
 376 c 360 384.836 367.164 392 376 392 c 384.836 392 392 384.836 392 376
 c h
392 376 m f
1 0.815686 0.290196 rg
376 352 m 362.746 352 352 362.746 352 376 c 352 389.254 362.746 400 376
 400 c 389.254 400 400 389.254 400 376 c 399.984 362.75 389.25 352.016 376
 352 c h
376 384 m 371.582 384 368 380.418 368 376 c 368 371.582 371.582 368 376
 368 c 380.418 368 384 371.582 384 376 c 383.996 380.418 380.418 383.996
 376 384 c h
376 384 m f
Q Q
showpage
%%Trailer
end restore
%%EOF
