%!PS-Adobe-3.0 EPSF-3.0
%%Creator: cairo 1.14.2 (http://cairographics.org)
%%CreationDate: Thu Jan 17 08:42:36 2019
%%Pages: 1
%%DocumentData: Clean7Bit
%%LanguageLevel: 2
%%BoundingBox: 0 0 464 464
%%EndComments
%%BeginProlog
save
50 dict begin
/q { gsave } bind def
/Q { grestore } bind def
/cm { 6 array astore concat } bind def
/w { setlinewidth } bind def
/J { setlinecap } bind def
/j { setlinejoin } bind def
/M { setmiterlimit } bind def
/d { setdash } bind def
/m { moveto } bind def
/l { lineto } bind def
/c { curveto } bind def
/h { closepath } bind def
/re { exch dup neg 3 1 roll 5 3 roll moveto 0 rlineto
      0 exch rlineto 0 rlineto closepath } bind def
/S { stroke } bind def
/f { fill } bind def
/f* { eofill } bind def
/n { newpath } bind def
/W { clip } bind def
/W* { eoclip } bind def
/BT { } bind def
/ET { } bind def
/pdfmark where { pop globaldict /?pdfmark /exec load put }
    { globaldict begin /?pdfmark /pop load def /pdfmark
    /cleartomark load def end } ifelse
/BDC { mark 3 1 roll /BDC pdfmark } bind def
/EMC { mark /EMC pdfmark } bind def
/cairo_store_point { /cairo_point_y exch def /cairo_point_x exch def } def
/Tj { show currentpoint cairo_store_point } bind def
/TJ {
  {
    dup
    type /stringtype eq
    { show } { -0.001 mul 0 cairo_font_matrix dtransform rmoveto } ifelse
  } forall
  currentpoint cairo_store_point
} bind def
/cairo_selectfont { cairo_font_matrix aload pop pop pop 0 0 6 array astore
    cairo_font exch selectfont cairo_point_x cairo_point_y moveto } bind def
/Tf { pop /cairo_font exch def /cairo_font_matrix where
      { pop cairo_selectfont } if } bind def
/Td { matrix translate cairo_font_matrix matrix concatmatrix dup
      /cairo_font_matrix exch def dup 4 get exch 5 get cairo_store_point
      /cairo_font where { pop cairo_selectfont } if } bind def
/Tm { 2 copy 8 2 roll 6 array astore /cairo_font_matrix exch def
      cairo_store_point /cairo_font where { pop cairo_selectfont } if } bind def
/g { setgray } bind def
/rg { setrgbcolor } bind def
/d1 { setcachedevice } bind def
%%EndProlog
%%BeginSetup
%%EndSetup
%%Page: 1 1
%%BeginPageSetup
%%PageBoundingBox: 0 0 464 464
%%EndPageSetup
q 0 0 464 464 rectclip q
0.937255 g
152 16.004 m 152 7.168 159.164 0.004 168 0.004 c 448 0 l 456.836 0 464 
7.164 464 16 c 464 361.371 l 464 365.617 462.312 369.688 459.312 372.688
 c 372.688 459.312 l 369.684 462.312 365.617 464 361.371 464 c 168 464 l
 159.164 464 152 456.836 152 448 c h
152 16.004 m f
0.839216 g
459.312 372.688 m 372.688 459.312 l 371.328 460.652 369.742 461.734 368
 462.512 c 368 384 l 368 375.164 375.164 368 384 368 c 462.512 368 l 461.734
 369.742 460.652 371.328 459.312 372.688 c h
459.312 372.688 m f
0.737255 g
208 400 m 192 400 l 192 408 l 192.016 421.25 202.754 431.984 216 432 c 
224 432 l 224 416 l 216 416 l 211.586 415.996 208.004 412.418 208 408 c 
h
208 400 m f
224 288 m 216 288 l 202.754 288.016 192.016 298.75 192 312 c 192 320 l 
208 320 l 208 312 l 208.004 307.582 211.586 304.004 216 304 c 224 304 l 
h
224 288 m f
312 288 m 304 288 l 304 304 l 312 304 l 316.418 304.004 319.996 307.582
 320 312 c 320 320 l 336 320 l 336 312 l 335.988 298.75 325.25 288.016 312
 288 c h
312 288 m f
336 400 m 320 400 l 320 408 l 319.996 412.418 316.418 415.996 312 416 c
 304 416 l 304 432 l 312 432 l 325.25 431.984 335.988 421.25 336 408 c h
336 400 m f
1 0.815686 0.290196 rg
304 384 m 304 392 l 303.992 400.832 296.832 407.988 288 408 c 272 408 l
 272 424 l 256 424 l 256 408 l 240 408 l 231.168 407.988 224.012 400.832
 224 392 c 224 368 l 224.012 359.168 231.168 352.012 240 352 c 256 352 l
 256 328 l 240 328 l 240 336 l 224 336 l 224 328 l 224.012 319.168 231.168
 312.012 240 312 c 256 312 l 256 296 l 272 296 l 272 312 l 288 312 l 296.832
 312.012 303.992 319.168 304 328 c 304 352 l 303.992 360.832 296.832 367.988
 288 368 c 272 368 l 272 392 l 288 392 l 288 384 l h
288 352 m 288 328 l 272 328 l 272 352 l h
256 368 m 240 368 l 240 392 l 256 392 l h
256 368 m f
0.737255 g
352 344 16 -16 re f
384 344 56 -16 re f
352 312 16 -16 re f
384 312 56 -16 re f
0.458824 0.756863 1 rg
416 136 m 384 136 l 375.164 136 368 143.164 368 152 c 368 184 l 368 192.836
 375.164 200 384 200 c 416 200 l 424.836 200 432 192.836 432 184 c 432 152
 l 432 143.164 424.836 136 416 136 c h
416 136 m f
0.45098 0.788235 0.486275 rg
264 264 m 280 264 l 284.418 264 288 260.418 288 256 c 288 240 l 288 235.582
 284.418 232 280 232 c 264 232 l 259.582 232 256 235.582 256 240 c 256 256
 l 256 260.418 259.582 264 264 264 c h
264 264 m f
0.737255 g
328 176 16 -16 re f
328 208 16 -16 re f
256 208 56 -16 re f
256 176 56 -16 re f
312 240 16 -16 re f
344 240 56 -16 re f
416 240 16 -16 re f
312 272 16 -16 re f
344 272 56 -16 re f
416 272 16 -16 re f
0.796078 0.647059 0.239216 rg
323.004 89.75 m 333 102.25 l 373 70.254 l 363.004 57.754 l h
323.004 89.75 m f
251 70.262 m 291.012 102.242 l 301.004 89.742 l 260.992 57.762 l h
251 70.262 m f
400 56.004 32 -16 re f
192 56.004 32 -16 re f
0.8 0.65098 0.231373 rg
376 64.004 m 392 64.004 l 396.418 64.004 400 60.422 400 56.004 c 400 40.004
 l 400 35.586 396.418 32.004 392 32.004 c 376 32.004 l 371.582 32.004 368
 35.586 368 40.004 c 368 56.004 l 368 60.422 371.582 64.004 376 64.004 c
 h
376 64.004 m f
1 0.815686 0.290196 rg
392 24.004 m 376 24.004 l 367.168 24.016 360.012 31.172 360 40.004 c 360
 56.004 l 360.012 64.836 367.168 71.992 376 72.004 c 392 72.004 l 400.832
 71.992 407.992 64.836 408 56.004 c 408 40.004 l 407.992 31.172 400.832 
24.016 392 24.004 c h
376 56.004 m 376 40.004 l 392.012 40.004 l 392 56.004 l h
376 56.004 m f
0.8 0.65098 0.231373 rg
232 64.004 m 248 64.004 l 252.418 64.004 256 60.422 256 56.004 c 256 40.004
 l 256 35.586 252.418 32.004 248 32.004 c 232 32.004 l 227.582 32.004 224
 35.586 224 40.004 c 224 56.004 l 224 60.422 227.582 64.004 232 64.004 c
 h
232 64.004 m f
1 0.815686 0.290196 rg
248 24.004 m 232 24.004 l 223.168 24.016 216.012 31.172 216 40.004 c 216
 56.004 l 216.012 64.836 223.168 71.992 232 72.004 c 248 72.004 l 256.832
 71.992 263.992 64.836 264 56.004 c 264 40.004 l 263.992 31.172 256.832 
24.016 248 24.004 c h
232 56.004 m 232 40.004 l 248.012 40.004 l 248 56.004 l h
232 56.004 m f
0.8 0.65098 0.231373 rg
304 128 m 320 128 l 324.418 128 328 124.418 328 120 c 328 104 l 328 99.582
 324.418 96 320 96 c 304 96 l 299.582 96 296 99.582 296 104 c 296 120 l 
296 124.418 299.582 128 304 128 c h
304 128 m f
1 0.815686 0.290196 rg
320 88 m 304 88 l 295.168 88.012 288.012 95.168 288 104 c 288 120 l 288.012
 128.832 295.168 135.988 304 136 c 320 136 l 328.832 135.988 335.992 128.832
 336 120 c 336 104 l 335.992 95.168 328.832 88.012 320 88 c h
304 120 m 304 104 l 320.012 104 l 320 120 l h
304 120 m f
0.839216 g
168 344 m 168 144 l 168 113.07 142.93 88 112 88 c 81.074 88 56 113.07 56
 144 c 56 344 l h
168 344 m f
0.458824 0.756863 1 rg
104 296 m 120 296 l 124.418 296 128 292.418 128 288 c 128 232 l 128 227.582
 124.418 224 120 224 c 104 224 l 99.582 224 96 227.582 96 232 c 96 288 l
 96 292.418 99.582 296 104 296 c h
104 296 m f
1 0.403922 0.356863 rg
115.375 434.699 m 114.641 435.852 113.367 436.551 112 436.551 c 110.633
 436.551 109.359 435.852 108.625 434.699 c 56 352 l 56 344 l 168 344 l 168
 352 l h
115.375 434.699 m f
0.639216 g
104 152 16 -119.996 re f
1 0.403922 0.356863 rg
6.703 212.785 m 56 248 l 56 152 l 6.324 116.52 l 5.105 115.648 3.504 115.531
 2.172 116.215 c 0.84 116.902 0 118.273 0 119.773 c 0 199.766 l 0 204.934
 2.496 209.781 6.703 212.785 c h
6.703 212.785 m f
217.301 212.785 m 168 248 l 168 152 l 217.676 116.52 l 218.895 115.648 
220.5 115.531 221.832 116.215 c 223.164 116.902 224 118.273 224 119.773 
c 224 199.766 l 224 204.934 221.504 209.781 217.301 212.785 c h
217.301 212.785 m f
Q Q
showpage
%%Trailer
end restore
%%EOF
