%!PS-Adobe-3.0 EPSF-3.0
%%Creator: cairo 1.14.2 (http://cairographics.org)
%%CreationDate: Thu Jan 17 08:42:36 2019
%%Pages: 1
%%DocumentData: Clean7Bit
%%LanguageLevel: 2
%%BoundingBox: 1 0 466 467
%%EndComments
%%BeginProlog
save
50 dict begin
/q { gsave } bind def
/Q { grestore } bind def
/cm { 6 array astore concat } bind def
/w { setlinewidth } bind def
/J { setlinecap } bind def
/j { setlinejoin } bind def
/M { setmiterlimit } bind def
/d { setdash } bind def
/m { moveto } bind def
/l { lineto } bind def
/c { curveto } bind def
/h { closepath } bind def
/re { exch dup neg 3 1 roll 5 3 roll moveto 0 rlineto
      0 exch rlineto 0 rlineto closepath } bind def
/S { stroke } bind def
/f { fill } bind def
/f* { eofill } bind def
/n { newpath } bind def
/W { clip } bind def
/W* { eoclip } bind def
/BT { } bind def
/ET { } bind def
/pdfmark where { pop globaldict /?pdfmark /exec load put }
    { globaldict begin /?pdfmark /pop load def /pdfmark
    /cleartomark load def end } ifelse
/BDC { mark 3 1 roll /BDC pdfmark } bind def
/EMC { mark /EMC pdfmark } bind def
/cairo_store_point { /cairo_point_y exch def /cairo_point_x exch def } def
/Tj { show currentpoint cairo_store_point } bind def
/TJ {
  {
    dup
    type /stringtype eq
    { show } { -0.001 mul 0 cairo_font_matrix dtransform rmoveto } ifelse
  } forall
  currentpoint cairo_store_point
} bind def
/cairo_selectfont { cairo_font_matrix aload pop pop pop 0 0 6 array astore
    cairo_font exch selectfont cairo_point_x cairo_point_y moveto } bind def
/Tf { pop /cairo_font exch def /cairo_font_matrix where
      { pop cairo_selectfont } if } bind def
/Td { matrix translate cairo_font_matrix matrix concatmatrix dup
      /cairo_font_matrix exch def dup 4 get exch 5 get cairo_store_point
      /cairo_font where { pop cairo_selectfont } if } bind def
/Tm { 2 copy 8 2 roll 6 array astore /cairo_font_matrix exch def
      cairo_store_point /cairo_font where { pop cairo_selectfont } if } bind def
/g { setgray } bind def
/rg { setrgbcolor } bind def
/d1 { setcachedevice } bind def
%%EndProlog
%%BeginSetup
%%EndSetup
%%Page: 1 1
%%BeginPageSetup
%%PageBoundingBox: 1 0 466 467
%%EndPageSetup
q 1 0 465 467 rectclip q
0.937255 g
465.004 0 m 465.004 209.086 l 465.004 213.32 463.316 217.387 460.32 220.383
 c 373.812 306.891 l 370.816 309.887 366.754 311.566 362.516 311.566 c 17.625
 311.566 l 8.801 311.566 1.648 304.418 1.648 295.59 c 1.648 0 l h
465.004 0 m f
0.839216 g
385.113 215.699 m 463.516 215.699 l 462.738 217.441 461.656 219.023 460.32
 220.383 c 373.812 306.891 l 372.461 308.227 370.871 309.309 369.137 310.086
 c 369.137 231.68 l 369.137 222.855 376.289 215.703 385.113 215.699 c h
385.113 215.699 m f
0.8 0.6 0.368627 rg
193.379 87.879 m 177.402 87.879 l 172.992 87.879 169.414 91.457 169.414
 95.867 c 169.414 111.844 l 169.414 116.262 172.992 119.836 177.402 119.836
 c 193.379 119.836 l 197.793 119.836 201.367 116.262 201.367 111.844 c 201.367
 95.867 l 201.367 91.457 197.793 87.879 193.379 87.879 c h
193.379 87.879 m f
0.458824 0.756863 1 rg
57.57 151.789 m 41.59 151.789 l 37.18 151.789 33.602 155.367 33.602 159.777
 c 33.602 175.758 l 33.602 180.172 37.18 183.746 41.59 183.746 c 57.57 183.746
 l 61.98 183.746 65.559 180.172 65.559 175.758 c 65.559 159.777 l 65.559
 155.367 61.98 151.789 57.57 151.789 c h
57.57 151.789 m f
1 0.815686 0.290196 rg
89.523 215.699 m 57.57 215.699 l 48.746 215.699 41.59 222.855 41.59 231.68
 c 41.59 263.633 l 41.59 272.461 48.746 279.613 57.57 279.613 c 89.523 279.613
 l 98.348 279.613 105.504 272.461 105.504 263.633 c 105.504 231.68 l 105.504
 222.855 98.348 215.699 89.523 215.699 c h
89.523 215.699 m f
0.737255 g
25.613 31.957 15.977 -15.977 re f
25.613 63.914 15.977 -15.98 re f
57.57 63.914 135.809 -15.98 re f
209.359 63.914 15.977 -15.98 re f
25.613 95.867 15.977 -15.977 re f
57.57 95.867 55.922 -15.977 re f
129.469 95.867 15.977 -15.977 re f
25.613 127.824 15.977 -15.98 re f
57.57 127.824 55.922 -15.98 re f
89.523 159.777 15.98 -15.977 re f
121.48 159.777 55.922 -15.977 re f
89.523 191.734 15.98 -15.977 re f
121.48 191.734 39.945 -15.977 re f
129.469 127.824 15.977 -15.98 re f
57.57 31.957 135.809 -15.977 re f
209.359 31.957 15.977 -15.977 re f
297.234 135.812 m 281.258 135.812 l 281.258 151.789 l 281.273 165.023 291.992
 175.746 305.223 175.758 c 321.203 175.758 l 321.203 159.777 l 305.223 159.777
 l 300.812 159.777 297.238 156.203 297.234 151.789 c h
297.234 135.812 m f
321.203 15.98 m 305.223 15.98 l 291.992 15.996 281.273 26.719 281.258 39.945
 c 281.258 55.922 l 297.234 55.922 l 297.234 39.945 l 297.238 35.539 300.812
 31.961 305.223 31.957 c 321.203 31.957 l h
321.203 15.98 m f
417.07 15.98 m 401.09 15.98 l 401.09 31.957 l 417.07 31.957 l 421.48 31.961
 425.055 35.539 425.059 39.945 c 425.059 55.922 l 441.035 55.922 l 441.035
 39.945 l 441.02 26.719 430.301 15.996 417.07 15.98 c h
417.07 15.98 m f
441.035 135.812 m 425.059 135.812 l 425.059 151.789 l 425.055 156.203 421.48
 159.777 417.07 159.777 c 401.09 159.777 l 401.09 175.758 l 417.07 175.758
 l 430.301 175.746 441.02 165.023 441.035 151.789 c h
441.035 135.812 m f
0.45098 0.788235 0.486275 rg
401.09 119.836 m 401.09 127.824 l 401.078 136.645 393.934 143.793 385.113
 143.801 c 369.137 143.801 l 369.137 159.777 l 353.156 159.777 l 353.156
 143.801 l 337.18 143.801 l 328.359 143.793 321.215 136.645 321.203 127.824
 c 321.203 103.855 l 321.215 95.039 328.359 87.891 337.18 87.879 c 353.156
 87.879 l 353.156 63.914 l 337.18 63.914 l 337.18 71.902 l 321.203 71.902
 l 321.203 63.914 l 321.215 55.098 328.359 47.945 337.18 47.934 c 353.156
 47.934 l 353.156 31.957 l 369.137 31.957 l 369.137 47.934 l 385.113 47.934
 l 393.934 47.945 401.078 55.098 401.09 63.914 c 401.09 87.879 l 401.078
 96.699 393.934 103.848 385.113 103.855 c 369.137 103.855 l 369.137 127.824
 l 385.113 127.824 l 385.113 119.836 l h
385.113 87.879 m 385.113 63.914 l 369.137 63.914 l 369.137 87.879 l h
353.156 103.855 m 337.18 103.855 l 337.18 127.824 l 353.156 127.824 l h
353.156 103.855 m f
0.839216 g
281.258 375.48 m 281.258 215.699 l 281.258 189.23 259.801 167.77 233.324
 167.77 c 206.852 167.77 185.391 189.23 185.391 215.699 c 185.391 375.48
 l h
281.258 375.48 m f
0.458824 0.756863 1 rg
225.336 327.547 m 241.312 327.547 l 245.727 327.547 249.301 323.973 249.301
 319.555 c 249.301 263.633 l 249.301 259.223 245.727 255.645 241.312 255.645
 c 225.336 255.645 l 220.922 255.645 217.348 259.223 217.348 263.633 c 217.348
 319.555 l 217.348 323.973 220.922 327.547 225.336 327.547 c h
225.336 327.547 m f
0.639216 g
225.336 231.68 15.977 -119.836 re f
1 0.403922 0.356863 rg
150.129 292.281 m 185.391 327.547 l 185.391 247.656 l 152.266 214.535 l
 151.121 213.391 149.406 213.047 147.91 213.668 c 146.422 214.285 145.445
 215.738 145.445 217.359 c 145.445 280.984 l 145.445 285.223 147.133 289.285
 150.129 292.281 c h
150.129 292.281 m f
316.52 292.281 m 281.258 327.547 l 281.258 247.656 l 314.383 214.535 l 
315.527 213.391 317.242 213.047 318.738 213.668 c 320.23 214.285 321.203
 215.738 321.203 217.359 c 321.203 280.984 l 321.203 285.223 319.52 289.285
 316.52 292.281 c h
316.52 292.281 m f
281.258 375.48 m 281.258 383.469 l 236.832 464.918 l 236.133 466.199 234.789
 467 233.324 467 c 231.867 467 230.52 466.199 229.816 464.918 c 185.391 
383.469 l 185.391 375.48 l h
281.258 375.48 m f
Q Q
showpage
%%Trailer
end restore
%%EOF
