%!PS-Adobe-3.0 EPSF-3.0
%%Creator: cairo 1.14.2 (http://cairographics.org)
%%CreationDate: Thu Jan 17 08:42:36 2019
%%Pages: 1
%%DocumentData: Clean7Bit
%%LanguageLevel: 2
%%BoundingBox: 5 0 470 475
%%EndComments
%%BeginProlog
save
50 dict begin
/q { gsave } bind def
/Q { grestore } bind def
/cm { 6 array astore concat } bind def
/w { setlinewidth } bind def
/J { setlinecap } bind def
/j { setlinejoin } bind def
/M { setmiterlimit } bind def
/d { setdash } bind def
/m { moveto } bind def
/l { lineto } bind def
/c { curveto } bind def
/h { closepath } bind def
/re { exch dup neg 3 1 roll 5 3 roll moveto 0 rlineto
      0 exch rlineto 0 rlineto closepath } bind def
/S { stroke } bind def
/f { fill } bind def
/f* { eofill } bind def
/n { newpath } bind def
/W { clip } bind def
/W* { eoclip } bind def
/BT { } bind def
/ET { } bind def
/pdfmark where { pop globaldict /?pdfmark /exec load put }
    { globaldict begin /?pdfmark /pop load def /pdfmark
    /cleartomark load def end } ifelse
/BDC { mark 3 1 roll /BDC pdfmark } bind def
/EMC { mark /EMC pdfmark } bind def
/cairo_store_point { /cairo_point_y exch def /cairo_point_x exch def } def
/Tj { show currentpoint cairo_store_point } bind def
/TJ {
  {
    dup
    type /stringtype eq
    { show } { -0.001 mul 0 cairo_font_matrix dtransform rmoveto } ifelse
  } forall
  currentpoint cairo_store_point
} bind def
/cairo_selectfont { cairo_font_matrix aload pop pop pop 0 0 6 array astore
    cairo_font exch selectfont cairo_point_x cairo_point_y moveto } bind def
/Tf { pop /cairo_font exch def /cairo_font_matrix where
      { pop cairo_selectfont } if } bind def
/Td { matrix translate cairo_font_matrix matrix concatmatrix dup
      /cairo_font_matrix exch def dup 4 get exch 5 get cairo_store_point
      /cairo_font where { pop cairo_selectfont } if } bind def
/Tm { 2 copy 8 2 roll 6 array astore /cairo_font_matrix exch def
      cairo_store_point /cairo_font where { pop cairo_selectfont } if } bind def
/g { setgray } bind def
/rg { setrgbcolor } bind def
/d1 { setcachedevice } bind def
%%EndProlog
%%BeginSetup
%%EndSetup
%%Page: 1 1
%%BeginPageSetup
%%PageBoundingBox: 5 0 470 475
%%EndPageSetup
q 5 0 465 475 rectclip q
0.937255 g
21.297 357.422 m 453.016 357.422 l 461.844 357.422 469.004 350.262 469.004
 341.43 c 469.004 133.566 l 469.004 124.738 461.844 117.578 453.016 117.578
 c 21.297 117.578 l 12.469 117.578 5.309 124.738 5.309 133.566 c 5.309 341.43
 l 5.309 350.262 12.469 357.422 21.297 357.422 c h
21.297 357.422 m f
0.45098 0.788235 0.486275 rg
317.105 237.5 m 317.105 193.344 281.312 157.551 237.156 157.551 c 193 157.551
 157.211 193.344 157.211 237.5 c 157.211 281.656 193 317.445 237.156 317.445
 c 281.312 317.445 317.105 281.656 317.105 237.5 c h
317.105 237.5 m f
5.309 285.469 m 45.047 285.469 77.262 317.68 77.262 357.422 c 21.297 357.422
 l 12.469 357.422 5.309 350.262 5.309 341.43 c h
5.309 285.469 m f
5.309 189.531 m 5.309 133.566 l 5.309 124.738 12.469 117.578 21.297 117.578
 c 77.262 117.578 l 77.262 157.316 45.047 189.531 5.309 189.531 c h
5.309 189.531 m f
397.051 357.422 m 397.051 317.68 429.266 285.469 469.004 285.469 c 469.004
 341.43 l 469.004 350.262 461.844 357.422 453.016 357.422 c h
397.051 357.422 m f
469.004 189.531 m 429.266 189.531 397.051 157.316 397.051 117.578 c 453.016
 117.578 l 461.844 117.578 469.004 124.738 469.004 133.566 c h
469.004 189.531 m f
0.639216 g
186.848 427.031 m 176.508 437.367 l 301.113 437.367 l 305.531 437.363 309.105
 433.789 309.109 429.375 c 309.109 413.383 l 325.098 413.383 l 325.098 429.375
 l 325.082 442.613 314.355 453.344 301.113 453.359 c 176.508 453.359 l 186.848
 463.695 l 175.539 475 l 145.902 445.363 l 175.539 415.727 l h
186.848 427.031 m f
298.773 59.273 m 287.469 47.969 l 297.805 37.633 l 173.199 37.633 l 168.785
 37.637 165.207 41.211 165.203 45.625 c 165.203 61.617 l 149.215 61.617 
l 149.215 45.625 l 149.23 32.383 159.957 21.656 173.199 21.641 c 297.805
 21.641 l 287.469 11.305 l 298.773 0 l 328.41 29.637 l h
298.773 59.273 m f
149.215 93.594 15.988 -15.988 re f
309.109 397.395 15.988 -15.988 re f
0.937255 g
245.152 197.527 m 245.152 229.504 l 277.129 229.504 l 277.129 245.496 l
 245.152 245.496 l 245.152 277.473 l 229.16 277.473 l 229.16 245.496 l 197.184
 245.496 l 197.184 229.504 l 229.16 229.504 l 229.16 197.527 l h
245.152 197.527 m f
Q Q
showpage
%%Trailer
end restore
%%EOF
