%!PS-Adobe-3.0 EPSF-3.0
%%Creator: cairo 1.14.2 (http://cairographics.org)
%%CreationDate: Thu Jan 17 08:42:36 2019
%%Pages: 1
%%DocumentData: Clean7Bit
%%LanguageLevel: 2
%%BoundingBox: 0 0 464 464
%%EndComments
%%BeginProlog
save
50 dict begin
/q { gsave } bind def
/Q { grestore } bind def
/cm { 6 array astore concat } bind def
/w { setlinewidth } bind def
/J { setlinecap } bind def
/j { setlinejoin } bind def
/M { setmiterlimit } bind def
/d { setdash } bind def
/m { moveto } bind def
/l { lineto } bind def
/c { curveto } bind def
/h { closepath } bind def
/re { exch dup neg 3 1 roll 5 3 roll moveto 0 rlineto
      0 exch rlineto 0 rlineto closepath } bind def
/S { stroke } bind def
/f { fill } bind def
/f* { eofill } bind def
/n { newpath } bind def
/W { clip } bind def
/W* { eoclip } bind def
/BT { } bind def
/ET { } bind def
/pdfmark where { pop globaldict /?pdfmark /exec load put }
    { globaldict begin /?pdfmark /pop load def /pdfmark
    /cleartomark load def end } ifelse
/BDC { mark 3 1 roll /BDC pdfmark } bind def
/EMC { mark /EMC pdfmark } bind def
/cairo_store_point { /cairo_point_y exch def /cairo_point_x exch def } def
/Tj { show currentpoint cairo_store_point } bind def
/TJ {
  {
    dup
    type /stringtype eq
    { show } { -0.001 mul 0 cairo_font_matrix dtransform rmoveto } ifelse
  } forall
  currentpoint cairo_store_point
} bind def
/cairo_selectfont { cairo_font_matrix aload pop pop pop 0 0 6 array astore
    cairo_font exch selectfont cairo_point_x cairo_point_y moveto } bind def
/Tf { pop /cairo_font exch def /cairo_font_matrix where
      { pop cairo_selectfont } if } bind def
/Td { matrix translate cairo_font_matrix matrix concatmatrix dup
      /cairo_font_matrix exch def dup 4 get exch 5 get cairo_store_point
      /cairo_font where { pop cairo_selectfont } if } bind def
/Tm { 2 copy 8 2 roll 6 array astore /cairo_font_matrix exch def
      cairo_store_point /cairo_font where { pop cairo_selectfont } if } bind def
/g { setgray } bind def
/rg { setrgbcolor } bind def
/d1 { setcachedevice } bind def
%%EndProlog
%%BeginSetup
%%EndSetup
%%Page: 1 1
%%BeginPageSetup
%%PageBoundingBox: 0 0 464 464
%%EndPageSetup
q 0 0 464 464 rectclip q
0.937255 g
320 448 m 320 456.836 312.836 464 304 464 c 102.629 464 l 98.387 464 94.316
 462.312 91.316 459.312 c 4.688 372.688 l 1.688 369.684 0 365.617 0 361.371
 c 0 31.996 l 0 23.16 7.164 15.996 16 15.996 c 304 16 l 312.836 16 320 23.164
 320 32 c h
320 448 m f
1 0.815686 0.290196 rg
224 312 m 448 312 l 456.836 312 464 304.836 464 296 c 464 16 l 464 7.164
 456.836 0 448 0 c 224 0 l 215.164 0 208 7.164 208 16 c 208 296 l 208 304.836
 215.164 312 224 312 c h
224 312 m f
0.45098 0.788235 0.486275 rg
256 280 m 416 280 l 424.836 280 432 272.836 432 264 c 432 240 l 432 231.164
 424.836 224 416 224 c 256 224 l 247.164 224 240 231.164 240 240 c 240 264
 l 240 272.836 247.164 280 256 280 c h
256 280 m f
0.839216 g
80 368 m 88.836 368 96 375.164 96 384 c 96 462.512 l 94.262 461.734 92.672
 460.652 91.316 459.312 c 4.688 372.688 l 3.348 371.328 2.266 369.742 1.488
 368 c h
80 368 m f
1 0.403922 0.356863 rg
160 272 m 160 241.07 134.93 216 104 216 c 73.074 216 48 241.07 48 272 c
 48 302.926 73.074 328 104 328 c 134.93 328 160 302.926 160 272 c h
160 272 m f
0.8 0.321569 0.286275 rg
104 288 m 104 328 l 73.074 328 48 302.926 48 272 c 88 272 l 96.836 272 
104 279.164 104 288 c h
104 288 m f
1 0.815686 0.290196 rg
140 424 m 164 424 l 166.211 424 168 422.207 168 420 c 168 396 l 168 393.789
 166.211 392 164 392 c 140 392 l 137.793 392 136 393.789 136 396 c 136 420
 l 136 422.207 137.793 424 140 424 c h
140 424 m f
0.737255 g
192 432 16 -16 re f
224 432 72 -16 re f
192 400 16 -16 re f
224 400 72 -16 re f
128 368 16 -16 re f
160 368 104 -16 re f
280 368 16 -16 re f
0.458824 0.756863 1 rg
172 152 m 148 152 l 145.793 152 144 153.789 144 156 c 144 180 l 144 182.207
 145.793 184 148 184 c 172 184 l 174.211 184 176 182.207 176 180 c 176 156
 l 176 153.789 174.211 152 172 152 c h
172 152 m f
0.737255 g
104 192 16 -16 re f
24 192 64 -16 re f
104 160 16 -16 re f
24 160 64 -16 re f
0.45098 0.788235 0.486275 rg
36 88 m 60 88 l 62.211 88 64 86.207 64 84 c 64 60 l 64 57.789 62.211 56
 60 56 c 36 56 l 33.793 56 32 57.789 32 60 c 32 84 l 32 86.207 33.793 88
 36 88 c h
36 88 m f
0.737255 g
88 96 16 -16 re f
120 96 64 -16 re f
88 64 16 -16 re f
120 64 64 -16 re f
168 128 16 -16 re f
56 128 96 -16 re f
24 128 16 -16 re f
0.937255 g
264 192 m 280 192 l 284.418 192 288 188.418 288 184 c 288 168 l 288 163.582
 284.418 160 280 160 c 264 160 l 259.582 160 256 163.582 256 168 c 256 184
 l 256 188.418 259.582 192 264 192 c h
264 192 m f
328 192 m 344 192 l 348.418 192 352 188.418 352 184 c 352 168 l 352 163.582
 348.418 160 344 160 c 328 160 l 323.582 160 320 163.582 320 168 c 320 184
 l 320 188.418 323.582 192 328 192 c h
328 192 m f
392 192 m 408 192 l 412.418 192 416 188.418 416 184 c 416 168 l 416 163.582
 412.418 160 408 160 c 392 160 l 387.582 160 384 163.582 384 168 c 384 184
 l 384 188.418 387.582 192 392 192 c h
392 192 m f
264 128 m 280 128 l 284.418 128 288 124.418 288 120 c 288 104 l 288 99.582
 284.418 96 280 96 c 264 96 l 259.582 96 256 99.582 256 104 c 256 120 l 
256 124.418 259.582 128 264 128 c h
264 128 m f
328 128 m 344 128 l 348.418 128 352 124.418 352 120 c 352 104 l 352 99.582
 348.418 96 344 96 c 328 96 l 323.582 96 320 99.582 320 104 c 320 120 l 
320 124.418 323.582 128 328 128 c h
328 128 m f
392 128 m 408 128 l 412.418 128 416 124.418 416 120 c 416 104 l 416 99.582
 412.418 96 408 96 c 392 96 l 387.582 96 384 99.582 384 104 c 384 120 l 
384 124.418 387.582 128 392 128 c h
392 128 m f
264 64 m 280 64 l 284.418 64 288 60.418 288 56 c 288 40 l 288 35.582 284.418
 32 280 32 c 264 32 l 259.582 32 256 35.582 256 40 c 256 56 l 256 60.418
 259.582 64 264 64 c h
264 64 m f
328 64 m 344 64 l 348.418 64 352 60.418 352 56 c 352 40 l 352 35.582 348.418
 32 344 32 c 328 32 l 323.582 32 320 35.582 320 40 c 320 56 l 320 60.418
 323.582 64 328 64 c h
328 64 m f
392 64 m 408 64 l 412.418 64 416 60.418 416 56 c 416 40 l 416 35.582 412.418
 32 408 32 c 392 32 l 387.582 32 384 35.582 384 40 c 384 56 l 384 60.418
 387.582 64 392 64 c h
392 64 m f
Q Q
showpage
%%Trailer
end restore
%%EOF
