%!PS-Adobe-3.0 EPSF-3.0
%%Creator: cairo 1.14.2 (http://cairographics.org)
%%CreationDate: Thu Jan 17 08:42:36 2019
%%Pages: 1
%%DocumentData: Clean7Bit
%%LanguageLevel: 2
%%BoundingBox: 0 20 464 444
%%EndComments
%%BeginProlog
save
50 dict begin
/q { gsave } bind def
/Q { grestore } bind def
/cm { 6 array astore concat } bind def
/w { setlinewidth } bind def
/J { setlinecap } bind def
/j { setlinejoin } bind def
/M { setmiterlimit } bind def
/d { setdash } bind def
/m { moveto } bind def
/l { lineto } bind def
/c { curveto } bind def
/h { closepath } bind def
/re { exch dup neg 3 1 roll 5 3 roll moveto 0 rlineto
      0 exch rlineto 0 rlineto closepath } bind def
/S { stroke } bind def
/f { fill } bind def
/f* { eofill } bind def
/n { newpath } bind def
/W { clip } bind def
/W* { eoclip } bind def
/BT { } bind def
/ET { } bind def
/pdfmark where { pop globaldict /?pdfmark /exec load put }
    { globaldict begin /?pdfmark /pop load def /pdfmark
    /cleartomark load def end } ifelse
/BDC { mark 3 1 roll /BDC pdfmark } bind def
/EMC { mark /EMC pdfmark } bind def
/cairo_store_point { /cairo_point_y exch def /cairo_point_x exch def } def
/Tj { show currentpoint cairo_store_point } bind def
/TJ {
  {
    dup
    type /stringtype eq
    { show } { -0.001 mul 0 cairo_font_matrix dtransform rmoveto } ifelse
  } forall
  currentpoint cairo_store_point
} bind def
/cairo_selectfont { cairo_font_matrix aload pop pop pop 0 0 6 array astore
    cairo_font exch selectfont cairo_point_x cairo_point_y moveto } bind def
/Tf { pop /cairo_font exch def /cairo_font_matrix where
      { pop cairo_selectfont } if } bind def
/Td { matrix translate cairo_font_matrix matrix concatmatrix dup
      /cairo_font_matrix exch def dup 4 get exch 5 get cairo_store_point
      /cairo_font where { pop cairo_selectfont } if } bind def
/Tm { 2 copy 8 2 roll 6 array astore /cairo_font_matrix exch def
      cairo_store_point /cairo_font where { pop cairo_selectfont } if } bind def
/g { setgray } bind def
/rg { setrgbcolor } bind def
/d1 { setcachedevice } bind def
%%EndProlog
%%BeginSetup
%%EndSetup
%%Page: 1 1
%%BeginPageSetup
%%PageBoundingBox: 0 20 464 444
%%EndPageSetup
q 0 20 464 424 rectclip q
0.839216 g
56 380 m 448 380 l 456.836 380 464 372.836 464 364 c 464 36 l 464 27.164
 456.836 20 448 20 c 56 20 l 47.164 20 40 27.164 40 36 c 40 364 l 40 372.836
 47.164 380 56 380 c h
56 380 m f
0.937255 g
16 412 m 408 412 l 416.836 412 424 404.836 424 396 c 424 76 l 424 67.164
 416.836 60 408 60 c 16 60 l 7.164 60 0 67.164 0 76 c 0 396 l 0 404.836 
7.164 412 16 412 c h
16 412 m f
0.639216 g
72 444 16 -56 re f
104 444 16 -56 re f
312 444 16 -56 re f
344 444 16 -56 re f
0.45098 0.788235 0.486275 rg
240 356 m 272 356 l 280.836 356 288 348.836 288 340 c 288 308 l 288 299.164
 280.836 292 272 292 c 240 292 l 231.164 292 224 299.164 224 308 c 224 340
 l 224 348.836 231.164 356 240 356 c h
240 356 m f
336 356 m 368 356 l 376.836 356 384 348.836 384 340 c 384 308 l 384 299.164
 376.836 292 368 292 c 336 292 l 327.164 292 320 299.164 320 308 c 320 340
 l 320 348.836 327.164 356 336 356 c h
336 356 m f
0.458824 0.756863 1 rg
240 260 m 272 260 l 280.836 260 288 252.836 288 244 c 288 212 l 288 203.164
 280.836 196 272 196 c 240 196 l 231.164 196 224 203.164 224 212 c 224 244
 l 224 252.836 231.164 260 240 260 c h
240 260 m f
0.45098 0.788235 0.486275 rg
336 260 m 368 260 l 376.836 260 384 252.836 384 244 c 384 212 l 384 203.164
 376.836 196 368 196 c 336 196 l 327.164 196 320 203.164 320 212 c 320 244
 l 320 252.836 327.164 260 336 260 c h
336 260 m f
240 164 m 272 164 l 280.836 164 288 156.836 288 148 c 288 116 l 288 107.164
 280.836 100 272 100 c 240 100 l 231.164 100 224 107.164 224 116 c 224 148
 l 224 156.836 231.164 164 240 164 c h
240 164 m f
336 164 m 368 164 l 376.836 164 384 156.836 384 148 c 384 116 l 384 107.164
 376.836 100 368 100 c 336 100 l 327.164 100 320 107.164 320 116 c 320 148
 l 320 156.836 327.164 164 336 164 c h
336 164 m f
1 0.815686 0.290196 rg
40 204 m 64 204 l 68.418 204 72 200.418 72 196 c 72 172 l 72 167.582 68.418
 164 64 164 c 40 164 l 35.582 164 32 167.582 32 172 c 32 196 l 32 200.418
 35.582 204 40 204 c h
40 204 m f
0.737255 g
96 204 16 -16 re f
128 204 56 -16 re f
96 172 16 -16 re f
128 172 56 -16 re f
168 108 16 -16 re f
56 108 96 -16 re f
168 140 16 -16 re f
56 140 96 -16 re f
1 0.403922 0.356863 rg
144 324 m 144 332 l 143.988 340.832 136.832 347.988 128 348 c 112 348 l
 112 364 l 96 364 l 96 348 l 80 348 l 71.168 347.988 64.012 340.832 64 332
 c 64 308 l 64.012 299.168 71.168 292.012 80 292 c 96 292 l 96 268 l 80 
268 l 80 276 l 64 276 l 64 268 l 64.012 259.168 71.168 252.012 80 252 c 
96 252 l 96 236 l 112 236 l 112 252 l 128 252 l 136.832 252.012 143.988 
259.168 144 268 c 144 292 l 143.988 300.832 136.832 307.988 128 308 c 112
 308 l 112 332 l 128 332 l 128 324 l h
128 292 m 128 268 l 112 268 l 112 292 l h
96 308 m 80 308 l 80 332 l 96 332 l h
96 308 m f
0.737255 g
48 340 m 32 340 l 32 348 l 32.016 361.25 42.75 371.984 56 372 c 64 372 
l 64 356 l 56 356 l 51.582 355.996 48.004 352.418 48 348 c h
48 340 m f
64 228 m 56 228 l 42.75 228.016 32.016 238.75 32 252 c 32 260 l 48 260 
l 48 252 l 48.004 247.582 51.582 244.004 56 244 c 64 244 l h
64 228 m f
152 228 m 144 228 l 144 244 l 152 244 l 156.418 244.004 159.996 247.582
 160 252 c 160 260 l 176 260 l 176 252 l 175.984 238.75 165.25 228.016 152
 228 c h
152 228 m f
176 340 m 160 340 l 160 348 l 159.996 352.418 156.418 355.996 152 356 c
 144 356 l 144 372 l 152 372 l 165.25 371.984 175.984 361.25 176 348 c h
176 340 m f
24 140 16 -16 re f
24 108 16 -16 re f
Q Q
showpage
%%Trailer
end restore
%%EOF
