%!PS-Adobe-3.0 EPSF-3.0
%%Creator: cairo 1.14.2 (http://cairographics.org)
%%CreationDate: Thu Jan 17 08:42:36 2019
%%Pages: 1
%%DocumentData: Clean7Bit
%%LanguageLevel: 2
%%BoundingBox: 51 0 420 471
%%EndComments
%%BeginProlog
save
50 dict begin
/q { gsave } bind def
/Q { grestore } bind def
/cm { 6 array astore concat } bind def
/w { setlinewidth } bind def
/J { setlinecap } bind def
/j { setlinejoin } bind def
/M { setmiterlimit } bind def
/d { setdash } bind def
/m { moveto } bind def
/l { lineto } bind def
/c { curveto } bind def
/h { closepath } bind def
/re { exch dup neg 3 1 roll 5 3 roll moveto 0 rlineto
      0 exch rlineto 0 rlineto closepath } bind def
/S { stroke } bind def
/f { fill } bind def
/f* { eofill } bind def
/n { newpath } bind def
/W { clip } bind def
/W* { eoclip } bind def
/BT { } bind def
/ET { } bind def
/pdfmark where { pop globaldict /?pdfmark /exec load put }
    { globaldict begin /?pdfmark /pop load def /pdfmark
    /cleartomark load def end } ifelse
/BDC { mark 3 1 roll /BDC pdfmark } bind def
/EMC { mark /EMC pdfmark } bind def
/cairo_store_point { /cairo_point_y exch def /cairo_point_x exch def } def
/Tj { show currentpoint cairo_store_point } bind def
/TJ {
  {
    dup
    type /stringtype eq
    { show } { -0.001 mul 0 cairo_font_matrix dtransform rmoveto } ifelse
  } forall
  currentpoint cairo_store_point
} bind def
/cairo_selectfont { cairo_font_matrix aload pop pop pop 0 0 6 array astore
    cairo_font exch selectfont cairo_point_x cairo_point_y moveto } bind def
/Tf { pop /cairo_font exch def /cairo_font_matrix where
      { pop cairo_selectfont } if } bind def
/Td { matrix translate cairo_font_matrix matrix concatmatrix dup
      /cairo_font_matrix exch def dup 4 get exch 5 get cairo_store_point
      /cairo_font where { pop cairo_selectfont } if } bind def
/Tm { 2 copy 8 2 roll 6 array astore /cairo_font_matrix exch def
      cairo_store_point /cairo_font where { pop cairo_selectfont } if } bind def
/g { setgray } bind def
/rg { setrgbcolor } bind def
/d1 { setcachedevice } bind def
%%EndProlog
%%BeginSetup
%%EndSetup
%%Page: 1 1
%%BeginPageSetup
%%PageBoundingBox: 51 0 420 471
%%EndPageSetup
q 51 0 369 471 rectclip q
0.639216 g
246.77 386.523 m 240.453 392.559 230.508 392.559 224.191 386.523 c 212.902
 397.812 l 225.535 409.883 245.426 409.883 258.059 397.812 c h
246.77 386.523 m f
269.352 409.109 m 250.633 427.793 220.328 427.793 201.609 409.109 c 190.32
 420.398 l 215.277 445.301 255.684 445.301 280.641 420.398 c h
269.352 409.109 m f
291.938 431.691 m 260.734 462.812 210.227 462.812 179.023 431.691 c 167.734
 442.98 l 205.172 480.34 265.789 480.34 303.227 442.98 c h
291.938 431.691 m f
0.45098 0.788235 0.486275 rg
67.824 39.918 m 403.137 39.918 l 411.957 39.918 419.105 32.77 419.105 23.949
 c 419.105 7.984 l 419.105 3.574 415.531 0 411.121 0 c 59.84 0 l 55.43 0
 51.855 3.574 51.855 7.984 c 51.855 23.949 l 51.855 32.77 59.004 39.918 
67.824 39.918 c h
67.824 39.918 m f
0.392157 0.686275 0.423529 rg
311.793 87.82 m 159.168 87.82 l 152.293 87.82 146.195 83.422 144.02 76.902
 c 131.691 39.918 l 339.27 39.918 l 326.941 76.902 l 324.766 83.422 318.668
 87.82 311.793 87.82 c h
311.793 87.82 m f
0.333333 0.588235 0.360784 rg
211.531 143.707 47.902 -55.887 re f
0.45098 0.788235 0.486275 rg
347.254 247.496 m 347.254 185.766 297.211 135.723 235.48 135.723 c 173.75
 135.723 123.707 185.766 123.707 247.496 c 123.707 309.223 173.75 359.266
 235.48 359.266 c 297.211 359.266 347.254 309.223 347.254 247.496 c h
347.254 247.496 m f
0.392157 0.686275 0.423529 rg
123.707 247.496 m 347.254 247.496 l 347.254 185.766 297.211 135.723 235.48
 135.723 c 173.75 135.723 123.707 185.766 123.707 247.496 c h
123.707 247.496 m f
0.458824 0.756863 1 rg
299.352 247.496 m 299.352 212.219 270.758 183.625 235.48 183.625 c 200.203
 183.625 171.609 212.219 171.609 247.496 c 171.609 282.77 200.203 311.363
 235.48 311.363 c 270.758 311.363 299.352 282.77 299.352 247.496 c h
299.352 247.496 m f
Q Q
showpage
%%Trailer
end restore
%%EOF
