%!PS-Adobe-3.0 EPSF-3.0
%%Creator: cairo 1.14.2 (http://cairographics.org)
%%CreationDate: Thu Jan 17 08:42:36 2019
%%Pages: 1
%%DocumentData: Clean7Bit
%%LanguageLevel: 2
%%BoundingBox: 0 4 472 468
%%EndComments
%%BeginProlog
save
50 dict begin
/q { gsave } bind def
/Q { grestore } bind def
/cm { 6 array astore concat } bind def
/w { setlinewidth } bind def
/J { setlinecap } bind def
/j { setlinejoin } bind def
/M { setmiterlimit } bind def
/d { setdash } bind def
/m { moveto } bind def
/l { lineto } bind def
/c { curveto } bind def
/h { closepath } bind def
/re { exch dup neg 3 1 roll 5 3 roll moveto 0 rlineto
      0 exch rlineto 0 rlineto closepath } bind def
/S { stroke } bind def
/f { fill } bind def
/f* { eofill } bind def
/n { newpath } bind def
/W { clip } bind def
/W* { eoclip } bind def
/BT { } bind def
/ET { } bind def
/pdfmark where { pop globaldict /?pdfmark /exec load put }
    { globaldict begin /?pdfmark /pop load def /pdfmark
    /cleartomark load def end } ifelse
/BDC { mark 3 1 roll /BDC pdfmark } bind def
/EMC { mark /EMC pdfmark } bind def
/cairo_store_point { /cairo_point_y exch def /cairo_point_x exch def } def
/Tj { show currentpoint cairo_store_point } bind def
/TJ {
  {
    dup
    type /stringtype eq
    { show } { -0.001 mul 0 cairo_font_matrix dtransform rmoveto } ifelse
  } forall
  currentpoint cairo_store_point
} bind def
/cairo_selectfont { cairo_font_matrix aload pop pop pop 0 0 6 array astore
    cairo_font exch selectfont cairo_point_x cairo_point_y moveto } bind def
/Tf { pop /cairo_font exch def /cairo_font_matrix where
      { pop cairo_selectfont } if } bind def
/Td { matrix translate cairo_font_matrix matrix concatmatrix dup
      /cairo_font_matrix exch def dup 4 get exch 5 get cairo_store_point
      /cairo_font where { pop cairo_selectfont } if } bind def
/Tm { 2 copy 8 2 roll 6 array astore /cairo_font_matrix exch def
      cairo_store_point /cairo_font where { pop cairo_selectfont } if } bind def
/g { setgray } bind def
/rg { setrgbcolor } bind def
/d1 { setcachedevice } bind def
%%EndProlog
%%BeginSetup
%%EndSetup
%%Page: 1 1
%%BeginPageSetup
%%PageBoundingBox: 0 4 472 468
%%EndPageSetup
q 0 4 472 464 rectclip q
0.886275 g
120 468 m 456 468 l 464.836 468 472 460.836 472 452 c 472 276 l 472 267.164
 464.836 260 456 260 c 120 260 l 111.164 260 104 267.164 104 276 c 104 452
 l 104 460.836 111.164 468 120 468 c h
120 468 m f
0.423529 0.737255 0.454902 rg
104 396 m 143.766 396 176 428.234 176 468 c 120 468 l 111.164 468 104 460.836
 104 452 c h
104 396 m f
400 468 m 400 428.234 432.234 396 472 396 c 472 452 l 472 460.836 464.836
 468 456 468 c h
400 468 m f
472 332 m 432.234 332 400 299.766 400 260 c 456 260 l 464.836 260 472 267.164
 472 276 c h
472 332 m f
0.439216 g
0 172 72 -168 re f
0.937255 g
72 172 m 104 172 l 112.836 172 120 164.836 120 156 c 120 20 l 120 11.164
 112.836 4 104 4 c 72 4 l h
72 172 m f
1 0.74902 0.458824 rg
415.734 140.266 m 406.855 149.145 392.641 149.691 383.105 141.52 c 312 
84 l 280 84 l 293.254 84 304 94.746 304 108 c 304 121.254 293.254 132 280
 132 c 120 132 l 120 28 l 314.281 28 l 317.98 28 321.562 29.281 324.422 
31.625 c 416.453 107.043 l 425.148 116.523 424.828 131.172 415.734 140.266
 c h
415.734 140.266 m f
0.937255 g
72 420 m 408 420 l 416.836 420 424 412.836 424 404 c 424 228 l 424 219.164
 416.836 212 408 212 c 72 212 l 63.164 212 56 219.164 56 228 c 56 404 l 
56 412.836 63.164 420 72 420 c h
72 420 m f
0.45098 0.788235 0.486275 rg
296 316 m 296 285.07 270.93 260 240 260 c 209.07 260 184 285.07 184 316
 c 184 346.93 209.07 372 240 372 c 270.93 372 296 346.93 296 316 c h
296 316 m f
56 348 m 95.766 348 128 380.234 128 420 c 72 420 l 63.164 420 56 412.836
 56 404 c h
56 348 m f
56 284 m 56 228 l 56 219.164 63.164 212 72 212 c 128 212 l 128 251.766 
95.766 284 56 284 c h
56 284 m f
352 420 m 352 380.234 384.234 348 424 348 c 424 404 l 424 412.836 416.836
 420 408 420 c h
352 420 m f
424 284 m 384.234 284 352 251.766 352 212 c 408 212 l 416.836 212 424 219.164
 424 228 c h
424 284 m f
Q Q
showpage
%%Trailer
end restore
%%EOF
