%!PS-Adobe-3.0 EPSF-3.0
%%Creator: cairo 1.14.2 (http://cairographics.org)
%%CreationDate: Thu Jan 17 08:42:36 2019
%%Pages: 1
%%DocumentData: Clean7Bit
%%LanguageLevel: 2
%%BoundingBox: 0 8 480 472
%%EndComments
%%BeginProlog
save
50 dict begin
/q { gsave } bind def
/Q { grestore } bind def
/cm { 6 array astore concat } bind def
/w { setlinewidth } bind def
/J { setlinecap } bind def
/j { setlinejoin } bind def
/M { setmiterlimit } bind def
/d { setdash } bind def
/m { moveto } bind def
/l { lineto } bind def
/c { curveto } bind def
/h { closepath } bind def
/re { exch dup neg 3 1 roll 5 3 roll moveto 0 rlineto
      0 exch rlineto 0 rlineto closepath } bind def
/S { stroke } bind def
/f { fill } bind def
/f* { eofill } bind def
/n { newpath } bind def
/W { clip } bind def
/W* { eoclip } bind def
/BT { } bind def
/ET { } bind def
/pdfmark where { pop globaldict /?pdfmark /exec load put }
    { globaldict begin /?pdfmark /pop load def /pdfmark
    /cleartomark load def end } ifelse
/BDC { mark 3 1 roll /BDC pdfmark } bind def
/EMC { mark /EMC pdfmark } bind def
/cairo_store_point { /cairo_point_y exch def /cairo_point_x exch def } def
/Tj { show currentpoint cairo_store_point } bind def
/TJ {
  {
    dup
    type /stringtype eq
    { show } { -0.001 mul 0 cairo_font_matrix dtransform rmoveto } ifelse
  } forall
  currentpoint cairo_store_point
} bind def
/cairo_selectfont { cairo_font_matrix aload pop pop pop 0 0 6 array astore
    cairo_font exch selectfont cairo_point_x cairo_point_y moveto } bind def
/Tf { pop /cairo_font exch def /cairo_font_matrix where
      { pop cairo_selectfont } if } bind def
/Td { matrix translate cairo_font_matrix matrix concatmatrix dup
      /cairo_font_matrix exch def dup 4 get exch 5 get cairo_store_point
      /cairo_font where { pop cairo_selectfont } if } bind def
/Tm { 2 copy 8 2 roll 6 array astore /cairo_font_matrix exch def
      cairo_store_point /cairo_font where { pop cairo_selectfont } if } bind def
/g { setgray } bind def
/rg { setrgbcolor } bind def
/d1 { setcachedevice } bind def
%%EndProlog
%%BeginSetup
%%EndSetup
%%Page: 1 1
%%BeginPageSetup
%%PageBoundingBox: 0 8 480 472
%%EndPageSetup
q 0 8 480 464 rectclip q
1 0.815686 0.290196 rg
144 472 m 336 472 l 340.418 472 344 468.418 344 464 c 344 448 l 344 443.582
 340.418 440 336 440 c 144 440 l 139.582 440 136 443.582 136 448 c 136 464
 l 136 468.418 139.582 472 144 472 c h
144 472 m f
0.901961 0.733333 0.262745 rg
152 440 m 328 440 l 328 336 l 328 309.492 306.508 288 280 288 c 200 288
 l 173.492 288 152 309.492 152 336 c h
152 440 m f
0.8 0.65098 0.231373 rg
152 344 m 121.039 344 l 98.383 344.023 80.023 362.383 80 385.039 c 80 400
 l 80.016 413.25 90.75 423.984 104 424 c 152 424 l 152 408 l 104 408 l 99.582
 407.996 96.004 404.418 96 400 c 96 385.039 l 96.016 371.219 107.219 360.016
 121.039 360 c 152 360 l h
152 344 m f
358.961 344 m 328 344 l 328 360 l 358.961 360 l 372.781 360.016 383.984
 371.219 384 385.039 c 384 400 l 383.996 404.418 380.418 407.996 376 408
 c 328 408 l 328 424 l 376 424 l 389.25 423.984 399.984 413.25 400 400 c
 400 385.039 l 399.977 362.383 381.617 344.023 358.961 344 c h
358.961 344 m f
224 288 32 -72 re f
0.701961 0.52549 0.321569 rg
352 48 m 128 48 l 128 200 l 128 208.836 135.164 216 144 216 c 336 216 l
 344.836 216 352 208.836 352 200 c h
352 48 m f
0.6 0.45098 0.27451 rg
120 48 m 360 48 l 373.254 48 384 37.254 384 24 c 384 16 l 384 11.582 380.418
 8 376 8 c 104 8 l 99.582 8 96 11.582 96 16 c 96 24 l 96 37.254 106.746 
48 120 48 c h
120 48 m f
1 0.815686 0.290196 rg
312 48 m 168 48 l 168 168 l 168 176.836 175.164 184 184 184 c 296 184 l
 304.836 184 312 176.836 312 168 c h
312 48 m f
0.364706 0.603922 0.8 rg
155.766 126.77 m 219.75 166.793 l 228.234 153.23 l 164.25 113.207 l h
155.766 126.77 m f
251.762 153.219 m 260.238 166.781 l 324.238 126.781 l 315.762 113.219 l
 h
251.762 153.219 m f
232 184 m 248 184 l 252.418 184 256 180.418 256 176 c 256 160 l 256 155.582
 252.418 152 248 152 c 232 152 l 227.582 152 224 155.582 224 160 c 224 176
 l 224 180.418 227.582 184 232 184 c h
232 184 m f
0.458824 0.756863 1 rg
248 144 m 232 144 l 223.168 144.012 216.012 151.168 216 160 c 216 176 l
 216.012 184.832 223.168 191.988 232 192 c 248 192 l 256.832 191.988 263.988
 184.832 264 176 c 264 160 l 263.988 151.168 256.832 144.012 248 144 c h
232 176 m 232 160 l 248 160 l 248 176 l h
232 176 m f
0.364706 0.603922 0.8 rg
347.766 126.77 m 411.75 166.793 l 420.234 153.23 l 356.25 113.207 l h
347.766 126.77 m f
328 128 m 344 128 l 348.418 128 352 124.418 352 120 c 352 104 l 352 99.582
 348.418 96 344 96 c 328 96 l 323.582 96 320 99.582 320 104 c 320 120 l 
320 124.418 323.582 128 328 128 c h
328 128 m f
0.458824 0.756863 1 rg
344 88 m 328 88 l 319.168 88.012 312.012 95.168 312 104 c 312 120 l 312.012
 128.832 319.168 135.988 328 136 c 344 136 l 352.832 135.988 359.988 128.832
 360 120 c 360 104 l 359.988 95.168 352.832 88.012 344 88 c h
328 120 m 328 104 l 344 104 l 344 120 l h
328 120 m f
0.364706 0.603922 0.8 rg
59.762 153.219 m 68.238 166.781 l 132.238 126.781 l 123.762 113.219 l h
59.762 153.219 m f
0 176 32 -16 re f
136 128 m 152 128 l 156.418 128 160 124.418 160 120 c 160 104 l 160 99.582
 156.418 96 152 96 c 136 96 l 131.582 96 128 99.582 128 104 c 128 120 l 
128 124.418 131.582 128 136 128 c h
136 128 m f
0.458824 0.756863 1 rg
152 88 m 136 88 l 127.168 88.012 120.012 95.168 120 104 c 120 120 l 120.012
 128.832 127.168 135.988 136 136 c 152 136 l 160.832 135.988 167.988 128.832
 168 120 c 168 104 l 167.988 95.168 160.832 88.012 152 88 c h
136 120 m 136 104 l 152 104 l 152 120 l h
136 120 m f
0.364706 0.603922 0.8 rg
448 176 32 -16 re f
424 184 m 440 184 l 444.418 184 448 180.418 448 176 c 448 160 l 448 155.582
 444.418 152 440 152 c 424 152 l 419.582 152 416 155.582 416 160 c 416 176
 l 416 180.418 419.582 184 424 184 c h
424 184 m f
0.458824 0.756863 1 rg
440 144 m 424 144 l 415.168 144.012 408.012 151.168 408 160 c 408 176 l
 408.012 184.832 415.168 191.988 424 192 c 440 192 l 448.832 191.988 455.988
 184.832 456 176 c 456 160 l 455.988 151.168 448.832 144.012 440 144 c h
424 176 m 424 160 l 440 160 l 440 176 l h
424 176 m f
0.364706 0.603922 0.8 rg
40 184 m 56 184 l 60.418 184 64 180.418 64 176 c 64 160 l 64 155.582 60.418
 152 56 152 c 40 152 l 35.582 152 32 155.582 32 160 c 32 176 l 32 180.418
 35.582 184 40 184 c h
40 184 m f
0.458824 0.756863 1 rg
56 144 m 40 144 l 31.168 144.012 24.012 151.168 24 160 c 24 176 l 24.012
 184.832 31.168 191.988 40 192 c 56 192 l 64.832 191.988 71.988 184.832 
72 176 c 72 160 l 71.988 151.168 64.832 144.012 56 144 c h
40 176 m 40 160 l 56 160 l 56 176 l h
40 176 m f
Q Q
showpage
%%Trailer
end restore
%%EOF
