%!PS-Adobe-3.0 EPSF-3.0
%%Creator: cairo 1.14.2 (http://cairographics.org)
%%CreationDate: Thu Jan 17 08:42:36 2019
%%Pages: 1
%%DocumentData: Clean7Bit
%%LanguageLevel: 2
%%BoundingBox: 4 0 468 472
%%EndComments
%%BeginProlog
save
50 dict begin
/q { gsave } bind def
/Q { grestore } bind def
/cm { 6 array astore concat } bind def
/w { setlinewidth } bind def
/J { setlinecap } bind def
/j { setlinejoin } bind def
/M { setmiterlimit } bind def
/d { setdash } bind def
/m { moveto } bind def
/l { lineto } bind def
/c { curveto } bind def
/h { closepath } bind def
/re { exch dup neg 3 1 roll 5 3 roll moveto 0 rlineto
      0 exch rlineto 0 rlineto closepath } bind def
/S { stroke } bind def
/f { fill } bind def
/f* { eofill } bind def
/n { newpath } bind def
/W { clip } bind def
/W* { eoclip } bind def
/BT { } bind def
/ET { } bind def
/pdfmark where { pop globaldict /?pdfmark /exec load put }
    { globaldict begin /?pdfmark /pop load def /pdfmark
    /cleartomark load def end } ifelse
/BDC { mark 3 1 roll /BDC pdfmark } bind def
/EMC { mark /EMC pdfmark } bind def
/cairo_store_point { /cairo_point_y exch def /cairo_point_x exch def } def
/Tj { show currentpoint cairo_store_point } bind def
/TJ {
  {
    dup
    type /stringtype eq
    { show } { -0.001 mul 0 cairo_font_matrix dtransform rmoveto } ifelse
  } forall
  currentpoint cairo_store_point
} bind def
/cairo_selectfont { cairo_font_matrix aload pop pop pop 0 0 6 array astore
    cairo_font exch selectfont cairo_point_x cairo_point_y moveto } bind def
/Tf { pop /cairo_font exch def /cairo_font_matrix where
      { pop cairo_selectfont } if } bind def
/Td { matrix translate cairo_font_matrix matrix concatmatrix dup
      /cairo_font_matrix exch def dup 4 get exch 5 get cairo_store_point
      /cairo_font where { pop cairo_selectfont } if } bind def
/Tm { 2 copy 8 2 roll 6 array astore /cairo_font_matrix exch def
      cairo_store_point /cairo_font where { pop cairo_selectfont } if } bind def
/g { setgray } bind def
/rg { setrgbcolor } bind def
/d1 { setcachedevice } bind def
%%EndProlog
%%BeginSetup
%%EndSetup
%%Page: 1 1
%%BeginPageSetup
%%PageBoundingBox: 4 0 468 472
%%EndPageSetup
q 4 0 464 472 rectclip q
0.937255 g
452 472 m 170.629 472 l 166.383 472 162.312 470.312 159.312 467.312 c 8.688
 316.688 l 5.688 313.688 4 309.617 4 305.371 c 4 0 l 468 0 l 468 456 l 468
 464.836 460.836 472 452 472 c h
452 472 m f
0.839216 g
148 312 m 156.836 312 164 319.164 164 328 c 164 470.512 l 162.258 469.734
 160.672 468.652 159.312 467.312 c 8.688 316.688 l 7.348 315.328 6.266 313.742
 5.488 312 c h
148 312 m f
0.458824 0.756863 1 rg
204 440 m 220 440 l 224.418 440 228 436.418 228 432 c 228 416 l 228 411.582
 224.418 408 220 408 c 204 408 l 199.582 408 196 411.582 196 416 c 196 432
 l 196 436.418 199.582 440 204 440 c h
204 440 m f
1 0.403922 0.356863 rg
44 280 m 60 280 l 64.418 280 68 276.418 68 272 c 68 256 l 68 251.582 64.418
 248 60 248 c 44 248 l 39.582 248 36 251.582 36 256 c 36 272 l 36 276.418
 39.582 280 44 280 c h
44 280 m f
0.737255 g
188 384 16 -16 re f
220 384 56 -16 re f
188 352 16 -16 re f
220 352 56 -16 re f
92 288 16 -16 re f
188 288 16 -16 re f
124 288 48 -16 re f
28 224 16 -16 re f
124 224 16 -16 re f
60 224 48 -16 re f
92 256 16 -16 re f
124 256 24 -16 re f
60 192 16 -16 re f
28 192 16 -16 re f
188 320 16 -16 re f
220 320 56 -16 re f
252 416 24 -16 re f
252 448 24 -16 re f
1 0.403922 0.356863 rg
196 216 m 196 56 l 196 51.582 192.418 48 188 48 c 172 48 l 167.582 48 164
 51.582 164 56 c 164 216 l 164 220.418 167.582 224 172 224 c 188 224 l 192.418
 224 196 220.418 196 216 c h
196 216 m f
0.737255 g
172 24 16 -16 re f
0.901961 0.67451 0.411765 rg
260 264 m 260 56 l 260 51.582 256.418 48 252 48 c 236 48 l 231.582 48 228
 51.582 228 56 c 228 264 l 228 268.418 231.582 272 236 272 c 252 272 l 256.418
 272 260 268.418 260 264 c h
260 264 m f
0.737255 g
236 24 16 -16 re f
0.45098 0.788235 0.486275 rg
132 168 m 132 56 l 132 51.582 128.418 48 124 48 c 108 48 l 103.582 48 100
 51.582 100 56 c 100 168 l 100 172.418 103.582 176 108 176 c 124 176 l 128.418
 176 132 172.418 132 168 c h
132 168 m f
0.737255 g
108 24 16 -16 re f
1 0.815686 0.290196 rg
68 120 m 68 56 l 68 51.582 64.418 48 60 48 c 44 48 l 39.582 48 36 51.582
 36 56 c 36 120 l 36 124.418 39.582 128 44 128 c 60 128 l 64.418 128 68 
124.418 68 120 c h
68 120 m f
0.737255 g
44 24 16 -16 re f
0.45098 0.788235 0.486275 rg
412 368 m 411.988 376.832 404.832 383.988 396 384 c 380 384 l 380 408 l
 396 408 l 396 400 l 412 400 l 412 408 l 411.988 416.832 404.832 423.988
 396 424 c 380 424 l 380 440 l 364 440 l 364 424 l 348 424 l 339.168 423.988
 332.012 416.832 332 408 c 332 384 l 332.012 375.168 339.168 368.012 348
 368 c 364 368 l 364 344 l 348 344 l 348 352 l 332 352 l 332 344 l 332.012
 335.168 339.168 328.012 348 328 c 364 328 l 364 312 l 380 312 l 380 328
 l 396 328 l 404.832 328.012 411.988 335.168 412 344 c h
348 384 m 348 408 l 364 408 l 364 384 l h
396 344 m 380 344 l 380 368 l 396 368 l h
396 344 m f
0.737255 g
316 424 m 316.004 428.418 319.582 431.996 324 432 c 332 432 l 332 448 l
 324 448 l 310.75 447.984 300.016 437.25 300 424 c 300 408 l 316 408 l h
316 424 m f
316 328 m 316 336 l 300 336 l 300 328 l 300.016 314.75 310.75 304.016 324
 304 c 332 304 l 332 320 l 324 320 l 319.582 320.004 316.004 323.582 316
 328 c h
316 328 m f
428 328 m 427.996 323.582 424.418 320.004 420 320 c 412 320 l 412 304 l
 420 304 l 433.25 304.016 443.984 314.75 444 328 c 444 336 l 428 336 l h
428 328 m f
420 448 m 412 448 l 412 432 l 420 432 l 424.418 431.996 427.996 428.418
 428 424 c 428 416 l 444 416 l 444 424 l 443.984 437.25 433.25 447.984 420
 448 c h
420 448 m f
0.6 0.45098 0.27451 rg
316 48 m 444 48 l 457.254 48 468 37.254 468 24 c 468 16 l 468 11.582 464.418
 8 460 8 c 300 8 l 295.582 8 292 11.582 292 16 c 292 24 l 292 37.254 302.746
 48 316 48 c h
316 48 m f
0.701961 0.52549 0.321569 rg
332 144 m 428 144 l 436.836 144 444 136.836 444 128 c 444 48 l 316 48 l
 316 128 l 316 136.836 323.164 144 332 144 c h
332 144 m f
0.8 0.65098 0.231373 rg
372 184 16 -40 re f
1 0.815686 0.290196 rg
324 280 m 436 280 l 440.418 280 444 276.418 444 272 c 444 240 l 444 204.652
 415.348 176 380 176 c 344.652 176 316 204.652 316 240 c 316 272 l 316 276.418
 319.582 280 324 280 c h
324 280 m f
0.901961 0.733333 0.262745 rg
292 256 24 -16 re f
444 256 24 -16 re f
1 0.815686 0.290196 rg
364 112 m 396 112 l 404.836 112 412 104.836 412 96 c 412 48 l 348 48 l 
348 96 l 348 104.836 355.164 112 364 112 c h
364 112 m f
Q Q
showpage
%%Trailer
end restore
%%EOF
