%!PS-Adobe-3.0 EPSF-3.0
%%Creator: cairo 1.14.2 (http://cairographics.org)
%%CreationDate: Thu Jan 17 08:42:36 2019
%%Pages: 1
%%DocumentData: Clean7Bit
%%LanguageLevel: 2
%%BoundingBox: 3 0 468 471
%%EndComments
%%BeginProlog
save
50 dict begin
/q { gsave } bind def
/Q { grestore } bind def
/cm { 6 array astore concat } bind def
/w { setlinewidth } bind def
/J { setlinecap } bind def
/j { setlinejoin } bind def
/M { setmiterlimit } bind def
/d { setdash } bind def
/m { moveto } bind def
/l { lineto } bind def
/c { curveto } bind def
/h { closepath } bind def
/re { exch dup neg 3 1 roll 5 3 roll moveto 0 rlineto
      0 exch rlineto 0 rlineto closepath } bind def
/S { stroke } bind def
/f { fill } bind def
/f* { eofill } bind def
/n { newpath } bind def
/W { clip } bind def
/W* { eoclip } bind def
/BT { } bind def
/ET { } bind def
/pdfmark where { pop globaldict /?pdfmark /exec load put }
    { globaldict begin /?pdfmark /pop load def /pdfmark
    /cleartomark load def end } ifelse
/BDC { mark 3 1 roll /BDC pdfmark } bind def
/EMC { mark /EMC pdfmark } bind def
/cairo_store_point { /cairo_point_y exch def /cairo_point_x exch def } def
/Tj { show currentpoint cairo_store_point } bind def
/TJ {
  {
    dup
    type /stringtype eq
    { show } { -0.001 mul 0 cairo_font_matrix dtransform rmoveto } ifelse
  } forall
  currentpoint cairo_store_point
} bind def
/cairo_selectfont { cairo_font_matrix aload pop pop pop 0 0 6 array astore
    cairo_font exch selectfont cairo_point_x cairo_point_y moveto } bind def
/Tf { pop /cairo_font exch def /cairo_font_matrix where
      { pop cairo_selectfont } if } bind def
/Td { matrix translate cairo_font_matrix matrix concatmatrix dup
      /cairo_font_matrix exch def dup 4 get exch 5 get cairo_store_point
      /cairo_font where { pop cairo_selectfont } if } bind def
/Tm { 2 copy 8 2 roll 6 array astore /cairo_font_matrix exch def
      cairo_store_point /cairo_font where { pop cairo_selectfont } if } bind def
/g { setgray } bind def
/rg { setrgbcolor } bind def
/d1 { setcachedevice } bind def
%%EndProlog
%%BeginSetup
%%EndSetup
%%Page: 1 1
%%BeginPageSetup
%%PageBoundingBox: 3 0 468 471
%%EndPageSetup
q 3 0 465 471 rectclip q
0.937255 g
467.008 0 m 467.008 287.547 l 467.008 296.367 459.855 303.52 451.031 303.52
 c 106.211 303.52 l 101.969 303.52 97.906 301.84 94.91 298.844 c 8.422 212.352
 l 5.43 209.355 3.742 205.293 3.742 201.059 c 3.742 0 l h
467.008 0 m f
0.839216 g
83.617 207.672 m 92.438 207.672 99.59 214.824 99.59 223.648 c 99.59 302.035
 l 97.852 301.258 96.27 300.176 94.91 298.844 c 8.422 212.352 l 7.086 210.996
 6.004 209.41 5.23 207.672 c h
83.617 207.672 m f
0.45098 0.788235 0.486275 rg
419.082 103.836 m 387.133 103.836 l 378.312 103.836 371.16 110.988 371.16
 119.812 c 371.16 151.762 l 371.16 160.582 378.312 167.734 387.133 167.734
 c 419.082 167.734 l 427.906 167.734 435.059 160.582 435.059 151.762 c 435.059
 119.812 l 435.059 110.988 427.906 103.836 419.082 103.836 c h
419.082 103.836 m f
0.458824 0.756863 1 rg
251.352 23.965 m 235.375 23.965 l 226.555 23.965 219.402 31.117 219.402
 39.938 c 219.402 55.914 l 219.402 64.734 226.555 71.887 235.375 71.887 
c 251.352 71.887 l 260.172 71.887 267.324 64.734 267.324 55.914 c 267.324
 39.938 l 267.324 31.117 260.172 23.965 251.352 23.965 c h
251.352 23.965 m f
0.737255 g
43.68 151.762 m 43.684 156.172 47.258 159.746 51.668 159.75 c 67.641 159.75
 l 67.641 175.723 l 51.668 175.723 l 38.438 175.711 27.719 164.988 27.703
 151.762 c 27.703 135.785 l 43.68 135.785 l h
43.68 151.762 m f
43.68 39.938 m 43.68 55.914 l 27.703 55.914 l 27.703 39.938 l 27.719 26.715
 38.438 15.992 51.668 15.977 c 67.641 15.977 l 67.641 31.949 l 51.668 31.949
 l 47.258 31.953 43.684 35.527 43.68 39.938 c h
43.68 39.938 m f
171.477 39.938 m 171.473 35.527 167.898 31.953 163.488 31.949 c 147.516
 31.949 l 147.516 15.977 l 163.488 15.977 l 176.719 15.992 187.438 26.715
 187.453 39.938 c 187.453 55.914 l 171.477 55.914 l h
171.477 39.938 m f
163.488 175.723 m 147.516 175.723 l 147.516 159.75 l 163.488 159.75 l 167.898
 159.746 171.473 156.172 171.477 151.762 c 171.477 135.785 l 187.453 135.785
 l 187.453 151.762 l 187.438 164.988 176.719 175.711 163.488 175.723 c h
163.488 175.723 m f
1 0.403922 0.356863 rg
147.516 87.863 m 147.504 96.68 140.359 103.824 131.539 103.836 c 115.566
 103.836 l 115.566 127.801 l 131.539 127.801 l 131.539 119.812 l 147.516
 119.812 l 147.516 127.801 l 147.504 136.617 140.359 143.762 131.539 143.773
 c 115.566 143.773 l 115.566 159.75 l 99.59 159.75 l 99.59 143.773 l 83.617
 143.773 l 74.797 143.762 67.652 136.617 67.641 127.801 c 67.641 103.836
 l 67.652 95.02 74.797 87.875 83.617 87.863 c 99.59 87.863 l 99.59 63.898
 l 83.617 63.898 l 83.617 71.887 l 67.641 71.887 l 67.641 63.898 l 67.652
 55.082 74.797 47.938 83.617 47.926 c 99.59 47.926 l 99.59 31.949 l 115.566
 31.949 l 115.566 47.926 l 131.539 47.926 l 140.359 47.938 147.504 55.082
 147.516 63.898 c h
83.617 103.836 m 83.617 127.801 l 99.59 127.801 l 99.59 103.836 l h
131.539 63.898 m 115.566 63.898 l 115.566 87.863 l 131.539 87.863 l h
131.539 63.898 m f
0.737255 g
331.223 175.723 15.977 -15.973 re f
243.363 175.723 71.887 -15.973 re f
211.414 175.723 15.973 -15.973 re f
331.223 143.773 15.977 -15.973 re f
243.363 143.773 71.887 -15.973 re f
211.414 143.773 15.973 -15.973 re f
331.223 111.824 15.977 -15.973 re f
243.363 111.824 71.887 -15.973 re f
211.414 111.824 15.973 -15.973 re f
427.07 71.887 15.977 -15.973 re f
323.234 71.887 87.863 -15.973 re f
291.285 71.887 15.977 -15.973 re f
427.07 39.938 15.977 -15.973 re f
323.234 39.938 87.863 -15.973 re f
291.285 39.938 15.977 -15.973 re f
1 0.815686 0.290196 rg
402.848 335.215 m 398.434 266.914 340.992 214.211 272.562 215.688 c 204.137
 217.156 149.012 272.281 147.543 340.707 c 146.066 409.137 198.766 466.578
 267.066 470.992 c 269.234 471.086 271.348 470.281 272.906 468.773 c 274.465
 467.266 275.336 465.176 275.312 463.008 c 275.312 351.445 l 275.312 347.031
 278.887 343.457 283.301 343.457 c 394.859 343.457 l 397.031 343.48 399.113
 342.609 400.625 341.055 c 402.137 339.492 402.941 337.383 402.848 335.215
 c h
402.848 335.215 m f
1 0.403922 0.356863 rg
402.711 384.215 m 398.461 430.191 362.047 466.605 316.066 470.855 c 313.816
 471.066 311.578 470.316 309.906 468.797 c 308.227 467.277 307.27 465.121
 307.262 462.859 c 307.262 383.395 l 307.262 378.98 310.836 375.406 315.25
 375.406 c 394.715 375.406 l 396.977 375.418 399.129 376.371 400.652 378.051
 c 402.172 379.723 402.918 381.961 402.711 384.215 c h
402.711 384.215 m f
Q Q
showpage
%%Trailer
end restore
%%EOF
