%!PS-Adobe-3.0 EPSF-3.0
%%Creator: cairo 1.14.2 (http://cairographics.org)
%%CreationDate: Thu Jan 17 08:42:36 2019
%%Pages: 1
%%DocumentData: Clean7Bit
%%LanguageLevel: 2
%%BoundingBox: 0 28 480 452
%%EndComments
%%BeginProlog
save
50 dict begin
/q { gsave } bind def
/Q { grestore } bind def
/cm { 6 array astore concat } bind def
/w { setlinewidth } bind def
/J { setlinecap } bind def
/j { setlinejoin } bind def
/M { setmiterlimit } bind def
/d { setdash } bind def
/m { moveto } bind def
/l { lineto } bind def
/c { curveto } bind def
/h { closepath } bind def
/re { exch dup neg 3 1 roll 5 3 roll moveto 0 rlineto
      0 exch rlineto 0 rlineto closepath } bind def
/S { stroke } bind def
/f { fill } bind def
/f* { eofill } bind def
/n { newpath } bind def
/W { clip } bind def
/W* { eoclip } bind def
/BT { } bind def
/ET { } bind def
/pdfmark where { pop globaldict /?pdfmark /exec load put }
    { globaldict begin /?pdfmark /pop load def /pdfmark
    /cleartomark load def end } ifelse
/BDC { mark 3 1 roll /BDC pdfmark } bind def
/EMC { mark /EMC pdfmark } bind def
/cairo_store_point { /cairo_point_y exch def /cairo_point_x exch def } def
/Tj { show currentpoint cairo_store_point } bind def
/TJ {
  {
    dup
    type /stringtype eq
    { show } { -0.001 mul 0 cairo_font_matrix dtransform rmoveto } ifelse
  } forall
  currentpoint cairo_store_point
} bind def
/cairo_selectfont { cairo_font_matrix aload pop pop pop 0 0 6 array astore
    cairo_font exch selectfont cairo_point_x cairo_point_y moveto } bind def
/Tf { pop /cairo_font exch def /cairo_font_matrix where
      { pop cairo_selectfont } if } bind def
/Td { matrix translate cairo_font_matrix matrix concatmatrix dup
      /cairo_font_matrix exch def dup 4 get exch 5 get cairo_store_point
      /cairo_font where { pop cairo_selectfont } if } bind def
/Tm { 2 copy 8 2 roll 6 array astore /cairo_font_matrix exch def
      cairo_store_point /cairo_font where { pop cairo_selectfont } if } bind def
/g { setgray } bind def
/rg { setrgbcolor } bind def
/d1 { setcachedevice } bind def
%%EndProlog
%%BeginSetup
%%EndSetup
%%Page: 1 1
%%BeginPageSetup
%%PageBoundingBox: 0 28 480 452
%%EndPageSetup
q 0 28 480 424 rectclip q
0.639216 g
160 276 m 160 220 l 160 211.164 152.836 204 144 204 c 96 204 l 87.164 204
 80 211.164 80 220 c 80 276 l h
160 276 m f
1 0.815686 0.290196 rg
200 332 m 200 287.816 164.184 252 120 252 c 75.816 252 40 287.816 40 332
 c 40 376.184 75.816 412 120 412 c 164.184 412 200 376.184 200 332 c h
200 332 m f
112 452 16 -16 re f
29.492 411.195 m 40.805 422.508 l 52.117 411.195 l 40.805 399.883 l h
29.492 411.195 m f
0 340 16 -16 re f
224 340 16 -16 re f
187.883 411.195 m 199.195 422.508 l 210.508 411.195 l 199.195 399.883 l
 h
187.883 411.195 m f
0.439216 g
96 204 m 144 204 l 144 188 l 144 179.164 136.836 172 128 172 c 112 172 
l 103.164 172 96 179.164 96 188 c h
96 204 m f
0.8 0.6 0.368627 rg
232 204 m 432 204 l 436.418 204 440 200.418 440 196 c 440 180 l 440 175.582
 436.418 172 432 172 c 232 172 l 227.582 172 224 175.582 224 180 c 224 196
 l 224 200.418 227.582 204 232 204 c h
232 204 m f
0.537255 g
464 196 16 -16 re f
0.45098 0.788235 0.486275 rg
256 268 m 432 268 l 436.418 268 440 264.418 440 260 c 440 244 l 440 239.582
 436.418 236 432 236 c 256 236 l 251.582 236 248 239.582 248 244 c 248 260
 l 248 264.418 251.582 268 256 268 c h
256 268 m f
0.537255 g
464 260 16 -16 re f
0.458824 0.756863 1 rg
280 332 m 432 332 l 436.418 332 440 328.418 440 324 c 440 308 l 440 303.582
 436.418 300 432 300 c 280 300 l 275.582 300 272 303.582 272 308 c 272 324
 l 272 328.418 275.582 332 280 332 c h
280 332 m f
0.333333 0.588235 0.360784 rg
155.203 66.391 m 219.195 114.406 l 228.797 101.609 l 164.805 53.594 l h
155.203 66.391 m f
0.537255 g
464 324 16 -16 re f
0.333333 0.588235 0.360784 rg
347.203 66.391 m 411.195 114.406 l 420.797 101.609 l 356.805 53.594 l h
347.203 66.391 m f
251.199 101.602 m 260.801 114.398 l 324.801 66.398 l 315.199 53.602 l h
251.199 101.602 m f
1 0.403922 0.356863 rg
304 396 m 432 396 l 436.418 396 440 392.418 440 388 c 440 372 l 440 367.582
 436.418 364 432 364 c 304 364 l 299.582 364 296 367.582 296 372 c 296 388
 l 296 392.418 299.582 396 304 396 c h
304 396 m f
0.333333 0.588235 0.360784 rg
59.199 101.602 m 68.801 114.398 l 132.801 66.398 l 123.199 53.602 l h
59.199 101.602 m f
0 124 32 -16 re f
448 124 32 -16 re f
0.537255 g
464 388 16 -16 re f
0.333333 0.588235 0.360784 rg
136 68 m 152 68 l 156.418 68 160 64.418 160 60 c 160 44 l 160 39.582 156.418
 36 152 36 c 136 36 l 131.582 36 128 39.582 128 44 c 128 60 l 128 64.418
 131.582 68 136 68 c h
136 68 m f
0.45098 0.788235 0.486275 rg
152 28 m 136 28 l 127.168 28.012 120.012 35.168 120 44 c 120 60 l 120.012
 68.832 127.168 75.988 136 76 c 152 76 l 160.832 75.988 167.988 68.832 168
 60 c 168 44 l 167.988 35.168 160.832 28.012 152 28 c h
136 60 m 136 44 l 152 44 l 152 60 l h
136 60 m f
0.333333 0.588235 0.360784 rg
232 132 m 248 132 l 252.418 132 256 128.418 256 124 c 256 108 l 256 103.582
 252.418 100 248 100 c 232 100 l 227.582 100 224 103.582 224 108 c 224 124
 l 224 128.418 227.582 132 232 132 c h
232 132 m f
0.45098 0.788235 0.486275 rg
248 92 m 232 92 l 223.168 92.012 216.012 99.168 216 108 c 216 124 l 216.012
 132.832 223.168 139.988 232 140 c 248 140 l 256.832 139.988 263.988 132.832
 264 124 c 264 108 l 263.988 99.168 256.832 92.012 248 92 c h
232 124 m 232 108 l 248 108 l 248 124 l h
232 124 m f
0.333333 0.588235 0.360784 rg
328 68 m 344 68 l 348.418 68 352 64.418 352 60 c 352 44 l 352 39.582 348.418
 36 344 36 c 328 36 l 323.582 36 320 39.582 320 44 c 320 60 l 320 64.418
 323.582 68 328 68 c h
328 68 m f
0.45098 0.788235 0.486275 rg
344 28 m 328 28 l 319.168 28.012 312.012 35.168 312 44 c 312 60 l 312.012
 68.832 319.168 75.988 328 76 c 344 76 l 352.832 75.988 359.988 68.832 360
 60 c 360 44 l 359.988 35.168 352.832 28.012 344 28 c h
328 60 m 328 44 l 344 44 l 344 60 l h
328 60 m f
0.333333 0.588235 0.360784 rg
424 132 m 440 132 l 444.418 132 448 128.418 448 124 c 448 108 l 448 103.582
 444.418 100 440 100 c 424 100 l 419.582 100 416 103.582 416 108 c 416 124
 l 416 128.418 419.582 132 424 132 c h
424 132 m f
0.45098 0.788235 0.486275 rg
440 92 m 424 92 l 415.168 92.012 408.012 99.168 408 108 c 408 124 l 408.012
 132.832 415.168 139.988 424 140 c 440 140 l 448.832 139.988 455.988 132.832
 456 124 c 456 108 l 455.988 99.168 448.832 92.012 440 92 c h
424 124 m 424 108 l 440 108 l 440 124 l h
424 124 m f
0.333333 0.588235 0.360784 rg
40 132 m 56 132 l 60.418 132 64 128.418 64 124 c 64 108 l 64 103.582 60.418
 100 56 100 c 40 100 l 35.582 100 32 103.582 32 108 c 32 124 l 32 128.418
 35.582 132 40 132 c h
40 132 m f
0.45098 0.788235 0.486275 rg
56 92 m 40 92 l 31.168 92.012 24.012 99.168 24 108 c 24 124 l 24.012 132.832
 31.168 139.988 40 140 c 56 140 l 64.832 139.988 71.988 132.832 72 124 c
 72 108 l 71.988 99.168 64.832 92.012 56 92 c h
40 124 m 40 108 l 56 108 l 56 124 l h
40 124 m f
Q Q
showpage
%%Trailer
end restore
%%EOF
