%!PS-Adobe-3.0 EPSF-3.0
%%Creator: cairo 1.14.2 (http://cairographics.org)
%%CreationDate: Thu Jan 17 08:42:36 2019
%%Pages: 1
%%DocumentData: Clean7Bit
%%LanguageLevel: 2
%%BoundingBox: 4 0 468 472
%%EndComments
%%BeginProlog
save
50 dict begin
/q { gsave } bind def
/Q { grestore } bind def
/cm { 6 array astore concat } bind def
/w { setlinewidth } bind def
/J { setlinecap } bind def
/j { setlinejoin } bind def
/M { setmiterlimit } bind def
/d { setdash } bind def
/m { moveto } bind def
/l { lineto } bind def
/c { curveto } bind def
/h { closepath } bind def
/re { exch dup neg 3 1 roll 5 3 roll moveto 0 rlineto
      0 exch rlineto 0 rlineto closepath } bind def
/S { stroke } bind def
/f { fill } bind def
/f* { eofill } bind def
/n { newpath } bind def
/W { clip } bind def
/W* { eoclip } bind def
/BT { } bind def
/ET { } bind def
/pdfmark where { pop globaldict /?pdfmark /exec load put }
    { globaldict begin /?pdfmark /pop load def /pdfmark
    /cleartomark load def end } ifelse
/BDC { mark 3 1 roll /BDC pdfmark } bind def
/EMC { mark /EMC pdfmark } bind def
/cairo_store_point { /cairo_point_y exch def /cairo_point_x exch def } def
/Tj { show currentpoint cairo_store_point } bind def
/TJ {
  {
    dup
    type /stringtype eq
    { show } { -0.001 mul 0 cairo_font_matrix dtransform rmoveto } ifelse
  } forall
  currentpoint cairo_store_point
} bind def
/cairo_selectfont { cairo_font_matrix aload pop pop pop 0 0 6 array astore
    cairo_font exch selectfont cairo_point_x cairo_point_y moveto } bind def
/Tf { pop /cairo_font exch def /cairo_font_matrix where
      { pop cairo_selectfont } if } bind def
/Td { matrix translate cairo_font_matrix matrix concatmatrix dup
      /cairo_font_matrix exch def dup 4 get exch 5 get cairo_store_point
      /cairo_font where { pop cairo_selectfont } if } bind def
/Tm { 2 copy 8 2 roll 6 array astore /cairo_font_matrix exch def
      cairo_store_point /cairo_font where { pop cairo_selectfont } if } bind def
/g { setgray } bind def
/rg { setrgbcolor } bind def
/d1 { setcachedevice } bind def
%%EndProlog
%%BeginSetup
%%EndSetup
%%Page: 1 1
%%BeginPageSetup
%%PageBoundingBox: 4 0 468 472
%%EndPageSetup
q 4 0 464 472 rectclip q
0.458824 0.756863 1 rg
20 472 m 452 472 l 460.836 472 468 464.836 468 456 c 468 184 l 4 184 l 
4 456 l 4 464.836 11.164 472 20 472 c h
20 472 m f
0.937255 g
4 184 m 468 184 l 468 104 l 468 95.164 460.836 88 452 88 c 20 88 l 11.164
 88 4 95.164 4 104 c h
4 184 m f
0.737255 g
252 136 m 252 127.164 244.836 120 236 120 c 227.164 120 220 127.164 220
 136 c 220 144.836 227.164 152 236 152 c 244.836 152 252 144.836 252 136
 c h
252 136 m f
1 0.815686 0.290196 rg
164 376 m 164 340.652 135.348 312 100 312 c 64.652 312 36 340.652 36 376
 c 36 411.348 64.652 440 100 440 c 135.348 440 164 411.348 164 376 c h
164 376 m f
0.901961 0.733333 0.258824 rg
164 376 m 116 376 l 107.164 376 100 383.164 100 392 c 100 440 l 135.348
 440 164 411.348 164 376 c h
164 376 m f
0.537255 g
124 256 64 -16 re f
204 256 16 -16 re f
92 256 16 -16 re f
204 224 16 -16 re f
68 224 120 -16 re f
36 224 16 -16 re f
0.45098 0.788235 0.486275 rg
60 248 m 44 248 l 39.582 248 36 251.582 36 256 c 36 272 l 36 276.418 39.582
 280 44 280 c 60 280 l 64.418 280 68 276.418 68 272 c 68 256 l 68 251.582
 64.418 248 60 248 c h
60 248 m f
0.537255 g
124 288 64 -16 re f
204 288 16 -16 re f
92 288 16 -16 re f
284 256 64 -16 re f
252 256 16 -16 re f
364 256 16 -16 re f
252 224 16 -16 re f
284 224 120 -16 re f
420 224 16 -16 re f
1 0.403922 0.356863 rg
412 280 m 428 280 l 432.418 280 436 276.418 436 272 c 436 256 l 436 251.582
 432.418 248 428 248 c 412 248 l 407.582 248 404 251.582 404 256 c 404 272
 l 404 276.418 407.582 280 412 280 c h
412 280 m f
0.537255 g
284 288 64 -16 re f
252 288 16 -16 re f
364 288 16 -16 re f
0.45098 0.788235 0.486275 rg
244 424 m 364 424 l 368.418 424 372 420.418 372 416 c 372 400 l 372 395.582
 368.418 392 364 392 c 244 392 l 239.582 392 236 395.582 236 400 c 236 416
 l 236 420.418 239.582 424 244 424 c h
244 424 m f
1 0.403922 0.356863 rg
244 360 m 404 360 l 408.418 360 412 356.418 412 352 c 412 336 l 412 331.582
 408.418 328 404 328 c 244 328 l 239.582 328 236 331.582 236 336 c 236 352
 l 236 356.418 239.582 360 244 360 c h
244 360 m f
0.537255 g
196 416 16 -16 re f
196 352 16 -16 re f
0.737255 g
180 88 112 -80 re f
0.937255 g
124 16 224 -16 re f
Q Q
showpage
%%Trailer
end restore
%%EOF
