%!PS-Adobe-3.0 EPSF-3.0
%%Creator: cairo 1.14.2 (http://cairographics.org)
%%CreationDate: Thu Jan 17 08:42:36 2019
%%Pages: 1
%%DocumentData: Clean7Bit
%%LanguageLevel: 2
%%BoundingBox: 4 0 468 472
%%EndComments
%%BeginProlog
save
50 dict begin
/q { gsave } bind def
/Q { grestore } bind def
/cm { 6 array astore concat } bind def
/w { setlinewidth } bind def
/J { setlinecap } bind def
/j { setlinejoin } bind def
/M { setmiterlimit } bind def
/d { setdash } bind def
/m { moveto } bind def
/l { lineto } bind def
/c { curveto } bind def
/h { closepath } bind def
/re { exch dup neg 3 1 roll 5 3 roll moveto 0 rlineto
      0 exch rlineto 0 rlineto closepath } bind def
/S { stroke } bind def
/f { fill } bind def
/f* { eofill } bind def
/n { newpath } bind def
/W { clip } bind def
/W* { eoclip } bind def
/BT { } bind def
/ET { } bind def
/pdfmark where { pop globaldict /?pdfmark /exec load put }
    { globaldict begin /?pdfmark /pop load def /pdfmark
    /cleartomark load def end } ifelse
/BDC { mark 3 1 roll /BDC pdfmark } bind def
/EMC { mark /EMC pdfmark } bind def
/cairo_store_point { /cairo_point_y exch def /cairo_point_x exch def } def
/Tj { show currentpoint cairo_store_point } bind def
/TJ {
  {
    dup
    type /stringtype eq
    { show } { -0.001 mul 0 cairo_font_matrix dtransform rmoveto } ifelse
  } forall
  currentpoint cairo_store_point
} bind def
/cairo_selectfont { cairo_font_matrix aload pop pop pop 0 0 6 array astore
    cairo_font exch selectfont cairo_point_x cairo_point_y moveto } bind def
/Tf { pop /cairo_font exch def /cairo_font_matrix where
      { pop cairo_selectfont } if } bind def
/Td { matrix translate cairo_font_matrix matrix concatmatrix dup
      /cairo_font_matrix exch def dup 4 get exch 5 get cairo_store_point
      /cairo_font where { pop cairo_selectfont } if } bind def
/Tm { 2 copy 8 2 roll 6 array astore /cairo_font_matrix exch def
      cairo_store_point /cairo_font where { pop cairo_selectfont } if } bind def
/g { setgray } bind def
/rg { setrgbcolor } bind def
/d1 { setcachedevice } bind def
%%EndProlog
%%BeginSetup
%%EndSetup
%%Page: 1 1
%%BeginPageSetup
%%PageBoundingBox: 4 0 468 472
%%EndPageSetup
q 4 0 464 472 rectclip q
0.901961 0.756863 0.592157 rg
460 384 m 460 335.398 420.602 296 372 296 c 323.398 296 284 335.398 284
 384 c 284 432.602 323.398 472 372 472 c 420.602 472 460 432.602 460 384
 c h
460 384 m f
0.537255 g
308 296 m 436 296 l 453.672 296 468 281.672 468 264 c 468 112 l 276 112
 l 276 264 l 276 281.672 290.328 296 308 296 c h
308 296 m f
0.439216 g
276 112 192 -112 re f
0.937255 g
316 296 m 428 296 l 407.031 212.121 l 405.25 204.996 398.848 200 391.508
 200 c 352.492 200 l 345.152 200 338.75 204.996 336.969 212.121 c h
316 296 m f
0.45098 0.788235 0.486275 rg
364 240 16 -40 re f
364 272 16 -16 re f
0.901961 0.756863 0.592157 rg
188 384 m 188 335.398 148.602 296 100 296 c 51.398 296 12 335.398 12 384
 c 12 432.602 51.398 472 100 472 c 148.602 472 188 432.602 188 384 c h
188 384 m f
0.537255 g
36 296 m 164 296 l 181.672 296 196 281.672 196 264 c 196 112 l 4 112 l 
4 264 l 4 281.672 18.328 296 36 296 c h
36 296 m f
0.439216 g
4 112 192 -112 re f
1 0.843137 0.658824 rg
324 328 m 324 279.398 284.602 240 236 240 c 187.398 240 148 279.398 148
 328 c 148 376.602 187.398 416 236 416 c 284.602 416 324 376.602 324 328
 c h
324 328 m f
0.639216 g
172 240 m 300 240 l 317.672 240 332 225.672 332 208 c 332 56 l 140 56 l
 140 208 l 140 225.672 154.328 240 172 240 c h
172 240 m f
0.937255 g
180 240 m 292 240 l 271.031 156.121 l 269.25 148.996 262.848 144 255.508
 144 c 216.492 144 l 209.152 144 202.75 148.996 200.969 156.121 c h
180 240 m f
44 296 m 156 296 l 135.031 212.121 l 133.25 204.996 126.848 200 119.508
 200 c 80.492 200 l 73.152 200 66.75 204.996 64.969 212.121 c h
44 296 m f
1 0.403922 0.356863 rg
228 184 16 -40 re f
228 216 16 -16 re f
1 0.815686 0.290196 rg
92 240 16 -40 re f
92 272 16 -16 re f
0.537255 g
140 56 192 -56 re f
Q Q
showpage
%%Trailer
end restore
%%EOF
