%!PS-Adobe-3.0 EPSF-3.0
%%Creator: cairo 1.14.2 (http://cairographics.org)
%%CreationDate: Thu Jan 17 08:42:36 2019
%%Pages: 1
%%DocumentData: Clean7Bit
%%LanguageLevel: 2
%%BoundingBox: 0 0 464 464
%%EndComments
%%BeginProlog
save
50 dict begin
/q { gsave } bind def
/Q { grestore } bind def
/cm { 6 array astore concat } bind def
/w { setlinewidth } bind def
/J { setlinecap } bind def
/j { setlinejoin } bind def
/M { setmiterlimit } bind def
/d { setdash } bind def
/m { moveto } bind def
/l { lineto } bind def
/c { curveto } bind def
/h { closepath } bind def
/re { exch dup neg 3 1 roll 5 3 roll moveto 0 rlineto
      0 exch rlineto 0 rlineto closepath } bind def
/S { stroke } bind def
/f { fill } bind def
/f* { eofill } bind def
/n { newpath } bind def
/W { clip } bind def
/W* { eoclip } bind def
/BT { } bind def
/ET { } bind def
/pdfmark where { pop globaldict /?pdfmark /exec load put }
    { globaldict begin /?pdfmark /pop load def /pdfmark
    /cleartomark load def end } ifelse
/BDC { mark 3 1 roll /BDC pdfmark } bind def
/EMC { mark /EMC pdfmark } bind def
/cairo_store_point { /cairo_point_y exch def /cairo_point_x exch def } def
/Tj { show currentpoint cairo_store_point } bind def
/TJ {
  {
    dup
    type /stringtype eq
    { show } { -0.001 mul 0 cairo_font_matrix dtransform rmoveto } ifelse
  } forall
  currentpoint cairo_store_point
} bind def
/cairo_selectfont { cairo_font_matrix aload pop pop pop 0 0 6 array astore
    cairo_font exch selectfont cairo_point_x cairo_point_y moveto } bind def
/Tf { pop /cairo_font exch def /cairo_font_matrix where
      { pop cairo_selectfont } if } bind def
/Td { matrix translate cairo_font_matrix matrix concatmatrix dup
      /cairo_font_matrix exch def dup 4 get exch 5 get cairo_store_point
      /cairo_font where { pop cairo_selectfont } if } bind def
/Tm { 2 copy 8 2 roll 6 array astore /cairo_font_matrix exch def
      cairo_store_point /cairo_font where { pop cairo_selectfont } if } bind def
/g { setgray } bind def
/rg { setrgbcolor } bind def
/d1 { setcachedevice } bind def
%%EndProlog
%%BeginSetup
%%EndSetup
%%Page: 1 1
%%BeginPageSetup
%%PageBoundingBox: 0 0 464 464
%%EndPageSetup
q 0 0 464 464 rectclip q
0.458824 0.756863 1 rg
16 464 m 288 464 l 296.836 464 304 456.836 304 448 c 304 80 l 0 80 l 0 
448 l 0 456.836 7.164 464 16 464 c h
16 464 m f
0.937255 g
0 80 m 304 80 l 304 16 l 304 7.164 296.836 0 288 0 c 16 0 l 7.164 0 0 7.164
 0 16 c h
0 80 m f
0.737255 g
72 48 32 -16 re f
200 48 32 -16 re f
168 40 m 168 31.164 160.836 24 152 24 c 143.164 24 136 31.164 136 40 c 
136 48.836 143.164 56 152 56 c 160.836 56 168 48.836 168 40 c h
168 40 m f
0.839216 g
152 408 m 448 408 l 456.836 408 464 400.836 464 392 c 464 216 l 464 207.164
 456.836 200 448 200 c 152 200 l 143.164 200 136 207.164 136 216 c 136 392
 l 136 400.836 143.164 408 152 408 c h
152 408 m f
0.439216 g
136 368 328 -72 re f
0.937255 g
88 336 m 384 336 l 392.836 336 400 328.836 400 320 c 400 144 l 400 135.164
 392.836 128 384 128 c 88 128 l 79.164 128 72 135.164 72 144 c 72 320 l 
72 328.836 79.164 336 88 336 c h
88 336 m f
1 0.815686 0.290196 rg
120 304 m 168 304 l 176.836 304 184 296.836 184 288 c 184 240 l 184 231.164
 176.836 224 168 224 c 120 224 l 111.164 224 104 231.164 104 240 c 104 288
 l 104 296.836 111.164 304 120 304 c h
120 304 m f
1 0.403922 0.356863 rg
264 208 m 288 208 l 292.418 208 296 204.418 296 200 c 296 176 l 296 171.582
 292.418 168 288 168 c 264 168 l 259.582 168 256 171.582 256 176 c 256 200
 l 256 204.418 259.582 208 264 208 c h
264 208 m f
0.45098 0.788235 0.486275 rg
336 208 m 360 208 l 364.418 208 368 204.418 368 200 c 368 176 l 368 171.582
 364.418 168 360 168 c 336 168 l 331.582 168 328 171.582 328 176 c 328 200
 l 328 204.418 331.582 208 336 208 c h
336 208 m f
0.901961 0.733333 0.262745 rg
160 224 m 144 224 l 144 248 l 104 248 l 104 264 l 144 264 l 152.832 263.992
 159.992 256.832 160 248 c h
160 224 m f
144 304 16 -24 re f
0.737255 g
208 288 16 -16 re f
240 288 104 -16 re f
360 288 16 -16 re f
208 256 16 -16 re f
240 256 104 -16 re f
360 256 16 -16 re f
104 192 16 -16 re f
136 192 16 -16 re f
168 192 16 -16 re f
200 192 16 -16 re f
Q Q
showpage
%%Trailer
end restore
%%EOF
