%!PS-Adobe-3.0 EPSF-3.0
%%Creator: cairo 1.14.2 (http://cairographics.org)
%%CreationDate: Thu Jan 17 08:42:36 2019
%%Pages: 1
%%DocumentData: Clean7Bit
%%LanguageLevel: 2
%%BoundingBox: 0 0 472 472
%%EndComments
%%BeginProlog
save
50 dict begin
/q { gsave } bind def
/Q { grestore } bind def
/cm { 6 array astore concat } bind def
/w { setlinewidth } bind def
/J { setlinecap } bind def
/j { setlinejoin } bind def
/M { setmiterlimit } bind def
/d { setdash } bind def
/m { moveto } bind def
/l { lineto } bind def
/c { curveto } bind def
/h { closepath } bind def
/re { exch dup neg 3 1 roll 5 3 roll moveto 0 rlineto
      0 exch rlineto 0 rlineto closepath } bind def
/S { stroke } bind def
/f { fill } bind def
/f* { eofill } bind def
/n { newpath } bind def
/W { clip } bind def
/W* { eoclip } bind def
/BT { } bind def
/ET { } bind def
/pdfmark where { pop globaldict /?pdfmark /exec load put }
    { globaldict begin /?pdfmark /pop load def /pdfmark
    /cleartomark load def end } ifelse
/BDC { mark 3 1 roll /BDC pdfmark } bind def
/EMC { mark /EMC pdfmark } bind def
/cairo_store_point { /cairo_point_y exch def /cairo_point_x exch def } def
/Tj { show currentpoint cairo_store_point } bind def
/TJ {
  {
    dup
    type /stringtype eq
    { show } { -0.001 mul 0 cairo_font_matrix dtransform rmoveto } ifelse
  } forall
  currentpoint cairo_store_point
} bind def
/cairo_selectfont { cairo_font_matrix aload pop pop pop 0 0 6 array astore
    cairo_font exch selectfont cairo_point_x cairo_point_y moveto } bind def
/Tf { pop /cairo_font exch def /cairo_font_matrix where
      { pop cairo_selectfont } if } bind def
/Td { matrix translate cairo_font_matrix matrix concatmatrix dup
      /cairo_font_matrix exch def dup 4 get exch 5 get cairo_store_point
      /cairo_font where { pop cairo_selectfont } if } bind def
/Tm { 2 copy 8 2 roll 6 array astore /cairo_font_matrix exch def
      cairo_store_point /cairo_font where { pop cairo_selectfont } if } bind def
/g { setgray } bind def
/rg { setrgbcolor } bind def
/d1 { setcachedevice } bind def
%%EndProlog
%%BeginSetup
%%EndSetup
%%Page: 1 1
%%BeginPageSetup
%%PageBoundingBox: 0 0 472 472
%%EndPageSetup
q 0 0 472 472 rectclip q
0.45098 0.788235 0.486275 rg
16 384 m 168 384 l 176.836 384 184 376.836 184 368 c 184 352 l 184 343.164
 176.836 336 168 336 c 16 336 l 7.164 336 0 343.164 0 352 c 0 368 l 0 376.836
 7.164 384 16 384 c h
16 384 m f
0.458824 0.756863 1 rg
152 472 m 264 472 l 272.836 472 280 464.836 280 456 c 280 440 l 280 431.164
 272.836 424 264 424 c 152 424 l 143.164 424 136 431.164 136 440 c 136 456
 l 136 464.836 143.164 472 152 472 c h
152 472 m f
1 0.403922 0.356863 rg
272 392 m 424 392 l 432.836 392 440 384.836 440 376 c 440 360 l 440 351.164
 432.836 344 424 344 c 272 344 l 263.164 344 256 351.164 256 360 c 256 376
 l 256 384.836 263.164 392 272 392 c h
272 392 m f
0.901961 0.67451 0.415686 rg
40 272 m 112 272 l 120.836 272 128 264.836 128 256 c 128 248 l 128 239.164
 120.836 232 112 232 c 40 232 l 31.164 232 24 239.164 24 248 c 24 256 l 
24 264.836 31.164 272 40 272 c h
40 272 m f
1 0.815686 0.290196 rg
232 256 m 376 256 l 384.836 256 392 248.836 392 240 c 392 96 l 392 87.164
 384.836 80 376 80 c 232 80 l 223.164 80 216 87.164 216 96 c 216 240 l 216
 248.836 223.164 256 232 256 c h
232 256 m f
0.85098 0.690196 0.247059 rg
344 192 m 344 200 l 343.988 208.832 336.832 215.988 328 216 c 312 216 l
 312 232 l 296 232 l 296 216 l 280 216 l 271.168 215.988 264.012 208.832
 264 200 c 264 176 l 264.012 167.168 271.168 160.012 280 160 c 296 160 l
 296 136 l 280 136 l 280 144 l 264 144 l 264 136 l 264.012 127.168 271.168
 120.012 280 120 c 296 120 l 296 104 l 312 104 l 312 120 l 328 120 l 336.832
 120.012 343.988 127.168 344 136 c 344 160 l 343.988 168.832 336.832 175.988
 328 176 c 312 176 l 312 200 l 328 200 l 328 192 l h
328 160 m 328 136 l 312 136 l 312 160 l h
296 176 m 280 176 l 280 200 l 296 200 l h
296 176 m f
0.639216 g
88 384 m 72 384 l 72 432 l 72.016 445.25 82.75 455.984 96 456 c 136 456
 l 136 440 l 96 440 l 91.582 439.996 88.004 436.418 88 432 c h
88 384 m f
360 392 m 344 392 l 344 432 l 343.996 436.418 340.418 439.996 336 440 c
 280 440 l 280 456 l 336 456 l 349.25 455.984 359.984 445.25 360 432 c h
360 392 m f
72 336 16 -64 re f
296 344 16 -88 re f
1 0.815686 0.290196 rg
296 24 16 -24 re f
179.547 54.859 m 196.523 71.836 l 207.836 60.523 l 190.859 43.547 l h
179.547 54.859 m f
136 176 24 -16 re f
179.547 281.141 m 190.859 292.453 l 207.836 275.477 l 196.523 264.164 l
 h
179.547 281.141 m f
400.164 275.477 m 417.141 292.453 l 428.453 281.141 l 411.477 264.164 l
 h
400.164 275.477 m f
448 176 24 -16 re f
402.469 62.617 m 413.531 74.18 l 430.867 57.586 l 419.805 46.023 l h
402.469 62.617 m f
Q Q
showpage
%%Trailer
end restore
%%EOF
