%!PS-Adobe-3.0 EPSF-3.0
%%Creator: cairo 1.14.2 (http://cairographics.org)
%%CreationDate: Thu Jan 17 08:42:36 2019
%%Pages: 1
%%DocumentData: Clean7Bit
%%LanguageLevel: 2
%%BoundingBox: 0 8 464 456
%%EndComments
%%BeginProlog
save
50 dict begin
/q { gsave } bind def
/Q { grestore } bind def
/cm { 6 array astore concat } bind def
/w { setlinewidth } bind def
/J { setlinecap } bind def
/j { setlinejoin } bind def
/M { setmiterlimit } bind def
/d { setdash } bind def
/m { moveto } bind def
/l { lineto } bind def
/c { curveto } bind def
/h { closepath } bind def
/re { exch dup neg 3 1 roll 5 3 roll moveto 0 rlineto
      0 exch rlineto 0 rlineto closepath } bind def
/S { stroke } bind def
/f { fill } bind def
/f* { eofill } bind def
/n { newpath } bind def
/W { clip } bind def
/W* { eoclip } bind def
/BT { } bind def
/ET { } bind def
/pdfmark where { pop globaldict /?pdfmark /exec load put }
    { globaldict begin /?pdfmark /pop load def /pdfmark
    /cleartomark load def end } ifelse
/BDC { mark 3 1 roll /BDC pdfmark } bind def
/EMC { mark /EMC pdfmark } bind def
/cairo_store_point { /cairo_point_y exch def /cairo_point_x exch def } def
/Tj { show currentpoint cairo_store_point } bind def
/TJ {
  {
    dup
    type /stringtype eq
    { show } { -0.001 mul 0 cairo_font_matrix dtransform rmoveto } ifelse
  } forall
  currentpoint cairo_store_point
} bind def
/cairo_selectfont { cairo_font_matrix aload pop pop pop 0 0 6 array astore
    cairo_font exch selectfont cairo_point_x cairo_point_y moveto } bind def
/Tf { pop /cairo_font exch def /cairo_font_matrix where
      { pop cairo_selectfont } if } bind def
/Td { matrix translate cairo_font_matrix matrix concatmatrix dup
      /cairo_font_matrix exch def dup 4 get exch 5 get cairo_store_point
      /cairo_font where { pop cairo_selectfont } if } bind def
/Tm { 2 copy 8 2 roll 6 array astore /cairo_font_matrix exch def
      cairo_store_point /cairo_font where { pop cairo_selectfont } if } bind def
/g { setgray } bind def
/rg { setrgbcolor } bind def
/d1 { setcachedevice } bind def
%%EndProlog
%%BeginSetup
%%EndSetup
%%Page: 1 1
%%BeginPageSetup
%%PageBoundingBox: 0 8 464 456
%%EndPageSetup
q 0 8 464 448 rectclip q
0.901961 0.752941 0.415686 rg
448 8 m 456.836 8 464 15.164 464 24 c 464 408 l 464 416.836 456.836 424
 448 424 c 264 424 l 244.422 447.156 l 241.711 452.574 236.172 456 230.113
 456 c 80 456 l 71.164 456 64 448.836 64 440 c 64 24 l 64 15.164 71.164 
8 80 8 c h
448 8 m f
0.937255 g
408 40 m 416.836 40 424 47.164 424 56 c 424 360 l 424 368.836 416.836 376
 408 376 c 48 376 l 39.164 376 32 368.836 32 360 c 32 56 l 32 47.164 39.164
 40 48 40 c h
408 40 m f
1 0.835294 0.462745 rg
16 328 m 368 328 l 376.836 328 384 320.836 384 312 c 384 24 l 384 15.164
 376.836 8 368 8 c 16 8 l 7.164 8 0 15.164 0 24 c 0 312 l 0 320.836 7.164
 328 16 328 c h
16 328 m f
0.8 0.666667 0.368627 rg
184 104 16 -16 re f
216 104 32 -16 re f
264 104 16 -16 re f
184 72 16 -16 re f
216 72 32 -16 re f
264 72 16 -16 re f
128 248 m 112 248 l 112 264 l 112.016 277.25 122.75 287.984 136 288 c 152
 288 l 152 272 l 136 272 l 131.586 271.996 128.004 268.414 128 264 c h
128 248 m f
152 128 m 136 128 l 122.75 128.016 112.016 138.75 112 152 c 112 168 l 128
 168 l 128 152 l 128.004 147.586 131.586 144.004 136 144 c 152 144 l h
152 128 m f
248 128 m 232 128 l 232 144 l 248 144 l 252.414 144.004 255.996 147.586
 256 152 c 256 168 l 272 168 l 272 152 l 271.984 138.75 261.25 128.016 248
 128 c h
248 128 m f
272 248 m 256 248 l 256 264 l 255.996 268.414 252.414 271.996 248 272 c
 232 272 l 232 288 l 248 288 l 261.25 287.984 271.984 277.25 272 264 c h
272 248 m f
0.439216 g
232 232 m 232 240 l 231.992 248.832 224.832 255.992 216 256 c 200 256 l
 200 272 l 184 272 l 184 256 l 168 256 l 159.168 255.992 152.008 248.832
 152 240 c 152 216 l 152.008 207.168 159.168 200.008 168 200 c 184 200 l
 184 176 l 168 176 l 168 184 l 152 184 l 152 176 l 152.008 167.168 159.168
 160.008 168 160 c 184 160 l 184 144 l 200 144 l 200 160 l 216 160 l 224.832
 160.008 231.992 167.168 232 176 c 232 200 l 231.992 208.832 224.832 215.992
 216 216 c 200 216 l 200 240 l 216 240 l 216 232 l h
216 200 m 216 176 l 200 176 l 200 200 l h
184 216 m 168 216 l 168 240 l 184 240 l h
184 216 m f
0.45098 0.788235 0.486275 rg
128 104 m 144 104 l 152.836 104 160 96.836 160 88 c 160 72 l 160 63.164
 152.836 56 144 56 c 128 56 l 119.164 56 112 63.164 112 72 c 112 88 l 112
 96.836 119.164 104 128 104 c h
128 104 m f
Q Q
showpage
%%Trailer
end restore
%%EOF
