%!PS-Adobe-3.0 EPSF-3.0
%%Creator: cairo 1.14.2 (http://cairographics.org)
%%CreationDate: Thu Jan 17 08:42:36 2019
%%Pages: 1
%%DocumentData: Clean7Bit
%%LanguageLevel: 2
%%BoundingBox: 0 76 472 396
%%EndComments
%%BeginProlog
save
50 dict begin
/q { gsave } bind def
/Q { grestore } bind def
/cm { 6 array astore concat } bind def
/w { setlinewidth } bind def
/J { setlinecap } bind def
/j { setlinejoin } bind def
/M { setmiterlimit } bind def
/d { setdash } bind def
/m { moveto } bind def
/l { lineto } bind def
/c { curveto } bind def
/h { closepath } bind def
/re { exch dup neg 3 1 roll 5 3 roll moveto 0 rlineto
      0 exch rlineto 0 rlineto closepath } bind def
/S { stroke } bind def
/f { fill } bind def
/f* { eofill } bind def
/n { newpath } bind def
/W { clip } bind def
/W* { eoclip } bind def
/BT { } bind def
/ET { } bind def
/pdfmark where { pop globaldict /?pdfmark /exec load put }
    { globaldict begin /?pdfmark /pop load def /pdfmark
    /cleartomark load def end } ifelse
/BDC { mark 3 1 roll /BDC pdfmark } bind def
/EMC { mark /EMC pdfmark } bind def
/cairo_store_point { /cairo_point_y exch def /cairo_point_x exch def } def
/Tj { show currentpoint cairo_store_point } bind def
/TJ {
  {
    dup
    type /stringtype eq
    { show } { -0.001 mul 0 cairo_font_matrix dtransform rmoveto } ifelse
  } forall
  currentpoint cairo_store_point
} bind def
/cairo_selectfont { cairo_font_matrix aload pop pop pop 0 0 6 array astore
    cairo_font exch selectfont cairo_point_x cairo_point_y moveto } bind def
/Tf { pop /cairo_font exch def /cairo_font_matrix where
      { pop cairo_selectfont } if } bind def
/Td { matrix translate cairo_font_matrix matrix concatmatrix dup
      /cairo_font_matrix exch def dup 4 get exch 5 get cairo_store_point
      /cairo_font where { pop cairo_selectfont } if } bind def
/Tm { 2 copy 8 2 roll 6 array astore /cairo_font_matrix exch def
      cairo_store_point /cairo_font where { pop cairo_selectfont } if } bind def
/g { setgray } bind def
/rg { setrgbcolor } bind def
/d1 { setcachedevice } bind def
%%EndProlog
%%BeginSetup
%%EndSetup
%%Page: 1 1
%%BeginPageSetup
%%PageBoundingBox: 0 76 472 396
%%EndPageSetup
q 0 76 472 320 rectclip q
0.8 0.321569 0.286275 rg
472 236 m 472 147.633 400.367 76 312 76 c 223.633 76 152 147.633 152 236
 c 152 324.367 223.633 396 312 396 c 400.367 396 472 324.367 472 236 c h
472 236 m f
0.937255 g
440 236 m 440 165.309 382.691 108 312 108 c 241.309 108 184 165.309 184
 236 c 184 306.691 241.309 364 312 364 c 382.691 364 440 306.691 440 236
 c h
440 236 m f
0.901961 0.364706 0.321569 rg
408 236 m 408 182.98 365.02 140 312 140 c 258.98 140 216 182.98 216 236
 c 216 289.02 258.98 332 312 332 c 365.02 332 408 289.02 408 236 c h
408 236 m f
0.937255 g
376 236 m 376 200.652 347.348 172 312 172 c 276.652 172 248 200.652 248
 236 c 248 271.348 276.652 300 312 300 c 347.348 300 376 271.348 376 236
 c h
376 236 m f
1 0.403922 0.356863 rg
344 236 m 344 218.328 329.672 204 312 204 c 294.328 204 280 218.328 280
 236 c 280 253.672 294.328 268 312 268 c 329.672 268 344 253.672 344 236
 c h
344 236 m f
1 0.815686 0.290196 rg
64 236 m 50.012 270.973 l 48.797 274.008 45.855 276 42.586 276 c 27.816
 276 l 25.16 276 22.68 274.684 21.191 272.484 c 19.703 270.285 19.402 267.492
 20.387 265.027 c 32 236 l h
64 236 m f
64 236 m 50.012 201.027 l 48.797 197.992 45.855 196 42.586 196 c 27.816
 196 l 25.16 196 22.68 197.316 21.191 199.516 c 19.703 201.715 19.402 204.508
 20.387 206.973 c 32 236 l h
64 236 m f
128 236 m 114.012 270.973 l 112.797 274.008 109.855 276 106.586 276 c 91.816
 276 l 89.16 276 86.68 274.684 85.191 272.484 c 83.703 270.285 83.402 267.492
 84.387 265.027 c 96 236 l h
128 236 m f
128 236 m 114.012 201.027 l 112.797 197.992 109.855 196 106.586 196 c 91.816
 196 l 89.16 196 86.68 197.316 85.191 199.516 c 83.703 201.715 83.402 204.508
 84.387 206.973 c 96 236 l h
128 236 m f
0.8 0.6 0.368627 rg
0 244 320 -16 re f
Q Q
showpage
%%Trailer
end restore
%%EOF
