%!PS-Adobe-3.0 EPSF-3.0
%%Creator: cairo 1.14.2 (http://cairographics.org)
%%CreationDate: Thu Jan 17 08:42:36 2019
%%Pages: 1
%%DocumentData: Clean7Bit
%%LanguageLevel: 2
%%BoundingBox: 0 48 480 432
%%EndComments
%%BeginProlog
save
50 dict begin
/q { gsave } bind def
/Q { grestore } bind def
/cm { 6 array astore concat } bind def
/w { setlinewidth } bind def
/J { setlinecap } bind def
/j { setlinejoin } bind def
/M { setmiterlimit } bind def
/d { setdash } bind def
/m { moveto } bind def
/l { lineto } bind def
/c { curveto } bind def
/h { closepath } bind def
/re { exch dup neg 3 1 roll 5 3 roll moveto 0 rlineto
      0 exch rlineto 0 rlineto closepath } bind def
/S { stroke } bind def
/f { fill } bind def
/f* { eofill } bind def
/n { newpath } bind def
/W { clip } bind def
/W* { eoclip } bind def
/BT { } bind def
/ET { } bind def
/pdfmark where { pop globaldict /?pdfmark /exec load put }
    { globaldict begin /?pdfmark /pop load def /pdfmark
    /cleartomark load def end } ifelse
/BDC { mark 3 1 roll /BDC pdfmark } bind def
/EMC { mark /EMC pdfmark } bind def
/cairo_store_point { /cairo_point_y exch def /cairo_point_x exch def } def
/Tj { show currentpoint cairo_store_point } bind def
/TJ {
  {
    dup
    type /stringtype eq
    { show } { -0.001 mul 0 cairo_font_matrix dtransform rmoveto } ifelse
  } forall
  currentpoint cairo_store_point
} bind def
/cairo_selectfont { cairo_font_matrix aload pop pop pop 0 0 6 array astore
    cairo_font exch selectfont cairo_point_x cairo_point_y moveto } bind def
/Tf { pop /cairo_font exch def /cairo_font_matrix where
      { pop cairo_selectfont } if } bind def
/Td { matrix translate cairo_font_matrix matrix concatmatrix dup
      /cairo_font_matrix exch def dup 4 get exch 5 get cairo_store_point
      /cairo_font where { pop cairo_selectfont } if } bind def
/Tm { 2 copy 8 2 roll 6 array astore /cairo_font_matrix exch def
      cairo_store_point /cairo_font where { pop cairo_selectfont } if } bind def
/g { setgray } bind def
/rg { setrgbcolor } bind def
/d1 { setcachedevice } bind def
%%EndProlog
%%BeginSetup
%%EndSetup
%%Page: 1 1
%%BeginPageSetup
%%PageBoundingBox: 0 48 480 432
%%EndPageSetup
q 0 48 480 384 rectclip q
0.364706 0.603922 0.8 rg
171.004 385.754 m 180.996 398.246 l 220.996 366.246 l 211.004 353.754 l
 h
171.004 385.754 m f
99.004 366.246 m 139.004 398.246 l 148.996 385.754 l 108.996 353.754 l 
h
99.004 366.246 m f
248 352 32 -16 re f
0 352 16 -16 re f
32 352 40 -16 re f
224 360 m 240 360 l 244.418 360 248 356.418 248 352 c 248 336 l 248 331.582
 244.418 328 240 328 c 224 328 l 219.582 328 216 331.582 216 336 c 216 352
 l 216 356.418 219.582 360 224 360 c h
224 360 m f
0.458824 0.756863 1 rg
240 320 m 224 320 l 215.168 320.008 208.008 327.168 208 336 c 208 352 l
 208.008 360.832 215.168 367.992 224 368 c 240 368 l 248.832 367.992 255.992
 360.832 256 352 c 256 336 l 255.992 327.168 248.832 320.008 240 320 c h
224 352 m 224 336 l 240.012 336 l 240 352 l h
224 352 m f
0.364706 0.603922 0.8 rg
80 360 m 96 360 l 100.418 360 104 356.418 104 352 c 104 336 l 104 331.582
 100.418 328 96 328 c 80 328 l 75.582 328 72 331.582 72 336 c 72 352 l 72
 356.418 75.582 360 80 360 c h
80 360 m f
0.458824 0.756863 1 rg
96 320 m 80 320 l 71.168 320.008 64.008 327.168 64 336 c 64 352 l 64.008
 360.832 71.168 367.992 80 368 c 96 368 l 104.832 367.992 111.992 360.832
 112 352 c 112 336 l 111.992 327.168 104.832 320.008 96 320 c h
80 352 m 80 336 l 96.012 336 l 96 352 l h
80 352 m f
0.364706 0.603922 0.8 rg
152 424 m 168 424 l 172.418 424 176 420.418 176 416 c 176 400 l 176 395.582
 172.418 392 168 392 c 152 392 l 147.582 392 144 395.582 144 400 c 144 416
 l 144 420.418 147.582 424 152 424 c h
152 424 m f
0.458824 0.756863 1 rg
168 384 m 152 384 l 143.168 384.008 136.008 391.168 136 400 c 136 416 l
 136.008 424.832 143.168 431.992 152 432 c 168 432 l 176.832 431.992 183.992
 424.832 184 416 c 184 400 l 183.992 391.168 176.832 384.008 168 384 c h
152 416 m 152 400 l 168.012 400 l 168 416 l h
152 416 m f
1 0.403922 0.356863 rg
456 400 m 442.746 413.254 421.254 413.254 408 400 c 384 376 l 360 400 l
 346.746 413.254 325.254 413.254 312 400 c 298.746 386.746 298.746 365.254
 312 352 c 384 280 l 456 352 l 469.254 365.254 469.254 386.746 456 400 c
 h
456 400 m f
0.8 0.65098 0.231373 rg
400 80 16 -16 re f
312 80 72 -16 re f
432 160 16 -16 re f
312 160 104 -16 re f
464 240 16 -16 re f
312 240 136 -16 re f
288 248 m 304 248 l 308.418 248 312 244.418 312 240 c 312 224 l 312 219.582
 308.418 216 304 216 c 288 216 l 283.582 216 280 219.582 280 224 c 280 240
 l 280 244.418 283.582 248 288 248 c h
288 248 m f
1 0.815686 0.290196 rg
304 208 m 288 208 l 279.168 208.008 272.008 215.168 272 224 c 272 240 l
 272.008 248.832 279.168 255.992 288 256 c 304 256 l 312.832 255.992 319.992
 248.832 320 240 c 320 224 l 319.992 215.168 312.832 208.008 304 208 c h
288 240 m 288 224 l 304 224 l 304 240 l h
288 240 m f
0.8 0.65098 0.231373 rg
288 168 m 304 168 l 308.418 168 312 164.418 312 160 c 312 144 l 312 139.582
 308.418 136 304 136 c 288 136 l 283.582 136 280 139.582 280 144 c 280 160
 l 280 164.418 283.582 168 288 168 c h
288 168 m f
1 0.815686 0.290196 rg
304 128 m 288 128 l 279.168 128.008 272.008 135.168 272 144 c 272 160 l
 272.008 168.832 279.168 175.992 288 176 c 304 176 l 312.832 175.992 319.992
 168.832 320 160 c 320 144 l 319.992 135.168 312.832 128.008 304 128 c h
288 160 m 288 144 l 304 144 l 304 160 l h
288 160 m f
0.8 0.65098 0.231373 rg
288 88 m 304 88 l 308.418 88 312 84.418 312 80 c 312 64 l 312 59.582 308.418
 56 304 56 c 288 56 l 283.582 56 280 59.582 280 64 c 280 80 l 280 84.418
 283.582 88 288 88 c h
288 88 m f
1 0.815686 0.290196 rg
304 48 m 288 48 l 279.168 48.008 272.008 55.168 272 64 c 272 80 l 272.008
 88.832 279.168 95.992 288 96 c 304 96 l 312.832 95.992 319.992 88.832 320
 80 c 320 64 l 319.992 55.168 312.832 48.008 304 48 c h
288 80 m 288 64 l 304 64 l 304 80 l h
288 80 m f
0.937255 g
104 280 m 216 280 l 224.836 280 232 272.836 232 264 c 232 72 l 232 63.164
 224.836 56 216 56 c 104 56 l 95.164 56 88 63.164 88 72 c 88 264 l 88 272.836
 95.164 280 104 280 c h
104 280 m f
0.45098 0.788235 0.486275 rg
232 104 m 205.492 104 184 82.508 184 56 c 216 56 l 224.836 56 232 63.164
 232 72 c h
232 104 m f
136 56 m 136 82.508 114.508 104 88 104 c 88 72 l 88 63.164 95.164 56 104
 56 c h
136 56 m f
232 232 m 232 264 l 232 272.836 224.836 280 216 280 c 184 280 l 184 253.492
 205.492 232 232 232 c h
232 232 m f
88 232 m 114.508 232 136 253.492 136 280 c 104 280 l 95.164 280 88 272.836
 88 264 c h
88 232 m f
200 168 m 200 145.91 182.09 128 160 128 c 137.91 128 120 145.91 120 168
 c 120 190.09 137.91 208 160 208 c 182.09 208 200 190.09 200 168 c h
200 168 m f
Q Q
showpage
%%Trailer
end restore
%%EOF
