%!PS-Adobe-3.0 EPSF-3.0
%%Creator: cairo 1.14.2 (http://cairographics.org)
%%CreationDate: Thu Jan 17 08:42:36 2019
%%Pages: 1
%%DocumentData: Clean7Bit
%%LanguageLevel: 2
%%BoundingBox: 76 0 396 472
%%EndComments
%%BeginProlog
save
50 dict begin
/q { gsave } bind def
/Q { grestore } bind def
/cm { 6 array astore concat } bind def
/w { setlinewidth } bind def
/J { setlinecap } bind def
/j { setlinejoin } bind def
/M { setmiterlimit } bind def
/d { setdash } bind def
/m { moveto } bind def
/l { lineto } bind def
/c { curveto } bind def
/h { closepath } bind def
/re { exch dup neg 3 1 roll 5 3 roll moveto 0 rlineto
      0 exch rlineto 0 rlineto closepath } bind def
/S { stroke } bind def
/f { fill } bind def
/f* { eofill } bind def
/n { newpath } bind def
/W { clip } bind def
/W* { eoclip } bind def
/BT { } bind def
/ET { } bind def
/pdfmark where { pop globaldict /?pdfmark /exec load put }
    { globaldict begin /?pdfmark /pop load def /pdfmark
    /cleartomark load def end } ifelse
/BDC { mark 3 1 roll /BDC pdfmark } bind def
/EMC { mark /EMC pdfmark } bind def
/cairo_store_point { /cairo_point_y exch def /cairo_point_x exch def } def
/Tj { show currentpoint cairo_store_point } bind def
/TJ {
  {
    dup
    type /stringtype eq
    { show } { -0.001 mul 0 cairo_font_matrix dtransform rmoveto } ifelse
  } forall
  currentpoint cairo_store_point
} bind def
/cairo_selectfont { cairo_font_matrix aload pop pop pop 0 0 6 array astore
    cairo_font exch selectfont cairo_point_x cairo_point_y moveto } bind def
/Tf { pop /cairo_font exch def /cairo_font_matrix where
      { pop cairo_selectfont } if } bind def
/Td { matrix translate cairo_font_matrix matrix concatmatrix dup
      /cairo_font_matrix exch def dup 4 get exch 5 get cairo_store_point
      /cairo_font where { pop cairo_selectfont } if } bind def
/Tm { 2 copy 8 2 roll 6 array astore /cairo_font_matrix exch def
      cairo_store_point /cairo_font where { pop cairo_selectfont } if } bind def
/g { setgray } bind def
/rg { setrgbcolor } bind def
/d1 { setcachedevice } bind def
%%EndProlog
%%BeginSetup
%%EndSetup
%%Page: 1 1
%%BeginPageSetup
%%PageBoundingBox: 76 0 396 472
%%EndPageSetup
q 76 0 320 472 rectclip q
0.937255 g
92 272 m 380 272 l 388.836 272 396 264.836 396 256 c 396 16 l 396 7.164
 388.836 0 380 0 c 92 0 l 83.164 0 76 7.164 76 16 c 76 256 l 76 264.836 
83.164 272 92 272 c h
92 272 m f
0.333333 0.588235 0.360784 rg
356 216 m 356 202.746 345.254 192 332 192 c 318.746 192 308 202.746 308
 216 c 308 229.254 318.746 240 332 240 c 345.254 240 356 229.254 356 216
 c h
356 216 m f
0.45098 0.788235 0.486275 rg
332 184 m 314.328 184 300 198.328 300 216 c 300 233.672 314.328 248 332
 248 c 349.672 248 364 233.672 364 216 c 363.98 198.336 349.664 184.02 332
 184 c h
332 232 m 323.164 232 316 224.836 316 216 c 316 207.164 323.164 200 332
 200 c 340.836 200 348 207.164 348 216 c 347.988 224.832 340.832 231.988
 332 232 c h
332 232 m f
1 0.403922 0.356863 rg
110.344 154.344 m 121.656 165.656 l 169.656 117.656 l 158.344 106.344 l
 h
110.344 154.344 m f
110.344 117.656 m 158.344 165.656 l 169.656 154.344 l 121.656 106.344 l
 h
110.344 117.656 m f
110.344 234.344 m 121.656 245.656 l 169.656 197.656 l 158.344 186.344 l
 h
110.344 234.344 m f
110.344 197.656 m 158.344 245.656 l 169.656 234.344 l 121.656 186.344 l
 h
110.344 197.656 m f
206.344 74.344 m 217.656 85.656 l 265.656 37.656 l 254.344 26.344 l h
206.344 74.344 m f
206.344 37.656 m 254.344 85.656 l 265.656 74.344 l 217.656 26.344 l h
206.344 37.656 m f
302.344 74.344 m 313.656 85.656 l 361.656 37.656 l 350.344 26.344 l h
302.344 74.344 m f
302.344 37.656 m 350.344 85.656 l 361.656 74.344 l 313.656 26.344 l h
302.344 37.656 m f
302.344 154.344 m 313.656 165.656 l 361.656 117.656 l 350.344 106.344 l
 h
302.344 154.344 m f
302.344 117.656 m 350.344 165.656 l 361.656 154.344 l 313.656 106.344 l
 h
302.344 117.656 m f
0.333333 0.588235 0.360784 rg
164 56 m 164 42.746 153.254 32 140 32 c 126.746 32 116 42.746 116 56 c 
116 69.254 126.746 80 140 80 c 153.254 80 164 69.254 164 56 c h
164 56 m f
0.45098 0.788235 0.486275 rg
140 24 m 122.328 24 108 38.328 108 56 c 108 73.672 122.328 88 140 88 c 
157.672 88 172 73.672 172 56 c 171.98 38.336 157.664 24.02 140 24 c h
140 72 m 131.164 72 124 64.836 124 56 c 124 47.164 131.164 40 140 40 c 
148.836 40 156 47.164 156 56 c 155.988 64.832 148.832 71.988 140 72 c h
140 72 m f
0.333333 0.588235 0.360784 rg
260 136 m 260 122.746 249.254 112 236 112 c 222.746 112 212 122.746 212
 136 c 212 149.254 222.746 160 236 160 c 249.254 160 260 149.254 260 136
 c h
260 136 m f
0.45098 0.788235 0.486275 rg
236 104 m 218.328 104 204 118.328 204 136 c 204 153.672 218.328 168 236
 168 c 253.672 168 268 153.672 268 136 c 267.98 118.336 253.664 104.02 236
 104 c h
236 152 m 227.164 152 220 144.836 220 136 c 220 127.164 227.164 120 236
 120 c 244.836 120 252 127.164 252 136 c 251.988 144.832 244.832 151.988
 236 152 c h
236 152 m f
0.639216 g
276 296 m 276 240 l 276 231.164 268.836 224 260 224 c 212 224 l 203.164
 224 196 231.164 196 240 c 196 296 l h
276 296 m f
0.439216 g
212 224 m 260 224 l 260 208 l 260 199.164 252.836 192 244 192 c 228 192
 l 219.164 192 212 199.164 212 208 c h
212 224 m f
1 0.815686 0.290196 rg
316 352 m 316 307.816 280.184 272 236 272 c 191.816 272 156 307.816 156
 352 c 156 396.184 191.816 432 236 432 c 280.184 432 316 396.184 316 352
 c h
316 352 m f
228 472 16 -16 re f
145.492 431.195 m 156.805 442.508 l 168.117 431.195 l 156.805 419.883 l
 h
145.492 431.195 m f
116 360 16 -16 re f
340 360 16 -16 re f
303.883 431.195 m 315.195 442.508 l 326.508 431.195 l 315.195 419.883 l
 h
303.883 431.195 m f
Q Q
showpage
%%Trailer
end restore
%%EOF
