%!PS-Adobe-3.0 EPSF-3.0
%%Creator: cairo 1.14.2 (http://cairographics.org)
%%CreationDate: Thu Jan 17 08:42:36 2019
%%Pages: 1
%%DocumentData: Clean7Bit
%%LanguageLevel: 2
%%BoundingBox: 4 0 468 472
%%EndComments
%%BeginProlog
save
50 dict begin
/q { gsave } bind def
/Q { grestore } bind def
/cm { 6 array astore concat } bind def
/w { setlinewidth } bind def
/J { setlinecap } bind def
/j { setlinejoin } bind def
/M { setmiterlimit } bind def
/d { setdash } bind def
/m { moveto } bind def
/l { lineto } bind def
/c { curveto } bind def
/h { closepath } bind def
/re { exch dup neg 3 1 roll 5 3 roll moveto 0 rlineto
      0 exch rlineto 0 rlineto closepath } bind def
/S { stroke } bind def
/f { fill } bind def
/f* { eofill } bind def
/n { newpath } bind def
/W { clip } bind def
/W* { eoclip } bind def
/BT { } bind def
/ET { } bind def
/pdfmark where { pop globaldict /?pdfmark /exec load put }
    { globaldict begin /?pdfmark /pop load def /pdfmark
    /cleartomark load def end } ifelse
/BDC { mark 3 1 roll /BDC pdfmark } bind def
/EMC { mark /EMC pdfmark } bind def
/cairo_store_point { /cairo_point_y exch def /cairo_point_x exch def } def
/Tj { show currentpoint cairo_store_point } bind def
/TJ {
  {
    dup
    type /stringtype eq
    { show } { -0.001 mul 0 cairo_font_matrix dtransform rmoveto } ifelse
  } forall
  currentpoint cairo_store_point
} bind def
/cairo_selectfont { cairo_font_matrix aload pop pop pop 0 0 6 array astore
    cairo_font exch selectfont cairo_point_x cairo_point_y moveto } bind def
/Tf { pop /cairo_font exch def /cairo_font_matrix where
      { pop cairo_selectfont } if } bind def
/Td { matrix translate cairo_font_matrix matrix concatmatrix dup
      /cairo_font_matrix exch def dup 4 get exch 5 get cairo_store_point
      /cairo_font where { pop cairo_selectfont } if } bind def
/Tm { 2 copy 8 2 roll 6 array astore /cairo_font_matrix exch def
      cairo_store_point /cairo_font where { pop cairo_selectfont } if } bind def
/g { setgray } bind def
/rg { setrgbcolor } bind def
/d1 { setcachedevice } bind def
%%EndProlog
%%BeginSetup
%%EndSetup
%%Page: 1 1
%%BeginPageSetup
%%PageBoundingBox: 4 0 468 472
%%EndPageSetup
q 4 0 464 472 rectclip q
0.937255 g
148 456 m 365.371 456 l 369.617 456 373.688 454.312 376.688 451.312 c 463.312
 364.688 l 466.316 361.688 468 357.617 468 353.371 c 468 0 l 148 0.004 l
 h
148 456 m f
0.839216 g
388 360 m 466.512 360 l 465.734 361.742 464.652 363.328 463.312 364.688
 c 376.688 451.312 l 375.328 452.652 373.742 453.734 372 454.512 c 372 376
 l 372 367.164 379.164 360 388 360 c h
388 360 m f
0.458824 0.756863 1 rg
428 144 m 412 144 l 407.582 144 404 147.582 404 152 c 404 168 l 404 172.418
 407.582 176 412 176 c 428 176 l 432.418 176 436 172.418 436 168 c 436 152
 l 436 147.582 432.418 144 428 144 c h
428 144 m f
1 0.403922 0.356863 rg
348 16.004 m 332 16.004 l 327.582 16.004 324 19.586 324 24.004 c 324 40.004
 l 324 44.422 327.582 48.004 332 48.004 c 348 48.004 l 352.418 48.004 356
 44.422 356 40.004 c 356 24.004 l 356 19.586 352.418 16.004 348 16.004 c
 h
348 16.004 m f
0.737255 g
380.004 24.004 16 -16 re f
380.004 56.004 16 -16 re f
412.004 56.004 32 -16 re f
412.004 24.004 32 -16 re f
364.004 152 16 -15.996 re f
364.004 184 16 -16 re f
316.004 184 32 -16 re f
316.004 152 32 -15.996 re f
428 120.004 16 -16 re f
428 88.004 16 -16 re f
348 88.004 64 -16 re f
348 120.004 64 -16 re f
316 120.004 16 -16 re f
316 88.004 16 -16 re f
0.8 0.6 0.368627 rg
404 208 m 404 240 l 404 244.418 400.418 248 396 248 c 364 248 l 359.582
 248 356 244.418 356 240 c 356 208 l h
404 208 m f
0.701961 0.52549 0.321569 rg
332 216 96 -16 re f
0.8 0.65098 0.231373 rg
372 288 16 -40 re f
1 0.815686 0.290196 rg
364 328 m 396 328 l 400.418 328 404 324.418 404 320 c 404 304 l 404 290.746
 393.258 280 380 280 c 366.746 280 356 290.746 356 304 c 356 320 l 356 324.418
 359.582 328 364 328 c h
364 328 m f
0.901961 0.733333 0.262745 rg
340 320 16 -16 re f
404 320 16 -16 re f
0.901961 0.67451 0.415686 rg
20 176 m 276 176 l 284.84 176 292 168.836 292 160 c 292 144 l 292 135.168
 284.84 128.004 276 128.004 c 20 128.004 l 11.164 128.004 4 135.168 4 144
 c 4 160 l 4 168.836 11.164 176 20 176 c h
20 176 m f
0.8 0.6 0.368627 rg
20 128.004 m 276 128.004 l 276 16.004 l 276 7.168 268.84 0.004 260 0.004
 c 36 0.004 l 27.164 0.004 20 7.168 20 16.004 c h
20 128.004 m f
0.333333 0.588235 0.360784 rg
140 304 16 -128 re f
0.45098 0.788235 0.486275 rg
148 208 m 129.258 208 l 120.77 208 112.629 211.371 106.629 217.371 c 101.375
 222.629 l 95.371 228.629 92 236.77 92 245.254 c 92 264 l 110.746 264 l 
119.234 264 127.371 260.629 133.375 254.629 c 138.629 249.371 l 144.629 
243.371 148 235.23 148 226.746 c h
148 208 m f
0.333333 0.588235 0.360784 rg
52 248 16 -72 re f
0.45098 0.788235 0.486275 rg
60 232 m 41.258 232 l 32.77 232 24.629 235.371 18.629 241.371 c 13.375 
246.629 l 7.371 252.629 4 260.77 4 269.254 c 4 288 l 22.746 288 l 31.234
 288 39.371 284.629 45.375 278.629 c 50.629 273.371 l 56.629 267.371 60 
259.23 60 250.746 c h
60 232 m f
0.333333 0.588235 0.360784 rg
228 248 16 -72 re f
0.45098 0.788235 0.486275 rg
236 232 m 254.746 232 l 263.234 232 271.371 235.371 277.375 241.371 c 282.629
 246.629 l 288.629 252.629 292 260.77 292 269.254 c 292 288 l 273.258 288
 l 264.77 288 256.629 284.629 250.629 278.629 c 245.375 273.371 l 239.371
 267.371 236 259.23 236 250.746 c h
236 232 m f
0.392157 0.686275 0.423529 rg
148 208 m 148 226.746 l 148 235.23 151.371 243.371 157.375 249.371 c 162.629
 254.629 l 168.629 260.629 176.77 264 185.258 264 c 204 264 l 204 245.254
 l 204 236.77 200.629 228.629 194.629 222.629 c 189.375 217.371 l 183.371
 211.371 175.234 208 166.746 208 c h
148 208 m f
1 0.815686 0.290196 rg
236 384 m 236 335.398 196.602 296 148 296 c 99.398 296 60 335.398 60 384
 c 60 432.602 99.398 472 148 472 c 196.602 472 236 432.602 236 384 c h
236 384 m f
0.8 0.65098 0.231373 rg
188 408 m 188 416 l 187.992 424.832 180.832 431.988 172 432 c 156 432 l
 156 448 l 140 448 l 140 432 l 124 432 l 115.168 431.988 108.012 424.832
 108 416 c 108 392 l 108.012 383.168 115.168 376.012 124 376 c 140 376 l
 140 352 l 124 352 l 124 360 l 108 360 l 108 352 l 108.012 343.168 115.168
 336.012 124 336 c 140 336 l 140 320 l 156 320 l 156 336 l 172 336 l 180.832
 336.012 187.992 343.168 188 352 c 188 376 l 187.992 384.832 180.832 391.988
 172 392 c 156 392 l 156 416 l 172 416 l 172 408 l h
172 376 m 172 352 l 156 352 l 156 376 l h
140 392 m 124 392 l 124 416 l 140 416 l h
140 392 m f
Q Q
showpage
%%Trailer
end restore
%%EOF
