%!PS-Adobe-3.0 EPSF-3.0
%%Creator: cairo 1.14.2 (http://cairographics.org)
%%CreationDate: Thu Jan 17 08:42:36 2019
%%Pages: 1
%%DocumentData: Clean7Bit
%%LanguageLevel: 2
%%BoundingBox: 0 0 480 480
%%EndComments
%%BeginProlog
save
50 dict begin
/q { gsave } bind def
/Q { grestore } bind def
/cm { 6 array astore concat } bind def
/w { setlinewidth } bind def
/J { setlinecap } bind def
/j { setlinejoin } bind def
/M { setmiterlimit } bind def
/d { setdash } bind def
/m { moveto } bind def
/l { lineto } bind def
/c { curveto } bind def
/h { closepath } bind def
/re { exch dup neg 3 1 roll 5 3 roll moveto 0 rlineto
      0 exch rlineto 0 rlineto closepath } bind def
/S { stroke } bind def
/f { fill } bind def
/f* { eofill } bind def
/n { newpath } bind def
/W { clip } bind def
/W* { eoclip } bind def
/BT { } bind def
/ET { } bind def
/pdfmark where { pop globaldict /?pdfmark /exec load put }
    { globaldict begin /?pdfmark /pop load def /pdfmark
    /cleartomark load def end } ifelse
/BDC { mark 3 1 roll /BDC pdfmark } bind def
/EMC { mark /EMC pdfmark } bind def
/cairo_store_point { /cairo_point_y exch def /cairo_point_x exch def } def
/Tj { show currentpoint cairo_store_point } bind def
/TJ {
  {
    dup
    type /stringtype eq
    { show } { -0.001 mul 0 cairo_font_matrix dtransform rmoveto } ifelse
  } forall
  currentpoint cairo_store_point
} bind def
/cairo_selectfont { cairo_font_matrix aload pop pop pop 0 0 6 array astore
    cairo_font exch selectfont cairo_point_x cairo_point_y moveto } bind def
/Tf { pop /cairo_font exch def /cairo_font_matrix where
      { pop cairo_selectfont } if } bind def
/Td { matrix translate cairo_font_matrix matrix concatmatrix dup
      /cairo_font_matrix exch def dup 4 get exch 5 get cairo_store_point
      /cairo_font where { pop cairo_selectfont } if } bind def
/Tm { 2 copy 8 2 roll 6 array astore /cairo_font_matrix exch def
      cairo_store_point /cairo_font where { pop cairo_selectfont } if } bind def
/g { setgray } bind def
/rg { setrgbcolor } bind def
/d1 { setcachedevice } bind def
%%EndProlog
%%BeginSetup
%%EndSetup
%%Page: 1 1
%%BeginPageSetup
%%PageBoundingBox: 0 0 480 480
%%EndPageSetup
q 0 0 480 480 rectclip q
1 0.815686 0.290196 rg
350.625 272 m 336 272 l 336 320 l 336 328.836 328.836 336 320 336 c 272
 336 l 272 321.375 l 272.281 304.555 259.836 290.227 243.145 288.148 c 234.152
 287.266 225.207 290.219 218.512 296.285 c 211.82 302.352 208 310.965 208
 320 c 208 336 l 160 336 l 151.164 336 144 328.836 144 320 c 144 272 l 129.375
 272 l 112.555 272.281 98.23 259.836 96.152 243.145 c 95.266 234.152 98.219
 225.207 104.285 218.512 c 110.352 211.82 118.965 208 128 208 c 144 208 
l 144 160 l 144 151.164 151.164 144 160 144 c 208 144 l 208 158.625 l 207.719
 175.445 220.164 189.773 236.855 191.852 c 245.848 192.734 254.793 189.781
 261.488 183.715 c 268.18 177.648 272 169.035 272 160 c 272 144 l 320 144
 l 328.836 144 336 151.164 336 160 c 336 208 l 352 208 l 361.035 208 369.648
 211.82 375.715 218.512 c 381.781 225.207 384.734 234.152 383.848 243.145
 c 381.77 259.836 367.445 272.281 350.625 272 c h
350.625 272 m f
0.8 0.6 0.368627 rg
0 336 m 56 336 l 64.836 336 72 328.836 72 320 c 72 272 l 57.375 272 l 40.555
 272.281 26.23 259.836 24.152 243.145 c 23.266 234.152 26.219 225.207 32.285
 218.512 c 38.352 211.82 46.965 208 56 208 c 72 208 l 72 160 l 72 151.164
 64.836 144 56 144 c 0 144 l h
0 336 m f
0.458824 0.756863 1 rg
144 480 m 144 424 l 144 415.164 151.164 408 160 408 c 208 408 l 208 393.375
 l 207.719 376.555 220.164 362.227 236.855 360.148 c 245.848 359.266 254.793
 362.219 261.488 368.285 c 268.18 374.352 272 382.965 272 392 c 272 408 
l 320 408 l 328.836 408 336 415.164 336 424 c 336 480 l h
144 480 m f
0.45098 0.788235 0.486275 rg
480 144 m 424 144 l 415.164 144 408 151.164 408 160 c 408 208 l 422.625
 208 l 439.445 207.719 453.77 220.164 455.848 236.855 c 456.734 245.848 
453.781 254.793 447.715 261.488 c 441.648 268.18 433.035 272 424 272 c 408
 272 l 408 320 l 408 328.836 415.164 336 424 336 c 480 336 l h
480 144 m f
1 0.403922 0.356863 rg
336 0 m 336 56 l 336 64.836 328.836 72 320 72 c 272 72 l 272 86.625 l 272.281
 103.445 259.836 117.773 243.145 119.852 c 234.152 120.734 225.207 117.781
 218.512 111.715 c 211.82 105.648 208 97.035 208 88 c 208 72 l 160 72 l 
151.164 72 144 64.836 144 56 c 144 0 l h
336 0 m f
Q Q
showpage
%%Trailer
end restore
%%EOF
