%!PS-Adobe-3.0 EPSF-3.0
%%Creator: cairo 1.14.2 (http://cairographics.org)
%%CreationDate: Thu Jan 17 08:42:36 2019
%%Pages: 1
%%DocumentData: Clean7Bit
%%LanguageLevel: 2
%%BoundingBox: 0 48 464 416
%%EndComments
%%BeginProlog
save
50 dict begin
/q { gsave } bind def
/Q { grestore } bind def
/cm { 6 array astore concat } bind def
/w { setlinewidth } bind def
/J { setlinecap } bind def
/j { setlinejoin } bind def
/M { setmiterlimit } bind def
/d { setdash } bind def
/m { moveto } bind def
/l { lineto } bind def
/c { curveto } bind def
/h { closepath } bind def
/re { exch dup neg 3 1 roll 5 3 roll moveto 0 rlineto
      0 exch rlineto 0 rlineto closepath } bind def
/S { stroke } bind def
/f { fill } bind def
/f* { eofill } bind def
/n { newpath } bind def
/W { clip } bind def
/W* { eoclip } bind def
/BT { } bind def
/ET { } bind def
/pdfmark where { pop globaldict /?pdfmark /exec load put }
    { globaldict begin /?pdfmark /pop load def /pdfmark
    /cleartomark load def end } ifelse
/BDC { mark 3 1 roll /BDC pdfmark } bind def
/EMC { mark /EMC pdfmark } bind def
/cairo_store_point { /cairo_point_y exch def /cairo_point_x exch def } def
/Tj { show currentpoint cairo_store_point } bind def
/TJ {
  {
    dup
    type /stringtype eq
    { show } { -0.001 mul 0 cairo_font_matrix dtransform rmoveto } ifelse
  } forall
  currentpoint cairo_store_point
} bind def
/cairo_selectfont { cairo_font_matrix aload pop pop pop 0 0 6 array astore
    cairo_font exch selectfont cairo_point_x cairo_point_y moveto } bind def
/Tf { pop /cairo_font exch def /cairo_font_matrix where
      { pop cairo_selectfont } if } bind def
/Td { matrix translate cairo_font_matrix matrix concatmatrix dup
      /cairo_font_matrix exch def dup 4 get exch 5 get cairo_store_point
      /cairo_font where { pop cairo_selectfont } if } bind def
/Tm { 2 copy 8 2 roll 6 array astore /cairo_font_matrix exch def
      cairo_store_point /cairo_font where { pop cairo_selectfont } if } bind def
/g { setgray } bind def
/rg { setrgbcolor } bind def
/d1 { setcachedevice } bind def
%%EndProlog
%%BeginSetup
%%EndSetup
%%Page: 1 1
%%BeginPageSetup
%%PageBoundingBox: 0 48 464 416
%%EndPageSetup
q 0 48 464 368 rectclip q
0.937255 g
456 88 m 8 88 l 3.582 88 0 84.418 0 80 c 0 64 l 0 55.164 7.164 48 16 48
 c 448 48 l 456.836 48 464 55.164 464 64 c 464 80 l 464 84.418 460.418 88
 456 88 c h
456 88 m f
0.458824 0.756863 1 rg
416 88 m 416 400 l 416 408.836 408.836 416 400 416 c 64 416 l 55.164 416
 48 408.836 48 400 c 48 88 l h
416 88 m f
0.839216 g
16 336 m 176 336 l 184.836 336 192 328.836 192 320 c 192 152 l 192 143.164
 184.836 136 176 136 c 16 136 l 7.164 136 0 143.164 0 152 c 0 320 l 0 328.836
 7.164 336 16 336 c h
16 336 m f
0.890196 g
152 368 m 312 368 l 320.836 368 328 360.836 328 352 c 328 192 l 328 183.164
 320.836 176 312 176 c 152 176 l 143.164 176 136 183.164 136 192 c 136 352
 l 136 360.836 143.164 368 152 368 c h
152 368 m f
0.937255 g
288 328 m 448 328 l 456.836 328 464 320.836 464 312 c 464 152 l 464 143.164
 456.836 136 448 136 c 288 136 l 279.164 136 272 143.164 272 152 c 272 312
 l 272 320.836 279.164 328 288 328 c h
288 328 m f
1 0.403922 0.356863 rg
408 224 m 407.988 232.832 400.832 239.988 392 240 c 376 240 l 376 264 l
 392 264 l 392 256 l 408 256 l 408 264 l 407.988 272.832 400.832 279.988
 392 280 c 376 280 l 376 296 l 360 296 l 360 280 l 344 280 l 335.168 279.988
 328.012 272.832 328 264 c 328 240 l 328.012 231.168 335.168 224.012 344
 224 c 360 224 l 360 200 l 344 200 l 344 208 l 328 208 l 328 200 l 328.012
 191.168 335.168 184.012 344 184 c 360 184 l 360 168 l 376 168 l 376 184
 l 392 184 l 400.832 184.012 407.988 191.168 408 200 c h
344 240 m 344 264 l 360 264 l 360 240 l h
392 200 m 376 200 l 376 224 l 392 224 l h
392 200 m f
0.737255 g
312 280 m 312.004 284.418 315.582 287.996 320 288 c 328 288 l 328 304 l
 320 304 l 306.75 303.984 296.016 293.25 296 280 c 296 264 l 312 264 l h
312 280 m f
312 184 m 312 192 l 296 192 l 296 184 l 296.016 170.75 306.75 160.016 320
 160 c 328 160 l 328 176 l 320 176 l 315.582 176.004 312.004 179.582 312
 184 c h
312 184 m f
424 184 m 423.996 179.582 420.418 176.004 416 176 c 408 176 l 408 160 l
 416 160 l 429.25 160.016 439.984 170.75 440 184 c 440 192 l 424 192 l h
424 184 m f
416 304 m 408 304 l 408 288 l 416 288 l 420.418 287.996 423.996 284.418
 424 280 c 424 272 l 440 272 l 440 280 l 439.984 293.25 429.25 303.984 416
 304 c h
416 304 m f
0.45098 0.788235 0.486275 rg
176 336 m 192 336 l 196.418 336 200 332.418 200 328 c 200 312 l 200 307.582
 196.418 304 192 304 c 176 304 l 171.582 304 168 307.582 168 312 c 168 328
 l 168 332.418 171.582 336 176 336 c h
176 336 m f
0.737255 g
160 280 16 -16 re f
192 280 56 -16 re f
160 248 16 -16 re f
192 248 56 -16 re f
160 216 16 -16 re f
192 216 56 -16 re f
224 312 24 -16 re f
224 344 24 -16 re f
0.686275 g
24 184 16 -16 re f
56 184 56 -16 re f
1 0.815686 0.290196 rg
128 256 m 128 229.492 106.508 208 80 208 c 53.492 208 32 229.492 32 256
 c 32 282.508 53.492 304 80 304 c 106.508 304 128 282.508 128 256 c h
128 256 m f
1 0.403922 0.356863 rg
80 304 m 80 272 l 80 263.164 87.164 256 96 256 c 128 256 l 128 282.508 
106.508 304 80 304 c h
80 304 m f
Q Q
showpage
%%Trailer
end restore
%%EOF
