%!PS-Adobe-3.0 EPSF-3.0
%%Creator: cairo 1.14.2 (http://cairographics.org)
%%CreationDate: Thu Jan 17 08:42:36 2019
%%Pages: 1
%%DocumentData: Clean7Bit
%%LanguageLevel: 2
%%BoundingBox: 0 8 480 472
%%EndComments
%%BeginProlog
save
50 dict begin
/q { gsave } bind def
/Q { grestore } bind def
/cm { 6 array astore concat } bind def
/w { setlinewidth } bind def
/J { setlinecap } bind def
/j { setlinejoin } bind def
/M { setmiterlimit } bind def
/d { setdash } bind def
/m { moveto } bind def
/l { lineto } bind def
/c { curveto } bind def
/h { closepath } bind def
/re { exch dup neg 3 1 roll 5 3 roll moveto 0 rlineto
      0 exch rlineto 0 rlineto closepath } bind def
/S { stroke } bind def
/f { fill } bind def
/f* { eofill } bind def
/n { newpath } bind def
/W { clip } bind def
/W* { eoclip } bind def
/BT { } bind def
/ET { } bind def
/pdfmark where { pop globaldict /?pdfmark /exec load put }
    { globaldict begin /?pdfmark /pop load def /pdfmark
    /cleartomark load def end } ifelse
/BDC { mark 3 1 roll /BDC pdfmark } bind def
/EMC { mark /EMC pdfmark } bind def
/cairo_store_point { /cairo_point_y exch def /cairo_point_x exch def } def
/Tj { show currentpoint cairo_store_point } bind def
/TJ {
  {
    dup
    type /stringtype eq
    { show } { -0.001 mul 0 cairo_font_matrix dtransform rmoveto } ifelse
  } forall
  currentpoint cairo_store_point
} bind def
/cairo_selectfont { cairo_font_matrix aload pop pop pop 0 0 6 array astore
    cairo_font exch selectfont cairo_point_x cairo_point_y moveto } bind def
/Tf { pop /cairo_font exch def /cairo_font_matrix where
      { pop cairo_selectfont } if } bind def
/Td { matrix translate cairo_font_matrix matrix concatmatrix dup
      /cairo_font_matrix exch def dup 4 get exch 5 get cairo_store_point
      /cairo_font where { pop cairo_selectfont } if } bind def
/Tm { 2 copy 8 2 roll 6 array astore /cairo_font_matrix exch def
      cairo_store_point /cairo_font where { pop cairo_selectfont } if } bind def
/g { setgray } bind def
/rg { setrgbcolor } bind def
/d1 { setcachedevice } bind def
%%EndProlog
%%BeginSetup
%%EndSetup
%%Page: 1 1
%%BeginPageSetup
%%PageBoundingBox: 0 8 480 472
%%EndPageSetup
q 0 8 480 464 rectclip q
0.839216 g
48 472 m 432 472 l 440.836 472 448 464.836 448 456 c 448 440 l 448 431.164
 440.836 424 432 424 c 48 424 l 39.164 424 32 431.164 32 440 c 32 456 l 
32 464.836 39.164 472 48 472 c h
48 472 m f
0.537255 g
0 456 32 -16 re f
448 456 32 -16 re f
0.937255 g
56 424 m 424 424 l 424 24 l 424 15.164 416.836 8 408 8 c 72 8 l 63.164 
8 56 15.164 56 24 c h
56 424 m f
0.45098 0.788235 0.486275 rg
152 360 m 116.652 360 88 331.348 88 296 c 88 260.652 116.652 232 152 232
 c 187.348 232 216 260.652 216 296 c 216 331.348 187.348 360 152 360 c f
0.392157 0.686275 0.423529 rg
216 296 m 168 296 l 159.164 296 152 303.164 152 312 c 152 360 l 187.348
 360 216 331.348 216 296 c h
216 296 m f
0.639216 g
288 312 m 368 312 l 372.418 312 376 308.418 376 304 c 376 288 l 376 283.582
 372.418 280 368 280 c 288 280 l 283.582 280 280 283.582 280 288 c 280 304
 l 280 308.418 283.582 312 288 312 c h
288 312 m f
288 248 m 384 248 l 388.418 248 392 244.418 392 240 c 392 224 l 392 219.582
 388.418 216 384 216 c 288 216 l 283.582 216 280 219.582 280 224 c 280 240
 l 280 244.418 283.582 248 288 248 c h
288 248 m f
240 304 16 -16 re f
240 240 16 -16 re f
288 376 m 352 376 l 356.418 376 360 372.418 360 368 c 360 352 l 360 347.582
 356.418 344 352 344 c 288 344 l 283.582 344 280 347.582 280 352 c 280 368
 l 280 372.418 283.582 376 288 376 c h
288 376 m f
240 368 16 -16 re f
1 0.815686 0.290196 rg
128 120 m 160 120 l 168.836 120 176 112.836 176 104 c 176 56 l 176 47.164
 168.836 40 160 40 c 128 40 l 119.164 40 112 47.164 112 56 c 112 104 l 112
 112.836 119.164 120 128 120 c h
128 120 m f
0.45098 0.788235 0.486275 rg
224 96 m 256 96 l 264.836 96 272 88.836 272 80 c 272 56 l 272 47.164 264.836
 40 256 40 c 224 40 l 215.164 40 208 47.164 208 56 c 208 80 l 208 88.836
 215.164 96 224 96 c h
224 96 m f
1 0.403922 0.356863 rg
320 120 m 352 120 l 360.836 120 368 112.836 368 104 c 368 56 l 368 47.164
 360.836 40 352 40 c 320 40 l 311.164 40 304 47.164 304 56 c 304 104 l 304
 112.836 311.164 120 320 120 c h
320 120 m f
0.364706 0.603922 0.8 rg
157.191 160.508 m 162.809 175.492 l 226.809 151.492 l 221.191 136.508 l
 h
157.191 160.508 m f
253.191 151.48 m 317.184 175.504 l 322.809 160.52 l 258.816 136.496 l h
253.191 151.48 m f
136 184 m 152 184 l 156.418 184 160 180.418 160 176 c 160 160 l 160 155.582
 156.418 152 152 152 c 136 152 l 131.582 152 128 155.582 128 160 c 128 176
 l 128 180.418 131.582 184 136 184 c h
136 184 m f
0.458824 0.756863 1 rg
152 144 m 136 144 l 127.168 144.012 120.012 151.168 120 160 c 120 176 l
 120.012 184.832 127.168 191.988 136 192 c 152 192 l 160.832 191.988 167.988
 184.832 168 176 c 168 160 l 167.988 151.168 160.832 144.012 152 144 c h
136 176 m 136 160 l 152.016 160 l 152 176 l h
136 176 m f
0.364706 0.603922 0.8 rg
232 160 m 248 160 l 252.418 160 256 156.418 256 152 c 256 136 l 256 131.582
 252.418 128 248 128 c 232 128 l 227.582 128 224 131.582 224 136 c 224 152
 l 224 156.418 227.582 160 232 160 c h
232 160 m f
0.458824 0.756863 1 rg
248 120 m 232 120 l 223.168 120.012 216.012 127.168 216 136 c 216 152 l
 216.012 160.832 223.168 167.988 232 168 c 248 168 l 256.832 167.988 263.988
 160.832 264 152 c 264 136 l 263.988 127.168 256.832 120.012 248 120 c h
232 152 m 232 136 l 248.016 136 l 248 152 l h
232 152 m f
0.364706 0.603922 0.8 rg
328 184 m 344 184 l 348.418 184 352 180.418 352 176 c 352 160 l 352 155.582
 348.418 152 344 152 c 328 152 l 323.582 152 320 155.582 320 160 c 320 176
 l 320 180.418 323.582 184 328 184 c h
328 184 m f
0.458824 0.756863 1 rg
344 144 m 328 144 l 319.168 144.012 312.012 151.168 312 160 c 312 176 l
 312.012 184.832 319.168 191.988 328 192 c 344 192 l 352.832 191.988 359.988
 184.832 360 176 c 360 160 l 359.988 151.168 352.832 144.012 344 144 c h
328 176 m 328 160 l 344.016 160 l 344 176 l h
328 176 m f
Q Q
showpage
%%Trailer
end restore
%%EOF
