%!PS-Adobe-3.0 EPSF-3.0
%%Creator: cairo 1.14.2 (http://cairographics.org)
%%CreationDate: Thu Jan 17 08:42:36 2019
%%Pages: 1
%%DocumentData: Clean7Bit
%%LanguageLevel: 2
%%BoundingBox: 4 0 468 472
%%EndComments
%%BeginProlog
save
50 dict begin
/q { gsave } bind def
/Q { grestore } bind def
/cm { 6 array astore concat } bind def
/w { setlinewidth } bind def
/J { setlinecap } bind def
/j { setlinejoin } bind def
/M { setmiterlimit } bind def
/d { setdash } bind def
/m { moveto } bind def
/l { lineto } bind def
/c { curveto } bind def
/h { closepath } bind def
/re { exch dup neg 3 1 roll 5 3 roll moveto 0 rlineto
      0 exch rlineto 0 rlineto closepath } bind def
/S { stroke } bind def
/f { fill } bind def
/f* { eofill } bind def
/n { newpath } bind def
/W { clip } bind def
/W* { eoclip } bind def
/BT { } bind def
/ET { } bind def
/pdfmark where { pop globaldict /?pdfmark /exec load put }
    { globaldict begin /?pdfmark /pop load def /pdfmark
    /cleartomark load def end } ifelse
/BDC { mark 3 1 roll /BDC pdfmark } bind def
/EMC { mark /EMC pdfmark } bind def
/cairo_store_point { /cairo_point_y exch def /cairo_point_x exch def } def
/Tj { show currentpoint cairo_store_point } bind def
/TJ {
  {
    dup
    type /stringtype eq
    { show } { -0.001 mul 0 cairo_font_matrix dtransform rmoveto } ifelse
  } forall
  currentpoint cairo_store_point
} bind def
/cairo_selectfont { cairo_font_matrix aload pop pop pop 0 0 6 array astore
    cairo_font exch selectfont cairo_point_x cairo_point_y moveto } bind def
/Tf { pop /cairo_font exch def /cairo_font_matrix where
      { pop cairo_selectfont } if } bind def
/Td { matrix translate cairo_font_matrix matrix concatmatrix dup
      /cairo_font_matrix exch def dup 4 get exch 5 get cairo_store_point
      /cairo_font where { pop cairo_selectfont } if } bind def
/Tm { 2 copy 8 2 roll 6 array astore /cairo_font_matrix exch def
      cairo_store_point /cairo_font where { pop cairo_selectfont } if } bind def
/g { setgray } bind def
/rg { setrgbcolor } bind def
/d1 { setcachedevice } bind def
%%EndProlog
%%BeginSetup
%%EndSetup
%%Page: 1 1
%%BeginPageSetup
%%PageBoundingBox: 4 0 468 472
%%EndPageSetup
q 4 0 464 472 rectclip q
0.839216 g
140 112 16 -104 re f
0.937255 g
100 232 m 196 232 l 204.836 232 212 224.836 212 216 c 212 168 l 212 132.652
 183.348 104 148 104 c 112.652 104 84 132.652 84 168 c 84 216 l 84 224.836
 91.164 232 100 232 c h
100 232 m f
0.839216 g
316 112 16 -104 re f
0.937255 g
92 16 112 -16 re f
276 232 m 372 232 l 380.836 232 388 224.836 388 216 c 388 168 l 388 132.652
 359.348 104 324 104 c 288.652 104 260 132.652 260 168 c 260 216 l 260 224.836
 267.164 232 276 232 c h
276 232 m f
268 16 112 -16 re f
1 0.815686 0.290196 rg
196 472 m 20 472 l 11.164 472 4 464.836 4 456 c 4 312 l 4 303.164 11.164
 296 20 296 c 44 296 l 44 265.656 l 44 264.039 44.977 262.582 46.469 261.961
 c 47.965 261.344 49.684 261.684 50.828 262.828 c 84 296 l 196 296 l 204.836
 296 212 303.164 212 312 c 212 456 l 212 464.836 204.836 472 196 472 c h
196 472 m f
0.45098 0.788235 0.486275 rg
276 472 m 452 472 l 460.836 472 468 464.836 468 456 c 468 312 l 468 303.164
 460.836 296 452 296 c 428 296 l 428 265.656 l 428 264.039 427.023 262.582
 425.531 261.961 c 424.035 261.344 422.316 261.684 421.172 262.828 c 388
 296 l 268 296 l 259.164 296 260 303.164 260 312 c 260 456 l 260 464.836
 267.164 472 276 472 c h
276 472 m f
0.8 0.65098 0.231373 rg
108 408 m 108 416 l 107.992 424.832 100.832 431.992 92 432 c 76 432 l 76
 448 l 60 448 l 60 432 l 44 432 l 35.168 431.992 28.008 424.832 28 416 c
 28 392 l 28.008 383.168 35.168 376.008 44 376 c 60 376 l 60 352 l 44 352
 l 44 360 l 28 360 l 28 352 l 28.008 343.168 35.168 336.008 44 336 c 60 
336 l 60 320 l 76 320 l 76 336 l 92 336 l 100.832 336.008 107.992 343.168
 108 352 c 108 376 l 107.992 384.832 100.832 391.992 92 392 c 76 392 l 76
 416 l 92 416 l 92 408 l h
92 376 m 92 352 l 76 352 l 76 376 l h
60 392 m 44 392 l 44 416 l 60 416 l h
60 392 m f
124 360 16 -16 re f
156 360 32 -16 re f
124 392 16 -16 re f
156 392 32 -16 re f
124 424 16 -16 re f
156 424 32 -16 re f
1 0.815686 0.290196 rg
420 384 m 420 353.07 394.93 328 364 328 c 333.07 328 308 353.07 308 384
 c 308 414.93 333.07 440 364 440 c 394.93 440 420 414.93 420 384 c h
420 384 m f
0.901961 0.733333 0.258824 rg
364 328 m 364 368 l 364 376.836 356.836 384 348 384 c 308 384 l 308 353.07
 333.07 328 364 328 c h
364 328 m f
1 0.403922 0.356863 rg
84 184 m 212 184 l 212 168 l 212 132.652 183.348 104 148 104 c 112.652 
104 84 132.652 84 168 c h
84 184 m f
260 184 m 388 184 l 388 168 l 388 132.652 359.348 104 324 104 c 288.652
 104 260 132.652 260 168 c h
260 184 m f
Q Q
showpage
%%Trailer
end restore
%%EOF
