%!PS-Adobe-3.0 EPSF-3.0
%%Creator: cairo 1.14.2 (http://cairographics.org)
%%CreationDate: Thu Jan 17 08:42:36 2019
%%Pages: 1
%%DocumentData: Clean7Bit
%%LanguageLevel: 2
%%BoundingBox: 0 48 480 432
%%EndComments
%%BeginProlog
save
50 dict begin
/q { gsave } bind def
/Q { grestore } bind def
/cm { 6 array astore concat } bind def
/w { setlinewidth } bind def
/J { setlinecap } bind def
/j { setlinejoin } bind def
/M { setmiterlimit } bind def
/d { setdash } bind def
/m { moveto } bind def
/l { lineto } bind def
/c { curveto } bind def
/h { closepath } bind def
/re { exch dup neg 3 1 roll 5 3 roll moveto 0 rlineto
      0 exch rlineto 0 rlineto closepath } bind def
/S { stroke } bind def
/f { fill } bind def
/f* { eofill } bind def
/n { newpath } bind def
/W { clip } bind def
/W* { eoclip } bind def
/BT { } bind def
/ET { } bind def
/pdfmark where { pop globaldict /?pdfmark /exec load put }
    { globaldict begin /?pdfmark /pop load def /pdfmark
    /cleartomark load def end } ifelse
/BDC { mark 3 1 roll /BDC pdfmark } bind def
/EMC { mark /EMC pdfmark } bind def
/cairo_store_point { /cairo_point_y exch def /cairo_point_x exch def } def
/Tj { show currentpoint cairo_store_point } bind def
/TJ {
  {
    dup
    type /stringtype eq
    { show } { -0.001 mul 0 cairo_font_matrix dtransform rmoveto } ifelse
  } forall
  currentpoint cairo_store_point
} bind def
/cairo_selectfont { cairo_font_matrix aload pop pop pop 0 0 6 array astore
    cairo_font exch selectfont cairo_point_x cairo_point_y moveto } bind def
/Tf { pop /cairo_font exch def /cairo_font_matrix where
      { pop cairo_selectfont } if } bind def
/Td { matrix translate cairo_font_matrix matrix concatmatrix dup
      /cairo_font_matrix exch def dup 4 get exch 5 get cairo_store_point
      /cairo_font where { pop cairo_selectfont } if } bind def
/Tm { 2 copy 8 2 roll 6 array astore /cairo_font_matrix exch def
      cairo_store_point /cairo_font where { pop cairo_selectfont } if } bind def
/g { setgray } bind def
/rg { setrgbcolor } bind def
/d1 { setcachedevice } bind def
%%EndProlog
%%BeginSetup
%%EndSetup
%%Page: 1 1
%%BeginPageSetup
%%PageBoundingBox: 0 48 480 432
%%EndPageSetup
q 0 48 480 384 rectclip q
0.45098 0.788235 0.486275 rg
368 336 m 400 336 l 408.836 336 416 328.836 416 320 c 416 56 l 352 56 l
 352 320 l 352 328.836 359.164 336 368 336 c h
368 336 m f
264 248 m 296 248 l 304.836 248 312 240.836 312 232 c 312 56 l 248 56 l
 248 232 l 248 240.836 255.164 248 264 248 c h
264 248 m f
160 288 m 192 288 l 200.836 288 208 280.836 208 272 c 208 56 l 144 56 l
 144 272 l 144 280.836 151.164 288 160 288 c h
160 288 m f
56 208 m 88 208 l 96.836 208 104 200.836 104 192 c 104 56 l 40 56 l 40 
192 l 40 200.836 47.164 208 56 208 c h
56 208 m f
0.639216 g
464 64 16 -16 re f
448 48 m 24 48 l 10.75 48.016 0.016 58.75 0 72 c 0 392 l 16 392 l 16 72
 l 16.004 67.582 19.582 64.004 24 64 c 448 64 l h
448 48 m f
0 424 16 -16 re f
0.8 0.65098 0.231373 rg
82.051 285.355 m 154.059 365.348 l 165.949 354.645 l 93.941 274.652 l h
82.051 285.355 m f
188.117 353.008 m 195.883 366.992 l 267.883 326.992 l 260.117 313.008 l
 h
188.117 353.008 m f
290.051 325.355 m 362.059 405.348 l 373.949 394.645 l 301.941 314.652 l
 h
290.051 325.355 m f
64 296 m 80 296 l 84.418 296 88 292.418 88 288 c 88 272 l 88 267.582 84.418
 264 80 264 c 64 264 l 59.582 264 56 267.582 56 272 c 56 288 l 56 292.418
 59.582 296 64 296 c h
64 296 m f
1 0.815686 0.290196 rg
80 256 m 64 256 l 55.168 256.012 48.012 263.168 48 272 c 48 288 l 48.012
 296.832 55.168 303.988 64 304 c 80 304 l 88.832 303.988 95.988 296.832 
96 288 c 96 272 l 95.988 263.168 88.832 256.012 80 256 c h
64 288 m 64 272 l 80.008 272 l 80 288 l h
64 288 m f
0.8 0.65098 0.231373 rg
168 376 m 184 376 l 188.418 376 192 372.418 192 368 c 192 352 l 192 347.582
 188.418 344 184 344 c 168 344 l 163.582 344 160 347.582 160 352 c 160 368
 l 160 372.418 163.582 376 168 376 c h
168 376 m f
1 0.815686 0.290196 rg
184 336 m 168 336 l 159.168 336.012 152.012 343.168 152 352 c 152 368 l
 152.012 376.832 159.168 383.988 168 384 c 184 384 l 192.832 383.988 199.988
 376.832 200 368 c 200 352 l 199.988 343.168 192.832 336.012 184 336 c h
168 368 m 168 352 l 184.008 352 l 184 368 l h
168 368 m f
0.8 0.65098 0.231373 rg
272 336 m 288 336 l 292.418 336 296 332.418 296 328 c 296 312 l 296 307.582
 292.418 304 288 304 c 272 304 l 267.582 304 264 307.582 264 312 c 264 328
 l 264 332.418 267.582 336 272 336 c h
272 336 m f
1 0.815686 0.290196 rg
288 296 m 272 296 l 263.168 296.012 256.012 303.168 256 312 c 256 328 l
 256.012 336.832 263.168 343.988 272 344 c 288 344 l 296.832 343.988 303.988
 336.832 304 328 c 304 312 l 303.988 303.168 296.832 296.012 288 296 c h
272 328 m 272 312 l 288.008 312 l 288 328 l h
272 328 m f
0.8 0.65098 0.231373 rg
376 424 m 392 424 l 396.418 424 400 420.418 400 416 c 400 400 l 400 395.582
 396.418 392 392 392 c 376 392 l 371.582 392 368 395.582 368 400 c 368 416
 l 368 420.418 371.582 424 376 424 c h
376 424 m f
1 0.815686 0.290196 rg
392 384 m 376 384 l 367.168 384.012 360.012 391.168 360 400 c 360 416 l
 360.012 424.832 367.168 431.988 376 432 c 392 432 l 400.832 431.988 407.988
 424.832 408 416 c 408 400 l 407.988 391.168 400.832 384.012 392 384 c h
376 416 m 376 400 l 392.008 400 l 392 416 l h
376 416 m f
Q Q
showpage
%%Trailer
end restore
%%EOF
