%!PS-Adobe-3.0 EPSF-3.0
%%Creator: cairo 1.14.2 (http://cairographics.org)
%%CreationDate: Thu Jan 17 08:42:36 2019
%%Pages: 1
%%DocumentData: Clean7Bit
%%LanguageLevel: 2
%%BoundingBox: 0 0 480 480
%%EndComments
%%BeginProlog
save
50 dict begin
/q { gsave } bind def
/Q { grestore } bind def
/cm { 6 array astore concat } bind def
/w { setlinewidth } bind def
/J { setlinecap } bind def
/j { setlinejoin } bind def
/M { setmiterlimit } bind def
/d { setdash } bind def
/m { moveto } bind def
/l { lineto } bind def
/c { curveto } bind def
/h { closepath } bind def
/re { exch dup neg 3 1 roll 5 3 roll moveto 0 rlineto
      0 exch rlineto 0 rlineto closepath } bind def
/S { stroke } bind def
/f { fill } bind def
/f* { eofill } bind def
/n { newpath } bind def
/W { clip } bind def
/W* { eoclip } bind def
/BT { } bind def
/ET { } bind def
/pdfmark where { pop globaldict /?pdfmark /exec load put }
    { globaldict begin /?pdfmark /pop load def /pdfmark
    /cleartomark load def end } ifelse
/BDC { mark 3 1 roll /BDC pdfmark } bind def
/EMC { mark /EMC pdfmark } bind def
/cairo_store_point { /cairo_point_y exch def /cairo_point_x exch def } def
/Tj { show currentpoint cairo_store_point } bind def
/TJ {
  {
    dup
    type /stringtype eq
    { show } { -0.001 mul 0 cairo_font_matrix dtransform rmoveto } ifelse
  } forall
  currentpoint cairo_store_point
} bind def
/cairo_selectfont { cairo_font_matrix aload pop pop pop 0 0 6 array astore
    cairo_font exch selectfont cairo_point_x cairo_point_y moveto } bind def
/Tf { pop /cairo_font exch def /cairo_font_matrix where
      { pop cairo_selectfont } if } bind def
/Td { matrix translate cairo_font_matrix matrix concatmatrix dup
      /cairo_font_matrix exch def dup 4 get exch 5 get cairo_store_point
      /cairo_font where { pop cairo_selectfont } if } bind def
/Tm { 2 copy 8 2 roll 6 array astore /cairo_font_matrix exch def
      cairo_store_point /cairo_font where { pop cairo_selectfont } if } bind def
/g { setgray } bind def
/rg { setrgbcolor } bind def
/d1 { setcachedevice } bind def
%%EndProlog
%%BeginSetup
%%EndSetup
%%Page: 1 1
%%BeginPageSetup
%%PageBoundingBox: 0 0 480 480
%%EndPageSetup
q 0 0 480 480 rectclip q
0.8 0.65098 0.231373 rg
155.203 441.602 m 164.797 454.398 l 228.797 406.398 l 219.203 393.602 l
 h
155.203 441.602 m f
347.203 441.602 m 356.797 454.398 l 420.797 406.398 l 411.203 393.602 l
 h
347.203 441.602 m f
251.199 406.406 m 315.207 454.391 l 324.801 441.594 l 260.793 393.609 l
 h
251.199 406.406 m f
59.199 406.406 m 123.207 454.391 l 132.801 441.594 l 68.793 393.609 l h
59.199 406.406 m f
136 472 m 152 472 l 156.418 472 160 468.418 160 464 c 160 448 l 160 443.582
 156.418 440 152 440 c 136 440 l 131.582 440 128 443.582 128 448 c 128 464
 l 128 468.418 131.582 472 136 472 c h
136 472 m f
1 0.815686 0.290196 rg
152 432 m 136 432 l 127.168 432.012 120.012 439.168 120 448 c 120 464 l
 120.012 472.832 127.168 479.988 136 480 c 152 480 l 160.832 479.988 167.988
 472.832 168 464 c 168 448 l 167.988 439.168 160.832 432.012 152 432 c h
136 464 m 136 448 l 152.016 448 l 152 464 l h
136 464 m f
0.8 0.65098 0.231373 rg
232 408 m 248 408 l 252.418 408 256 404.418 256 400 c 256 384 l 256 379.582
 252.418 376 248 376 c 232 376 l 227.582 376 224 379.582 224 384 c 224 400
 l 224 404.418 227.582 408 232 408 c h
232 408 m f
1 0.815686 0.290196 rg
248 368 m 232 368 l 223.168 368.012 216.012 375.168 216 384 c 216 400 l
 216.012 408.832 223.168 415.988 232 416 c 248 416 l 256.832 415.988 263.988
 408.832 264 400 c 264 384 l 263.988 375.168 256.832 368.012 248 368 c h
232 400 m 232 384 l 248.016 384 l 248 400 l h
232 400 m f
0.8 0.65098 0.231373 rg
328 472 m 344 472 l 348.418 472 352 468.418 352 464 c 352 448 l 352 443.582
 348.418 440 344 440 c 328 440 l 323.582 440 320 443.582 320 448 c 320 464
 l 320 468.418 323.582 472 328 472 c h
328 472 m f
1 0.815686 0.290196 rg
344 432 m 328 432 l 319.168 432.012 312.012 439.168 312 448 c 312 464 l
 312.012 472.832 319.168 479.988 328 480 c 344 480 l 352.832 479.988 359.988
 472.832 360 464 c 360 448 l 359.988 439.168 352.832 432.012 344 432 c h
328 464 m 328 448 l 344.016 448 l 344 464 l h
328 464 m f
0.8 0.65098 0.231373 rg
0 400 32 -16 re f
448 400 32 -16 re f
424 408 m 440 408 l 444.418 408 448 404.418 448 400 c 448 384 l 448 379.582
 444.418 376 440 376 c 424 376 l 419.582 376 416 379.582 416 384 c 416 400
 l 416 404.418 419.582 408 424 408 c h
424 408 m f
1 0.815686 0.290196 rg
440 368 m 424 368 l 415.168 368.012 408.012 375.168 408 384 c 408 400 l
 408.012 408.832 415.168 415.988 424 416 c 440 416 l 448.832 415.988 455.988
 408.832 456 400 c 456 384 l 455.988 375.168 448.832 368.012 440 368 c h
424 400 m 424 384 l 440.016 384 l 440 400 l h
424 400 m f
0.8 0.65098 0.231373 rg
40 408 m 56 408 l 60.418 408 64 404.418 64 400 c 64 384 l 64 379.582 60.418
 376 56 376 c 40 376 l 35.582 376 32 379.582 32 384 c 32 400 l 32 404.418
 35.582 408 40 408 c h
40 408 m f
1 0.815686 0.290196 rg
56 368 m 40 368 l 31.168 368.012 24.012 375.168 24 384 c 24 400 l 24.012
 408.832 31.168 415.988 40 416 c 56 416 l 64.832 415.988 71.988 408.832 
72 400 c 72 384 l 71.988 375.168 64.832 368.012 56 368 c h
40 400 m 40 384 l 56.016 384 l 56 400 l h
40 400 m f
0.439216 g
352 144 32 -56 re f
0.458824 0.756863 1 rg
472 248 m 472 190.562 425.438 144 368 144 c 310.562 144 264 190.562 264
 248 c 264 305.438 310.562 352 368 352 c 425.438 352 472 305.438 472 248
 c h
472 248 m f
0.537255 g
368 136 m 306.145 136 256 186.145 256 248 c 256 309.855 306.145 360 368
 360 c 429.855 360 480 309.855 480 248 c 479.93 186.172 429.828 136.07 368
 136 c h
368 344 m 314.98 344 272 301.02 272 248 c 272 194.98 314.98 152 368 152
 c 421.02 152 464 194.98 464 248 c 463.941 300.996 420.996 343.941 368 344
 c h
368 344 m f
1 0.815686 0.290196 rg
48 168 m 208 168 l 212.418 168 216 164.418 216 160 c 216 144 l 216 139.582
 212.418 136 208 136 c 48 136 l 43.582 136 40 139.582 40 144 c 40 160 l 
40 164.418 43.582 168 48 168 c h
48 168 m f
0.45098 0.788235 0.486275 rg
48 104 m 248 104 l 252.418 104 256 100.418 256 96 c 256 80 l 256 75.582
 252.418 72 248 72 c 48 72 l 43.582 72 40 75.582 40 80 c 40 96 l 40 100.418
 43.582 104 48 104 c h
48 104 m f
0.537255 g
0 160 16 -16 re f
0 96 16 -16 re f
1 0.403922 0.356863 rg
48 40 m 288 40 l 292.418 40 296 36.418 296 32 c 296 16 l 296 11.582 292.418
 8 288 8 c 48 8 l 43.582 8 40 11.582 40 16 c 40 32 l 40 36.418 43.582 40
 48 40 c h
48 40 m f
0.537255 g
0 32 16 -16 re f
48 312 m 32 312 l 32 328 l 32.016 341.25 42.75 351.984 56 352 c 72 352 
l 72 336 l 56 336 l 51.582 335.996 48.004 332.418 48 328 c h
48 312 m f
72 192 m 56 192 l 42.75 192.016 32.016 202.75 32 216 c 32 232 l 48 232 
l 48 216 l 48.004 211.582 51.582 208.004 56 208 c 72 208 l h
72 192 m f
168 192 m 152 192 l 152 208 l 168 208 l 172.418 208.004 175.996 211.582
 176 216 c 176 232 l 192 232 l 192 216 l 191.984 202.75 181.25 192.016 168
 192 c h
168 192 m f
192 312 m 176 312 l 176 328 l 175.996 332.418 172.418 335.996 168 336 c
 152 336 l 152 352 l 168 352 l 181.25 351.984 191.984 341.25 192 328 c h
192 312 m f
0.458824 0.756863 1 rg
152 296 m 152 304 l 151.988 312.832 144.832 319.988 136 320 c 120 320 l
 120 336 l 104 336 l 104 320 l 88 320 l 79.168 319.988 72.012 312.832 72
 304 c 72 280 l 72.012 271.168 79.168 264.012 88 264 c 104 264 l 104 240
 l 88 240 l 88 248 l 72 248 l 72 240 l 72.012 231.168 79.168 224.012 88 
224 c 104 224 l 104 208 l 120 208 l 120 224 l 136 224 l 144.832 224.012 
151.988 231.168 152 240 c 152 264 l 151.988 272.832 144.832 279.988 136 
280 c 120 280 l 120 304 l 136 304 l 136 296 l h
136 264 m 136 240 l 120 240 l 120 264 l h
104 280 m 88 280 l 88 304 l 104 304 l h
104 280 m f
1 0.815686 0.290196 rg
408 56 m 408 72 l 408 80.836 400.836 88 392 88 c 344 88 l 335.164 88 328
 80.836 328 72 c 328 56 l h
408 56 m f
0.8 0.6 0.368627 rg
328 56 80 -56 re f
Q Q
showpage
%%Trailer
end restore
%%EOF
