%!PS-Adobe-3.0 EPSF-3.0
%%Creator: cairo 1.14.2 (http://cairographics.org)
%%CreationDate: Thu Jan 17 08:42:36 2019
%%Pages: 1
%%DocumentData: Clean7Bit
%%LanguageLevel: 2
%%BoundingBox: 0 16 464 448
%%EndComments
%%BeginProlog
save
50 dict begin
/q { gsave } bind def
/Q { grestore } bind def
/cm { 6 array astore concat } bind def
/w { setlinewidth } bind def
/J { setlinecap } bind def
/j { setlinejoin } bind def
/M { setmiterlimit } bind def
/d { setdash } bind def
/m { moveto } bind def
/l { lineto } bind def
/c { curveto } bind def
/h { closepath } bind def
/re { exch dup neg 3 1 roll 5 3 roll moveto 0 rlineto
      0 exch rlineto 0 rlineto closepath } bind def
/S { stroke } bind def
/f { fill } bind def
/f* { eofill } bind def
/n { newpath } bind def
/W { clip } bind def
/W* { eoclip } bind def
/BT { } bind def
/ET { } bind def
/pdfmark where { pop globaldict /?pdfmark /exec load put }
    { globaldict begin /?pdfmark /pop load def /pdfmark
    /cleartomark load def end } ifelse
/BDC { mark 3 1 roll /BDC pdfmark } bind def
/EMC { mark /EMC pdfmark } bind def
/cairo_store_point { /cairo_point_y exch def /cairo_point_x exch def } def
/Tj { show currentpoint cairo_store_point } bind def
/TJ {
  {
    dup
    type /stringtype eq
    { show } { -0.001 mul 0 cairo_font_matrix dtransform rmoveto } ifelse
  } forall
  currentpoint cairo_store_point
} bind def
/cairo_selectfont { cairo_font_matrix aload pop pop pop 0 0 6 array astore
    cairo_font exch selectfont cairo_point_x cairo_point_y moveto } bind def
/Tf { pop /cairo_font exch def /cairo_font_matrix where
      { pop cairo_selectfont } if } bind def
/Td { matrix translate cairo_font_matrix matrix concatmatrix dup
      /cairo_font_matrix exch def dup 4 get exch 5 get cairo_store_point
      /cairo_font where { pop cairo_selectfont } if } bind def
/Tm { 2 copy 8 2 roll 6 array astore /cairo_font_matrix exch def
      cairo_store_point /cairo_font where { pop cairo_selectfont } if } bind def
/g { setgray } bind def
/rg { setrgbcolor } bind def
/d1 { setcachedevice } bind def
%%EndProlog
%%BeginSetup
%%EndSetup
%%Page: 1 1
%%BeginPageSetup
%%PageBoundingBox: 0 16 464 448
%%EndPageSetup
q 0 16 464 432 rectclip q
0.458824 0.756863 1 rg
16 448 m 448 448 l 456.836 448 464 440.836 464 432 c 464 80 l 464 71.164
 456.836 64 448 64 c 16 64 l 7.164 64 0 71.164 0 80 c 0 432 l 0 440.836 
7.164 448 16 448 c h
16 448 m f
0.937255 g
280 384 m 408 384 l 416.836 384 424 376.836 424 368 c 424 336 l 424 327.164
 416.836 320 408 320 c 280 320 l 271.164 320 264 327.164 264 336 c 264 368
 l 264 376.836 271.164 384 280 384 c h
280 384 m f
0.737255 g
288 360 112 -16 re f
0.364706 0.603922 0.8 rg
56 176 152 -16 re f
0.937255 g
272 296 m 288 296 l 296.836 296 304 288.836 304 280 c 304 264 l 304 255.164
 296.836 248 288 248 c 272 248 l 263.164 248 256 255.164 256 264 c 256 280
 l 256 288.836 263.164 296 272 296 c h
272 296 m f
336 296 m 352 296 l 360.836 296 368 288.836 368 280 c 368 264 l 368 255.164
 360.836 248 352 248 c 336 248 l 327.164 248 320 255.164 320 264 c 320 280
 l 320 288.836 327.164 296 336 296 c h
336 296 m f
400 296 m 416 296 l 424.836 296 432 288.836 432 280 c 432 264 l 432 255.164
 424.836 248 416 248 c 400 248 l 391.164 248 384 255.164 384 264 c 384 280
 l 384 288.836 391.164 296 400 296 c h
400 296 m f
272 232 m 288 232 l 296.836 232 304 224.836 304 216 c 304 200 l 304 191.164
 296.836 184 288 184 c 272 184 l 263.164 184 256 191.164 256 200 c 256 216
 l 256 224.836 263.164 232 272 232 c h
272 232 m f
336 232 m 352 232 l 360.836 232 368 224.836 368 216 c 368 200 l 368 191.164
 360.836 184 352 184 c 336 184 l 327.164 184 320 191.164 320 200 c 320 216
 l 320 224.836 327.164 232 336 232 c h
336 232 m f
400 232 m 416 232 l 424.836 232 432 224.836 432 216 c 432 200 l 432 191.164
 424.836 184 416 184 c 400 184 l 391.164 184 384 191.164 384 200 c 384 216
 l 384 224.836 391.164 232 400 232 c h
400 232 m f
272 168 m 288 168 l 296.836 168 304 160.836 304 152 c 304 136 l 304 127.164
 296.836 120 288 120 c 272 120 l 263.164 120 256 127.164 256 136 c 256 152
 l 256 160.836 263.164 168 272 168 c h
272 168 m f
336 168 m 352 168 l 360.836 168 368 160.836 368 152 c 368 136 l 368 127.164
 360.836 120 352 120 c 336 120 l 327.164 120 320 127.164 320 136 c 320 152
 l 320 160.836 327.164 168 336 168 c h
336 168 m f
400 168 m 416 168 l 424.836 168 432 160.836 432 152 c 432 136 l 432 127.164
 424.836 120 416 120 c 400 120 l 391.164 120 384 127.164 384 136 c 384 152
 l 384 160.836 391.164 168 400 168 c h
400 168 m f
56 384 m 200 384 l 208.836 384 216 376.836 216 368 c 216 224 l 216 215.164
 208.836 208 200 208 c 56 208 l 47.164 208 40 215.164 40 224 c 40 368 l 
40 376.836 47.164 384 56 384 c h
56 384 m f
0.737255 g
184 296 m 184 265.07 158.93 240 128 240 c 97.07 240 72 265.07 72 296 c 
72 326.93 97.07 352 128 352 c 158.93 352 184 326.93 184 296 c h
184 296 m f
0.937255 g
112 250.789 m 122.344 247.07 133.656 247.07 144 250.789 c 144 341.211 l
 133.656 344.93 122.344 344.93 112 341.211 c h
112 250.789 m f
0.439216 g
48 64 m 112 64 l 112 32 l 112 23.164 104.836 16 96 16 c 64 16 l 55.164 
16 48 23.164 48 32 c h
48 64 m f
352 64 m 416 64 l 416 32 l 416 23.164 408.836 16 400 16 c 368 16 l 359.164
 16 352 23.164 352 32 c h
352 64 m f
Q Q
showpage
%%Trailer
end restore
%%EOF
