%!PS-Adobe-3.0 EPSF-3.0
%%Creator: cairo 1.14.2 (http://cairographics.org)
%%CreationDate: Thu Jan 17 08:42:36 2019
%%Pages: 1
%%DocumentData: Clean7Bit
%%LanguageLevel: 2
%%BoundingBox: 8 0 472 480
%%EndComments
%%BeginProlog
save
50 dict begin
/q { gsave } bind def
/Q { grestore } bind def
/cm { 6 array astore concat } bind def
/w { setlinewidth } bind def
/J { setlinecap } bind def
/j { setlinejoin } bind def
/M { setmiterlimit } bind def
/d { setdash } bind def
/m { moveto } bind def
/l { lineto } bind def
/c { curveto } bind def
/h { closepath } bind def
/re { exch dup neg 3 1 roll 5 3 roll moveto 0 rlineto
      0 exch rlineto 0 rlineto closepath } bind def
/S { stroke } bind def
/f { fill } bind def
/f* { eofill } bind def
/n { newpath } bind def
/W { clip } bind def
/W* { eoclip } bind def
/BT { } bind def
/ET { } bind def
/pdfmark where { pop globaldict /?pdfmark /exec load put }
    { globaldict begin /?pdfmark /pop load def /pdfmark
    /cleartomark load def end } ifelse
/BDC { mark 3 1 roll /BDC pdfmark } bind def
/EMC { mark /EMC pdfmark } bind def
/cairo_store_point { /cairo_point_y exch def /cairo_point_x exch def } def
/Tj { show currentpoint cairo_store_point } bind def
/TJ {
  {
    dup
    type /stringtype eq
    { show } { -0.001 mul 0 cairo_font_matrix dtransform rmoveto } ifelse
  } forall
  currentpoint cairo_store_point
} bind def
/cairo_selectfont { cairo_font_matrix aload pop pop pop 0 0 6 array astore
    cairo_font exch selectfont cairo_point_x cairo_point_y moveto } bind def
/Tf { pop /cairo_font exch def /cairo_font_matrix where
      { pop cairo_selectfont } if } bind def
/Td { matrix translate cairo_font_matrix matrix concatmatrix dup
      /cairo_font_matrix exch def dup 4 get exch 5 get cairo_store_point
      /cairo_font where { pop cairo_selectfont } if } bind def
/Tm { 2 copy 8 2 roll 6 array astore /cairo_font_matrix exch def
      cairo_store_point /cairo_font where { pop cairo_selectfont } if } bind def
/g { setgray } bind def
/rg { setrgbcolor } bind def
/d1 { setcachedevice } bind def
%%EndProlog
%%BeginSetup
%%EndSetup
%%Page: 1 1
%%BeginPageSetup
%%PageBoundingBox: 8 0 472 480
%%EndPageSetup
q 8 0 464 480 rectclip q
0.937255 g
8 0 m 8 201.371 l 8 205.617 9.688 209.688 12.688 212.688 c 99.312 299.312
 l 102.312 302.312 106.383 304 110.629 304 c 456 304 l 464.836 304 472 296.836
 472 288 c 472 0 l h
8 0 m f
0.839216 g
12.688 212.688 m 99.312 299.312 l 100.672 300.652 102.258 301.734 104 302.512
 c 104 224 l 104 215.164 96.836 208 88 208 c 9.488 208 l 10.266 209.742 
11.348 211.328 12.688 212.688 c h
12.688 212.688 m f
0.333333 0.588235 0.360784 rg
56 32 16 -16 re f
56 88 16 -40 re f
75.004 126.238 m 114.996 158.254 l 124.996 145.762 l 85.004 113.746 l h
75.004 126.238 m f
147 145.754 m 157 158.246 l 196.996 126.246 l 187 113.754 l h
147 145.754 m f
200 88 16 -40 re f
200 32 16 -16 re f
56 120 m 72 120 l 76.418 120 80 116.418 80 112 c 80 96 l 80 91.582 76.418
 88 72 88 c 56 88 l 51.582 88 48 91.582 48 96 c 48 112 l 48 116.418 51.582
 120 56 120 c h
56 120 m f
0.45098 0.788235 0.486275 rg
72 80 m 56 80 l 47.168 80.012 40.012 87.168 40 96 c 40 112 l 40.012 120.832
 47.168 127.988 56 128 c 72 128 l 80.832 127.988 87.988 120.832 88 112 c
 88 96 l 87.988 87.168 80.832 80.012 72 80 c h
56 112 m 55.992 112 l 56 96 l 72 96 l 72 112 l h
56 112 m f
0.333333 0.588235 0.360784 rg
128 184 m 144 184 l 148.418 184 152 180.418 152 176 c 152 160 l 152 155.582
 148.418 152 144 152 c 128 152 l 123.582 152 120 155.582 120 160 c 120 176
 l 120 180.418 123.582 184 128 184 c h
128 184 m f
0.45098 0.788235 0.486275 rg
144 144 m 128 144 l 119.168 144.012 112.012 151.168 112 160 c 112 176 l
 112.012 184.832 119.168 191.988 128 192 c 144 192 l 152.832 191.988 159.988
 184.832 160 176 c 160 160 l 159.988 151.168 152.832 144.012 144 144 c h
128 176 m 127.992 176 l 128 160 l 144 160 l 144 176 l h
128 176 m f
0.333333 0.588235 0.360784 rg
200 120 m 216 120 l 220.418 120 224 116.418 224 112 c 224 96 l 224 91.582
 220.418 88 216 88 c 200 88 l 195.582 88 192 91.582 192 96 c 192 112 l 192
 116.418 195.582 120 200 120 c h
200 120 m f
0.45098 0.788235 0.486275 rg
216 80 m 200 80 l 191.168 80.012 184.012 87.168 184 96 c 184 112 l 184.012
 120.832 191.168 127.988 200 128 c 216 128 l 224.832 127.988 231.988 120.832
 232 112 c 232 96 l 231.988 87.168 224.832 80.012 216 80 c h
200 112 m 199.992 112 l 200 96 l 216 96 l 216 112 l h
200 112 m f
0.737255 g
424 64 16 -16 re f
352 64 56 -16 re f
320 64 16 -16 re f
424 96 16 -16 re f
296 96 112 -16 re f
264 96 16 -16 re f
1 0.403922 0.356863 rg
288 24 m 272 24 l 267.582 24 264 27.582 264 32 c 264 48 l 264 52.418 267.582
 56 272 56 c 288 56 l 292.418 56 296 52.418 296 48 c 296 32 l 296 27.582
 292.418 24 288 24 c h
288 24 m f
0.737255 g
424 32 16 -16 re f
352 32 56 -16 re f
320 32 16 -16 re f
0.458824 0.756863 1 rg
432 184 m 432 148.652 403.348 120 368 120 c 332.652 120 304 148.652 304
 184 c 304 219.348 332.652 248 368 248 c 403.348 248 432 219.348 432 184
 c h
432 184 m f
0.411765 0.682353 0.901961 rg
432 184 m 384 184 l 375.164 184 368 191.164 368 200 c 368 248 l 403.348
 248 432 219.348 432 184 c h
432 184 m f
0.639216 g
280 304 m 280 248 l 280 239.164 272.836 232 264 232 c 216 232 l 207.164
 232 200 239.164 200 248 c 200 304 l h
280 304 m f
0.439216 g
216 232 m 264 232 l 264 216 l 264 207.164 256.836 200 248 200 c 232 200
 l 223.164 200 216 207.164 216 216 c h
216 232 m f
1 0.815686 0.290196 rg
320 360 m 320 315.816 284.184 280 240 280 c 195.816 280 160 315.816 160
 360 c 160 404.184 195.816 440 240 440 c 284.184 440 320 404.184 320 360
 c h
320 360 m f
232 480 16 -16 re f
149.492 439.195 m 160.805 450.508 l 172.117 439.195 l 160.805 427.883 l
 h
149.492 439.195 m f
120 368 16 -16 re f
344 368 16 -16 re f
307.883 439.195 m 319.195 450.508 l 330.508 439.195 l 319.195 427.883 l
 h
307.883 439.195 m f
Q Q
showpage
%%Trailer
end restore
%%EOF
