%!PS-Adobe-3.0 EPSF-3.0
%%Creator: cairo 1.14.2 (http://cairographics.org)
%%CreationDate: Thu Jan 17 08:42:36 2019
%%Pages: 1
%%DocumentData: Clean7Bit
%%LanguageLevel: 2
%%BoundingBox: 24 0 440 464
%%EndComments
%%BeginProlog
save
50 dict begin
/q { gsave } bind def
/Q { grestore } bind def
/cm { 6 array astore concat } bind def
/w { setlinewidth } bind def
/J { setlinecap } bind def
/j { setlinejoin } bind def
/M { setmiterlimit } bind def
/d { setdash } bind def
/m { moveto } bind def
/l { lineto } bind def
/c { curveto } bind def
/h { closepath } bind def
/re { exch dup neg 3 1 roll 5 3 roll moveto 0 rlineto
      0 exch rlineto 0 rlineto closepath } bind def
/S { stroke } bind def
/f { fill } bind def
/f* { eofill } bind def
/n { newpath } bind def
/W { clip } bind def
/W* { eoclip } bind def
/BT { } bind def
/ET { } bind def
/pdfmark where { pop globaldict /?pdfmark /exec load put }
    { globaldict begin /?pdfmark /pop load def /pdfmark
    /cleartomark load def end } ifelse
/BDC { mark 3 1 roll /BDC pdfmark } bind def
/EMC { mark /EMC pdfmark } bind def
/cairo_store_point { /cairo_point_y exch def /cairo_point_x exch def } def
/Tj { show currentpoint cairo_store_point } bind def
/TJ {
  {
    dup
    type /stringtype eq
    { show } { -0.001 mul 0 cairo_font_matrix dtransform rmoveto } ifelse
  } forall
  currentpoint cairo_store_point
} bind def
/cairo_selectfont { cairo_font_matrix aload pop pop pop 0 0 6 array astore
    cairo_font exch selectfont cairo_point_x cairo_point_y moveto } bind def
/Tf { pop /cairo_font exch def /cairo_font_matrix where
      { pop cairo_selectfont } if } bind def
/Td { matrix translate cairo_font_matrix matrix concatmatrix dup
      /cairo_font_matrix exch def dup 4 get exch 5 get cairo_store_point
      /cairo_font where { pop cairo_selectfont } if } bind def
/Tm { 2 copy 8 2 roll 6 array astore /cairo_font_matrix exch def
      cairo_store_point /cairo_font where { pop cairo_selectfont } if } bind def
/g { setgray } bind def
/rg { setrgbcolor } bind def
/d1 { setcachedevice } bind def
%%EndProlog
%%BeginSetup
%%EndSetup
%%Page: 1 1
%%BeginPageSetup
%%PageBoundingBox: 24 0 440 464
%%EndPageSetup
q 24 0 416 464 rectclip q
0.835294 g
64 368 m 144 368 l 144 256 l 48 256 l 48 352 l 48 360.836 55.164 368 64
 368 c h
64 368 m f
0.396078 0.686275 0.423529 rg
48 320 m 74.508 320 96 341.492 96 368 c 64 368 l 55.164 368 48 360.836 
48 352 c h
48 320 m f
0.886275 g
160 416 m 240 416 l 240 256 l 144 256 l 144 400 l 144 408.836 151.164 416
 160 416 c h
160 416 m f
0.423529 0.737255 0.454902 rg
144 368 m 170.508 368 192 389.492 192 416 c 160 416 l 151.164 416 144 408.836
 144 400 c h
144 368 m f
256 280 m 256 257.91 238.09 240 216 240 c 193.91 240 176 257.91 176 280
 c 176 302.09 193.91 320 216 320 c 238.09 320 256 302.09 256 280 c h
256 280 m f
0.901961 0.67451 0.411765 rg
40 256 m 392 256 l 400.836 256 408 248.836 408 240 c 408 16 l 408 7.164
 400.836 0 392 0 c 40 0 l 31.164 0 24 7.164 24 16 c 24 240 l 24 248.836 
31.164 256 40 256 c h
40 256 m f
1 0.74902 0.458824 rg
336 160 m 440 160 l 440 96 l 440 87.164 432.836 80 424 80 c 336 80 l 327.164
 80 320 87.164 320 96 c 320 144 l 320 152.836 327.164 160 336 160 c h
336 160 m f
0.701961 0.52549 0.321569 rg
376 120 m 376 111.164 368.836 104 360 104 c 351.164 104 344 111.164 344
 120 c 344 128.836 351.164 136 360 136 c 368.836 136 376 128.836 376 120
 c h
376 120 m f
0.8 0.6 0.368627 rg
408 192 m 424 192 l 432.836 192 440 184.836 440 176 c 440 160 l 408 160
 l h
408 192 m f
0.937255 g
256 464 m 368 464 l 376.836 464 384 456.836 384 448 c 384 256 l 240 256
 l 240 448 l 240 456.836 247.164 464 256 464 c h
256 464 m f
0.45098 0.788235 0.486275 rg
336 464 m 336 437.492 357.492 416 384 416 c 384 448 l 384 456.836 376.836
 464 368 464 c h
336 464 m f
240 416 m 266.508 416 288 437.492 288 464 c 256 464 l 247.164 464 240 456.836
 240 448 c h
240 416 m f
352 344 m 352 321.91 334.09 304 312 304 c 289.91 304 272 321.91 272 344
 c 272 366.09 289.91 384 312 384 c 334.09 384 352 366.09 352 344 c h
352 344 m f
Q Q
showpage
%%Trailer
end restore
%%EOF
