%!PS-Adobe-3.0 EPSF-3.0
%%Creator: cairo 1.14.2 (http://cairographics.org)
%%CreationDate: Thu Jan 17 08:42:36 2019
%%Pages: 1
%%DocumentData: Clean7Bit
%%LanguageLevel: 2
%%BoundingBox: 0 0 464 464
%%EndComments
%%BeginProlog
save
50 dict begin
/q { gsave } bind def
/Q { grestore } bind def
/cm { 6 array astore concat } bind def
/w { setlinewidth } bind def
/J { setlinecap } bind def
/j { setlinejoin } bind def
/M { setmiterlimit } bind def
/d { setdash } bind def
/m { moveto } bind def
/l { lineto } bind def
/c { curveto } bind def
/h { closepath } bind def
/re { exch dup neg 3 1 roll 5 3 roll moveto 0 rlineto
      0 exch rlineto 0 rlineto closepath } bind def
/S { stroke } bind def
/f { fill } bind def
/f* { eofill } bind def
/n { newpath } bind def
/W { clip } bind def
/W* { eoclip } bind def
/BT { } bind def
/ET { } bind def
/pdfmark where { pop globaldict /?pdfmark /exec load put }
    { globaldict begin /?pdfmark /pop load def /pdfmark
    /cleartomark load def end } ifelse
/BDC { mark 3 1 roll /BDC pdfmark } bind def
/EMC { mark /EMC pdfmark } bind def
/cairo_store_point { /cairo_point_y exch def /cairo_point_x exch def } def
/Tj { show currentpoint cairo_store_point } bind def
/TJ {
  {
    dup
    type /stringtype eq
    { show } { -0.001 mul 0 cairo_font_matrix dtransform rmoveto } ifelse
  } forall
  currentpoint cairo_store_point
} bind def
/cairo_selectfont { cairo_font_matrix aload pop pop pop 0 0 6 array astore
    cairo_font exch selectfont cairo_point_x cairo_point_y moveto } bind def
/Tf { pop /cairo_font exch def /cairo_font_matrix where
      { pop cairo_selectfont } if } bind def
/Td { matrix translate cairo_font_matrix matrix concatmatrix dup
      /cairo_font_matrix exch def dup 4 get exch 5 get cairo_store_point
      /cairo_font where { pop cairo_selectfont } if } bind def
/Tm { 2 copy 8 2 roll 6 array astore /cairo_font_matrix exch def
      cairo_store_point /cairo_font where { pop cairo_selectfont } if } bind def
/g { setgray } bind def
/rg { setrgbcolor } bind def
/d1 { setcachedevice } bind def
%%EndProlog
%%BeginSetup
%%EndSetup
%%Page: 1 1
%%BeginPageSetup
%%PageBoundingBox: 0 0 464 464
%%EndPageSetup
q 0 0 464 464 rectclip q
0.901961 0.67451 0.411765 rg
48 464 m 424 464 l 432.836 464 440 456.836 440 448 c 440 224 l 440 215.164
 432.836 208 424 208 c 48 208 l 39.164 208 32 215.164 32 224 c 32 448 l 
32 456.836 39.164 464 48 464 c h
48 464 m f
1 0.74902 0.458824 rg
16 392 m 104 392 l 112.836 392 120 384.836 120 376 c 120 328 l 120 319.164
 112.836 312 104 312 c 0 312 l 0 376 l 0 384.836 7.164 392 16 392 c h
16 392 m f
0.8 0.6 0.368627 rg
0 312 m 32 312 l 32 280 l 16 280 l 7.164 280 0 287.164 0 296 c h
0 312 m f
0.701961 0.52549 0.321569 rg
96 352 m 96 343.164 88.836 336 80 336 c 71.164 336 64 343.164 64 352 c 
64 360.836 71.164 368 80 368 c 88.836 368 96 360.836 96 352 c h
96 352 m f
0.333333 0.588235 0.360784 rg
288 416 72 -16 re f
194.797 358.07 m 250.797 406.07 l 261.203 393.93 l 205.203 345.93 l h
194.797 358.07 m f
144 352 24 -16 re f
392 416 24 -16 re f
264 424 m 280 424 l 284.418 424 288 420.418 288 416 c 288 400 l 288 395.582
 284.418 392 280 392 c 264 392 l 259.582 392 256 395.582 256 400 c 256 416
 l 256 420.418 259.582 424 264 424 c h
264 424 m f
0.45098 0.788235 0.486275 rg
280 384 m 264 384 l 255.168 384.012 248.012 391.168 248 400 c 248 416 l
 248.012 424.832 255.168 431.988 264 432 c 280 432 l 288.832 431.988 295.988
 424.832 296 416 c 296 400 l 295.988 391.168 288.832 384.012 280 384 c h
264 416 m 264 400 l 280.016 400 l 280 416 l h
264 416 m f
0.333333 0.588235 0.360784 rg
368 424 m 384 424 l 388.418 424 392 420.418 392 416 c 392 400 l 392 395.582
 388.418 392 384 392 c 368 392 l 363.582 392 360 395.582 360 400 c 360 416
 l 360 420.418 363.582 424 368 424 c h
368 424 m f
0.45098 0.788235 0.486275 rg
384 384 m 368 384 l 359.168 384.012 352.012 391.168 352 400 c 352 416 l
 352.012 424.832 359.168 431.988 368 432 c 384 432 l 392.832 431.988 399.988
 424.832 400 416 c 400 400 l 399.988 391.168 392.832 384.012 384 384 c h
368 416 m 368 400 l 384.016 400 l 384 416 l h
368 416 m f
0.701961 0.52549 0.321569 rg
240 336 16 -16 re f
0.333333 0.588235 0.360784 rg
176 360 m 192 360 l 196.418 360 200 356.418 200 352 c 200 336 l 200 331.582
 196.418 328 192 328 c 176 328 l 171.582 328 168 331.582 168 336 c 168 352
 l 168 356.418 171.582 360 176 360 c h
176 360 m f
0.45098 0.788235 0.486275 rg
192 320 m 176 320 l 167.168 320.012 160.012 327.168 160 336 c 160 352 l
 160.012 360.832 167.168 367.988 176 368 c 192 368 l 200.832 367.988 207.988
 360.832 208 352 c 208 336 l 207.988 327.168 200.832 320.012 192 320 c h
176 352 m 176 336 l 192.016 336 l 192 352 l h
176 352 m f
0.701961 0.52549 0.321569 rg
272 336 112 -16 re f
400 336 16 -16 re f
256 368 16 -16 re f
288 368 96 -16 re f
400 368 16 -16 re f
0.839216 g
384 72 m 88 72 l 79.164 72 72 79.164 72 88 c 72 264 l 72 272.836 79.164
 280 88 280 c 384 280 l 392.836 280 400 272.836 400 264 c 400 88 l 400 79.164
 392.836 72 384 72 c h
384 72 m f
0.439216 g
72 240 328 -72 re f
0.937255 g
448 0 m 152 0 l 143.164 0 136 7.164 136 16 c 136 192 l 136 200.836 143.164
 208 152 208 c 448 208 l 456.836 208 464 200.836 464 192 c 464 16 l 464 
7.164 456.836 0 448 0 c h
448 0 m f
1 0.815686 0.290196 rg
416 96 m 368 96 l 359.164 96 352 103.164 352 112 c 352 160 l 352 168.836
 359.164 176 368 176 c 416 176 l 424.836 176 432 168.836 432 160 c 432 112
 l 432 103.164 424.836 96 416 96 c h
416 96 m f
0.458824 0.756863 1 rg
272 40 m 248 40 l 243.582 40 240 43.582 240 48 c 240 72 l 240 76.418 243.582
 80 248 80 c 272 80 l 276.418 80 280 76.418 280 72 c 280 48 l 280 43.582
 276.418 40 272 40 c h
272 40 m f
0.45098 0.788235 0.486275 rg
200 40 m 176 40 l 171.582 40 168 43.582 168 48 c 168 72 l 168 76.418 171.582
 80 176 80 c 200 80 l 204.418 80 208 76.418 208 72 c 208 48 l 208 43.582
 204.418 40 200 40 c h
200 40 m f
0.901961 0.733333 0.262745 rg
376 96 m 392 96 l 392 120 l 432 120 l 432 136 l 392 136 l 383.168 135.992
 376.008 128.832 376 120 c h
376 96 m f
376 176 16 -24 re f
0.737255 g
312 160 16 -16 re f
192 160 104 -16 re f
160 160 16 -16 re f
312 128 16 -16 re f
192 128 104 -16 re f
160 128 16 -16 re f
416 64 16 -16 re f
384 64 16 -16 re f
352 64 16 -16 re f
320 64 16 -16 re f
Q Q
showpage
%%Trailer
end restore
%%EOF
