%!PS-Adobe-3.0 EPSF-3.0
%%Creator: cairo 1.16.0 (https://cairographics.org)
%%CreationDate: Fri Mar 13 07:35:22 2020
%%Pages: 1
%%DocumentData: Clean7Bit
%%LanguageLevel: 2
%%BoundingBox: 18 18 366 366
%%EndComments
%%BeginProlog
50 dict begin
/q { gsave } bind def
/Q { grestore } bind def
/cm { 6 array astore concat } bind def
/w { setlinewidth } bind def
/J { setlinecap } bind def
/j { setlinejoin } bind def
/M { setmiterlimit } bind def
/d { setdash } bind def
/m { moveto } bind def
/l { lineto } bind def
/c { curveto } bind def
/h { closepath } bind def
/re { exch dup neg 3 1 roll 5 3 roll moveto 0 rlineto
      0 exch rlineto 0 rlineto closepath } bind def
/S { stroke } bind def
/f { fill } bind def
/f* { eofill } bind def
/n { newpath } bind def
/W { clip } bind def
/W* { eoclip } bind def
/BT { } bind def
/ET { } bind def
/BDC { mark 3 1 roll /BDC pdfmark } bind def
/EMC { mark /EMC pdfmark } bind def
/cairo_store_point { /cairo_point_y exch def /cairo_point_x exch def } def
/Tj { show currentpoint cairo_store_point } bind def
/TJ {
  {
    dup
    type /stringtype eq
    { show } { -0.001 mul 0 cairo_font_matrix dtransform rmoveto } ifelse
  } forall
  currentpoint cairo_store_point
} bind def
/cairo_selectfont { cairo_font_matrix aload pop pop pop 0 0 6 array astore
    cairo_font exch selectfont cairo_point_x cairo_point_y moveto } bind def
/Tf { pop /cairo_font exch def /cairo_font_matrix where
      { pop cairo_selectfont } if } bind def
/Td { matrix translate cairo_font_matrix matrix concatmatrix dup
      /cairo_font_matrix exch def dup 4 get exch 5 get cairo_store_point
      /cairo_font where { pop cairo_selectfont } if } bind def
/Tm { 2 copy 8 2 roll 6 array astore /cairo_font_matrix exch def
      cairo_store_point /cairo_font where { pop cairo_selectfont } if } bind def
/g { setgray } bind def
/rg { setrgbcolor } bind def
/d1 { setcachedevice } bind def
/cairo_data_source {
  CairoDataIndex CairoData length lt
    { CairoData CairoDataIndex get /CairoDataIndex CairoDataIndex 1 add def }
    { () } ifelse
} def
/cairo_flush_ascii85_file { cairo_ascii85_file status { cairo_ascii85_file flushfile } if } def
/cairo_image { image cairo_flush_ascii85_file } def
/cairo_imagemask { imagemask cairo_flush_ascii85_file } def
%%EndProlog
%%BeginSetup
%%EndSetup
%%Page: 1 1
%%BeginPageSetup
%%PageBoundingBox: 18 18 366 366
%%EndPageSetup
q 18 18 348 348 rectclip
1 0 0 -1 0 384 cm q
0.568627 0.827451 0.933333 rg
366 90 m 294 18 l 114 18 l 114 366 l 366 366 l h
366 90 m f
0.215686 0.647059 0.792157 rg
294 18 m 294 90 l 366 90 l h
294 18 m f
0.960784 0.890196 0.631373 rg
162 312 m 162 276 l 147.246 276 l 146.188 272.641 144.832 269.379 143.199
 266.258 c 153.637 255.816 l 128.184 230.363 l 117.742 240.801 l 114.621
 239.168 111.359 237.812 108 236.754 c 108 222 l 72 222 l 72 236.754 l 68.641
 237.812 65.379 239.168 62.258 240.801 c 51.816 230.363 l 26.363 255.816
 l 36.801 266.258 l 35.168 269.379 33.812 272.641 32.754 276 c 18 276 l 
18 312 l 32.754 312 l 33.812 315.359 35.168 318.621 36.801 321.742 c 26.363
 332.184 l 51.816 357.637 l 62.258 347.199 l 65.379 348.832 68.641 350.188
 72 351.246 c 72 366 l 108 366 l 108 351.246 l 111.359 350.188 114.621 348.832
 117.742 347.199 c 128.184 357.637 l 153.637 332.184 l 143.199 321.742 l
 144.832 318.621 146.188 315.359 147.246 312 c h
90 312 m 82.719 312 76.156 307.613 73.371 300.887 c 70.586 294.164 72.125
 286.422 77.273 281.273 c 82.422 276.125 90.164 274.586 96.887 277.371 c
 103.613 280.156 108 286.719 108 294 c 107.996 303.941 99.941 311.996 90
 312 c h
90 312 m f
0.960784 0.772549 0.2 rg
90 318 m 80.293 318 71.543 312.152 67.828 303.184 c 64.113 294.215 66.164
 283.895 73.031 277.031 c 79.895 270.164 90.215 268.113 99.184 271.828 c
 108.152 275.543 114 284.293 114 294 c 113.984 307.25 103.25 317.984 90 
318 c h
90 282 m 85.145 282 80.77 284.922 78.914 289.406 c 77.055 293.891 78.082
 299.055 81.516 302.484 c 84.945 305.918 90.109 306.945 94.594 305.086 c
 99.078 303.23 102 298.855 102 294 c 101.992 287.375 96.625 282.008 90 282
 c h
90 282 m f
0.215686 0.647059 0.792157 rg
132 78 48 12 re f
132 102 48 12 re f
180 126 36 12 re f
228 126 36 12 re f
276 126 72 12 re f
132 150 60 12 re f
204 150 36 12 re f
252 150 96 12 re f
132 174 72 12 re f
216 174 36 12 re f
264 174 84 12 re f
132 198 48 12 re f
192 198 36 12 re f
240 198 108 12 re f
276 240 36 12 re f
276 264 36 12 re f
Q Q
showpage
%%Trailer
end
%%EOF
