%!PS-Adobe-3.0 EPSF-3.0
%%Creator: cairo 1.16.0 (https://cairographics.org)
%%CreationDate: Fri Mar 13 07:35:22 2020
%%Pages: 1
%%DocumentData: Clean7Bit
%%LanguageLevel: 2
%%BoundingBox: 12 12 360 366
%%EndComments
%%BeginProlog
50 dict begin
/q { gsave } bind def
/Q { grestore } bind def
/cm { 6 array astore concat } bind def
/w { setlinewidth } bind def
/J { setlinecap } bind def
/j { setlinejoin } bind def
/M { setmiterlimit } bind def
/d { setdash } bind def
/m { moveto } bind def
/l { lineto } bind def
/c { curveto } bind def
/h { closepath } bind def
/re { exch dup neg 3 1 roll 5 3 roll moveto 0 rlineto
      0 exch rlineto 0 rlineto closepath } bind def
/S { stroke } bind def
/f { fill } bind def
/f* { eofill } bind def
/n { newpath } bind def
/W { clip } bind def
/W* { eoclip } bind def
/BT { } bind def
/ET { } bind def
/BDC { mark 3 1 roll /BDC pdfmark } bind def
/EMC { mark /EMC pdfmark } bind def
/cairo_store_point { /cairo_point_y exch def /cairo_point_x exch def } def
/Tj { show currentpoint cairo_store_point } bind def
/TJ {
  {
    dup
    type /stringtype eq
    { show } { -0.001 mul 0 cairo_font_matrix dtransform rmoveto } ifelse
  } forall
  currentpoint cairo_store_point
} bind def
/cairo_selectfont { cairo_font_matrix aload pop pop pop 0 0 6 array astore
    cairo_font exch selectfont cairo_point_x cairo_point_y moveto } bind def
/Tf { pop /cairo_font exch def /cairo_font_matrix where
      { pop cairo_selectfont } if } bind def
/Td { matrix translate cairo_font_matrix matrix concatmatrix dup
      /cairo_font_matrix exch def dup 4 get exch 5 get cairo_store_point
      /cairo_font where { pop cairo_selectfont } if } bind def
/Tm { 2 copy 8 2 roll 6 array astore /cairo_font_matrix exch def
      cairo_store_point /cairo_font where { pop cairo_selectfont } if } bind def
/g { setgray } bind def
/rg { setrgbcolor } bind def
/d1 { setcachedevice } bind def
/cairo_data_source {
  CairoDataIndex CairoData length lt
    { CairoData CairoDataIndex get /CairoDataIndex CairoDataIndex 1 add def }
    { () } ifelse
} def
/cairo_flush_ascii85_file { cairo_ascii85_file status { cairo_ascii85_file flushfile } if } def
/cairo_image { image cairo_flush_ascii85_file } def
/cairo_imagemask { imagemask cairo_flush_ascii85_file } def
%%EndProlog
%%BeginSetup
%%EndSetup
%%Page: 1 1
%%BeginPageSetup
%%PageBoundingBox: 12 12 360 366
%%EndPageSetup
q 12 12 348 354 rectclip
1 0 0 -1 0 384 cm q
0.568627 0.827451 0.933333 rg
258 174 m 243.801 306.488 l 242.43 319.328 l 240 342 l 174 342 l 170.828
 338.297 l 162.098 328.109 l 119.004 277.836 l 102 258 l 60 252 l 33.051
 225.051 l 28.078 220.074 28.055 212.008 33 207 c 37.949 201.992 46.012 
201.918 51.051 206.836 c 72.727 228 l 132 228 l 150.18 251.641 l 192 306
 l 187.852 264.523 l 187.574 261.719 187.434 258.922 187.434 256.164 c 187.477
 215.121 217.438 180.242 258 174 c h
258 174 m f
0.215686 0.647059 0.792157 rg
243.801 306.488 m 242.43 319.328 l 203.926 330.023 l 170.828 338.297 l 
162.098 328.109 l 200.941 318.398 l h
243.801 306.488 m f
0.984314 0.835294 0.713726 rg
150.18 251.641 m 150 252 l 120 276 l 119.004 277.836 l 102 258 l 60 252
 l 33.051 225.051 l 28.078 220.074 28.055 212.008 33 207 c 37.949 201.992
 46.012 201.918 51.051 206.836 c 72.727 228 l 132 228 l h
150.18 251.641 m f
0.976471 0.784314 0.607843 rg
102 228 m 86.391 215.926 l 84.453 214.426 83.254 212.168 83.098 209.723
 c 82.941 207.277 83.844 204.883 85.578 203.152 c 88.543 200.184 93.227 
199.816 96.621 202.281 c 132 228 l h
102 228 m f
0.831373 0.894118 0.941176 rg
354.75 238.5 m 344.332 342.684 l 341.398 372 l 242.102 372 l 233.527 347.496
 l 225.328 324.074 l 221.355 312.727 l 209.234 278.102 l 202.266 258.188
 206.266 236.078 219.773 219.871 c 258 174 l 306 168 l 309.953 169.32 l 
339.219 179.074 357.82 207.805 354.75 238.5 c h
354.75 238.5 m f
0.756863 0.843137 0.901961 rg
344.332 342.684 m 341.398 372 l 242.102 372 l 233.527 347.496 l h
344.332 342.684 m f
0.568627 0.827451 0.933333 rg
354.75 238.5 m 344.332 342.684 l 341.398 372 l 276 372 l 272.258 345.816
 l 270.953 336.668 l 269.781 328.469 269.016 320.262 268.648 312.047 c 268.469
 307.914 268.391 303.781 268.41 299.656 c 268.621 253.152 281.625 207.602
 306 168 c 309.953 169.32 l 339.219 179.074 357.82 207.805 354.75 238.5 
c h
354.75 238.5 m f
0.705882 0.490196 0.301961 rg
342 126 m 341.992 136.797 334.773 146.254 324.363 149.113 c 313.949 151.969
 302.914 147.516 297.398 138.234 c 291.883 128.953 293.25 117.133 300.734
 109.352 c 308.223 101.574 319.98 99.754 329.469 104.91 c 337.195 109.113
 342 117.203 342 126 c h
342 126 m f
0.615686 0.388235 0.258824 rg
329.469 104.91 m 323.469 119.777 312.18 131.898 297.781 138.945 c 291.879
 129.719 292.973 117.664 300.438 109.648 c 307.898 101.633 319.844 99.684
 329.469 104.91 c h
329.469 104.91 m f
0.984314 0.835294 0.713726 rg
306 168 m 258 174 l 260.566 163.734 l 263.738 151.043 l 264 150 l 270.414
 148.176 l 282 126 l 296.961 118.746 l h
306 168 m f
287.707 130.23 m 285.84 130.93 283.934 131.52 282 132 c 270 150 l 234 156
 l 222 114 l 210 114 l 220.094 63.516 l 221.039 58.828 222.441 54.238 224.281
 49.824 c 224.918 48.301 225.602 46.793 226.344 45.316 c 235.875 26.25 256.562
 15.445 277.66 18.516 c 298.754 21.586 315.504 37.836 319.207 58.828 c 321.406
 71.273 l 325.848 96.477 311.68 121.266 287.707 130.23 c h
287.707 130.23 m f
0.223529 0.309804 0.352941 rg
240 96 m 234 96 l 230.688 96 228 93.312 228 90 c 228 86.688 230.688 84 
234 84 c 240 84 l 243.312 84 246 86.688 246 90 c 246 93.312 243.312 96 240
 96 c h
240 96 m f
0.976471 0.784314 0.607843 rg
270 96 m 272.926 90.148 l 274.809 86.379 278.66 84 282.875 84 c 285.824
 84 288.656 85.172 290.742 87.258 c 292.828 89.344 294 92.176 294 95.125
 c 294 103.367 290.727 111.273 284.895 117.105 c 284.121 117.879 l 282.762
 119.238 280.922 120 279 120 c 277.078 120 275.238 119.238 273.879 117.879
 c 270 114 l h
270 96 m f
0.705882 0.490196 0.301961 rg
287.707 130.23 m 285.426 116.559 l 282 96 l 273.48 89.184 l 224.281 49.824
 l 224.918 48.301 225.602 46.793 226.344 45.316 c 235.875 26.25 256.562 
15.445 277.66 18.516 c 298.754 21.586 315.504 37.836 319.207 58.828 c 321.406
 71.273 l 325.848 96.477 311.68 121.266 287.707 130.23 c h
287.707 130.23 m f
0.615686 0.388235 0.258824 rg
294 95.121 m 293.996 103.102 290.926 110.773 285.426 116.559 c 282 96 l
 273.48 89.184 l 276.121 84.996 281.219 83.059 285.973 84.438 c 290.73 85.812
 294.004 90.172 294 95.121 c h
294 95.121 m f
0.984314 0.835294 0.713726 rg
264 96 m 266.926 90.148 l 268.809 86.379 272.66 84 276.875 84 c 279.824
 84 282.656 85.172 284.742 87.258 c 286.828 89.344 288 92.176 288 95.125
 c 288 103.367 284.727 111.273 278.895 117.105 c 278.121 117.879 l 276.762
 119.238 274.922 120 273 120 c 271.078 120 269.238 119.238 267.879 117.879
 c 264 114 l h
264 96 m f
0.215686 0.647059 0.792157 rg
344.332 342.684 m 341.398 372 l 276 372 l 272.258 345.816 l h
344.332 342.684 m f
0.568627 0.827451 0.933333 rg
306 168 m 314.871 170.957 l 341.82 179.941 360 205.16 360 233.57 c 360 
342 l 216 366 l 204 330 l 312 300 l 312 234 l h
306 168 m f
0.984314 0.835294 0.713726 rg
204 330 m 139.656 346.086 l 135.156 347.211 132 351.254 132 355.891 c 132
 358.574 133.066 361.145 134.961 363.039 c 136.855 364.934 139.426 366 142.109
 366 c 216 366 l h
204 330 m f
0.976471 0.784314 0.607843 rg
287.984 144.66 m 278.543 158.82 l 277.621 160.199 276.172 161.137 274.539
 161.406 c 260.566 163.734 l 263.738 151.043 l 270 150 l 278.004 138 l h
287.984 144.66 m f
0.756863 0.843137 0.901961 rg
312 234 m 312 300 l 225.328 324.074 l 221.355 312.727 l 300 290.879 l 300
 234 l h
312 234 m f
0.215686 0.647059 0.792157 rg
312 234 m 312 300 l 268.648 312.047 l 268.469 307.914 268.391 303.781 268.41
 299.656 c 300 290.879 l 300 234 l h
312 234 m f
0.568627 0.827451 0.933333 rg
114 180 m 12 180 l 12 36 l 78 36 l 114 72 l h
114 180 m f
0.215686 0.647059 0.792157 rg
78 36 m 78 72 l 114 72 l h
78 36 m f
30 54 24 12 re f
30 78 24 12 re f
42 102 24 12 re f
78 102 18 12 re f
30 126 24 12 re f
66 126 12 12 re f
Q Q
showpage
%%Trailer
end
%%EOF
