%!PS-Adobe-3.0 EPSF-3.0
%%Creator: cairo 1.16.0 (https://cairographics.org)
%%CreationDate: Fri Mar 13 07:35:23 2020
%%Pages: 1
%%DocumentData: Clean7Bit
%%LanguageLevel: 2
%%BoundingBox: 19 18 365 366
%%EndComments
%%BeginProlog
50 dict begin
/q { gsave } bind def
/Q { grestore } bind def
/cm { 6 array astore concat } bind def
/w { setlinewidth } bind def
/J { setlinecap } bind def
/j { setlinejoin } bind def
/M { setmiterlimit } bind def
/d { setdash } bind def
/m { moveto } bind def
/l { lineto } bind def
/c { curveto } bind def
/h { closepath } bind def
/re { exch dup neg 3 1 roll 5 3 roll moveto 0 rlineto
      0 exch rlineto 0 rlineto closepath } bind def
/S { stroke } bind def
/f { fill } bind def
/f* { eofill } bind def
/n { newpath } bind def
/W { clip } bind def
/W* { eoclip } bind def
/BT { } bind def
/ET { } bind def
/BDC { mark 3 1 roll /BDC pdfmark } bind def
/EMC { mark /EMC pdfmark } bind def
/cairo_store_point { /cairo_point_y exch def /cairo_point_x exch def } def
/Tj { show currentpoint cairo_store_point } bind def
/TJ {
  {
    dup
    type /stringtype eq
    { show } { -0.001 mul 0 cairo_font_matrix dtransform rmoveto } ifelse
  } forall
  currentpoint cairo_store_point
} bind def
/cairo_selectfont { cairo_font_matrix aload pop pop pop 0 0 6 array astore
    cairo_font exch selectfont cairo_point_x cairo_point_y moveto } bind def
/Tf { pop /cairo_font exch def /cairo_font_matrix where
      { pop cairo_selectfont } if } bind def
/Td { matrix translate cairo_font_matrix matrix concatmatrix dup
      /cairo_font_matrix exch def dup 4 get exch 5 get cairo_store_point
      /cairo_font where { pop cairo_selectfont } if } bind def
/Tm { 2 copy 8 2 roll 6 array astore /cairo_font_matrix exch def
      cairo_store_point /cairo_font where { pop cairo_selectfont } if } bind def
/g { setgray } bind def
/rg { setrgbcolor } bind def
/d1 { setcachedevice } bind def
/cairo_data_source {
  CairoDataIndex CairoData length lt
    { CairoData CairoDataIndex get /CairoDataIndex CairoDataIndex 1 add def }
    { () } ifelse
} def
/cairo_flush_ascii85_file { cairo_ascii85_file status { cairo_ascii85_file flushfile } if } def
/cairo_image { image cairo_flush_ascii85_file } def
/cairo_imagemask { imagemask cairo_flush_ascii85_file } def
%%EndProlog
%%BeginSetup
%%EndSetup
%%Page: 1 1
%%BeginPageSetup
%%PageBoundingBox: 19 18 365 366
%%EndPageSetup
q 19 18 346 348 rectclip
1 0 0 -1 0 384 cm q
0.796078 0.858824 0.905882 rg
288 366 m 186 366 l 179.371 366 174 360.629 174 354 c 174 347.371 179.371
 342 186 342 c 288 342 l h
288 366 m f
0.678431 0.72549 0.764706 rg
264 342 m 342 342 l 348.648 342 354 347.352 354 354 c 354 360.648 348.648
 366 342 366 c 264 366 l 257.352 366 252 360.648 252 354 c 252 347.352 257.352
 342 264 342 c h
264 342 m f
0.796078 0.858824 0.905882 rg
343.316 342 m 265.684 342 l 263.836 342 262.094 341.148 260.957 339.691
 c 259.82 338.234 259.414 336.336 259.863 334.543 c 274.863 274.543 l 275.531
 271.875 277.93 270 280.684 270 c 358.316 270 l 360.164 270 361.906 270.852
 363.043 272.309 c 364.18 273.766 364.586 275.664 364.137 277.457 c 349.137
 337.457 l 348.469 340.125 346.07 342 343.316 342 c h
343.316 342 m f
0.662745 0.792157 0.164706 rg
319.316 342 m 265.684 342 l 263.836 342 262.094 341.148 260.957 339.691
 c 259.82 338.234 259.414 336.336 259.863 334.543 c 274.863 274.543 l 275.531
 271.875 277.93 270 280.684 270 c 334.316 270 l 336.164 270 337.906 270.852
 339.043 272.309 c 340.18 273.766 340.586 275.664 340.137 277.457 c 325.137
 337.457 l 324.469 340.125 322.07 342 319.316 342 c h
319.316 342 m f
0.678431 0.72549 0.764706 rg
96 318 m 198 318 l 204.629 318 210 312.629 210 306 c 210 299.371 204.629
 294 198 294 c 96 294 l h
96 318 m f
0.796078 0.858824 0.905882 rg
42 294 m 120 294 l 126.648 294 132 299.352 132 306 c 132 312.648 126.648
 318 120 318 c 42 318 l 35.352 318 30 312.648 30 306 c 30 299.352 35.352
 294 42 294 c h
42 294 m f
40.684 294 m 118.316 294 l 120.164 294 121.906 293.148 123.043 291.691 
c 124.18 290.234 124.586 288.336 124.137 286.543 c 109.137 226.543 l 108.469
 223.875 106.07 222 103.316 222 c 25.684 222 l 23.836 222 22.094 222.852
 20.957 224.309 c 19.82 225.766 19.414 227.664 19.863 229.457 c 34.863 289.457
 l 35.531 292.125 37.93 294 40.684 294 c h
40.684 294 m f
0.662745 0.792157 0.164706 rg
64.684 294 m 118.316 294 l 120.164 294 121.906 293.148 123.043 291.691 
c 124.18 290.234 124.586 288.336 124.137 286.543 c 109.137 226.543 l 108.469
 223.875 106.07 222 103.316 222 c 49.684 222 l 47.836 222 46.094 222.852
 44.957 224.309 c 43.82 225.766 43.414 227.664 43.863 229.457 c 58.863 289.457
 l 59.531 292.125 61.93 294 64.684 294 c h
64.684 294 m f
0.960784 0.890196 0.631373 rg
312 288 m 300 288 l 300 126 l 78 126 l 78 246 l 66 246 l 66 120 l 66 118.41
 66.633 116.883 67.758 115.758 c 68.883 114.633 70.41 114 72 114 c 306 114
 l 307.59 114 309.117 114.633 310.242 115.758 c 311.367 116.883 312 118.41
 312 120 c h
312 288 m f
0.568627 0.827451 0.933333 rg
258 198 m 126 198 l 126 18 l 216 18 l 258 60 l h
258 198 m f
0.215686 0.647059 0.792157 rg
216 18 m 216 60 l 258 60 l h
216 18 m f
144 36 24 12 re f
144 60 24 12 re f
156 84 36 12 re f
204 84 36 12 re f
144 108 36 12 re f
192 108 48 12 re f
144 132 48 12 re f
204 132 36 12 re f
216 156 24 12 re f
Q Q
showpage
%%Trailer
end
%%EOF
