%!PS-Adobe-3.0 EPSF-3.0
%%Creator: cairo 1.16.0 (https://cairographics.org)
%%CreationDate: Fri Mar 13 07:35:23 2020
%%Pages: 1
%%DocumentData: Clean7Bit
%%LanguageLevel: 2
%%BoundingBox: 60 12 341 372
%%EndComments
%%BeginProlog
50 dict begin
/q { gsave } bind def
/Q { grestore } bind def
/cm { 6 array astore concat } bind def
/w { setlinewidth } bind def
/J { setlinecap } bind def
/j { setlinejoin } bind def
/M { setmiterlimit } bind def
/d { setdash } bind def
/m { moveto } bind def
/l { lineto } bind def
/c { curveto } bind def
/h { closepath } bind def
/re { exch dup neg 3 1 roll 5 3 roll moveto 0 rlineto
      0 exch rlineto 0 rlineto closepath } bind def
/S { stroke } bind def
/f { fill } bind def
/f* { eofill } bind def
/n { newpath } bind def
/W { clip } bind def
/W* { eoclip } bind def
/BT { } bind def
/ET { } bind def
/BDC { mark 3 1 roll /BDC pdfmark } bind def
/EMC { mark /EMC pdfmark } bind def
/cairo_store_point { /cairo_point_y exch def /cairo_point_x exch def } def
/Tj { show currentpoint cairo_store_point } bind def
/TJ {
  {
    dup
    type /stringtype eq
    { show } { -0.001 mul 0 cairo_font_matrix dtransform rmoveto } ifelse
  } forall
  currentpoint cairo_store_point
} bind def
/cairo_selectfont { cairo_font_matrix aload pop pop pop 0 0 6 array astore
    cairo_font exch selectfont cairo_point_x cairo_point_y moveto } bind def
/Tf { pop /cairo_font exch def /cairo_font_matrix where
      { pop cairo_selectfont } if } bind def
/Td { matrix translate cairo_font_matrix matrix concatmatrix dup
      /cairo_font_matrix exch def dup 4 get exch 5 get cairo_store_point
      /cairo_font where { pop cairo_selectfont } if } bind def
/Tm { 2 copy 8 2 roll 6 array astore /cairo_font_matrix exch def
      cairo_store_point /cairo_font where { pop cairo_selectfont } if } bind def
/g { setgray } bind def
/rg { setrgbcolor } bind def
/d1 { setcachedevice } bind def
/cairo_data_source {
  CairoDataIndex CairoData length lt
    { CairoData CairoDataIndex get /CairoDataIndex CairoDataIndex 1 add def }
    { () } ifelse
} def
/cairo_flush_ascii85_file { cairo_ascii85_file status { cairo_ascii85_file flushfile } if } def
/cairo_image { image cairo_flush_ascii85_file } def
/cairo_imagemask { imagemask cairo_flush_ascii85_file } def
%%EndProlog
%%BeginSetup
%%EndSetup
%%Page: 1 1
%%BeginPageSetup
%%PageBoundingBox: 60 12 341 372
%%EndPageSetup
q 60 12 281 360 rectclip
1 0 0 -1 0 384 cm q
0.568627 0.827451 0.933333 rg
324 84 m 252 12 l 66 12 l 66 366 l 318 366 l h
324 84 m f
0.215686 0.647059 0.792157 rg
252 84 m 324 84 l 252 12 l h
252 84 m f
0.960784 0.772549 0.2 rg
252 18 m 252 42 l 90 42 l 90 342 l 294 342 l 294 126 l 306 114 l 318 126
 l 318 366 l 66 366 l 66 18 l h
252 18 m f
0.960784 0.890196 0.631373 rg
340.246 139.754 m 331.754 148.246 l 324 140.488 l 324 366 l 324 367.59 
323.367 369.117 322.242 370.242 c 321.117 371.367 319.59 372 318 372 c 66
 372 l 64.41 372 62.883 371.367 61.758 370.242 c 60.633 369.117 60 367.59
 60 366 c 60 18 l 60 16.41 60.633 14.883 61.758 13.758 c 62.883 12.633 64.41
 12 66 12 c 252 12 l 252 24 l 72 24 l 72 360 l 312 360 l 312 128.484 l 306
 122.484 l 300 128.484 l 300 342 l 300 343.59 299.367 345.117 298.242 346.242
 c 297.117 347.367 295.59 348 294 348 c 90 348 l 88.41 348 86.883 347.367
 85.758 346.242 c 84.633 345.117 84 343.59 84 342 c 84 42 l 84 40.41 84.633
 38.883 85.758 37.758 c 86.883 36.633 88.41 36 90 36 c 252 36 l 252 48 l
 96 48 l 96 336 l 288 336 l 288 140.488 l 280.246 148.246 l 271.754 139.754
 l 301.754 109.754 l 304.102 107.414 307.898 107.414 310.246 109.754 c h
340.246 139.754 m f
0.215686 0.647059 0.792157 rg
108 78 24 12 re f
108 102 24 12 re f
132 126 36 12 re f
180 126 36 12 re f
228 126 36 12 re f
108 150 36 12 re f
156 150 36 12 re f
204 150 60 12 re f
108 174 48 12 re f
168 174 36 12 re f
216 174 60 12 re f
108 198 24 12 re f
144 198 36 12 re f
192 198 72 12 re f
228 240 36 12 re f
228 264 36 12 re f
Q Q
showpage
%%Trailer
end
%%EOF
