%!PS-Adobe-3.0 EPSF-3.0
%%Creator: cairo 1.16.0 (https://cairographics.org)
%%CreationDate: Fri Mar 13 07:35:24 2020
%%Pages: 1
%%DocumentData: Clean7Bit
%%LanguageLevel: 2
%%BoundingBox: 18 18 366 366
%%EndComments
%%BeginProlog
50 dict begin
/q { gsave } bind def
/Q { grestore } bind def
/cm { 6 array astore concat } bind def
/w { setlinewidth } bind def
/J { setlinecap } bind def
/j { setlinejoin } bind def
/M { setmiterlimit } bind def
/d { setdash } bind def
/m { moveto } bind def
/l { lineto } bind def
/c { curveto } bind def
/h { closepath } bind def
/re { exch dup neg 3 1 roll 5 3 roll moveto 0 rlineto
      0 exch rlineto 0 rlineto closepath } bind def
/S { stroke } bind def
/f { fill } bind def
/f* { eofill } bind def
/n { newpath } bind def
/W { clip } bind def
/W* { eoclip } bind def
/BT { } bind def
/ET { } bind def
/BDC { mark 3 1 roll /BDC pdfmark } bind def
/EMC { mark /EMC pdfmark } bind def
/cairo_store_point { /cairo_point_y exch def /cairo_point_x exch def } def
/Tj { show currentpoint cairo_store_point } bind def
/TJ {
  {
    dup
    type /stringtype eq
    { show } { -0.001 mul 0 cairo_font_matrix dtransform rmoveto } ifelse
  } forall
  currentpoint cairo_store_point
} bind def
/cairo_selectfont { cairo_font_matrix aload pop pop pop 0 0 6 array astore
    cairo_font exch selectfont cairo_point_x cairo_point_y moveto } bind def
/Tf { pop /cairo_font exch def /cairo_font_matrix where
      { pop cairo_selectfont } if } bind def
/Td { matrix translate cairo_font_matrix matrix concatmatrix dup
      /cairo_font_matrix exch def dup 4 get exch 5 get cairo_store_point
      /cairo_font where { pop cairo_selectfont } if } bind def
/Tm { 2 copy 8 2 roll 6 array astore /cairo_font_matrix exch def
      cairo_store_point /cairo_font where { pop cairo_selectfont } if } bind def
/g { setgray } bind def
/rg { setrgbcolor } bind def
/d1 { setcachedevice } bind def
/cairo_data_source {
  CairoDataIndex CairoData length lt
    { CairoData CairoDataIndex get /CairoDataIndex CairoDataIndex 1 add def }
    { () } ifelse
} def
/cairo_flush_ascii85_file { cairo_ascii85_file status { cairo_ascii85_file flushfile } if } def
/cairo_image { image cairo_flush_ascii85_file } def
/cairo_imagemask { imagemask cairo_flush_ascii85_file } def
%%EndProlog
%%BeginSetup
%%EndSetup
%%Page: 1 1
%%BeginPageSetup
%%PageBoundingBox: 18 18 366 366
%%EndPageSetup
q 18 18 348 348 rectclip
1 0 0 -1 0 384 cm q
0.960784 0.890196 0.631373 rg
30 162 m 354 162 l 360.648 162 366 167.352 366 174 c 366 180.648 360.648
 186 354 186 c 30 186 l 23.352 186 18 180.648 18 174 c 18 167.352 23.352
 162 30 162 c h
30 162 m f
336 186 m 210 312 l 210 366 l 174 366 l 174 312 l 48 186 l h
336 186 m f
0.960784 0.772549 0.2 rg
192 312 18 12 re f
336 186 m 324 198 l 60 198 l 48 186 l h
336 186 m f
0.568627 0.827451 0.933333 rg
246 54 m 246 162 l 138 162 l 138 18 l 210 18 l h
246 54 m f
0.215686 0.647059 0.792157 rg
210 18 m 210 54 l 246 54 l h
210 18 m f
156 30 24 12 re f
156 48 24 12 re f
180 66 24 12 re f
168 84 24 12 re f
0.419608 0.780392 0.909804 rg
174 115.027 m 174 162 l 138 162 l 138 79.027 l h
174 115.027 m f
0.568627 0.827451 0.933333 rg
126 84 m 54 84 l 54 162 l 162 162 l 162 120 l h
126 84 m f
0.215686 0.647059 0.792157 rg
126 84 m 126 120 l 162 120 l h
126 84 m f
72 96 24 12 re f
72 114 24 12 re f
96 132 24 12 re f
0.419608 0.780392 0.909804 rg
210 72 36 90 re f
0.568627 0.827451 0.933333 rg
294 84 m 222 84 l 222 162 l 330 162 l 330 120 l h
294 84 m f
0.215686 0.647059 0.792157 rg
294 84 m 294 120 l 330 120 l h
294 84 m f
240 96 24 12 re f
240 114 24 12 re f
264 132 24 12 re f
Q Q
showpage
%%Trailer
end
%%EOF
