%!PS-Adobe-3.0 EPSF-3.0
%%Creator: cairo 1.16.0 (https://cairographics.org)
%%CreationDate: Fri Mar 13 07:35:25 2020
%%Pages: 1
%%DocumentData: Clean7Bit
%%LanguageLevel: 2
%%BoundingBox: 12 12 372 372
%%EndComments
%%BeginProlog
50 dict begin
/q { gsave } bind def
/Q { grestore } bind def
/cm { 6 array astore concat } bind def
/w { setlinewidth } bind def
/J { setlinecap } bind def
/j { setlinejoin } bind def
/M { setmiterlimit } bind def
/d { setdash } bind def
/m { moveto } bind def
/l { lineto } bind def
/c { curveto } bind def
/h { closepath } bind def
/re { exch dup neg 3 1 roll 5 3 roll moveto 0 rlineto
      0 exch rlineto 0 rlineto closepath } bind def
/S { stroke } bind def
/f { fill } bind def
/f* { eofill } bind def
/n { newpath } bind def
/W { clip } bind def
/W* { eoclip } bind def
/BT { } bind def
/ET { } bind def
/BDC { mark 3 1 roll /BDC pdfmark } bind def
/EMC { mark /EMC pdfmark } bind def
/cairo_store_point { /cairo_point_y exch def /cairo_point_x exch def } def
/Tj { show currentpoint cairo_store_point } bind def
/TJ {
  {
    dup
    type /stringtype eq
    { show } { -0.001 mul 0 cairo_font_matrix dtransform rmoveto } ifelse
  } forall
  currentpoint cairo_store_point
} bind def
/cairo_selectfont { cairo_font_matrix aload pop pop pop 0 0 6 array astore
    cairo_font exch selectfont cairo_point_x cairo_point_y moveto } bind def
/Tf { pop /cairo_font exch def /cairo_font_matrix where
      { pop cairo_selectfont } if } bind def
/Td { matrix translate cairo_font_matrix matrix concatmatrix dup
      /cairo_font_matrix exch def dup 4 get exch 5 get cairo_store_point
      /cairo_font where { pop cairo_selectfont } if } bind def
/Tm { 2 copy 8 2 roll 6 array astore /cairo_font_matrix exch def
      cairo_store_point /cairo_font where { pop cairo_selectfont } if } bind def
/g { setgray } bind def
/rg { setrgbcolor } bind def
/d1 { setcachedevice } bind def
/cairo_data_source {
  CairoDataIndex CairoData length lt
    { CairoData CairoDataIndex get /CairoDataIndex CairoDataIndex 1 add def }
    { () } ifelse
} def
/cairo_flush_ascii85_file { cairo_ascii85_file status { cairo_ascii85_file flushfile } if } def
/cairo_image { image cairo_flush_ascii85_file } def
/cairo_imagemask { imagemask cairo_flush_ascii85_file } def
%%EndProlog
%%BeginSetup
%%EndSetup
%%Page: 1 1
%%BeginPageSetup
%%PageBoundingBox: 12 12 372 372
%%EndPageSetup
q 12 12 360 360 rectclip
1 0 0 -1 0 384 cm q
0.796078 0.858824 0.905882 rg
372 30 m 372 18 l 366 18 l 366 12 l 354 12 l 354 18 l 330 18 l 330 12 l
 318 12 l 318 18 l 294 18 l 294 12 l 282 12 l 282 18 l 258 18 l 258 12 l
 246 12 l 246 18 l 222 18 l 222 12 l 210 12 l 210 18 l 186 18 l 186 12 l
 174 12 l 174 18 l 150 18 l 150 12 l 138 12 l 138 18 l 114 18 l 114 12 l
 102 12 l 102 18 l 78 18 l 78 12 l 66 12 l 66 18 l 60 18 l 60 30 l 66 30
 l 66 54 l 60 54 l 60 66 l 66 66 l 66 90 l 60 90 l 60 102 l 66 102 l 66 
126 l 60 126 l 60 138 l 66 138 l 66 162 l 60 162 l 60 174 l 66 174 l 66 
198 l 60 198 l 60 210 l 66 210 l 66 234 l 60 234 l 60 246 l 66 246 l 66 
270 l 60 270 l 60 282 l 66 282 l 66 306 l 60 306 l 60 318 l 66 318 l 66 
324 l 78 324 l 78 318 l 102 318 l 102 324 l 114 324 l 114 318 l 138 318 
l 138 324 l 150 324 l 150 318 l 174 318 l 174 324 l 186 324 l 186 318 l 
210 318 l 210 324 l 222 324 l 222 318 l 246 318 l 246 324 l 258 324 l 258
 318 l 282 318 l 282 324 l 294 324 l 294 318 l 318 318 l 318 324 l 330 324
 l 330 318 l 354 318 l 354 324 l 366 324 l 366 318 l 372 318 l 372 306 l
 366 306 l 366 282 l 372 282 l 372 270 l 366 270 l 366 246 l 372 246 l 372
 234 l 366 234 l 366 210 l 372 210 l 372 198 l 366 198 l 366 174 l 372 174
 l 372 162 l 366 162 l 366 138 l 372 138 l 372 126 l 366 126 l 366 102 l
 372 102 l 372 90 l 366 90 l 366 66 l 372 66 l 372 54 l 366 54 l 366 30 
l h
318 30 m 318 54 l 294 54 l 294 30 l h
210 174 m 210 198 l 186 198 l 186 174 l h
186 162 m 186 138 l 210 138 l 210 162 l h
222 174 m 246 174 l 246 198 l 222 198 l h
222 162 m 222 138 l 246 138 l 246 162 l h
222 126 m 222 102 l 246 102 l 246 126 l h
210 126 m 186 126 l 186 102 l 210 102 l h
174 126 m 150 126 l 150 102 l 174 102 l h
174 138 m 174 162 l 150 162 l 150 138 l h
174 174 m 174 198 l 150 198 l 150 174 l h
174 210 m 174 234 l 150 234 l 150 210 l h
186 210 m 210 210 l 210 234 l 186 234 l h
222 210 m 246 210 l 246 234 l 222 234 l h
258 210 m 282 210 l 282 234 l 258 234 l h
258 198 m 258 174 l 282 174 l 282 198 l h
258 162 m 258 138 l 282 138 l 282 162 l h
258 126 m 258 102 l 282 102 l 282 126 l h
258 90 m 258 66 l 282 66 l 282 90 l h
246 90 m 222 90 l 222 66 l 246 66 l h
210 90 m 186 90 l 186 66 l 210 66 l h
174 90 m 150 90 l 150 66 l 174 66 l h
138 90 m 114 90 l 114 66 l 138 66 l h
138 102 m 138 126 l 114 126 l 114 102 l h
138 138 m 138 162 l 114 162 l 114 138 l h
138 174 m 138 198 l 114 198 l 114 174 l h
138 210 m 138 234 l 114 234 l 114 210 l h
138 246 m 138 270 l 114 270 l 114 246 l h
150 246 m 174 246 l 174 270 l 150 270 l h
186 246 m 210 246 l 210 270 l 186 270 l h
222 246 m 246 246 l 246 270 l 222 270 l h
258 246 m 282 246 l 282 270 l 258 270 l h
294 246 m 318 246 l 318 270 l 294 270 l h
294 234 m 294 210 l 318 210 l 318 234 l h
294 198 m 294 174 l 318 174 l 318 198 l h
294 162 m 294 138 l 318 138 l 318 162 l h
294 126 m 294 102 l 318 102 l 318 126 l h
294 90 m 294 66 l 318 66 l 318 90 l h
282 30 m 282 54 l 258 54 l 258 30 l h
246 30 m 246 54 l 222 54 l 222 30 l h
210 30 m 210 54 l 186 54 l 186 30 l h
174 30 m 174 54 l 150 54 l 150 30 l h
138 30 m 138 54 l 114 54 l 114 30 l h
78 30 m 102 30 l 102 54 l 78 54 l h
78 66 m 102 66 l 102 90 l 78 90 l h
78 102 m 102 102 l 102 126 l 78 126 l h
78 138 m 102 138 l 102 162 l 78 162 l h
78 174 m 102 174 l 102 198 l 78 198 l h
78 210 m 102 210 l 102 234 l 78 234 l h
78 246 m 102 246 l 102 270 l 78 270 l h
78 306 m 78 282 l 102 282 l 102 306 l h
114 306 m 114 282 l 138 282 l 138 306 l h
150 306 m 150 282 l 174 282 l 174 306 l h
186 306 m 186 282 l 210 282 l 210 306 l h
222 306 m 222 282 l 246 282 l 246 306 l h
258 306 m 258 282 l 282 282 l 282 306 l h
294 306 m 294 282 l 318 282 l 318 306 l h
354 306 m 330 306 l 330 282 l 354 282 l h
354 270 m 330 270 l 330 246 l 354 246 l h
354 234 m 330 234 l 330 210 l 354 210 l h
354 198 m 330 198 l 330 174 l 354 174 l h
354 162 m 330 162 l 330 138 l 354 138 l h
354 126 m 330 126 l 330 102 l 354 102 l h
354 90 m 330 90 l 330 66 l 354 66 l h
354 54 m 330 54 l 330 30 l 354 30 l h
354 54 m f
0.215686 0.647059 0.792157 rg
198 138 36 12 re f
46.832 222.207 m 89.203 213.742 l 91.555 225.512 l 49.184 233.98 l h
46.832 222.207 m f
116.453 199.031 m 162.992 152.496 l 171.477 160.98 l 124.938 207.516 l 
h
116.453 199.031 m f
260.453 127.059 m 306.988 80.52 l 315.473 89.004 l 268.938 135.543 l h
260.453 127.059 m f
0.176471 0.501961 0.729412 rg
252 168 m 242.293 168 233.543 162.152 229.828 153.184 c 226.113 144.215
 228.164 133.895 235.031 127.031 c 241.895 120.164 252.215 118.113 261.184
 121.828 c 270.152 125.543 276 134.293 276 144 c 275.984 157.25 265.25 167.984
 252 168 c h
252 132 m 247.145 132 242.77 134.922 240.914 139.406 c 239.055 143.891 
240.082 149.055 243.516 152.484 c 246.945 155.918 252.109 156.945 256.594
 155.086 c 261.078 153.23 264 148.855 264 144 c 263.992 137.375 258.625 
132.008 252 132 c h
252 132 m f
324 96 m 314.293 96 305.543 90.152 301.828 81.184 c 298.113 72.215 300.164
 61.895 307.031 55.031 c 313.895 48.164 324.215 46.113 333.184 49.828 c 
342.152 53.543 348 62.293 348 72 c 347.984 85.25 337.25 95.984 324 96 c 
h
324 60 m 319.145 60 314.77 62.922 312.914 67.406 c 311.055 71.891 312.082
 77.055 315.516 80.484 c 318.945 83.918 324.109 84.945 328.594 83.086 c 
333.078 81.23 336 76.855 336 72 c 335.992 65.375 330.625 60.008 324 60 c
 h
324 60 m f
180 168 m 170.293 168 161.543 162.152 157.828 153.184 c 154.113 144.215
 156.164 133.895 163.031 127.031 c 169.895 120.164 180.215 118.113 189.184
 121.828 c 198.152 125.543 204 134.293 204 144 c 203.984 157.25 193.25 167.984
 180 168 c h
180 132 m 175.145 132 170.77 134.922 168.914 139.406 c 167.055 143.891 
168.082 149.055 171.516 152.484 c 174.945 155.918 180.109 156.945 184.594
 155.086 c 189.078 153.23 192 148.855 192 144 c 191.992 137.375 186.625 
132.008 180 132 c h
180 132 m f
108 240 m 98.293 240 89.543 234.152 85.828 225.184 c 82.113 216.215 84.164
 205.895 91.031 199.031 c 97.895 192.164 108.215 190.113 117.184 193.828
 c 126.152 197.543 132 206.293 132 216 c 131.984 229.25 121.25 239.984 108
 240 c h
108 204 m 103.145 204 98.77 206.922 96.914 211.406 c 95.055 215.891 96.082
 221.055 99.516 224.484 c 102.945 227.918 108.109 228.945 112.594 227.086
 c 117.078 225.23 120 220.855 120 216 c 119.992 209.375 114.625 204.008 
108 204 c h
108 204 m f
0.223529 0.309804 0.352941 rg
54 330 m 54 12 l 42 12 l 42 54 l 30 54 l 30 66 l 42 66 l 42 126 l 30 126
 l 30 138 l 42 138 l 42 198 l 30 198 l 30 210 l 42 210 l 42 270 l 30 270
 l 30 282 l 42 282 l 42 330 l 30 330 l 30 342 l 42 342 l 42 354 l 54 354
 l 54 342 l 102 342 l 102 354 l 114 354 l 114 342 l 174 342 l 174 354 l 
186 354 l 186 342 l 246 342 l 246 354 l 258 354 l 258 342 l 318 342 l 318
 354 l 330 354 l 330 342 l 372 342 l 372 330 l h
54 330 m f
0.215686 0.647059 0.792157 rg
30 360 36 12 re f
90 360 36 12 re f
162 360 36 12 re f
234 360 36 12 re f
306 360 36 12 re f
12 330 12 12 re f
12 270 12 12 re f
12 198 12 12 re f
12 126 12 12 re f
12 54 12 12 re f
Q Q
showpage
%%Trailer
end
%%EOF
