%!PS-Adobe-3.0 EPSF-3.0
%%Creator: cairo 1.16.0 (https://cairographics.org)
%%CreationDate: Fri Mar 13 07:35:25 2020
%%Pages: 1
%%DocumentData: Clean7Bit
%%LanguageLevel: 2
%%BoundingBox: 18 18 366 366
%%EndComments
%%BeginProlog
50 dict begin
/q { gsave } bind def
/Q { grestore } bind def
/cm { 6 array astore concat } bind def
/w { setlinewidth } bind def
/J { setlinecap } bind def
/j { setlinejoin } bind def
/M { setmiterlimit } bind def
/d { setdash } bind def
/m { moveto } bind def
/l { lineto } bind def
/c { curveto } bind def
/h { closepath } bind def
/re { exch dup neg 3 1 roll 5 3 roll moveto 0 rlineto
      0 exch rlineto 0 rlineto closepath } bind def
/S { stroke } bind def
/f { fill } bind def
/f* { eofill } bind def
/n { newpath } bind def
/W { clip } bind def
/W* { eoclip } bind def
/BT { } bind def
/ET { } bind def
/BDC { mark 3 1 roll /BDC pdfmark } bind def
/EMC { mark /EMC pdfmark } bind def
/cairo_store_point { /cairo_point_y exch def /cairo_point_x exch def } def
/Tj { show currentpoint cairo_store_point } bind def
/TJ {
  {
    dup
    type /stringtype eq
    { show } { -0.001 mul 0 cairo_font_matrix dtransform rmoveto } ifelse
  } forall
  currentpoint cairo_store_point
} bind def
/cairo_selectfont { cairo_font_matrix aload pop pop pop 0 0 6 array astore
    cairo_font exch selectfont cairo_point_x cairo_point_y moveto } bind def
/Tf { pop /cairo_font exch def /cairo_font_matrix where
      { pop cairo_selectfont } if } bind def
/Td { matrix translate cairo_font_matrix matrix concatmatrix dup
      /cairo_font_matrix exch def dup 4 get exch 5 get cairo_store_point
      /cairo_font where { pop cairo_selectfont } if } bind def
/Tm { 2 copy 8 2 roll 6 array astore /cairo_font_matrix exch def
      cairo_store_point /cairo_font where { pop cairo_selectfont } if } bind def
/g { setgray } bind def
/rg { setrgbcolor } bind def
/d1 { setcachedevice } bind def
/cairo_data_source {
  CairoDataIndex CairoData length lt
    { CairoData CairoDataIndex get /CairoDataIndex CairoDataIndex 1 add def }
    { () } ifelse
} def
/cairo_flush_ascii85_file { cairo_ascii85_file status { cairo_ascii85_file flushfile } if } def
/cairo_image { image cairo_flush_ascii85_file } def
/cairo_imagemask { imagemask cairo_flush_ascii85_file } def
%%EndProlog
%%BeginSetup
%%EndSetup
%%Page: 1 1
%%BeginPageSetup
%%PageBoundingBox: 18 18 366 366
%%EndPageSetup
q 18 18 348 348 rectclip
1 0 0 -1 0 384 cm q
0.568627 0.827451 0.933333 rg
42 78 m 342 78 l 355.297 78 366 88.703 366 102 c 366 294 l 366 307.297 
355.297 318 342 318 c 42 318 l 28.703 318 18 307.297 18 294 c 18 102 l 18
 88.703 28.703 78 42 78 c h
42 78 m f
0.215686 0.647059 0.792157 rg
18 282 m 366 282 l 366 294 l 366 307.254 355.254 318 342 318 c 42 318 l
 28.746 318 18 307.254 18 294 c h
18 282 m f
0.662745 0.792157 0.164706 rg
48 102 m 336 102 l 339.312 102 342 104.688 342 108 c 342 282 l 42 282 l
 42 108 l 42 104.688 44.688 102 48 102 c h
48 102 m f
0.176471 0.501961 0.729412 rg
198 300 m 198 303.312 195.312 306 192 306 c 188.688 306 186 303.312 186
 300 c 186 296.688 188.688 294 192 294 c 195.312 294 198 296.688 198 300
 c h
198 300 m f
0.568627 0.827451 0.933333 rg
168 318 m 168 342 l 168 355.254 157.254 366 144 366 c 240 366 l 226.746
 366 216 355.254 216 342 c 216 318 l h
168 318 m f
0.796078 0.858824 0.905882 rg
66 18 252 264 re f
0.678431 0.72549 0.764706 rg
84 48 216 12 re f
0.886275 0.235294 0.243137 rg
90 36 m 90 39.312 87.312 42 84 42 c 80.688 42 78 39.312 78 36 c 78 32.688
 80.688 30 84 30 c 87.312 30 90 32.688 90 36 c h
90 36 m f
0.960784 0.772549 0.2 rg
108 36 m 108 39.312 105.312 42 102 42 c 98.688 42 96 39.312 96 36 c 96 
32.688 98.688 30 102 30 c 105.312 30 108 32.688 108 36 c h
108 36 m f
0.560784 0.74902 0.396078 rg
126 36 m 126 39.312 123.312 42 120 42 c 116.688 42 114 39.312 114 36 c 
114 32.688 116.688 30 120 30 c 123.312 30 126 32.688 126 36 c h
126 36 m f
0.960784 0.890196 0.631373 rg
90 78 78 54 re f
0.960784 0.772549 0.2 rg
108 90 24 12 re f
144 90 12 12 re f
102 108 18 12 re f
132 108 24 12 re f
0.215686 0.647059 0.792157 rg
108 258 24 12 re f
138 258 24 12 re f
168 258 24 12 re f
198 258 24 12 re f
228 258 24 12 re f
258 258 24 12 re f
78 162 12 12 re f
78 222 12 12 re f
78 192 12 12 re f
0.223529 0.309804 0.352941 rg
300 222 m 126 222 l 126 150 l 114 150 l 114 162 l 102 162 l 102 174 l 114
 174 l 114 192 l 102 192 l 102 204 l 114 204 l 114 222 l 102 222 l 102 234
 l 114 234 l 114 246 l 126 246 l 126 234 l 144 234 l 144 246 l 156 246 l
 156 234 l 174 234 l 174 246 l 186 246 l 186 234 l 204 234 l 204 246 l 216
 246 l 216 234 l 234 234 l 234 246 l 246 246 l 246 234 l 264 234 l 264 246
 l 276 246 l 276 234 l 300 234 l h
300 222 m f
0.960784 0.772549 0.2 rg
138 192 24 24 re f
0.560784 0.74902 0.396078 rg
180 174 24 42 re f
0.886275 0.235294 0.243137 rg
222 198 24 18 re f
0.215686 0.647059 0.792157 rg
264 168 24 48 re f
0.662745 0.792157 0.164706 rg
294 108 m 270 108 l 270 120 l 279.516 120 l 234 165.516 l 196.242 127.758
 l 193.898 125.414 190.102 125.414 187.758 127.758 c 145.758 169.758 l 154.242
 178.242 l 192 140.484 l 229.758 178.242 l 232.102 180.586 235.898 180.586
 238.242 178.242 c 288 128.484 l 288 138 l 300 138 l 300 114 l 300 110.688
 297.312 108 294 108 c h
294 108 m f
Q Q
showpage
%%Trailer
end
%%EOF
