%!PS-Adobe-3.0 EPSF-3.0
%%Creator: cairo 1.16.0 (https://cairographics.org)
%%CreationDate: Fri Mar 13 07:35:26 2020
%%Pages: 1
%%DocumentData: Clean7Bit
%%LanguageLevel: 2
%%BoundingBox: 12 12 372 372
%%EndComments
%%BeginProlog
50 dict begin
/q { gsave } bind def
/Q { grestore } bind def
/cm { 6 array astore concat } bind def
/w { setlinewidth } bind def
/J { setlinecap } bind def
/j { setlinejoin } bind def
/M { setmiterlimit } bind def
/d { setdash } bind def
/m { moveto } bind def
/l { lineto } bind def
/c { curveto } bind def
/h { closepath } bind def
/re { exch dup neg 3 1 roll 5 3 roll moveto 0 rlineto
      0 exch rlineto 0 rlineto closepath } bind def
/S { stroke } bind def
/f { fill } bind def
/f* { eofill } bind def
/n { newpath } bind def
/W { clip } bind def
/W* { eoclip } bind def
/BT { } bind def
/ET { } bind def
/BDC { mark 3 1 roll /BDC pdfmark } bind def
/EMC { mark /EMC pdfmark } bind def
/cairo_store_point { /cairo_point_y exch def /cairo_point_x exch def } def
/Tj { show currentpoint cairo_store_point } bind def
/TJ {
  {
    dup
    type /stringtype eq
    { show } { -0.001 mul 0 cairo_font_matrix dtransform rmoveto } ifelse
  } forall
  currentpoint cairo_store_point
} bind def
/cairo_selectfont { cairo_font_matrix aload pop pop pop 0 0 6 array astore
    cairo_font exch selectfont cairo_point_x cairo_point_y moveto } bind def
/Tf { pop /cairo_font exch def /cairo_font_matrix where
      { pop cairo_selectfont } if } bind def
/Td { matrix translate cairo_font_matrix matrix concatmatrix dup
      /cairo_font_matrix exch def dup 4 get exch 5 get cairo_store_point
      /cairo_font where { pop cairo_selectfont } if } bind def
/Tm { 2 copy 8 2 roll 6 array astore /cairo_font_matrix exch def
      cairo_store_point /cairo_font where { pop cairo_selectfont } if } bind def
/g { setgray } bind def
/rg { setrgbcolor } bind def
/d1 { setcachedevice } bind def
/cairo_data_source {
  CairoDataIndex CairoData length lt
    { CairoData CairoDataIndex get /CairoDataIndex CairoDataIndex 1 add def }
    { () } ifelse
} def
/cairo_flush_ascii85_file { cairo_ascii85_file status { cairo_ascii85_file flushfile } if } def
/cairo_image { image cairo_flush_ascii85_file } def
/cairo_imagemask { imagemask cairo_flush_ascii85_file } def
%%EndProlog
%%BeginSetup
%%EndSetup
%%Page: 1 1
%%BeginPageSetup
%%PageBoundingBox: 12 12 372 372
%%EndPageSetup
q 12 12 360 360 rectclip
1 0 0 -1 0 384 cm q
0.215686 0.647059 0.792157 rg
30 360 36 12 re f
90 360 36 12 re f
162 360 36 12 re f
234 360 36 12 re f
306 360 36 12 re f
12 330 12 12 re f
12 270 12 12 re f
12 198 12 12 re f
12 126 12 12 re f
12 54 12 12 re f
0.223529 0.309804 0.352941 rg
54 330 m 54 12 l 42 12 l 42 54 l 30 54 l 30 66 l 42 66 l 42 126 l 30 126
 l 30 138 l 42 138 l 42 198 l 30 198 l 30 210 l 42 210 l 42 270 l 30 270
 l 30 282 l 42 282 l 42 330 l 30 330 l 30 342 l 42 342 l 42 354 l 54 354
 l 54 342 l 102 342 l 102 354 l 114 354 l 114 342 l 174 342 l 174 354 l 
186 354 l 186 342 l 246 342 l 246 354 l 258 354 l 258 342 l 318 342 l 318
 354 l 330 354 l 330 342 l 372 342 l 372 330 l h
54 330 m f
0.960784 0.772549 0.2 rg
90 234 36 78 re f
0.572549 0.831373 0.937255 rg
162 192 36 120 re f
0.886275 0.235294 0.243137 rg
234 240 36 72 re f
0.572549 0.831373 0.937255 rg
306 186 36 126 re f
0.662745 0.792157 0.164706 rg
366 96 m 330 96 l 330 108 l 351.516 108 l 252 207.516 l 184.242 139.758
 l 181.898 137.414 178.102 137.414 175.758 139.758 c 103.758 211.758 l 112.242
 220.242 l 180 152.484 l 247.758 220.242 l 250.102 222.586 253.898 222.586
 256.242 220.242 c 360 116.484 l 360 138 l 372 138 l 372 102 l 372 98.688
 369.312 96 366 96 c h
366 96 m f
0.960784 0.890196 0.631373 rg
192 102 m 174 102 l 174 126 l 144 102 l 96 102 l 96 48 l 192 48 l h
192 102 m f
330 78 m 312 78 l 312 102 l 282 78 l 234 78 l 234 24 l 330 24 l h
330 78 m f
0.960784 0.772549 0.2 rg
126 60 24 12 re f
162 60 12 12 re f
114 78 24 12 re f
150 78 24 12 re f
264 36 24 12 re f
300 36 12 12 re f
252 54 24 12 re f
288 54 24 12 re f
Q Q
showpage
%%Trailer
end
%%EOF
