%!PS-Adobe-3.0 EPSF-3.0
%%Creator: cairo 1.16.0 (https://cairographics.org)
%%CreationDate: Fri Mar 13 07:35:26 2020
%%Pages: 1
%%DocumentData: Clean7Bit
%%LanguageLevel: 2
%%BoundingBox: 18 18 366 366
%%EndComments
%%BeginProlog
50 dict begin
/q { gsave } bind def
/Q { grestore } bind def
/cm { 6 array astore concat } bind def
/w { setlinewidth } bind def
/J { setlinecap } bind def
/j { setlinejoin } bind def
/M { setmiterlimit } bind def
/d { setdash } bind def
/m { moveto } bind def
/l { lineto } bind def
/c { curveto } bind def
/h { closepath } bind def
/re { exch dup neg 3 1 roll 5 3 roll moveto 0 rlineto
      0 exch rlineto 0 rlineto closepath } bind def
/S { stroke } bind def
/f { fill } bind def
/f* { eofill } bind def
/n { newpath } bind def
/W { clip } bind def
/W* { eoclip } bind def
/BT { } bind def
/ET { } bind def
/BDC { mark 3 1 roll /BDC pdfmark } bind def
/EMC { mark /EMC pdfmark } bind def
/cairo_store_point { /cairo_point_y exch def /cairo_point_x exch def } def
/Tj { show currentpoint cairo_store_point } bind def
/TJ {
  {
    dup
    type /stringtype eq
    { show } { -0.001 mul 0 cairo_font_matrix dtransform rmoveto } ifelse
  } forall
  currentpoint cairo_store_point
} bind def
/cairo_selectfont { cairo_font_matrix aload pop pop pop 0 0 6 array astore
    cairo_font exch selectfont cairo_point_x cairo_point_y moveto } bind def
/Tf { pop /cairo_font exch def /cairo_font_matrix where
      { pop cairo_selectfont } if } bind def
/Td { matrix translate cairo_font_matrix matrix concatmatrix dup
      /cairo_font_matrix exch def dup 4 get exch 5 get cairo_store_point
      /cairo_font where { pop cairo_selectfont } if } bind def
/Tm { 2 copy 8 2 roll 6 array astore /cairo_font_matrix exch def
      cairo_store_point /cairo_font where { pop cairo_selectfont } if } bind def
/g { setgray } bind def
/rg { setrgbcolor } bind def
/d1 { setcachedevice } bind def
/cairo_data_source {
  CairoDataIndex CairoData length lt
    { CairoData CairoDataIndex get /CairoDataIndex CairoDataIndex 1 add def }
    { () } ifelse
} def
/cairo_flush_ascii85_file { cairo_ascii85_file status { cairo_ascii85_file flushfile } if } def
/cairo_image { image cairo_flush_ascii85_file } def
/cairo_imagemask { imagemask cairo_flush_ascii85_file } def
%%EndProlog
%%BeginSetup
%%EndSetup
%%Page: 1 1
%%BeginPageSetup
%%PageBoundingBox: 18 18 366 366
%%EndPageSetup
q 18 18 348 348 rectclip
1 0 0 -1 0 384 cm q
0.796078 0.858824 0.905882 rg
18 18 228 72 re f
18 114 228 72 re f
18 210 228 72 re f
0.223529 0.309804 0.352941 rg
36 186 24 24 re f
204 186 24 24 re f
36 90 24 24 re f
204 90 24 24 re f
0.662745 0.792157 0.164706 rg
42 138 48 24 re f
0.921569 0.25098 0.258824 rg
132 150 m 132 156.629 126.629 162 120 162 c 113.371 162 108 156.629 108
 150 c 108 143.371 113.371 138 120 138 c 126.629 138 132 143.371 132 150
 c h
132 150 m f
0.215686 0.647059 0.792157 rg
174 150 m 174 156.629 168.629 162 162 162 c 155.371 162 150 156.629 150
 150 c 150 143.371 155.371 138 162 138 c 168.629 138 174 143.371 174 150
 c h
174 150 m f
0.662745 0.792157 0.164706 rg
42 234 48 24 re f
0.921569 0.25098 0.258824 rg
132 246 m 132 252.629 126.629 258 120 258 c 113.371 258 108 252.629 108
 246 c 108 239.371 113.371 234 120 234 c 126.629 234 132 239.371 132 246
 c h
132 246 m f
0.215686 0.647059 0.792157 rg
174 246 m 174 252.629 168.629 258 162 258 c 155.371 258 150 252.629 150
 246 c 150 239.371 155.371 234 162 234 c 168.629 234 174 239.371 174 246
 c h
174 246 m f
0.662745 0.792157 0.164706 rg
42 42 48 24 re f
0.921569 0.25098 0.258824 rg
132 54 m 132 60.629 126.629 66 120 66 c 113.371 66 108 60.629 108 54 c 
108 47.371 113.371 42 120 42 c 126.629 42 132 47.371 132 54 c h
132 54 m f
0.215686 0.647059 0.792157 rg
174 54 m 174 60.629 168.629 66 162 66 c 155.371 66 150 60.629 150 54 c 
150 47.371 155.371 42 162 42 c 168.629 42 174 47.371 174 54 c h
174 54 m f
0.662745 0.792157 0.164706 rg
300 168 m 300 84 l 276 84 l 276 114 l 228 66 l 276 18 l 276 48 l 336 48
 l 336 174 l h
300 168 m f
0.568627 0.827451 0.933333 rg
366 366 m 210 366 l 210 150 l 318 150 l 366 198 l h
366 366 m f
0.215686 0.647059 0.792157 rg
318 150 m 318 198 l 366 198 l h
318 150 m f
228 168 24 12 re f
228 192 24 12 re f
240 216 36 12 re f
288 216 60 12 re f
228 240 36 12 re f
276 240 36 12 re f
324 240 24 12 re f
228 264 72 12 re f
312 264 36 12 re f
312 312 24 12 re f
312 336 24 12 re f
228 288 48 12 re f
Q Q
showpage
%%Trailer
end
%%EOF
