%!PS-Adobe-3.0 EPSF-3.0
%%Creator: cairo 1.16.0 (https://cairographics.org)
%%CreationDate: Fri Mar 13 07:35:27 2020
%%Pages: 1
%%DocumentData: Clean7Bit
%%LanguageLevel: 2
%%BoundingBox: 18 18 366 366
%%EndComments
%%BeginProlog
50 dict begin
/q { gsave } bind def
/Q { grestore } bind def
/cm { 6 array astore concat } bind def
/w { setlinewidth } bind def
/J { setlinecap } bind def
/j { setlinejoin } bind def
/M { setmiterlimit } bind def
/d { setdash } bind def
/m { moveto } bind def
/l { lineto } bind def
/c { curveto } bind def
/h { closepath } bind def
/re { exch dup neg 3 1 roll 5 3 roll moveto 0 rlineto
      0 exch rlineto 0 rlineto closepath } bind def
/S { stroke } bind def
/f { fill } bind def
/f* { eofill } bind def
/n { newpath } bind def
/W { clip } bind def
/W* { eoclip } bind def
/BT { } bind def
/ET { } bind def
/BDC { mark 3 1 roll /BDC pdfmark } bind def
/EMC { mark /EMC pdfmark } bind def
/cairo_store_point { /cairo_point_y exch def /cairo_point_x exch def } def
/Tj { show currentpoint cairo_store_point } bind def
/TJ {
  {
    dup
    type /stringtype eq
    { show } { -0.001 mul 0 cairo_font_matrix dtransform rmoveto } ifelse
  } forall
  currentpoint cairo_store_point
} bind def
/cairo_selectfont { cairo_font_matrix aload pop pop pop 0 0 6 array astore
    cairo_font exch selectfont cairo_point_x cairo_point_y moveto } bind def
/Tf { pop /cairo_font exch def /cairo_font_matrix where
      { pop cairo_selectfont } if } bind def
/Td { matrix translate cairo_font_matrix matrix concatmatrix dup
      /cairo_font_matrix exch def dup 4 get exch 5 get cairo_store_point
      /cairo_font where { pop cairo_selectfont } if } bind def
/Tm { 2 copy 8 2 roll 6 array astore /cairo_font_matrix exch def
      cairo_store_point /cairo_font where { pop cairo_selectfont } if } bind def
/g { setgray } bind def
/rg { setrgbcolor } bind def
/d1 { setcachedevice } bind def
/cairo_data_source {
  CairoDataIndex CairoData length lt
    { CairoData CairoDataIndex get /CairoDataIndex CairoDataIndex 1 add def }
    { () } ifelse
} def
/cairo_flush_ascii85_file { cairo_ascii85_file status { cairo_ascii85_file flushfile } if } def
/cairo_image { image cairo_flush_ascii85_file } def
/cairo_imagemask { imagemask cairo_flush_ascii85_file } def
%%EndProlog
%%BeginSetup
%%EndSetup
%%Page: 1 1
%%BeginPageSetup
%%PageBoundingBox: 18 18 366 366
%%EndPageSetup
q 18 18 348 348 rectclip
1 0 0 -1 0 384 cm q
0.215686 0.65098 0.796078 rg
108 18 m 276 18 l 282.648 18 288 23.352 288 30 c 288 354 l 288 360.648 
282.648 366 276 366 c 108 366 l 101.352 366 96 360.648 96 354 c 96 30 l 
96 23.352 101.352 18 108 18 c h
108 18 m f
0.572549 0.831373 0.937255 rg
114 348 m 114 36 l 150 36 l 150 45.941 158.059 54 168 54 c 216 54 l 225.941
 54 234 45.941 234 36 c 270 36 l 270 348 l h
114 348 m f
0.223529 0.403922 0.615686 rg
180 30 24 12 re f
222 36 m 222 39.312 219.312 42 216 42 c 212.688 42 210 39.312 210 36 c 
210 32.688 212.688 30 216 30 c 219.312 30 222 32.688 222 36 c h
222 36 m f
96 42 18 12 re f
270 42 18 12 re f
96 330 18 12 re f
270 330 18 12 re f
0.921569 0.25098 0.258824 rg
138 258 24 42 re f
0.662745 0.792157 0.164706 rg
180 228 24 72 re f
0.215686 0.65098 0.796078 rg
222 186 24 114 re f
0.960784 0.890196 0.631373 rg
114 270 m 18 270 l 18 150 l 114 150 l 114 210 l 144 210 l 114 240 l h
114 270 m f
0.960784 0.772549 0.2 rg
48 168 24 12 re f
84 168 12 12 re f
36 192 24 12 re f
72 192 24 12 re f
36 216 36 12 re f
84 216 12 12 re f
36 240 36 12 re f
0.960784 0.890196 0.631373 rg
270 204 m 366 204 l 366 84 l 270 84 l 270 132 l 240 162 l 270 162 l h
270 204 m f
0.960784 0.772549 0.2 rg
300 102 12 12 re f
324 102 24 12 re f
288 126 12 12 re f
312 126 36 12 re f
288 150 24 12 re f
324 150 24 12 re f
288 174 48 12 re f
0.568627 0.827451 0.933333 rg
132 318 120 12 re f
0.254902 0.654902 0.65098 rg
150 78 84 24 re f
Q Q
showpage
%%Trailer
end
%%EOF
