%!PS-Adobe-3.0 EPSF-3.0
%%Creator: cairo 1.16.0 (https://cairographics.org)
%%CreationDate: Fri Mar 13 07:35:28 2020
%%Pages: 1
%%DocumentData: Clean7Bit
%%LanguageLevel: 2
%%BoundingBox: 42 12 342 366
%%EndComments
%%BeginProlog
50 dict begin
/q { gsave } bind def
/Q { grestore } bind def
/cm { 6 array astore concat } bind def
/w { setlinewidth } bind def
/J { setlinecap } bind def
/j { setlinejoin } bind def
/M { setmiterlimit } bind def
/d { setdash } bind def
/m { moveto } bind def
/l { lineto } bind def
/c { curveto } bind def
/h { closepath } bind def
/re { exch dup neg 3 1 roll 5 3 roll moveto 0 rlineto
      0 exch rlineto 0 rlineto closepath } bind def
/S { stroke } bind def
/f { fill } bind def
/f* { eofill } bind def
/n { newpath } bind def
/W { clip } bind def
/W* { eoclip } bind def
/BT { } bind def
/ET { } bind def
/BDC { mark 3 1 roll /BDC pdfmark } bind def
/EMC { mark /EMC pdfmark } bind def
/cairo_store_point { /cairo_point_y exch def /cairo_point_x exch def } def
/Tj { show currentpoint cairo_store_point } bind def
/TJ {
  {
    dup
    type /stringtype eq
    { show } { -0.001 mul 0 cairo_font_matrix dtransform rmoveto } ifelse
  } forall
  currentpoint cairo_store_point
} bind def
/cairo_selectfont { cairo_font_matrix aload pop pop pop 0 0 6 array astore
    cairo_font exch selectfont cairo_point_x cairo_point_y moveto } bind def
/Tf { pop /cairo_font exch def /cairo_font_matrix where
      { pop cairo_selectfont } if } bind def
/Td { matrix translate cairo_font_matrix matrix concatmatrix dup
      /cairo_font_matrix exch def dup 4 get exch 5 get cairo_store_point
      /cairo_font where { pop cairo_selectfont } if } bind def
/Tm { 2 copy 8 2 roll 6 array astore /cairo_font_matrix exch def
      cairo_store_point /cairo_font where { pop cairo_selectfont } if } bind def
/g { setgray } bind def
/rg { setrgbcolor } bind def
/d1 { setcachedevice } bind def
/cairo_data_source {
  CairoDataIndex CairoData length lt
    { CairoData CairoDataIndex get /CairoDataIndex CairoDataIndex 1 add def }
    { () } ifelse
} def
/cairo_flush_ascii85_file { cairo_ascii85_file status { cairo_ascii85_file flushfile } if } def
/cairo_image { image cairo_flush_ascii85_file } def
/cairo_imagemask { imagemask cairo_flush_ascii85_file } def
%%EndProlog
%%BeginSetup
%%EndSetup
%%Page: 1 1
%%BeginPageSetup
%%PageBoundingBox: 42 12 342 366
%%EndPageSetup
q 42 12 300 354 rectclip
1 0 0 -1 0 384 cm q
0.678431 0.72549 0.764706 rg
330 96 m 330 108 l 330.004 111.184 328.742 114.238 326.488 116.488 c 324.238
 118.742 321.184 120.004 318 120 c 252 120 l 252 84 l 318 84 l 321.184 84
 324.234 85.262 326.484 87.516 c 328.738 89.766 330 92.816 330 96 c h
330 96 m f
342 156 m 342 168 l 342 171.184 340.738 174.234 338.484 176.484 c 336.234
 178.738 333.184 180 330 180 c 264 180 l 264 144 l 330 144 l 333.184 144
 336.234 145.262 338.484 147.516 c 340.738 149.766 342 152.816 342 156 c
 h
342 156 m f
330 216 m 330 228 l 330 231.184 328.738 234.234 326.484 236.484 c 324.234
 238.738 321.184 240 318 240 c 252 240 l 252 204 l 318 204 l 321.184 204
 324.234 205.262 326.484 207.516 c 328.738 209.766 330 212.816 330 216 c
 h
330 216 m f
306 276 m 306 288 l 306 291.184 304.738 294.234 302.484 296.484 c 300.234
 298.738 297.184 300 294 300 c 228 300 l 228 264 l 294 264 l 297.184 264
 300.234 265.262 302.484 267.516 c 304.738 269.766 306 272.816 306 276 c
 h
306 276 m f
0.796078 0.858824 0.905882 rg
228 240 66 24 re f
210 300 66 24 re f
258 180 60 24 re f
258 120 60 24 re f
0.501961 0.541176 0.603922 rg
248.773 294 m 249.867 295.879 250.695 297.898 251.242 300 c 228 300 l 228
 264 l 251.242 264 l 250.695 266.102 249.867 268.121 248.773 270 c 253.074
 277.422 253.074 286.578 248.773 294 c h
248.773 294 m f
0.678431 0.72549 0.764706 rg
240 306 m 240.004 309.184 238.742 312.238 236.488 314.488 c 234.238 316.742
 231.184 318.004 228 318 c 162 318 l 162 294 l 228 294 l 231.184 293.996
 234.238 295.262 236.488 297.512 c 238.738 299.762 240.004 302.816 240 306
 c h
240 306 m f
162 270 m 228 270 l 234.629 270 240 275.371 240 282 c 240 288.629 234.629
 294 228 294 c 162 294 l h
162 270 m f
240 258 m 240 258.684 239.941 259.367 239.828 260.039 c 238.84 265.801 
233.844 270.008 228 270 c 162 270 l 162 246 l 228 246 l 231.184 246 234.234
 247.262 236.484 249.516 c 238.738 251.766 240 254.816 240 258 c h
240 258 m f
0.501961 0.541176 0.603922 rg
240 258 m 240 258.684 239.941 259.367 239.828 260.039 c 213.91 267.051 
186.352 264.699 162 253.395 c 162 222 l 228 222 l 234.629 222 240 227.371
 240 234 c 240 240.629 234.629 246 228 246 c 231.184 246 234.234 247.262
 236.484 249.516 c 238.738 251.766 240 254.816 240 258 c h
240 258 m f
252 204 m 310.379 204 l 302.82 217.98 292.438 230.238 279.891 240 c 252
 240 l h
252 204 m f
318 120 m 252 120 l 252 84 l 302.902 84 l 310.641 94.855 316.41 106.988
 319.949 119.844 c 319.305 119.949 318.652 120 318 120 c h
318 120 m f
324 150 m 324.008 160.133 322.66 170.223 319.996 180 c 264 180 l 264 144
 l 323.844 144 l 323.949 145.988 324 147.988 324 150 c h
324 150 m f
0.678431 0.72549 0.764706 rg
312 150 m 312 206.332 266.332 252 210 252 c 153.668 252 108 206.332 108
 150 c 108 93.668 153.668 48 210 48 c 266.332 48 312 93.668 312 150 c h
312 150 m f
0.568627 0.827451 0.933333 rg
324 84 m 210 84 l 191.824 83.977 174.449 91.477 162 104.715 c 162 318 l
 90 318 l 84 240 l 42 222 l 71.648 138 l 75.887 126 l 87.488 93.121 l 103.375
 48.105 145.922 18 193.656 18 c 221.504 18 l 265.656 18.004 305.73 43.809
 324 84 c h
324 84 m f
0.796078 0.858824 0.905882 rg
138 318 24 54 re f
162 318 24 54 re f
0.678431 0.72549 0.764706 rg
156 318 6 54 re f
0.796078 0.858824 0.905882 rg
186 318 24 54 re f
0.678431 0.72549 0.764706 rg
210 324 72 48 re f
180 318 6 54 re f
0.215686 0.647059 0.792157 rg
126 150 m 126 174 l 114 174 l 114 150 l 113.992 143.375 108.625 138.008
 102 138 c 71.648 138 l 75.887 126 l 102 126 l 115.25 126.012 125.988 136.75
 126 150 c h
126 150 m f
0.796078 0.858824 0.905882 rg
276 150 m 276 186.449 246.449 216 210 216 c 173.551 216 144 186.449 144
 150 c 144 113.551 173.551 84 210 84 c 246.449 84 276 113.551 276 150 c 
h
276 150 m f
0.678431 0.72549 0.764706 rg
210 186 m 195.438 186 182.312 177.23 176.742 163.777 c 171.168 150.324 
174.25 134.84 184.543 124.543 c 194.84 114.25 210.324 111.168 223.777 116.742
 c 237.23 122.312 246 135.438 246 150 c 245.977 169.871 229.871 185.977 
210 186 c h
210 126 m 200.293 126 191.543 131.848 187.828 140.816 c 184.113 149.785
 186.164 160.105 193.031 166.969 c 199.895 173.836 210.215 175.887 219.184
 172.172 c 228.152 168.457 234 159.707 234 150 c 233.984 136.75 223.25 126.016
 210 126 c h
210 126 m f
0.215686 0.647059 0.792157 rg
113.344 109.996 m 102.027 106.004 l 104.461 99.109 l 117.848 61.316 153.57
 36.043 193.66 36 c 221.504 36 l 242.109 36.055 262.145 42.801 278.594 55.215
 c 271.355 64.785 l 256.992 53.941 239.496 48.051 221.504 48 c 193.66 48
 l 158.656 48.039 127.465 70.105 115.777 103.102 c h
113.344 109.996 m f
0.796078 0.858824 0.905882 rg
216 66 m 216 69.312 213.312 72 210 72 c 206.688 72 204 69.312 204 66 c 
204 62.688 206.688 60 210 60 c 213.312 60 216 62.688 216 66 c h
216 66 m f
174 77.254 m 174 80.566 171.312 83.254 168 83.254 c 164.688 83.254 162 
80.566 162 77.254 c 162 73.941 164.688 71.254 168 71.254 c 171.312 71.254
 174 73.941 174 77.254 c h
174 77.254 m f
143.254 108 m 143.254 111.312 140.566 114 137.254 114 c 133.941 114 131.254
 111.312 131.254 108 c 131.254 104.688 133.941 102 137.254 102 c 140.566
 102 143.254 104.688 143.254 108 c h
143.254 108 m f
216 234 m 216 237.312 213.312 240 210 240 c 206.688 240 204 237.312 204
 234 c 204 230.688 206.688 228 210 228 c 213.312 228 216 230.688 216 234
 c h
216 234 m f
258 222.746 m 258 226.059 255.312 228.746 252 228.746 c 248.688 228.746
 246 226.059 246 222.746 c 246 219.434 248.688 216.746 252 216.746 c 255.312
 216.746 258 219.434 258 222.746 c h
258 222.746 m f
288.746 192 m 288.746 195.312 286.059 198 282.746 198 c 279.434 198 276.746
 195.312 276.746 192 c 276.746 188.688 279.434 186 282.746 186 c 286.059
 186 288.746 188.688 288.746 192 c h
288.746 192 m f
300 150 m 300 153.312 297.312 156 294 156 c 290.688 156 288 153.312 288
 150 c 288 146.688 290.688 144 294 144 c 297.312 144 300 146.688 300 150
 c h
300 150 m f
288.746 108 m 288.746 111.312 286.059 114 282.746 114 c 279.434 114 276.746
 111.312 276.746 108 c 276.746 104.688 279.434 102 282.746 102 c 286.059
 102 288.746 104.688 288.746 108 c h
288.746 108 m f
0.501961 0.541176 0.603922 rg
240 306 m 240.004 309.184 238.742 312.238 236.488 314.488 c 234.238 316.742
 231.184 318.004 228 318 c 162 318 l 162 312 l 228 312 l 233.48 312.012 
238.27 308.297 239.617 302.984 c 239.871 303.969 240 304.984 240 306 c h
240 306 m f
240 282 m 240.004 285.184 238.742 288.238 236.488 290.488 c 234.238 292.742
 231.184 294.004 228 294 c 162 294 l 162 288 l 228 288 l 233.48 288.012 
238.27 284.297 239.617 278.984 c 239.871 279.969 240 280.984 240 282 c h
240 282 m f
240 258 m 240.004 261.184 238.742 264.238 236.488 266.488 c 234.238 268.742
 231.184 270.004 228 270 c 162 270 l 162 264 l 228 264 l 233.48 264.012 
238.27 260.297 239.617 254.984 c 239.871 255.969 240 256.984 240 258 c h
240 258 m f
282 348 m 246 348 l 246 342 l 276 342 l 276 324 l 282 324 l h
282 348 m f
246 348 m 210 348 l 210 342 l 240 342 l 240 324 l 246 324 l h
246 348 m f
240 348 6 24 re f
276 348 6 24 re f
Q Q
showpage
%%Trailer
end
%%EOF
