%!PS-Adobe-3.0 EPSF-3.0
%%Creator: cairo 1.16.0 (https://cairographics.org)
%%CreationDate: Fri Mar 13 07:35:28 2020
%%Pages: 1
%%DocumentData: Clean7Bit
%%LanguageLevel: 2
%%BoundingBox: 18 12 366 366
%%EndComments
%%BeginProlog
50 dict begin
/q { gsave } bind def
/Q { grestore } bind def
/cm { 6 array astore concat } bind def
/w { setlinewidth } bind def
/J { setlinecap } bind def
/j { setlinejoin } bind def
/M { setmiterlimit } bind def
/d { setdash } bind def
/m { moveto } bind def
/l { lineto } bind def
/c { curveto } bind def
/h { closepath } bind def
/re { exch dup neg 3 1 roll 5 3 roll moveto 0 rlineto
      0 exch rlineto 0 rlineto closepath } bind def
/S { stroke } bind def
/f { fill } bind def
/f* { eofill } bind def
/n { newpath } bind def
/W { clip } bind def
/W* { eoclip } bind def
/BT { } bind def
/ET { } bind def
/BDC { mark 3 1 roll /BDC pdfmark } bind def
/EMC { mark /EMC pdfmark } bind def
/cairo_store_point { /cairo_point_y exch def /cairo_point_x exch def } def
/Tj { show currentpoint cairo_store_point } bind def
/TJ {
  {
    dup
    type /stringtype eq
    { show } { -0.001 mul 0 cairo_font_matrix dtransform rmoveto } ifelse
  } forall
  currentpoint cairo_store_point
} bind def
/cairo_selectfont { cairo_font_matrix aload pop pop pop 0 0 6 array astore
    cairo_font exch selectfont cairo_point_x cairo_point_y moveto } bind def
/Tf { pop /cairo_font exch def /cairo_font_matrix where
      { pop cairo_selectfont } if } bind def
/Td { matrix translate cairo_font_matrix matrix concatmatrix dup
      /cairo_font_matrix exch def dup 4 get exch 5 get cairo_store_point
      /cairo_font where { pop cairo_selectfont } if } bind def
/Tm { 2 copy 8 2 roll 6 array astore /cairo_font_matrix exch def
      cairo_store_point /cairo_font where { pop cairo_selectfont } if } bind def
/g { setgray } bind def
/rg { setrgbcolor } bind def
/d1 { setcachedevice } bind def
/cairo_data_source {
  CairoDataIndex CairoData length lt
    { CairoData CairoDataIndex get /CairoDataIndex CairoDataIndex 1 add def }
    { () } ifelse
} def
/cairo_flush_ascii85_file { cairo_ascii85_file status { cairo_ascii85_file flushfile } if } def
/cairo_image { image cairo_flush_ascii85_file } def
/cairo_imagemask { imagemask cairo_flush_ascii85_file } def
%%EndProlog
%%BeginSetup
%%EndSetup
%%Page: 1 1
%%BeginPageSetup
%%PageBoundingBox: 18 12 366 366
%%EndPageSetup
q 18 12 348 354 rectclip
1 0 0 -1 0 384 cm q
0.568627 0.827451 0.933333 rg
336 66 m 48 66 l 48 330 l 264 330 l 264 366 l 336 366 l h
336 66 m f
0.215686 0.647059 0.792157 rg
42 66 300 54 re f
0.176471 0.501961 0.729412 rg
336 108 m 48 108 l 44.688 108 42 110.688 42 114 c 42 330 l 42 333.312 44.688
 336 48 336 c 258 336 l 258 366 l 258 369.312 260.688 372 264 372 c 336 
372 l 339.312 372 342 369.312 342 366 c 342 114 l 342 110.688 339.312 108
 336 108 c h
198 252 m 198 228 l 258 228 l 258 252 l h
258 264 m 258 288 l 198 288 l 198 264 l h
186 228 m 186 252 l 126 252 l 126 228 l h
126 216 m 126 192 l 186 192 l 186 216 l h
198 216 m 198 192 l 258 192 l 258 216 l h
198 180 m 198 156 l 258 156 l 258 180 l h
198 144 m 198 120 l 258 120 l 258 144 l h
186 144 m 126 144 l 126 120 l 186 120 l h
186 156 m 186 180 l 126 180 l 126 156 l h
114 180 m 54 180 l 54 156 l 114 156 l h
114 192 m 114 216 l 54 216 l 54 192 l h
114 228 m 114 252 l 54 252 l 54 228 l h
114 264 m 114 288 l 54 288 l 54 264 l h
126 264 m 186 264 l 186 288 l 126 288 l h
186 300 m 186 324 l 126 324 l 126 300 l h
198 300 m 258 300 l 258 324 l 198 324 l h
270 300 m 330 300 l 330 324 l 270 324 l h
330 288 m 270 288 l 270 264 l 330 264 l h
330 252 m 270 252 l 270 228 l 330 228 l h
330 216 m 270 216 l 270 192 l 330 192 l h
330 180 m 270 180 l 270 156 l 330 156 l h
330 144 m 270 144 l 270 120 l 330 120 l h
114 120 m 114 144 l 54 144 l 54 120 l h
54 300 m 114 300 l 114 324 l 54 324 l h
270 360 m 270 336 l 330 336 l 330 360 l h
270 360 m f
66 306 12 12 re f
90 306 12 12 re f
138 306 12 12 re f
162 306 12 12 re f
210 306 12 12 re f
234 306 12 12 re f
282 306 12 12 re f
306 306 12 12 re f
66 270 12 12 re f
90 270 12 12 re f
138 270 12 12 re f
162 270 12 12 re f
210 270 12 12 re f
234 270 12 12 re f
282 270 12 12 re f
306 270 12 12 re f
66 234 12 12 re f
90 234 12 12 re f
138 234 12 12 re f
162 234 12 12 re f
210 234 12 12 re f
234 234 12 12 re f
282 234 12 12 re f
306 234 12 12 re f
66 198 12 12 re f
90 198 12 12 re f
138 198 12 12 re f
162 198 12 12 re f
210 198 12 12 re f
234 198 12 12 re f
282 198 12 12 re f
306 198 12 12 re f
66 162 12 12 re f
90 162 12 12 re f
138 162 12 12 re f
162 162 12 12 re f
210 162 12 12 re f
234 162 12 12 re f
282 162 12 12 re f
306 162 12 12 re f
66 126 12 12 re f
90 126 12 12 re f
138 126 12 12 re f
162 126 12 12 re f
210 126 12 12 re f
234 126 12 12 re f
282 126 12 12 re f
306 126 12 12 re f
282 342 12 12 re f
306 342 12 12 re f
0.960784 0.890196 0.631373 rg
366 162 m 258 162 l 258 150 l 222 150 l 258 114 l 258 18 l 366 18 l h
366 162 m f
0.921569 0.25098 0.258824 rg
276 90 24 48 re f
0.662745 0.792157 0.164706 rg
300 72 24 66 re f
0.568627 0.827451 0.933333 rg
324 42 24 96 re f
0.960784 0.890196 0.631373 rg
18 366 m 138 366 l 138 330 l 174 294 l 138 294 l 138 264 l 18 264 l h
18 366 m f
0.568627 0.827451 0.933333 rg
64.211 312.699 m 72.695 304.215 l 85.715 317.234 l 77.23 325.719 l h
64.211 312.699 m f
94.199 317.258 m 115.707 295.75 l 124.191 304.234 l 102.684 325.742 l h
94.199 317.258 m f
31.711 319.738 m 47.219 304.23 l 55.703 312.715 l 40.195 328.223 l h
31.711 319.738 m f
0.176471 0.501961 0.729412 rg
60 318 m 52.719 318 46.156 313.613 43.371 306.887 c 40.586 300.164 42.125
 292.422 47.273 287.273 c 52.422 282.125 60.164 280.586 66.887 283.371 c
 73.613 286.156 78 292.719 78 300 c 77.988 309.938 69.938 317.988 60 318
 c h
60 294 m 57.574 294 55.387 295.461 54.457 297.703 c 53.527 299.945 54.043
 302.527 55.758 304.242 c 57.473 305.957 60.055 306.473 62.297 305.543 c
 64.539 304.613 66 302.426 66 300 c 65.996 296.688 63.312 294.004 60 294
 c h
60 294 m f
90 348 m 82.719 348 76.156 343.613 73.371 336.887 c 70.586 330.164 72.125
 322.422 77.273 317.273 c 82.422 312.125 90.164 310.586 96.887 313.371 c
 103.613 316.156 108 322.719 108 330 c 107.988 339.938 99.938 347.988 90
 348 c h
90 324 m 87.574 324 85.387 325.461 84.457 327.703 c 83.527 329.945 84.043
 332.527 85.758 334.242 c 87.473 335.957 90.055 336.473 92.297 335.543 c
 94.539 334.613 96 332.426 96 330 c 95.996 326.688 93.312 324.004 90 324
 c h
90 324 m f
Q Q
showpage
%%Trailer
end
%%EOF
