%!PS-Adobe-3.0 EPSF-3.0
%%Creator: cairo 1.16.0 (https://cairographics.org)
%%CreationDate: Fri Mar 13 07:35:29 2020
%%Pages: 1
%%DocumentData: Clean7Bit
%%LanguageLevel: 2
%%BoundingBox: 12 12 372 372
%%EndComments
%%BeginProlog
50 dict begin
/q { gsave } bind def
/Q { grestore } bind def
/cm { 6 array astore concat } bind def
/w { setlinewidth } bind def
/J { setlinecap } bind def
/j { setlinejoin } bind def
/M { setmiterlimit } bind def
/d { setdash } bind def
/m { moveto } bind def
/l { lineto } bind def
/c { curveto } bind def
/h { closepath } bind def
/re { exch dup neg 3 1 roll 5 3 roll moveto 0 rlineto
      0 exch rlineto 0 rlineto closepath } bind def
/S { stroke } bind def
/f { fill } bind def
/f* { eofill } bind def
/n { newpath } bind def
/W { clip } bind def
/W* { eoclip } bind def
/BT { } bind def
/ET { } bind def
/BDC { mark 3 1 roll /BDC pdfmark } bind def
/EMC { mark /EMC pdfmark } bind def
/cairo_store_point { /cairo_point_y exch def /cairo_point_x exch def } def
/Tj { show currentpoint cairo_store_point } bind def
/TJ {
  {
    dup
    type /stringtype eq
    { show } { -0.001 mul 0 cairo_font_matrix dtransform rmoveto } ifelse
  } forall
  currentpoint cairo_store_point
} bind def
/cairo_selectfont { cairo_font_matrix aload pop pop pop 0 0 6 array astore
    cairo_font exch selectfont cairo_point_x cairo_point_y moveto } bind def
/Tf { pop /cairo_font exch def /cairo_font_matrix where
      { pop cairo_selectfont } if } bind def
/Td { matrix translate cairo_font_matrix matrix concatmatrix dup
      /cairo_font_matrix exch def dup 4 get exch 5 get cairo_store_point
      /cairo_font where { pop cairo_selectfont } if } bind def
/Tm { 2 copy 8 2 roll 6 array astore /cairo_font_matrix exch def
      cairo_store_point /cairo_font where { pop cairo_selectfont } if } bind def
/g { setgray } bind def
/rg { setrgbcolor } bind def
/d1 { setcachedevice } bind def
/cairo_data_source {
  CairoDataIndex CairoData length lt
    { CairoData CairoDataIndex get /CairoDataIndex CairoDataIndex 1 add def }
    { () } ifelse
} def
/cairo_flush_ascii85_file { cairo_ascii85_file status { cairo_ascii85_file flushfile } if } def
/cairo_image { image cairo_flush_ascii85_file } def
/cairo_imagemask { imagemask cairo_flush_ascii85_file } def
%%EndProlog
%%BeginSetup
%%EndSetup
%%Page: 1 1
%%BeginPageSetup
%%PageBoundingBox: 12 12 372 372
%%EndPageSetup
q 12 12 360 360 rectclip
1 0 0 -1 0 384 cm q
0.568627 0.827451 0.933333 rg
324 192 m 323.992 239.156 298.828 282.73 257.992 306.309 c 217.152 329.891
 166.84 329.898 125.992 306.328 c 192 192 l 60 192 l 60 119.098 119.098 
60 192 60 c 264.902 60 324 119.098 324 192 c h
324 192 m f
0.894118 0.376471 0.501961 rg
258.008 77.672 m 192 192 l 157.828 64.469 l 191.652 55.449 227.676 60.195
 258.008 77.672 c h
258.008 77.672 m f
0.176471 0.501961 0.729412 rg
324 192 m 324.039 215.176 317.941 237.949 306.328 258.008 c 192 192 l 258.008
 77.672 l 298.859 101.246 324.02 144.832 324 192 c h
324 192 m f
0.662745 0.792157 0.164706 rg
306.328 258.008 m 294.723 278.062 278.062 294.723 258.008 306.328 c 192
 192 l h
306.328 258.008 m f
0.921569 0.25098 0.258824 rg
258.008 306.328 m 217.156 329.891 166.844 329.891 125.992 306.328 c 192
 192 l h
258.008 306.328 m f
0.960784 0.890196 0.631373 rg
150 215.672 m 83.992 330 l 43.141 306.426 17.98 262.836 18 215.672 c h
150 215.672 m f
0.960784 0.772549 0.2 rg
24 252 24 12 re f
60 252 36 12 re f
12 276 24 12 re f
48 276 36 12 re f
12 300 48 12 re f
0.796078 0.858824 0.905882 rg
121.758 142.242 m 81.516 102 l 24 102 l 24 90 l 84 90 l 85.59 90 87.117
 90.633 88.242 91.758 c 130.242 133.758 l h
121.758 142.242 m f
0.568627 0.827451 0.933333 rg
18 66 36 12 re f
66 66 24 12 re f
0.796078 0.858824 0.905882 rg
196.242 88.242 m 187.758 79.758 l 229.758 37.758 l 230.883 36.633 232.41
 36 234 36 c 312 36 l 312 48 l 236.484 48 l h
196.242 88.242 m f
0.894118 0.376471 0.501961 rg
228 12 36 12 re f
276 12 48 12 re f
0.796078 0.858824 0.905882 rg
156 348 m 102 348 l 102 336 l 153.516 336 l 193.758 295.758 l 202.242 304.242
 l 160.242 346.242 l 159.117 347.367 157.59 348 156 348 c h
156 348 m f
0.921569 0.25098 0.258824 rg
162 360 36 12 re f
102 360 48 12 re f
0.796078 0.858824 0.905882 rg
280.242 160.242 m 271.758 151.758 l 319.758 103.758 l 320.883 102.633 322.41
 102 324 102 c 372 102 l 372 114 l 326.484 114 l h
280.242 160.242 m f
0.176471 0.501961 0.729412 rg
324 60 24 12 re f
360 60 12 12 re f
300 78 36 12 re f
348 78 12 12 re f
0.796078 0.858824 0.905882 rg
372 300 m 300 300 l 298.41 300 296.883 299.367 295.758 298.242 c 265.758
 268.242 l 274.242 259.758 l 302.484 288 l 372 288 l h
372 300 m f
0.662745 0.792157 0.164706 rg
300 312 24 12 re f
336 312 36 12 re f
276 330 36 12 re f
324 330 36 12 re f
Q Q
showpage
%%Trailer
end
%%EOF
