%!PS-Adobe-3.0 EPSF-3.0
%%Creator: cairo 1.16.0 (https://cairographics.org)
%%CreationDate: Fri Mar 13 07:35:30 2020
%%Pages: 1
%%DocumentData: Clean7Bit
%%LanguageLevel: 2
%%BoundingBox: 18 12 366 366
%%EndComments
%%BeginProlog
50 dict begin
/q { gsave } bind def
/Q { grestore } bind def
/cm { 6 array astore concat } bind def
/w { setlinewidth } bind def
/J { setlinecap } bind def
/j { setlinejoin } bind def
/M { setmiterlimit } bind def
/d { setdash } bind def
/m { moveto } bind def
/l { lineto } bind def
/c { curveto } bind def
/h { closepath } bind def
/re { exch dup neg 3 1 roll 5 3 roll moveto 0 rlineto
      0 exch rlineto 0 rlineto closepath } bind def
/S { stroke } bind def
/f { fill } bind def
/f* { eofill } bind def
/n { newpath } bind def
/W { clip } bind def
/W* { eoclip } bind def
/BT { } bind def
/ET { } bind def
/BDC { mark 3 1 roll /BDC pdfmark } bind def
/EMC { mark /EMC pdfmark } bind def
/cairo_store_point { /cairo_point_y exch def /cairo_point_x exch def } def
/Tj { show currentpoint cairo_store_point } bind def
/TJ {
  {
    dup
    type /stringtype eq
    { show } { -0.001 mul 0 cairo_font_matrix dtransform rmoveto } ifelse
  } forall
  currentpoint cairo_store_point
} bind def
/cairo_selectfont { cairo_font_matrix aload pop pop pop 0 0 6 array astore
    cairo_font exch selectfont cairo_point_x cairo_point_y moveto } bind def
/Tf { pop /cairo_font exch def /cairo_font_matrix where
      { pop cairo_selectfont } if } bind def
/Td { matrix translate cairo_font_matrix matrix concatmatrix dup
      /cairo_font_matrix exch def dup 4 get exch 5 get cairo_store_point
      /cairo_font where { pop cairo_selectfont } if } bind def
/Tm { 2 copy 8 2 roll 6 array astore /cairo_font_matrix exch def
      cairo_store_point /cairo_font where { pop cairo_selectfont } if } bind def
/g { setgray } bind def
/rg { setrgbcolor } bind def
/d1 { setcachedevice } bind def
/cairo_data_source {
  CairoDataIndex CairoData length lt
    { CairoData CairoDataIndex get /CairoDataIndex CairoDataIndex 1 add def }
    { () } ifelse
} def
/cairo_flush_ascii85_file { cairo_ascii85_file status { cairo_ascii85_file flushfile } if } def
/cairo_image { image cairo_flush_ascii85_file } def
/cairo_imagemask { imagemask cairo_flush_ascii85_file } def
%%EndProlog
%%BeginSetup
%%EndSetup
%%Page: 1 1
%%BeginPageSetup
%%PageBoundingBox: 18 12 366 366
%%EndPageSetup
q 18 12 348 354 rectclip
1 0 0 -1 0 384 cm q
0.215686 0.65098 0.796078 rg
30 48 m 162 48 l 168.648 48 174 53.352 174 60 c 174 300 l 174 306.648 168.648
 312 162 312 c 30 312 l 23.352 312 18 306.648 18 300 c 18 60 l 18 53.352
 23.352 48 30 48 c h
30 48 m f
0.572549 0.831373 0.937255 rg
36 294 m 36 66 l 60 66 l 60 75.941 68.059 84 78 84 c 114 84 l 123.941 84
 132 75.941 132 66 c 156 66 l 156 294 l h
36 294 m f
0.223529 0.403922 0.615686 rg
84 60 18 12 re f
120 66 m 120 69.312 117.312 72 114 72 c 110.688 72 108 69.312 108 66 c 
108 62.688 110.688 60 114 60 c 117.312 60 120 62.688 120 66 c h
120 66 m f
18 72 18 12 re f
156 72 18 12 re f
18 276 18 12 re f
156 276 18 12 re f
0.176471 0.501961 0.733333 rg
63 218.402 m 58.148 207.273 59.234 194.449 65.887 184.293 c 72.539 174.141
 83.859 168.02 96 168.02 c 108.141 168.02 119.461 174.141 126.113 184.293
 c 132.766 194.449 133.852 207.273 129.004 218.402 c 118.004 213.598 l 121.234
 206.18 120.508 197.633 116.074 190.863 c 111.641 184.094 104.094 180.02
 96 180.02 c 87.91 180.02 80.363 184.094 75.926 190.863 c 71.492 197.629
 70.766 206.176 73.996 213.598 c h
63 218.402 m f
59.246 183.656 m 48.754 177.832 l 54.766 167.02 64.289 158.586 75.75 153.93
 c 80.25 165.051 l 71.332 168.676 63.922 175.242 59.246 183.656 c h
59.246 183.656 m f
132.387 183.004 m 127.684 174.898 120.426 168.586 111.75 165.051 c 116.25
 153.926 l 127.402 158.469 136.73 166.582 142.773 176.996 c h
132.387 183.004 m f
0.988235 0.839216 0.717647 rg
180 264 m 180 318 l 156 354 l 156 372 l 84 372 l 84 354 l 60 318 l 60 246
 l 66.367 246 72.473 248.527 76.973 253.027 c 81.473 257.527 84 263.633 
84 270 c 84 204 l 84 197.371 89.371 192 96 192 c 102.629 192 108 197.371
 108 204 c 108 264 l 108 257.371 113.371 252 120 252 c 126.629 252 132 257.371
 132 264 c 132 257.371 137.371 252 144 252 c 150.629 252 156 257.371 156
 264 c 156 257.371 161.371 252 168 252 c 174.629 252 180 257.371 180 264
 c h
180 264 m f
0.968627 0.713726 0.537255 rg
84 270 m 84 288 l 84 291.312 81.312 294 78 294 c 74.688 294 72 291.312 
72 288 c 72 249.219 l 73.82 250.262 75.492 251.543 76.973 253.027 c 81.48
 257.523 84.008 263.633 84 270 c h
84 270 m f
108 282 m 104.688 282 102 279.312 102 276 c 102 270 l 102 266.688 104.688
 264 108 264 c 111.312 264 114 266.688 114 270 c 114 276 l 114 279.312 111.312
 282 108 282 c h
108 282 m f
132 282 m 128.688 282 126 279.312 126 276 c 126 270 l 126 266.688 128.688
 264 132 264 c 135.312 264 138 266.688 138 270 c 138 276 l 138 279.312 135.312
 282 132 282 c h
132 282 m f
156 282 m 152.688 282 150 279.312 150 276 c 150 270 l 150 266.688 152.688
 264 156 264 c 159.312 264 162 266.688 162 270 c 162 276 l 162 279.312 159.312
 282 156 282 c h
156 282 m f
84 354 18 12 re f
138 354 18 12 re f
0.960784 0.890196 0.631373 rg
156 144 m 198 102 l 198 18 l 366 18 l 366 174 l 198 174 l 198 144 l h
156 144 m f
0.921569 0.25098 0.258824 rg
222 96 24 48 re f
0.560784 0.74902 0.396078 rg
270 72 24 72 re f
0.572549 0.831373 0.937255 rg
318 42 24 102 re f
Q Q
showpage
%%Trailer
end
%%EOF
