%!PS-Adobe-3.0 EPSF-3.0
%%Creator: cairo 1.16.0 (https://cairographics.org)
%%CreationDate: Fri Mar 13 07:35:30 2020
%%Pages: 1
%%DocumentData: Clean7Bit
%%LanguageLevel: 2
%%BoundingBox: 18 18 366 366
%%EndComments
%%BeginProlog
50 dict begin
/q { gsave } bind def
/Q { grestore } bind def
/cm { 6 array astore concat } bind def
/w { setlinewidth } bind def
/J { setlinecap } bind def
/j { setlinejoin } bind def
/M { setmiterlimit } bind def
/d { setdash } bind def
/m { moveto } bind def
/l { lineto } bind def
/c { curveto } bind def
/h { closepath } bind def
/re { exch dup neg 3 1 roll 5 3 roll moveto 0 rlineto
      0 exch rlineto 0 rlineto closepath } bind def
/S { stroke } bind def
/f { fill } bind def
/f* { eofill } bind def
/n { newpath } bind def
/W { clip } bind def
/W* { eoclip } bind def
/BT { } bind def
/ET { } bind def
/BDC { mark 3 1 roll /BDC pdfmark } bind def
/EMC { mark /EMC pdfmark } bind def
/cairo_store_point { /cairo_point_y exch def /cairo_point_x exch def } def
/Tj { show currentpoint cairo_store_point } bind def
/TJ {
  {
    dup
    type /stringtype eq
    { show } { -0.001 mul 0 cairo_font_matrix dtransform rmoveto } ifelse
  } forall
  currentpoint cairo_store_point
} bind def
/cairo_selectfont { cairo_font_matrix aload pop pop pop 0 0 6 array astore
    cairo_font exch selectfont cairo_point_x cairo_point_y moveto } bind def
/Tf { pop /cairo_font exch def /cairo_font_matrix where
      { pop cairo_selectfont } if } bind def
/Td { matrix translate cairo_font_matrix matrix concatmatrix dup
      /cairo_font_matrix exch def dup 4 get exch 5 get cairo_store_point
      /cairo_font where { pop cairo_selectfont } if } bind def
/Tm { 2 copy 8 2 roll 6 array astore /cairo_font_matrix exch def
      cairo_store_point /cairo_font where { pop cairo_selectfont } if } bind def
/g { setgray } bind def
/rg { setrgbcolor } bind def
/d1 { setcachedevice } bind def
/cairo_data_source {
  CairoDataIndex CairoData length lt
    { CairoData CairoDataIndex get /CairoDataIndex CairoDataIndex 1 add def }
    { () } ifelse
} def
/cairo_flush_ascii85_file { cairo_ascii85_file status { cairo_ascii85_file flushfile } if } def
/cairo_image { image cairo_flush_ascii85_file } def
/cairo_imagemask { imagemask cairo_flush_ascii85_file } def
%%EndProlog
%%BeginSetup
%%EndSetup
%%Page: 1 1
%%BeginPageSetup
%%PageBoundingBox: 18 18 366 366
%%EndPageSetup
q 18 18 348 348 rectclip
1 0 0 -1 0 384 cm q
0.568627 0.827451 0.933333 rg
42 78 m 342 78 l 355.297 78 366 88.703 366 102 c 366 294 l 366 307.297 
355.297 318 342 318 c 42 318 l 28.703 318 18 307.297 18 294 c 18 102 l 18
 88.703 28.703 78 42 78 c h
42 78 m f
0.215686 0.647059 0.792157 rg
18 282 m 366 282 l 366 294 l 366 307.254 355.254 318 342 318 c 42 318 l
 28.746 318 18 307.254 18 294 c h
18 282 m f
0.662745 0.792157 0.164706 rg
48 102 m 336 102 l 339.312 102 342 104.688 342 108 c 342 282 l 42 282 l
 42 108 l 42 104.688 44.688 102 48 102 c h
48 102 m f
0.176471 0.501961 0.729412 rg
198 300 m 198 303.312 195.312 306 192 306 c 188.688 306 186 303.312 186
 300 c 186 296.688 188.688 294 192 294 c 195.312 294 198 296.688 198 300
 c h
198 300 m f
0.568627 0.827451 0.933333 rg
168 318 m 168 342 l 168 355.254 157.254 366 144 366 c 240 366 l 226.746
 366 216 355.254 216 342 c 216 318 l h
168 318 m f
0.796078 0.858824 0.905882 rg
222 234 m 66 234 l 66 18 l 174 18 l 222 66 l h
222 234 m f
0.678431 0.72549 0.764706 rg
174 18 m 174 66 l 222 66 l h
174 18 m f
84 36 24 12 re f
84 60 24 12 re f
96 84 36 12 re f
144 84 60 12 re f
84 108 36 12 re f
132 108 36 12 re f
180 108 24 12 re f
84 132 72 12 re f
168 132 36 12 re f
84 156 48 12 re f
0.921569 0.25098 0.258824 rg
90 222 24 36 re f
0.960784 0.772549 0.2 rg
132 204 24 54 re f
0.215686 0.647059 0.792157 rg
174 186 24 72 re f
0.960784 0.772549 0.2 rg
318 192 m 318.02 204.734 312.961 216.949 303.945 225.945 c 270 192 l 303.945
 158.055 l 312.961 167.051 318.02 179.266 318 192 c h
318 192 m f
0.921569 0.25098 0.258824 rg
303.945 225.945 m 285.195 244.684 254.805 244.684 236.055 225.945 c 270
 192 l h
303.945 225.945 m f
0.215686 0.647059 0.792157 rg
303.945 158.055 m 236.055 225.945 l 217.328 207.195 217.34 176.816 236.078
 158.078 c 254.816 139.34 285.195 139.328 303.945 158.055 c h
303.945 158.055 m f
Q Q
showpage
%%Trailer
end
%%EOF
