%!PS-Adobe-3.0 EPSF-3.0
%%Creator: cairo 1.16.0 (https://cairographics.org)
%%CreationDate: Fri Mar 13 07:35:32 2020
%%Pages: 1
%%DocumentData: Clean7Bit
%%LanguageLevel: 2
%%BoundingBox: 18 18 372 367
%%EndComments
%%BeginProlog
50 dict begin
/q { gsave } bind def
/Q { grestore } bind def
/cm { 6 array astore concat } bind def
/w { setlinewidth } bind def
/J { setlinecap } bind def
/j { setlinejoin } bind def
/M { setmiterlimit } bind def
/d { setdash } bind def
/m { moveto } bind def
/l { lineto } bind def
/c { curveto } bind def
/h { closepath } bind def
/re { exch dup neg 3 1 roll 5 3 roll moveto 0 rlineto
      0 exch rlineto 0 rlineto closepath } bind def
/S { stroke } bind def
/f { fill } bind def
/f* { eofill } bind def
/n { newpath } bind def
/W { clip } bind def
/W* { eoclip } bind def
/BT { } bind def
/ET { } bind def
/BDC { mark 3 1 roll /BDC pdfmark } bind def
/EMC { mark /EMC pdfmark } bind def
/cairo_store_point { /cairo_point_y exch def /cairo_point_x exch def } def
/Tj { show currentpoint cairo_store_point } bind def
/TJ {
  {
    dup
    type /stringtype eq
    { show } { -0.001 mul 0 cairo_font_matrix dtransform rmoveto } ifelse
  } forall
  currentpoint cairo_store_point
} bind def
/cairo_selectfont { cairo_font_matrix aload pop pop pop 0 0 6 array astore
    cairo_font exch selectfont cairo_point_x cairo_point_y moveto } bind def
/Tf { pop /cairo_font exch def /cairo_font_matrix where
      { pop cairo_selectfont } if } bind def
/Td { matrix translate cairo_font_matrix matrix concatmatrix dup
      /cairo_font_matrix exch def dup 4 get exch 5 get cairo_store_point
      /cairo_font where { pop cairo_selectfont } if } bind def
/Tm { 2 copy 8 2 roll 6 array astore /cairo_font_matrix exch def
      cairo_store_point /cairo_font where { pop cairo_selectfont } if } bind def
/g { setgray } bind def
/rg { setrgbcolor } bind def
/d1 { setcachedevice } bind def
/cairo_data_source {
  CairoDataIndex CairoData length lt
    { CairoData CairoDataIndex get /CairoDataIndex CairoDataIndex 1 add def }
    { () } ifelse
} def
/cairo_flush_ascii85_file { cairo_ascii85_file status { cairo_ascii85_file flushfile } if } def
/cairo_image { image cairo_flush_ascii85_file } def
/cairo_imagemask { imagemask cairo_flush_ascii85_file } def
%%EndProlog
%%BeginSetup
%%EndSetup
%%Page: 1 1
%%BeginPageSetup
%%PageBoundingBox: 18 18 372 367
%%EndPageSetup
q 18 18 354 349 rectclip
1 0 0 -1 0 384 cm q
0.215686 0.647059 0.792157 rg
276 138 m 276 149.141 271.574 159.824 263.699 167.699 c 255.824 175.574
 245.141 180 234 180 c 60 180 l 36.805 180 18 161.195 18 138 c 18 114.805
 36.805 96 60 96 c 61.086 96 l 54.719 61.516 76.426 28.07 110.516 19.844
 c 144.605 11.613 179.176 31.477 189.238 65.07 c 198.301 58.012 211.086 
58.359 219.75 65.898 c 228.414 73.434 230.527 86.051 224.789 96 c 234 96
 l 245.141 96 255.824 100.422 263.699 108.301 c 271.578 116.176 276 126.859
 276 138 c h
276 138 m f
0.176471 0.501961 0.729412 rg
61.086 96 m 61.84 100.098 62.984 104.117 64.5 108 c 53.316 112.363 l 51.434
 107.535 50.035 102.527 49.148 97.418 c 52.688 96.477 56.336 96 60 96 c 
h
61.086 96 m f
203.684 76.922 m 191.73 78 l 191.336 73.617 190.5 69.285 189.238 65.07 
c 192.461 62.547 196.281 60.898 200.324 60.285 c 202.055 65.688 203.18 71.27
 203.684 76.922 c h
203.684 76.922 m f
0.568627 0.827451 0.933333 rg
108 138 m 348 138 l 361.297 138 372 148.703 372 162 c 372 306 l 372 319.297
 361.297 330 348 330 c 108 330 l 94.703 330 84 319.297 84 306 c 84 162 l
 84 148.703 94.703 138 108 138 c h
108 138 m f
0.215686 0.647059 0.792157 rg
84 294 m 372 294 l 372 306 l 372 319.254 361.254 330 348 330 c 108 330 
l 94.746 330 84 319.254 84 306 c h
84 294 m f
0.662745 0.792157 0.164706 rg
114 162 m 342 162 l 345.312 162 348 164.688 348 168 c 348 294 l 108 294
 l 108 168 l 108 164.688 110.688 162 114 162 c h
114 162 m f
0.176471 0.501961 0.729412 rg
240 312 m 240 315.312 237.312 318 234 318 c 230.688 318 228 315.312 228
 312 c 228 308.688 230.688 306 234 306 c 237.312 306 240 308.688 240 312
 c h
240 312 m f
0.568627 0.827451 0.933333 rg
210 330 m 210 342 l 210 355.254 199.254 366 186 366 c 282 366 l 268.746
 366 258 355.254 258 342 c 258 330 l h
210 330 m f
0.921569 0.25098 0.258824 rg
144 234 24 36 re f
0.960784 0.772549 0.2 rg
192 222 24 48 re f
0.203922 0.627451 0.4 rg
240 210 24 60 re f
0.215686 0.647059 0.792157 rg
288 186 24 84 re f
Q Q
showpage
%%Trailer
end
%%EOF
