%!PS-Adobe-3.0 EPSF-3.0
%%Creator: cairo 1.16.0 (https://cairographics.org)
%%CreationDate: Fri Mar 13 07:35:33 2020
%%Pages: 1
%%DocumentData: Clean7Bit
%%LanguageLevel: 2
%%BoundingBox: 18 18 366 372
%%EndComments
%%BeginProlog
50 dict begin
/q { gsave } bind def
/Q { grestore } bind def
/cm { 6 array astore concat } bind def
/w { setlinewidth } bind def
/J { setlinecap } bind def
/j { setlinejoin } bind def
/M { setmiterlimit } bind def
/d { setdash } bind def
/m { moveto } bind def
/l { lineto } bind def
/c { curveto } bind def
/h { closepath } bind def
/re { exch dup neg 3 1 roll 5 3 roll moveto 0 rlineto
      0 exch rlineto 0 rlineto closepath } bind def
/S { stroke } bind def
/f { fill } bind def
/f* { eofill } bind def
/n { newpath } bind def
/W { clip } bind def
/W* { eoclip } bind def
/BT { } bind def
/ET { } bind def
/BDC { mark 3 1 roll /BDC pdfmark } bind def
/EMC { mark /EMC pdfmark } bind def
/cairo_store_point { /cairo_point_y exch def /cairo_point_x exch def } def
/Tj { show currentpoint cairo_store_point } bind def
/TJ {
  {
    dup
    type /stringtype eq
    { show } { -0.001 mul 0 cairo_font_matrix dtransform rmoveto } ifelse
  } forall
  currentpoint cairo_store_point
} bind def
/cairo_selectfont { cairo_font_matrix aload pop pop pop 0 0 6 array astore
    cairo_font exch selectfont cairo_point_x cairo_point_y moveto } bind def
/Tf { pop /cairo_font exch def /cairo_font_matrix where
      { pop cairo_selectfont } if } bind def
/Td { matrix translate cairo_font_matrix matrix concatmatrix dup
      /cairo_font_matrix exch def dup 4 get exch 5 get cairo_store_point
      /cairo_font where { pop cairo_selectfont } if } bind def
/Tm { 2 copy 8 2 roll 6 array astore /cairo_font_matrix exch def
      cairo_store_point /cairo_font where { pop cairo_selectfont } if } bind def
/g { setgray } bind def
/rg { setrgbcolor } bind def
/d1 { setcachedevice } bind def
/cairo_data_source {
  CairoDataIndex CairoData length lt
    { CairoData CairoDataIndex get /CairoDataIndex CairoDataIndex 1 add def }
    { () } ifelse
} def
/cairo_flush_ascii85_file { cairo_ascii85_file status { cairo_ascii85_file flushfile } if } def
/cairo_image { image cairo_flush_ascii85_file } def
/cairo_imagemask { imagemask cairo_flush_ascii85_file } def
%%EndProlog
%%BeginSetup
%%EndSetup
%%Page: 1 1
%%BeginPageSetup
%%PageBoundingBox: 18 18 366 372
%%EndPageSetup
q 18 18 348 354 rectclip
1 0 0 -1 0 384 cm q
0.984314 0.835294 0.713726 rg
66 318 m 72 294 l 78 288 l 72 270 l 48 270 l 36 312 l h
66 318 m f
0.568627 0.827451 0.933333 rg
18 333.367 m 18 366 l 78 366 l 79.266 362.199 l 85.844 342.465 80.707 320.707
 66 306 c 56.199 303.547 l 47.016 301.25 37.285 303.309 29.82 309.137 c 
22.359 314.961 18 323.902 18 333.367 c h
18 333.367 m f
0.215686 0.647059 0.792157 rg
35.879 366 m 48.121 366 l 53.879 337.176 l 42.121 334.824 l h
35.879 366 m f
0.705882 0.490196 0.301961 rg
46.285 276 m 90 276 l 90 264 l 49.715 264 l h
46.285 276 m f
0.984314 0.835294 0.713726 rg
318 66 m 312 42 l 306 36 l 312 18 l 336 18 l 348 60 l h
318 66 m f
0.568627 0.827451 0.933333 rg
366 81.367 m 366 114 l 306 114 l 304.734 110.199 l 298.156 90.465 303.293
 68.707 318 54 c 327.801 51.547 l 336.984 49.25 346.715 51.309 354.18 57.137
 c 361.641 62.961 366 71.902 366 81.367 c h
366 81.367 m f
0.215686 0.647059 0.792157 rg
348.121 114 m 335.879 114 l 330.121 85.176 l 341.879 82.824 l h
348.121 114 m f
0.705882 0.490196 0.301961 rg
337.715 24 m 294 24 l 294 12 l 334.285 12 l h
337.715 24 m f
0.568627 0.827451 0.933333 rg
264 191.398 m 263.996 210.332 256.477 228.492 243.09 241.883 c 166.965 
318 l 148.965 336 l 132 336 l 132 319.035 l 150 301.035 l 226.117 224.91
 l 238.043 212.98 242.73 195.609 238.426 179.301 c 234.121 162.988 221.473
 150.195 205.215 145.703 c 223.762 127.148 l 248.379 139.086 264.008 164.043
 264 191.398 c h
264 191.398 m f
0.215686 0.647059 0.792157 rg
166.965 318 m 148.965 336 l 132 336 l 132 319.035 l 150 301.035 l 150 318
 l h
166.965 318 m f
0.568627 0.827451 0.933333 rg
180 342 m 132 342 l 130.41 342 128.883 341.367 127.758 340.242 c 126.633
 339.117 126 337.59 126 336 c 126 288 l 138 288 l 138 330 l 180 330 l h
180 342 m f
0.662745 0.792157 0.164706 rg
252 48 m 252 64.965 l 234 82.965 l 157.883 159.09 l 145.957 171.02 141.27
 188.391 145.574 204.699 c 149.879 221.012 162.527 233.805 178.785 238.297
 c 160.238 256.852 l 139.453 246.766 124.832 227.25 120.992 204.469 c 117.156
 181.688 124.578 158.457 140.91 142.117 c 217.035 66 l 235.035 48 l h
252 48 m f
0.407843 0.74902 0.25098 rg
252 48 m 252 64.965 l 234 82.965 l 234 66 l 217.035 66 l 235.035 48 l h
252 48 m f
0.662745 0.792157 0.164706 rg
258 96 m 246 96 l 246 54 l 204 54 l 204 42 l 252 42 l 253.59 42 255.117
 42.633 256.242 43.758 c 257.367 44.883 258 46.41 258 48 c h
258 96 m f
287.828 197.137 m 287.941 195.234 287.996 193.32 288 191.398 c 288.004 
182.945 286.887 174.527 284.672 166.363 c 309.516 141.516 l 326.484 158.484
 l h
287.828 197.137 m f
0.568627 0.827451 0.933333 rg
99.328 217.637 m 74.484 242.484 l 57.516 225.516 l 96.172 186.863 l 96.059
 188.762 96 190.68 96 192.602 c 95.996 201.055 97.117 209.473 99.328 217.637
 c h
99.328 217.637 m f
0.960784 0.772549 0.2 rg
174 186 36 30 re f
210 186 m 198 186 l 198 174 l 198 170.688 195.312 168 192 168 c 188.688
 168 186 170.688 186 174 c 186 186 l 174 186 l 174 174 l 174 164.059 182.059
 156 192 156 c 201.941 156 210 164.059 210 174 c h
210 186 m f
0.937255 0.552941 0.0156863 rg
198 180 12 6 re f
174 180 12 6 re f
Q Q
showpage
%%Trailer
end
%%EOF
