%!PS-Adobe-3.0 EPSF-3.0
%%Creator: cairo 1.16.0 (https://cairographics.org)
%%CreationDate: Fri Mar 13 07:35:33 2020
%%Pages: 1
%%DocumentData: Clean7Bit
%%LanguageLevel: 2
%%BoundingBox: 36 18 348 366
%%EndComments
%%BeginProlog
50 dict begin
/q { gsave } bind def
/Q { grestore } bind def
/cm { 6 array astore concat } bind def
/w { setlinewidth } bind def
/J { setlinecap } bind def
/j { setlinejoin } bind def
/M { setmiterlimit } bind def
/d { setdash } bind def
/m { moveto } bind def
/l { lineto } bind def
/c { curveto } bind def
/h { closepath } bind def
/re { exch dup neg 3 1 roll 5 3 roll moveto 0 rlineto
      0 exch rlineto 0 rlineto closepath } bind def
/S { stroke } bind def
/f { fill } bind def
/f* { eofill } bind def
/n { newpath } bind def
/W { clip } bind def
/W* { eoclip } bind def
/BT { } bind def
/ET { } bind def
/BDC { mark 3 1 roll /BDC pdfmark } bind def
/EMC { mark /EMC pdfmark } bind def
/cairo_store_point { /cairo_point_y exch def /cairo_point_x exch def } def
/Tj { show currentpoint cairo_store_point } bind def
/TJ {
  {
    dup
    type /stringtype eq
    { show } { -0.001 mul 0 cairo_font_matrix dtransform rmoveto } ifelse
  } forall
  currentpoint cairo_store_point
} bind def
/cairo_selectfont { cairo_font_matrix aload pop pop pop 0 0 6 array astore
    cairo_font exch selectfont cairo_point_x cairo_point_y moveto } bind def
/Tf { pop /cairo_font exch def /cairo_font_matrix where
      { pop cairo_selectfont } if } bind def
/Td { matrix translate cairo_font_matrix matrix concatmatrix dup
      /cairo_font_matrix exch def dup 4 get exch 5 get cairo_store_point
      /cairo_font where { pop cairo_selectfont } if } bind def
/Tm { 2 copy 8 2 roll 6 array astore /cairo_font_matrix exch def
      cairo_store_point /cairo_font where { pop cairo_selectfont } if } bind def
/g { setgray } bind def
/rg { setrgbcolor } bind def
/d1 { setcachedevice } bind def
/cairo_data_source {
  CairoDataIndex CairoData length lt
    { CairoData CairoDataIndex get /CairoDataIndex CairoDataIndex 1 add def }
    { () } ifelse
} def
/cairo_flush_ascii85_file { cairo_ascii85_file status { cairo_ascii85_file flushfile } if } def
/cairo_image { image cairo_flush_ascii85_file } def
/cairo_imagemask { imagemask cairo_flush_ascii85_file } def
%%EndProlog
%%BeginSetup
%%EndSetup
%%Page: 1 1
%%BeginPageSetup
%%PageBoundingBox: 36 18 348 366
%%EndPageSetup
q 36 18 312 348 rectclip
1 0 0 -1 0 384 cm q
0.215686 0.647059 0.792157 rg
348 18 m 348 176.754 l 348 244.934 309.48 307.258 248.496 337.746 c 192
 366 l 135.504 337.746 l 74.52 307.258 36 244.934 36 176.754 c 36 18 l 49.316
 31.355 65.848 41.059 84 46.176 c 93.766 48.922 103.859 50.309 114 50.309
 c 143.262 50.348 171.336 38.719 192 18 c 212.664 38.719 240.738 50.348 
270 50.309 c 280.141 50.309 290.234 48.922 300 46.176 c 318.152 41.059 334.684
 31.355 348 18 c h
348 18 m f
0.176471 0.501961 0.729412 rg
348 18 m 348 176.754 l 348 244.934 309.48 307.258 248.496 337.746 c 192
 366 l 192 18 l 212.664 38.719 240.738 50.348 270 50.309 c 280.141 50.309
 290.234 48.922 300 46.176 c 318.152 41.059 334.684 31.355 348 18 c h
348 18 m f
0.568627 0.827451 0.933333 rg
300 46.176 m 300 130.574 l 300 201.285 293.184 225.285 280.281 246.148 
c 267.398 267.004 248.961 283.855 227.031 294.816 c 192 312.336 l 156.969
 294.816 l 135.043 283.855 116.602 267.004 103.719 246.148 c 103.688 246.098
 103.656 246.051 103.629 246 c 90.789 225.184 83.996 201.207 84 176.754 
c 84 46.176 l 93.766 48.922 103.859 50.309 114 50.309 c 118.008 50.309 122.016
 50.094 126 49.656 c 130.035 49.223 134.039 48.562 138 47.676 c 158.465 
43.145 177.203 32.848 192 18 c 212.664 38.719 240.738 50.348 270 50.309 
c 280.141 50.309 290.234 48.922 300 46.176 c h
300 46.176 m f
0.960784 0.890196 0.631373 rg
180 90 m 180 108 l 168 108 l 168 96 l 138 96 l 138 150 l 126 150 l 126 
49.656 l 130.035 49.223 134.039 48.562 138 47.676 c 138 84 l 174 84 l 175.59
 84 177.117 84.633 178.242 85.758 c 179.367 86.883 180 88.41 180 90 c h
180 90 m f
174 222 m 174 246 l 192 246 l 192 258 l 111.969 258 l 109.004 254.203 106.25
 250.246 103.719 246.148 c 103.688 246.098 103.656 246.051 103.629 246 c
 162 246 l 162 216 l 162 214.41 162.633 212.883 163.758 211.758 c 164.883
 210.633 166.41 210 168 210 c 240 210 l 240 222 l h
174 222 m f
252 144 m 240 144 l 240 120 l 240 116.688 242.688 114 246 114 c 300 114
 l 300 126 l 252 126 l h
252 144 m f
0.215686 0.647059 0.792157 rg
186 120 m 186 126.629 180.629 132 174 132 c 167.371 132 162 126.629 162
 120 c 162 113.371 167.371 108 174 108 c 180.629 108 186 113.371 186 120
 c h
186 120 m f
144 162 m 144 168.629 138.629 174 132 174 c 125.371 174 120 168.629 120
 162 c 120 155.371 125.371 150 132 150 c 138.629 150 144 155.371 144 162
 c h
144 162 m f
216 252 m 216 258.629 210.629 264 204 264 c 197.371 264 192 258.629 192
 252 c 192 245.371 197.371 240 204 240 c 210.629 240 216 245.371 216 252
 c h
216 252 m f
264 216 m 264 222.629 258.629 228 252 228 c 245.371 228 240 222.629 240
 216 c 240 209.371 245.371 204 252 204 c 258.629 204 264 209.371 264 216
 c h
264 216 m f
258 156 m 258 162.629 252.629 168 246 168 c 239.371 168 234 162.629 234
 156 c 234 149.371 239.371 144 246 144 c 252.629 144 258 149.371 258 156
 c h
258 156 m f
0.960784 0.772549 0.2 rg
174 138 m 166.719 138 160.156 133.613 157.371 126.887 c 154.586 120.164
 156.125 112.422 161.273 107.273 c 166.422 102.125 174.164 100.586 180.887
 103.371 c 187.613 106.156 192 112.719 192 120 c 191.988 129.938 183.938
 137.988 174 138 c h
174 114 m 171.574 114 169.387 115.461 168.457 117.703 c 167.527 119.945
 168.043 122.527 169.758 124.242 c 171.473 125.957 174.055 126.473 176.297
 125.543 c 178.539 124.613 180 122.426 180 120 c 179.996 116.688 177.312
 114.004 174 114 c h
174 114 m f
132 180 m 124.719 180 118.156 175.613 115.371 168.887 c 112.586 162.164
 114.125 154.422 119.273 149.273 c 124.422 144.125 132.164 142.586 138.887
 145.371 c 145.613 148.156 150 154.719 150 162 c 149.988 171.938 141.938
 179.988 132 180 c h
132 156 m 129.574 156 127.387 157.461 126.457 159.703 c 125.527 161.945
 126.043 164.527 127.758 166.242 c 129.473 167.957 132.055 168.473 134.297
 167.543 c 136.539 166.613 138 164.426 138 162 c 137.996 158.688 135.312
 156.004 132 156 c h
132 156 m f
204 270 m 196.719 270 190.156 265.613 187.371 258.887 c 184.586 252.164
 186.125 244.422 191.273 239.273 c 196.422 234.125 204.164 232.586 210.887
 235.371 c 217.613 238.156 222 244.719 222 252 c 221.988 261.938 213.938
 269.988 204 270 c h
204 246 m 201.574 246 199.387 247.461 198.457 249.703 c 197.527 251.945
 198.043 254.527 199.758 256.242 c 201.473 257.957 204.055 258.473 206.297
 257.543 c 208.539 256.613 210 254.426 210 252 c 209.996 248.688 207.312
 246.004 204 246 c h
204 246 m f
252 234 m 244.719 234 238.156 229.613 235.371 222.887 c 232.586 216.164
 234.125 208.422 239.273 203.273 c 244.422 198.125 252.164 196.586 258.887
 199.371 c 265.613 202.156 270 208.719 270 216 c 269.988 225.938 261.938
 233.988 252 234 c h
252 210 m 249.574 210 247.387 211.461 246.457 213.703 c 245.527 215.945
 246.043 218.527 247.758 220.242 c 249.473 221.957 252.055 222.473 254.297
 221.543 c 256.539 220.613 258 218.426 258 216 c 257.996 212.688 255.312
 210.004 252 210 c h
252 210 m f
246 174 m 238.719 174 232.156 169.613 229.371 162.887 c 226.586 156.164
 228.125 148.422 233.273 143.273 c 238.422 138.125 246.164 136.586 252.887
 139.371 c 259.613 142.156 264 148.719 264 156 c 263.988 165.938 255.938
 173.988 246 174 c h
246 150 m 243.574 150 241.387 151.461 240.457 153.703 c 239.527 155.945
 240.043 158.527 241.758 160.242 c 243.473 161.957 246.055 162.473 248.297
 161.543 c 250.539 160.613 252 158.426 252 156 c 251.996 152.688 249.312
 150.004 246 150 c h
246 150 m f
Q Q
showpage
%%Trailer
end
%%EOF
