%!PS-Adobe-3.0 EPSF-3.0
%%Creator: cairo 1.16.0 (https://cairographics.org)
%%CreationDate: Fri Mar 13 07:35:34 2020
%%Pages: 1
%%DocumentData: Clean7Bit
%%LanguageLevel: 2
%%BoundingBox: 18 18 366 366
%%EndComments
%%BeginProlog
50 dict begin
/q { gsave } bind def
/Q { grestore } bind def
/cm { 6 array astore concat } bind def
/w { setlinewidth } bind def
/J { setlinecap } bind def
/j { setlinejoin } bind def
/M { setmiterlimit } bind def
/d { setdash } bind def
/m { moveto } bind def
/l { lineto } bind def
/c { curveto } bind def
/h { closepath } bind def
/re { exch dup neg 3 1 roll 5 3 roll moveto 0 rlineto
      0 exch rlineto 0 rlineto closepath } bind def
/S { stroke } bind def
/f { fill } bind def
/f* { eofill } bind def
/n { newpath } bind def
/W { clip } bind def
/W* { eoclip } bind def
/BT { } bind def
/ET { } bind def
/BDC { mark 3 1 roll /BDC pdfmark } bind def
/EMC { mark /EMC pdfmark } bind def
/cairo_store_point { /cairo_point_y exch def /cairo_point_x exch def } def
/Tj { show currentpoint cairo_store_point } bind def
/TJ {
  {
    dup
    type /stringtype eq
    { show } { -0.001 mul 0 cairo_font_matrix dtransform rmoveto } ifelse
  } forall
  currentpoint cairo_store_point
} bind def
/cairo_selectfont { cairo_font_matrix aload pop pop pop 0 0 6 array astore
    cairo_font exch selectfont cairo_point_x cairo_point_y moveto } bind def
/Tf { pop /cairo_font exch def /cairo_font_matrix where
      { pop cairo_selectfont } if } bind def
/Td { matrix translate cairo_font_matrix matrix concatmatrix dup
      /cairo_font_matrix exch def dup 4 get exch 5 get cairo_store_point
      /cairo_font where { pop cairo_selectfont } if } bind def
/Tm { 2 copy 8 2 roll 6 array astore /cairo_font_matrix exch def
      cairo_store_point /cairo_font where { pop cairo_selectfont } if } bind def
/g { setgray } bind def
/rg { setrgbcolor } bind def
/d1 { setcachedevice } bind def
/cairo_data_source {
  CairoDataIndex CairoData length lt
    { CairoData CairoDataIndex get /CairoDataIndex CairoDataIndex 1 add def }
    { () } ifelse
} def
/cairo_flush_ascii85_file { cairo_ascii85_file status { cairo_ascii85_file flushfile } if } def
/cairo_image { image cairo_flush_ascii85_file } def
/cairo_imagemask { imagemask cairo_flush_ascii85_file } def
%%EndProlog
%%BeginSetup
%%EndSetup
%%Page: 1 1
%%BeginPageSetup
%%PageBoundingBox: 18 18 366 366
%%EndPageSetup
q 18 18 348 348 rectclip
1 0 0 -1 0 384 cm q
0.568627 0.827451 0.933333 rg
366 90 m 294 18 l 114 18 l 114 366 l 366 366 l h
366 90 m f
0.215686 0.647059 0.792157 rg
294 18 m 294 90 l 366 90 l h
294 18 m f
132 78 48 12 re f
132 102 48 12 re f
180 126 36 12 re f
228 126 36 12 re f
276 126 72 12 re f
132 150 60 12 re f
204 150 36 12 re f
252 150 96 12 re f
132 174 72 12 re f
216 174 36 12 re f
264 174 84 12 re f
132 198 48 12 re f
192 198 36 12 re f
240 198 108 12 re f
276 240 36 12 re f
276 264 36 12 re f
0.407843 0.74902 0.25098 rg
138 227.574 m 138 296.023 l 138.004 317.102 126.945 336.633 108.871 347.477
 c 78 366 l 47.129 347.477 l 29.055 336.633 17.996 317.102 18 296.023 c 
18 227.574 l 24.48 234.078 32.906 238.293 42 239.578 c 43.988 239.859 45.992
 240 48 240 c 59.254 240.016 70.055 235.543 78 227.574 c 85.945 235.543 
96.746 240.016 108 240 c 110.008 240 112.012 239.859 114 239.578 c 123.094
 238.293 131.52 234.078 138 227.574 c h
138 227.574 m f
0.333333 0.654902 0.321569 rg
138 227.574 m 138 296.023 l 138.004 317.102 126.945 336.633 108.871 347.477
 c 78 366 l 78 227.574 l 85.945 235.543 96.746 240.016 108 240 c 110.008
 240 112.012 239.859 114 239.578 c 123.094 238.293 131.52 234.078 138 227.574
 c h
138 227.574 m f
0.662745 0.792157 0.164706 rg
114 239.578 m 114 296.023 l 113.965 308.66 107.34 320.363 96.523 326.895
 c 78 338.012 l 59.477 326.895 l 48.66 320.363 42.035 308.66 42 296.023 
c 42 239.578 l 43.988 239.859 45.992 240 48 240 c 59.254 240.016 70.055 
235.543 78 227.574 c 85.945 235.543 96.746 240.016 108 240 c 110.008 240
 112.012 239.859 114 239.578 c h
114 239.578 m f
Q Q
showpage
%%Trailer
end
%%EOF
