%!PS-Adobe-3.0 EPSF-3.0
%%Creator: cairo 1.16.0 (https://cairographics.org)
%%CreationDate: Fri Mar 13 07:35:35 2020
%%Pages: 1
%%DocumentData: Clean7Bit
%%LanguageLevel: 2
%%BoundingBox: 18 18 366 366
%%EndComments
%%BeginProlog
50 dict begin
/q { gsave } bind def
/Q { grestore } bind def
/cm { 6 array astore concat } bind def
/w { setlinewidth } bind def
/J { setlinecap } bind def
/j { setlinejoin } bind def
/M { setmiterlimit } bind def
/d { setdash } bind def
/m { moveto } bind def
/l { lineto } bind def
/c { curveto } bind def
/h { closepath } bind def
/re { exch dup neg 3 1 roll 5 3 roll moveto 0 rlineto
      0 exch rlineto 0 rlineto closepath } bind def
/S { stroke } bind def
/f { fill } bind def
/f* { eofill } bind def
/n { newpath } bind def
/W { clip } bind def
/W* { eoclip } bind def
/BT { } bind def
/ET { } bind def
/BDC { mark 3 1 roll /BDC pdfmark } bind def
/EMC { mark /EMC pdfmark } bind def
/cairo_store_point { /cairo_point_y exch def /cairo_point_x exch def } def
/Tj { show currentpoint cairo_store_point } bind def
/TJ {
  {
    dup
    type /stringtype eq
    { show } { -0.001 mul 0 cairo_font_matrix dtransform rmoveto } ifelse
  } forall
  currentpoint cairo_store_point
} bind def
/cairo_selectfont { cairo_font_matrix aload pop pop pop 0 0 6 array astore
    cairo_font exch selectfont cairo_point_x cairo_point_y moveto } bind def
/Tf { pop /cairo_font exch def /cairo_font_matrix where
      { pop cairo_selectfont } if } bind def
/Td { matrix translate cairo_font_matrix matrix concatmatrix dup
      /cairo_font_matrix exch def dup 4 get exch 5 get cairo_store_point
      /cairo_font where { pop cairo_selectfont } if } bind def
/Tm { 2 copy 8 2 roll 6 array astore /cairo_font_matrix exch def
      cairo_store_point /cairo_font where { pop cairo_selectfont } if } bind def
/g { setgray } bind def
/rg { setrgbcolor } bind def
/d1 { setcachedevice } bind def
/cairo_data_source {
  CairoDataIndex CairoData length lt
    { CairoData CairoDataIndex get /CairoDataIndex CairoDataIndex 1 add def }
    { () } ifelse
} def
/cairo_flush_ascii85_file { cairo_ascii85_file status { cairo_ascii85_file flushfile } if } def
/cairo_image { image cairo_flush_ascii85_file } def
/cairo_imagemask { imagemask cairo_flush_ascii85_file } def
%%EndProlog
%%BeginSetup
%%EndSetup
%%Page: 1 1
%%BeginPageSetup
%%PageBoundingBox: 18 18 366 366
%%EndPageSetup
q 18 18 348 348 rectclip
1 0 0 -1 0 384 cm q
0.960784 0.890196 0.631373 rg
336 198 m 322.738 210 l 210 312 l 210 366 l 174 366 l 174 312 l 61.262 
210 l 48 198 l h
336 198 m f
0.960784 0.772549 0.2 rg
192 312 18 12 re f
336 198 m 322.738 210 l 61.262 210 l 48 198 l h
336 198 m f
0.960784 0.890196 0.631373 rg
30 174 m 354 174 l 360.648 174 366 179.352 366 186 c 366 192.648 360.648
 198 354 198 c 30 198 l 23.352 198 18 192.648 18 186 c 18 179.352 23.352
 174 30 174 c h
30 174 m f
0.662745 0.792157 0.164706 rg
126 138 m 102 138 l 102 156 l 84 138 l 18 138 l 18 18 l 126 18 l h
126 138 m f
0.568627 0.827451 0.933333 rg
258 138 m 288 138 l 288 156 l 306 138 l 366 138 l 366 18 l 258 18 l h
258 138 m f
0.988235 0.839216 0.717647 rg
90 84 m 96 60 l 102 54 l 96 36 l 72 36 l 60 78 l h
90 84 m f
0.568627 0.827451 0.933333 rg
101.34 106.641 m 96 120 l 42 120 l 42 97.59 l 42 89.035 46.027 80.977 52.875
 75.848 c 55.648 73.762 l 62.199 68.852 70.613 67.152 78.555 69.137 c 82.695
 70.172 l 90.309 72.074 96.73 77.18 100.305 84.172 c 103.879 91.16 104.254
 99.352 101.34 106.641 c h
101.34 106.641 m f
0.215686 0.647059 0.792157 rg
77.879 91.176 m 72.121 120 l 59.887 120 l 66.121 88.824 l h
77.879 91.176 m f
0.705882 0.490196 0.301961 rg
108 42 m 70.285 42 l 73.715 30 l 108 30 l h
108 42 m f
0.921569 0.25098 0.258824 rg
312 36 m 295.434 36 282 49.434 282 66 c 282 82.566 312 120 312 120 c 312
 120 342 82.566 342 66 c 342 49.434 328.566 36 312 36 c h
312 78 m 307.145 78 302.77 75.078 300.914 70.594 c 299.055 66.109 300.082
 60.945 303.516 57.516 c 306.945 54.082 312.109 53.055 316.594 54.914 c 
321.078 56.77 324 61.145 324 66 c 324 69.184 322.738 72.234 320.484 74.484
 c 318.234 76.738 315.184 78 312 78 c h
312 78 m f
0.882353 0.866667 0.937255 rg
240 138 m 198 138 l 180 156 l 180 138 l 144 138 l 144 18 l 240 18 l h
240 138 m f
0.701961 0.560784 0.760784 rg
162 108 60 12 re f
0.921569 0.25098 0.258824 rg
162 78 12 24 re f
0.960784 0.772549 0.2 rg
186 60 12 42 re f
0.215686 0.647059 0.792157 rg
210 48 12 54 re f
Q Q
showpage
%%Trailer
end
%%EOF
