%!PS-Adobe-3.0 EPSF-3.0
%%Creator: cairo 1.16.0 (https://cairographics.org)
%%CreationDate: Fri Mar 13 07:35:35 2020
%%Pages: 1
%%DocumentData: Clean7Bit
%%LanguageLevel: 2
%%BoundingBox: 12 18 366 372
%%EndComments
%%BeginProlog
50 dict begin
/q { gsave } bind def
/Q { grestore } bind def
/cm { 6 array astore concat } bind def
/w { setlinewidth } bind def
/J { setlinecap } bind def
/j { setlinejoin } bind def
/M { setmiterlimit } bind def
/d { setdash } bind def
/m { moveto } bind def
/l { lineto } bind def
/c { curveto } bind def
/h { closepath } bind def
/re { exch dup neg 3 1 roll 5 3 roll moveto 0 rlineto
      0 exch rlineto 0 rlineto closepath } bind def
/S { stroke } bind def
/f { fill } bind def
/f* { eofill } bind def
/n { newpath } bind def
/W { clip } bind def
/W* { eoclip } bind def
/BT { } bind def
/ET { } bind def
/BDC { mark 3 1 roll /BDC pdfmark } bind def
/EMC { mark /EMC pdfmark } bind def
/cairo_store_point { /cairo_point_y exch def /cairo_point_x exch def } def
/Tj { show currentpoint cairo_store_point } bind def
/TJ {
  {
    dup
    type /stringtype eq
    { show } { -0.001 mul 0 cairo_font_matrix dtransform rmoveto } ifelse
  } forall
  currentpoint cairo_store_point
} bind def
/cairo_selectfont { cairo_font_matrix aload pop pop pop 0 0 6 array astore
    cairo_font exch selectfont cairo_point_x cairo_point_y moveto } bind def
/Tf { pop /cairo_font exch def /cairo_font_matrix where
      { pop cairo_selectfont } if } bind def
/Td { matrix translate cairo_font_matrix matrix concatmatrix dup
      /cairo_font_matrix exch def dup 4 get exch 5 get cairo_store_point
      /cairo_font where { pop cairo_selectfont } if } bind def
/Tm { 2 copy 8 2 roll 6 array astore /cairo_font_matrix exch def
      cairo_store_point /cairo_font where { pop cairo_selectfont } if } bind def
/g { setgray } bind def
/rg { setrgbcolor } bind def
/d1 { setcachedevice } bind def
/cairo_data_source {
  CairoDataIndex CairoData length lt
    { CairoData CairoDataIndex get /CairoDataIndex CairoDataIndex 1 add def }
    { () } ifelse
} def
/cairo_flush_ascii85_file { cairo_ascii85_file status { cairo_ascii85_file flushfile } if } def
/cairo_image { image cairo_flush_ascii85_file } def
/cairo_imagemask { imagemask cairo_flush_ascii85_file } def
%%EndProlog
%%BeginSetup
%%EndSetup
%%Page: 1 1
%%BeginPageSetup
%%PageBoundingBox: 12 18 366 372
%%EndPageSetup
q 12 18 354 354 rectclip
1 0 0 -1 0 384 cm q
0.407843 0.74902 0.25098 rg
281.805 157.293 m 278.203 224.262 224.301 278.18 157.336 281.801 c 128.266
 283.457 99.469 275.422 75.457 258.953 c 33.375 230.098 8.848 177.504 21.203
 120.48 c 31.902 71.211 70.168 32.598 119.336 21.453 c 141.43 16.344 164.457
 16.895 186.285 23.055 c 245.559 40.016 285.207 95.734 281.805 157.293 c
 h
281.805 157.293 m f
0.333333 0.654902 0.321569 rg
281.805 157.293 m 278.203 224.262 224.301 278.18 157.336 281.801 c 128.266
 283.457 99.469 275.422 75.457 258.953 c 96.801 265.031 120.328 265.898 
144.609 260.027 c 192.047 248.488 228.953 211.242 240.059 163.707 c 253.527
 105.848 228.914 52.262 186.285 23.055 c 245.559 40.016 285.207 95.734 281.805
 157.293 c h
281.805 157.293 m f
0.662745 0.792157 0.164706 rg
151.926 12.012 m 74.312 10.949 10.949 74.312 12.012 151.926 c 13.035 226.359
 73.641 286.965 148.074 287.988 c 225.688 289.051 289.051 225.688 287.988
 148.074 c 286.965 73.641 226.359 13.035 151.926 12.012 c h
274.656 131.625 m 260.578 116.23 243.734 103.621 225 94.445 c 220.586 92.277
 216.074 90.309 211.461 88.539 c 209.691 83.934 207.719 79.422 205.555 75
 c 196.379 56.266 183.77 39.422 168.375 25.344 c 223.324 33.539 266.461 
76.676 274.656 131.625 c h
156 89.234 m 171.73 89.789 187.289 92.688 202.16 97.84 c 207.309 112.711
 210.211 128.27 210.766 144 c 156 144 l h
144 144 m 89.234 144 l 89.789 128.27 92.688 112.711 97.84 97.84 c 112.711
 92.688 128.27 89.789 144 89.234 c h
77.23 144 m 30.426 144 l 45.016 126.871 63.137 113.094 83.543 103.609 c
 79.84 116.773 77.719 130.332 77.23 144 c h
77.23 156 m 77.719 169.668 79.84 183.227 83.543 196.391 c 63.137 186.906
 45.016 173.129 30.426 156 c h
89.234 156 m 144 156 l 144 210.766 l 128.27 210.211 112.711 207.312 97.84
 202.16 c 92.688 187.289 89.789 171.73 89.234 156 c h
156 156 m 210.766 156 l 210.211 171.73 207.309 187.289 202.16 202.16 c 
187.289 207.312 171.73 210.211 156 210.766 c h
222.77 156 m 269.574 156 l 254.984 173.129 236.863 186.906 216.457 196.391
 c 220.16 183.227 222.281 169.668 222.77 156 c h
222.77 144 m 222.281 130.332 220.16 116.773 216.457 103.609 c 236.863 113.094
 254.984 126.871 269.574 144 c h
196.391 83.543 m 183.227 79.84 169.668 77.719 156 77.23 c 156 30.426 l 
173.129 45.016 186.906 63.137 196.391 83.543 c h
144 30.426 m 144 77.23 l 130.332 77.719 116.773 79.84 103.609 83.543 c 
113.094 63.137 126.871 45.016 144 30.426 c h
131.625 25.344 m 116.23 39.422 103.621 56.266 94.445 75 c 92.277 79.414
 90.309 83.926 88.539 88.539 c 83.934 90.309 79.422 92.281 75 94.445 c 56.266
 103.621 39.422 116.23 25.344 131.625 c 33.539 76.676 76.676 33.539 131.625
 25.344 c h
25.344 168.375 m 39.422 183.77 56.266 196.379 75 205.555 c 79.414 207.723
 83.926 209.691 88.539 211.461 c 90.309 216.066 92.281 220.578 94.445 225
 c 103.621 243.734 116.23 260.578 131.625 274.656 c 76.676 266.461 33.539
 223.324 25.344 168.375 c h
103.609 216.457 m 116.773 220.16 130.332 222.281 144 222.77 c 144 269.574
 l 126.871 254.984 113.094 236.863 103.609 216.457 c h
156 269.574 m 156 222.77 l 169.668 222.281 183.227 220.16 196.391 216.457
 c 186.906 236.863 173.129 254.984 156 269.574 c h
168.375 274.656 m 183.77 260.578 196.379 243.734 205.555 225 c 207.723 
220.586 209.691 216.074 211.461 211.461 c 216.066 209.691 220.578 207.719
 225 205.555 c 243.734 196.379 260.578 183.77 274.656 168.375 c 266.461 
223.324 223.324 266.461 168.375 274.656 c h
168.375 274.656 m f
0.568627 0.827451 0.933333 rg
366 288 m 366 331.078 331.078 366 288 366 c 244.922 366 210 331.078 210
 288 c 210 244.922 244.922 210 288 210 c 331.078 210 366 244.922 366 288
 c h
366 288 m f
0.960784 0.890196 0.631373 rg
252 270 72 60 re f
312 270 m 300 270 l 300 252 l 300 245.371 294.629 240 288 240 c 281.371
 240 276 245.371 276 252 c 276 270 l 264 270 l 264 252 l 264 238.746 274.746
 228 288 228 c 301.254 228 312 238.746 312 252 c h
312 270 m f
0.960784 0.772549 0.2 rg
264 264 12 6 re f
300 264 12 6 re f
324 270 m 324 330 l 252 330 l 252 321 l 267 321 l 279.73 321 291.941 315.945
 300.941 306.941 c 309.945 297.941 315 285.73 315 273 c 315 270 l h
324 270 m f
Q Q
showpage
%%Trailer
end
%%EOF
