%!PS-Adobe-3.0 EPSF-3.0
%%Creator: cairo 1.16.0 (https://cairographics.org)
%%CreationDate: Fri Mar 13 07:35:36 2020
%%Pages: 1
%%DocumentData: Clean7Bit
%%LanguageLevel: 2
%%BoundingBox: 12 12 372 372
%%EndComments
%%BeginProlog
50 dict begin
/q { gsave } bind def
/Q { grestore } bind def
/cm { 6 array astore concat } bind def
/w { setlinewidth } bind def
/J { setlinecap } bind def
/j { setlinejoin } bind def
/M { setmiterlimit } bind def
/d { setdash } bind def
/m { moveto } bind def
/l { lineto } bind def
/c { curveto } bind def
/h { closepath } bind def
/re { exch dup neg 3 1 roll 5 3 roll moveto 0 rlineto
      0 exch rlineto 0 rlineto closepath } bind def
/S { stroke } bind def
/f { fill } bind def
/f* { eofill } bind def
/n { newpath } bind def
/W { clip } bind def
/W* { eoclip } bind def
/BT { } bind def
/ET { } bind def
/BDC { mark 3 1 roll /BDC pdfmark } bind def
/EMC { mark /EMC pdfmark } bind def
/cairo_store_point { /cairo_point_y exch def /cairo_point_x exch def } def
/Tj { show currentpoint cairo_store_point } bind def
/TJ {
  {
    dup
    type /stringtype eq
    { show } { -0.001 mul 0 cairo_font_matrix dtransform rmoveto } ifelse
  } forall
  currentpoint cairo_store_point
} bind def
/cairo_selectfont { cairo_font_matrix aload pop pop pop 0 0 6 array astore
    cairo_font exch selectfont cairo_point_x cairo_point_y moveto } bind def
/Tf { pop /cairo_font exch def /cairo_font_matrix where
      { pop cairo_selectfont } if } bind def
/Td { matrix translate cairo_font_matrix matrix concatmatrix dup
      /cairo_font_matrix exch def dup 4 get exch 5 get cairo_store_point
      /cairo_font where { pop cairo_selectfont } if } bind def
/Tm { 2 copy 8 2 roll 6 array astore /cairo_font_matrix exch def
      cairo_store_point /cairo_font where { pop cairo_selectfont } if } bind def
/g { setgray } bind def
/rg { setrgbcolor } bind def
/d1 { setcachedevice } bind def
/cairo_data_source {
  CairoDataIndex CairoData length lt
    { CairoData CairoDataIndex get /CairoDataIndex CairoDataIndex 1 add def }
    { () } ifelse
} def
/cairo_flush_ascii85_file { cairo_ascii85_file status { cairo_ascii85_file flushfile } if } def
/cairo_image { image cairo_flush_ascii85_file } def
/cairo_imagemask { imagemask cairo_flush_ascii85_file } def
%%EndProlog
%%BeginSetup
%%EndSetup
%%Page: 1 1
%%BeginPageSetup
%%PageBoundingBox: 12 12 372 372
%%EndPageSetup
q 12 12 360 360 rectclip
1 0 0 -1 0 384 cm q
0.568627 0.827451 0.933333 rg
48 294 36 42 re f
0.215686 0.647059 0.792157 rg
78 294 6 42 re f
0.568627 0.827451 0.933333 rg
84 252 36 84 re f
120 204 36 132 re f
156 162 36 174 re f
192 144 36 192 re f
228 162 36 174 re f
264 204 36 132 re f
300 264 36 72 re f
336 300 30 36 re f
0.215686 0.647059 0.792157 rg
114 294 6 42 re f
120 336 m 120 252 l 114 252 l 114 336 l f
156 336 m 156 204 l 150 204 l 150 336 l f
192 336 m 192 162 l 186 162 l 186 336 l f
228 336 m 228 144 l 222 144 l 222 336 l f
264 336 m 264 162 l 258 162 l 258 336 l f
300 336 m 300 204 l 294 204 l 294 336 l f
336 336 m 336 264 l 330 264 l 330 336 l f
372 336 m 372 300 l 366 300 l 366 336 l f
0.176471 0.501961 0.729412 rg
372 330 m 339.484 330 315.453 293.562 290.008 254.984 c 265.695 218.117
 240.555 180 210 180 c 179.445 180 154.305 218.117 129.992 254.984 c 104.547
 293.562 80.516 330 48 330 c 48 318 l 74.055 318 97.398 282.605 119.973 
248.375 c 146.035 208.859 172.984 168 210 168 c 247.016 168 273.965 208.859
 300.027 248.375 c 322.602 282.605 345.945 318 372 318 c h
372 330 m f
0.223529 0.309804 0.352941 rg
204 78 12 12 re f
66 54 36 12 re f
0.960784 0.890196 0.631373 rg
222 102 m 198 102 l 198 78 l 186 78 l 186 126 l 198 126 l 198 114 l 222
 114 l 222 126 l 234 126 l 234 78 l 222 78 l h
222 102 m f
78 78 12 156 re f
330 78 12 156 re f
0.223529 0.309804 0.352941 rg
318 54 36 12 re f
54 330 m 54 12 l 42 12 l 42 54 l 30 54 l 30 66 l 42 66 l 42 126 l 30 126
 l 30 138 l 42 138 l 42 198 l 30 198 l 30 210 l 42 210 l 42 270 l 30 270
 l 30 282 l 42 282 l 42 330 l 30 330 l 30 342 l 42 342 l 42 354 l 54 354
 l 54 342 l 114 342 l 114 354 l 126 354 l 126 342 l 186 342 l 186 354 l 
198 354 l 198 342 l 258 342 l 258 354 l 270 354 l 270 342 l 330 342 l 330
 354 l 342 354 l 342 342 l 372 342 l 372 330 l h
54 330 m f
30 360 36 12 re f
102 360 36 12 re f
174 360 36 12 re f
246 360 36 12 re f
318 360 36 12 re f
12 330 12 12 re f
12 270 12 12 re f
12 198 12 12 re f
12 126 12 12 re f
12 54 12 12 re f
Q Q
showpage
%%Trailer
end
%%EOF
