%!PS-Adobe-3.0 EPSF-3.0
%%Creator: cairo 1.16.0 (https://cairographics.org)
%%CreationDate: Fri Mar 13 07:35:37 2020
%%Pages: 1
%%DocumentData: Clean7Bit
%%LanguageLevel: 2
%%BoundingBox: 18 18 365 367
%%EndComments
%%BeginProlog
50 dict begin
/q { gsave } bind def
/Q { grestore } bind def
/cm { 6 array astore concat } bind def
/w { setlinewidth } bind def
/J { setlinecap } bind def
/j { setlinejoin } bind def
/M { setmiterlimit } bind def
/d { setdash } bind def
/m { moveto } bind def
/l { lineto } bind def
/c { curveto } bind def
/h { closepath } bind def
/re { exch dup neg 3 1 roll 5 3 roll moveto 0 rlineto
      0 exch rlineto 0 rlineto closepath } bind def
/S { stroke } bind def
/f { fill } bind def
/f* { eofill } bind def
/n { newpath } bind def
/W { clip } bind def
/W* { eoclip } bind def
/BT { } bind def
/ET { } bind def
/BDC { mark 3 1 roll /BDC pdfmark } bind def
/EMC { mark /EMC pdfmark } bind def
/cairo_store_point { /cairo_point_y exch def /cairo_point_x exch def } def
/Tj { show currentpoint cairo_store_point } bind def
/TJ {
  {
    dup
    type /stringtype eq
    { show } { -0.001 mul 0 cairo_font_matrix dtransform rmoveto } ifelse
  } forall
  currentpoint cairo_store_point
} bind def
/cairo_selectfont { cairo_font_matrix aload pop pop pop 0 0 6 array astore
    cairo_font exch selectfont cairo_point_x cairo_point_y moveto } bind def
/Tf { pop /cairo_font exch def /cairo_font_matrix where
      { pop cairo_selectfont } if } bind def
/Td { matrix translate cairo_font_matrix matrix concatmatrix dup
      /cairo_font_matrix exch def dup 4 get exch 5 get cairo_store_point
      /cairo_font where { pop cairo_selectfont } if } bind def
/Tm { 2 copy 8 2 roll 6 array astore /cairo_font_matrix exch def
      cairo_store_point /cairo_font where { pop cairo_selectfont } if } bind def
/g { setgray } bind def
/rg { setrgbcolor } bind def
/d1 { setcachedevice } bind def
/cairo_data_source {
  CairoDataIndex CairoData length lt
    { CairoData CairoDataIndex get /CairoDataIndex CairoDataIndex 1 add def }
    { () } ifelse
} def
/cairo_flush_ascii85_file { cairo_ascii85_file status { cairo_ascii85_file flushfile } if } def
/cairo_image { image cairo_flush_ascii85_file } def
/cairo_imagemask { imagemask cairo_flush_ascii85_file } def
%%EndProlog
%%BeginSetup
%%EndSetup
%%Page: 1 1
%%BeginPageSetup
%%PageBoundingBox: 18 18 365 367
%%EndPageSetup
q 18 18 347 349 rectclip
1 0 0 -1 0 384 cm q
0.568627 0.827451 0.933333 rg
204 102 m 201.645 102 199.301 102.277 197.012 102.824 c 199.164 95.562 
197.762 87.715 193.23 81.645 c 188.703 75.574 181.574 72 174 72 c 173.918
 72 173.828 72 173.746 72.008 c 169.59 72.043 165.52 73.16 161.934 75.254
 c 161.164 58.41 153.344 42.664 140.387 31.875 c 127.426 21.086 110.523 
16.25 93.816 18.547 c 77.113 20.848 62.145 30.07 52.582 43.957 c 43.02 57.848
 39.742 75.117 43.551 91.547 c 28.391 96.172 18.027 110.148 18 126 c 18 
135.547 21.793 144.703 28.543 151.457 c 35.297 158.207 44.453 162 54 162
 c 204 162 l 220.57 162 234 148.57 234 132 c 234 115.43 220.57 102 204 102
 c h
204 102 m f
0.215686 0.647059 0.792157 rg
43.551 91.547 m 44.883 97.32 47.066 102.867 50.023 108 c 39.637 114.008
 l 36.562 108.695 34.188 103.008 32.574 97.086 c 35.883 94.617 39.598 92.742
 43.551 91.547 c h
43.551 91.547 m f
174 78 m 174 82.832 173.516 87.648 172.559 92.387 c 160.801 90 l 161.598
 86.051 162 82.031 162 78 c 162 77.078 161.969 76.172 161.934 75.254 c 165.52
 73.16 169.59 72.043 173.746 72.008 c 173.918 73.98 174 75.984 174 78 c 
h
174 78 m f
0.796078 0.858824 0.905882 rg
30 342 m 192 342 l 192 366 l 30 366 l 23.371 366 18 360.629 18 354 c 18
 347.371 23.371 342 30 342 c h
30 342 m f
0.678431 0.72549 0.764706 rg
180 342 m 330 342 l 336.648 342 342 347.352 342 354 c 342 360.648 336.648
 366 330 366 c 180 366 l 173.352 366 168 360.648 168 354 c 168 347.352 173.352
 342 180 342 c h
180 342 m f
0.796078 0.858824 0.905882 rg
363.961 193.754 m 343.516 331.754 l 342.648 337.641 337.598 342 331.648
 342 c 133.914 342 l 130.422 342 127.105 340.484 124.824 337.844 c 122.547
 335.199 121.527 331.695 122.039 328.246 c 142.484 190.246 l 143.352 184.359
 148.402 180 154.352 180 c 352.086 180 l 355.578 180 358.895 181.516 361.176
 184.156 c 363.453 186.801 364.473 190.305 363.961 193.754 c h
363.961 193.754 m f
0.662745 0.792157 0.164706 rg
341.863 193.754 m 321.422 331.754 l 320.555 337.641 315.504 342 309.555
 342 c 133.914 342 l 130.422 342 127.105 340.484 124.824 337.844 c 122.547
 335.199 121.527 331.695 122.039 328.246 c 142.484 190.246 l 143.352 184.359
 148.402 180 154.352 180 c 330 180 l 333.488 180 336.805 181.516 339.082
 184.16 c 341.363 186.801 342.379 190.305 341.863 193.754 c h
341.863 193.754 m f
0.960784 0.890196 0.631373 rg
174 240 m 78 240 l 78 102 l 144 102 l 174 132 l h
174 240 m f
0.960784 0.772549 0.2 rg
144 102 m 144 132 l 174 132 l h
144 102 m f
96 120 12 12 re f
120 120 12 12 re f
96 144 36 12 re f
144 144 12 12 re f
96 168 60 12 re f
132 198 24 12 re f
0.215686 0.647059 0.792157 rg
115.715 298.223 m 124.195 289.738 l 136.195 301.738 l 127.711 310.223 l
 h
115.715 298.223 m f
79.723 262.227 m 88.203 253.742 l 112.203 277.738 l 103.719 286.223 l h
79.723 262.227 m f
151.711 298.227 m 160.191 289.742 l 172.191 301.742 l 163.707 310.227 l
 h
151.711 298.227 m f
115.719 262.23 m 124.203 253.746 l 148.199 277.742 l 139.715 286.227 l 
h
115.719 262.23 m f
187.707 298.23 m 196.191 289.746 l 208.188 301.746 l 199.703 310.23 l h
187.707 298.23 m f
151.715 262.234 m 160.199 253.75 l 184.195 277.746 l 175.711 286.23 l h
151.715 262.234 m f
217.703 292.234 m 226.188 283.754 l 238.184 295.75 l 229.703 304.234 l 
h
217.703 292.234 m f
181.711 256.238 m 190.195 247.754 l 214.191 271.75 l 205.707 280.234 l 
h
181.711 256.238 m f
223.707 262.238 m 232.191 253.754 l 244.188 265.754 l 235.703 274.238 l
 h
223.707 262.238 m f
187.715 226.242 m 196.199 217.758 l 220.195 241.754 l 211.711 250.238 l
 h
187.715 226.242 m f
223.711 226.242 m 232.191 217.758 l 244.191 229.758 l 235.707 238.242 l
 h
223.711 226.242 m f
187.719 190.246 m 196.203 181.762 l 220.199 205.758 l 211.715 214.242 l
 h
187.719 190.246 m f
223.715 190.246 m 232.195 181.762 l 244.195 193.762 l 235.711 202.246 l
 h
223.715 190.246 m f
187.723 154.25 m 196.203 145.766 l 220.203 169.762 l 211.719 178.246 l 
h
187.723 154.25 m f
Q Q
showpage
%%Trailer
end
%%EOF
