%!PS-Adobe-3.0 EPSF-3.0
%%Creator: cairo 1.16.0 (https://cairographics.org)
%%CreationDate: Fri Mar 13 07:35:38 2020
%%Pages: 1
%%DocumentData: Clean7Bit
%%LanguageLevel: 2
%%BoundingBox: 18 18 360 366
%%EndComments
%%BeginProlog
50 dict begin
/q { gsave } bind def
/Q { grestore } bind def
/cm { 6 array astore concat } bind def
/w { setlinewidth } bind def
/J { setlinecap } bind def
/j { setlinejoin } bind def
/M { setmiterlimit } bind def
/d { setdash } bind def
/m { moveto } bind def
/l { lineto } bind def
/c { curveto } bind def
/h { closepath } bind def
/re { exch dup neg 3 1 roll 5 3 roll moveto 0 rlineto
      0 exch rlineto 0 rlineto closepath } bind def
/S { stroke } bind def
/f { fill } bind def
/f* { eofill } bind def
/n { newpath } bind def
/W { clip } bind def
/W* { eoclip } bind def
/BT { } bind def
/ET { } bind def
/BDC { mark 3 1 roll /BDC pdfmark } bind def
/EMC { mark /EMC pdfmark } bind def
/cairo_store_point { /cairo_point_y exch def /cairo_point_x exch def } def
/Tj { show currentpoint cairo_store_point } bind def
/TJ {
  {
    dup
    type /stringtype eq
    { show } { -0.001 mul 0 cairo_font_matrix dtransform rmoveto } ifelse
  } forall
  currentpoint cairo_store_point
} bind def
/cairo_selectfont { cairo_font_matrix aload pop pop pop 0 0 6 array astore
    cairo_font exch selectfont cairo_point_x cairo_point_y moveto } bind def
/Tf { pop /cairo_font exch def /cairo_font_matrix where
      { pop cairo_selectfont } if } bind def
/Td { matrix translate cairo_font_matrix matrix concatmatrix dup
      /cairo_font_matrix exch def dup 4 get exch 5 get cairo_store_point
      /cairo_font where { pop cairo_selectfont } if } bind def
/Tm { 2 copy 8 2 roll 6 array astore /cairo_font_matrix exch def
      cairo_store_point /cairo_font where { pop cairo_selectfont } if } bind def
/g { setgray } bind def
/rg { setrgbcolor } bind def
/d1 { setcachedevice } bind def
/cairo_data_source {
  CairoDataIndex CairoData length lt
    { CairoData CairoDataIndex get /CairoDataIndex CairoDataIndex 1 add def }
    { () } ifelse
} def
/cairo_flush_ascii85_file { cairo_ascii85_file status { cairo_ascii85_file flushfile } if } def
/cairo_image { image cairo_flush_ascii85_file } def
/cairo_imagemask { imagemask cairo_flush_ascii85_file } def
%%EndProlog
%%BeginSetup
%%EndSetup
%%Page: 1 1
%%BeginPageSetup
%%PageBoundingBox: 18 18 360 366
%%EndPageSetup
q 18 18 342 348 rectclip
1 0 0 -1 0 384 cm q
0.796078 0.858824 0.905882 rg
258 366 m 156 366 l 149.371 366 144 360.629 144 354 c 144 347.371 149.371
 342 156 342 c 258 342 l h
258 366 m f
0.678431 0.72549 0.764706 rg
234 342 m 312 342 l 318.648 342 324 347.352 324 354 c 324 360.648 318.648
 366 312 366 c 234 366 l 227.352 366 222 360.648 222 354 c 222 347.352 227.352
 342 234 342 c h
234 342 m f
0.796078 0.858824 0.905882 rg
313.316 342 m 235.684 342 l 233.836 342 232.094 341.148 230.957 339.691
 c 229.82 338.234 229.414 336.336 229.863 334.543 c 244.863 274.543 l 245.531
 271.875 247.93 270 250.684 270 c 328.316 270 l 330.164 270 331.906 270.852
 333.043 272.309 c 334.18 273.766 334.586 275.664 334.137 277.457 c 319.137
 337.457 l 318.469 340.125 316.07 342 313.316 342 c h
313.316 342 m f
0.662745 0.792157 0.164706 rg
289.316 342 m 235.684 342 l 233.836 342 232.094 341.148 230.957 339.691
 c 229.82 338.234 229.414 336.336 229.863 334.543 c 244.863 274.543 l 245.531
 271.875 247.93 270 250.684 270 c 304.316 270 l 306.164 270 307.906 270.852
 309.043 272.309 c 310.18 273.766 310.586 275.664 310.137 277.457 c 295.137
 337.457 l 294.469 340.125 292.07 342 289.316 342 c h
289.316 342 m f
0.568627 0.827451 0.933333 rg
60 270 60 96 re f
0.215686 0.647059 0.792157 rg
96 348 m 96 351.312 93.312 354 90 354 c 86.688 354 84 351.312 84 348 c 
84 344.688 86.688 342 90 342 c 93.312 342 96 344.688 96 348 c h
96 348 m f
198 300 m 198 210 l 186 210 l 186 300 l 84 300 l 84 312 l 264 312 l 264
 300 l h
198 300 m f
0.568627 0.827451 0.933333 rg
282 138 m 281.961 176.449 257.473 210.617 221.074 223.012 c 184.68 235.406
 144.43 223.281 120.93 192.848 c 97.434 162.414 95.891 120.406 117.094 88.332
 c 138.293 56.254 177.547 41.211 214.754 50.902 c 254.434 61.168 282.109
 97.016 282 138 c h
282 138 m f
0.662745 0.792157 0.164706 rg
282 138 m 282.031 163.352 271.336 187.531 252.562 204.562 c 240 192 l 246
 174 l 222 156 l 234 144 l 234 120 l 216 120 l 198 90 l 214.754 50.902 l
 254.367 61.27 281.996 97.055 282 138 c h
282 138 m f
138 156 m 168 168 l 162 180 l 138 180 l 127.582 200.836 l 108.844 181.629
 99.648 155.062 102.516 128.383 c 105.379 101.703 120 77.691 142.387 62.902
 c 174 90 l 162 120 l 132 108 l 126 126 l 138 132 l h
138 156 m f
0.960784 0.890196 0.631373 rg
114 120 m 18 120 l 18 18 l 114 18 l 114 78 l 138 102 l 114 102 l h
114 120 m f
0.568627 0.827451 0.933333 rg
60 36 m 90 66 l 90 102 l 42 102 l 42 36 l h
60 36 m f
0.215686 0.647059 0.792157 rg
90 66 m 60 36 l 60 66 l h
90 66 m f
0.960784 0.890196 0.631373 rg
264 120 m 360 120 l 360 18 l 264 18 l 264 78 l 240 102 l 264 102 l h
264 120 m f
114 246 m 18 246 l 18 144 l 114 144 l 114 180 l 138 180 l 114 204 l h
114 246 m f
264 246 m 360 246 l 360 144 l 264 144 l 264 180 l 240 180 l 264 204 l h
264 246 m f
0.568627 0.827451 0.933333 rg
60 162 m 90 192 l 90 228 l 42 228 l 42 162 l h
60 162 m f
0.215686 0.647059 0.792157 rg
90 192 m 60 162 l 60 192 l h
90 192 m f
0.568627 0.827451 0.933333 rg
306 36 m 336 66 l 336 102 l 288 102 l 288 36 l h
306 36 m f
0.215686 0.647059 0.792157 rg
336 66 m 306 36 l 306 66 l h
336 66 m f
0.568627 0.827451 0.933333 rg
306 162 m 336 192 l 336 228 l 288 228 l 288 162 l h
306 162 m f
0.215686 0.647059 0.792157 rg
336 192 m 306 162 l 306 192 l h
336 192 m f
Q Q
showpage
%%Trailer
end
%%EOF
