%!PS-Adobe-3.0 EPSF-3.0
%%Creator: cairo 1.16.0 (https://cairographics.org)
%%CreationDate: Fri Mar 13 07:35:39 2020
%%Pages: 1
%%DocumentData: Clean7Bit
%%LanguageLevel: 2
%%BoundingBox: 18 18 366 366
%%EndComments
%%BeginProlog
50 dict begin
/q { gsave } bind def
/Q { grestore } bind def
/cm { 6 array astore concat } bind def
/w { setlinewidth } bind def
/J { setlinecap } bind def
/j { setlinejoin } bind def
/M { setmiterlimit } bind def
/d { setdash } bind def
/m { moveto } bind def
/l { lineto } bind def
/c { curveto } bind def
/h { closepath } bind def
/re { exch dup neg 3 1 roll 5 3 roll moveto 0 rlineto
      0 exch rlineto 0 rlineto closepath } bind def
/S { stroke } bind def
/f { fill } bind def
/f* { eofill } bind def
/n { newpath } bind def
/W { clip } bind def
/W* { eoclip } bind def
/BT { } bind def
/ET { } bind def
/BDC { mark 3 1 roll /BDC pdfmark } bind def
/EMC { mark /EMC pdfmark } bind def
/cairo_store_point { /cairo_point_y exch def /cairo_point_x exch def } def
/Tj { show currentpoint cairo_store_point } bind def
/TJ {
  {
    dup
    type /stringtype eq
    { show } { -0.001 mul 0 cairo_font_matrix dtransform rmoveto } ifelse
  } forall
  currentpoint cairo_store_point
} bind def
/cairo_selectfont { cairo_font_matrix aload pop pop pop 0 0 6 array astore
    cairo_font exch selectfont cairo_point_x cairo_point_y moveto } bind def
/Tf { pop /cairo_font exch def /cairo_font_matrix where
      { pop cairo_selectfont } if } bind def
/Td { matrix translate cairo_font_matrix matrix concatmatrix dup
      /cairo_font_matrix exch def dup 4 get exch 5 get cairo_store_point
      /cairo_font where { pop cairo_selectfont } if } bind def
/Tm { 2 copy 8 2 roll 6 array astore /cairo_font_matrix exch def
      cairo_store_point /cairo_font where { pop cairo_selectfont } if } bind def
/g { setgray } bind def
/rg { setrgbcolor } bind def
/d1 { setcachedevice } bind def
/cairo_data_source {
  CairoDataIndex CairoData length lt
    { CairoData CairoDataIndex get /CairoDataIndex CairoDataIndex 1 add def }
    { () } ifelse
} def
/cairo_flush_ascii85_file { cairo_ascii85_file status { cairo_ascii85_file flushfile } if } def
/cairo_image { image cairo_flush_ascii85_file } def
/cairo_imagemask { imagemask cairo_flush_ascii85_file } def
%%EndProlog
%%BeginSetup
%%EndSetup
%%Page: 1 1
%%BeginPageSetup
%%PageBoundingBox: 18 18 366 366
%%EndPageSetup
q 18 18 348 348 rectclip
1 0 0 -1 0 384 cm q
0.796078 0.858824 0.905882 rg
108.691 330 m 222.691 330 l 222.691 354 l 108.691 354 l 102.062 354 96.691
 348.629 96.691 342 c 96.691 335.371 102.062 330 108.691 330 c h
108.691 330 m f
0.678431 0.72549 0.764706 rg
210.691 330 m 338.953 330 l 345.602 330 350.953 335.352 350.953 342 c 350.953
 348.648 345.602 354 338.953 354 c 210.691 354 l 204.043 354 198.691 348.648
 198.691 342 c 198.691 335.352 204.043 330 210.691 330 c h
210.691 330 m f
0.796078 0.858824 0.905882 rg
365.707 236.602 m 347.039 320.602 l 345.82 326.094 340.949 330 335.324 
330 c 225.652 330 l 222.012 330 218.57 328.348 216.293 325.508 c 214.016
 322.672 213.148 318.949 213.938 315.398 c 232.605 231.398 l 233.824 225.906
 238.695 222 244.32 222 c 353.992 222 l 357.633 222 361.074 223.652 363.355
 226.492 c 365.633 229.328 366.496 233.051 365.707 236.602 c h
365.707 236.602 m f
0.662745 0.792157 0.164706 rg
342.398 236.602 m 323.73 320.602 l 322.512 326.09 317.645 330 312.023 330
 c 225.652 330 l 222.012 330 218.57 328.348 216.293 325.508 c 214.016 322.672
 213.148 318.949 213.938 315.398 c 232.605 231.398 l 233.824 225.906 238.695
 222 244.32 222 c 330.684 222 l 334.324 222 337.766 223.652 340.043 226.492
 c 342.32 229.328 343.188 233.051 342.398 236.602 c h
342.398 236.602 m f
0.215686 0.647059 0.792157 rg
270 276 m 108 276 l 104.688 276 102 273.312 102 270 c 102 210 l 114 210
 l 114 264 l 270 264 l h
270 276 m f
0.568627 0.827451 0.933333 rg
198 138 m 197.961 176.449 173.473 210.617 137.074 223.012 c 100.68 235.406
 60.43 223.281 36.93 192.848 c 13.434 162.414 11.891 120.406 33.094 88.332
 c 54.293 56.254 93.547 41.211 130.754 50.902 c 170.434 61.168 198.109 97.016
 198 138 c h
198 138 m f
0.662745 0.792157 0.164706 rg
198 138 m 198.031 163.352 187.336 187.531 168.562 204.562 c 156 192 l 162
 174 l 150 156 l 162 144 l 168 126 l 162 114 l 144 114 l 114 90 l 130.754
 50.902 l 170.367 61.27 197.996 97.055 198 138 c h
198 138 m f
54 156 m 84 168 l 78 180 l 54 180 l 43.582 200.836 l 24.844 181.629 15.648
 155.062 18.516 128.383 c 21.379 101.703 36 77.691 58.387 62.902 c 90 90
 l 78 120 l 48 108 l 42 126 l 54 132 l h
54 156 m f
0.878431 0.243137 0.129412 rg
108 18 m 96.859 18 86.176 22.426 78.301 30.301 c 70.426 38.176 66 48.859
 66 60 c 66 83.199 108 138 108 138 c 108 138 150 83.199 150 60 c 150 48.859
 145.574 38.176 137.699 30.301 c 129.824 22.426 119.141 18 108 18 c h
108 78 m 100.719 78 94.156 73.613 91.371 66.887 c 88.586 60.164 90.125 
52.422 95.273 47.273 c 100.422 42.125 108.164 40.586 114.887 43.371 c 121.613
 46.156 126 52.719 126 60 c 125.996 69.941 117.941 77.996 108 78 c h
108 78 m f
0.568627 0.827451 0.933333 rg
318 366 m 234 366 l 234 356.453 237.793 347.297 244.543 340.543 c 251.297
 333.793 260.453 330 270 330 c 282 330 l 301.883 330 318 346.117 318 366
 c h
318 366 m f
0.215686 0.647059 0.792157 rg
294 332.047 m 294 366 l 282 366 l 282 330 l 286.086 329.996 290.145 330.688
 294 332.047 c h
294 332.047 m f
Q Q
showpage
%%Trailer
end
%%EOF
