%!PS-Adobe-3.0 EPSF-3.0
%%Creator: cairo 1.16.0 (https://cairographics.org)
%%CreationDate: Fri Mar 13 07:35:40 2020
%%Pages: 1
%%DocumentData: Clean7Bit
%%LanguageLevel: 2
%%BoundingBox: 18 18 372 372
%%EndComments
%%BeginProlog
50 dict begin
/q { gsave } bind def
/Q { grestore } bind def
/cm { 6 array astore concat } bind def
/w { setlinewidth } bind def
/J { setlinecap } bind def
/j { setlinejoin } bind def
/M { setmiterlimit } bind def
/d { setdash } bind def
/m { moveto } bind def
/l { lineto } bind def
/c { curveto } bind def
/h { closepath } bind def
/re { exch dup neg 3 1 roll 5 3 roll moveto 0 rlineto
      0 exch rlineto 0 rlineto closepath } bind def
/S { stroke } bind def
/f { fill } bind def
/f* { eofill } bind def
/n { newpath } bind def
/W { clip } bind def
/W* { eoclip } bind def
/BT { } bind def
/ET { } bind def
/BDC { mark 3 1 roll /BDC pdfmark } bind def
/EMC { mark /EMC pdfmark } bind def
/cairo_store_point { /cairo_point_y exch def /cairo_point_x exch def } def
/Tj { show currentpoint cairo_store_point } bind def
/TJ {
  {
    dup
    type /stringtype eq
    { show } { -0.001 mul 0 cairo_font_matrix dtransform rmoveto } ifelse
  } forall
  currentpoint cairo_store_point
} bind def
/cairo_selectfont { cairo_font_matrix aload pop pop pop 0 0 6 array astore
    cairo_font exch selectfont cairo_point_x cairo_point_y moveto } bind def
/Tf { pop /cairo_font exch def /cairo_font_matrix where
      { pop cairo_selectfont } if } bind def
/Td { matrix translate cairo_font_matrix matrix concatmatrix dup
      /cairo_font_matrix exch def dup 4 get exch 5 get cairo_store_point
      /cairo_font where { pop cairo_selectfont } if } bind def
/Tm { 2 copy 8 2 roll 6 array astore /cairo_font_matrix exch def
      cairo_store_point /cairo_font where { pop cairo_selectfont } if } bind def
/g { setgray } bind def
/rg { setrgbcolor } bind def
/d1 { setcachedevice } bind def
/cairo_data_source {
  CairoDataIndex CairoData length lt
    { CairoData CairoDataIndex get /CairoDataIndex CairoDataIndex 1 add def }
    { () } ifelse
} def
/cairo_flush_ascii85_file { cairo_ascii85_file status { cairo_ascii85_file flushfile } if } def
/cairo_image { image cairo_flush_ascii85_file } def
/cairo_imagemask { imagemask cairo_flush_ascii85_file } def
%%EndProlog
%%BeginSetup
%%EndSetup
%%Page: 1 1
%%BeginPageSetup
%%PageBoundingBox: 18 18 372 372
%%EndPageSetup
q 18 18 354 354 rectclip
1 0 0 -1 0 384 cm q
0.407843 0.74902 0.25098 rg
366 150 m 365.949 206.68 329.684 256.988 275.926 274.953 c 222.172 292.922
 162.945 274.531 128.82 229.273 c 94.699 184.016 93.309 122.016 125.371 
75.277 c 157.434 28.539 215.777 7.512 270.285 23.055 c 326.953 39.258 366.012
 91.062 366 150 c h
366 150 m f
0.333333 0.654902 0.321569 rg
366 150 m 365.992 198.965 338.887 243.906 295.578 266.75 c 252.27 289.594
 199.875 286.594 159.457 258.953 c 221.715 276.742 287.688 246.754 315.219
 188.148 c 342.754 129.543 323.723 59.621 270.285 23.055 c 326.941 39.27
 365.996 91.066 366 150 c h
366 150 m f
0.662745 0.792157 0.164706 rg
234 12 m 157.906 12 96 73.906 96 150 c 96 226.094 157.906 288 234 288 c
 310.094 288 372 226.094 372 150 c 372 73.906 310.094 12 234 12 c h
358.656 131.625 m 344.578 116.23 327.734 103.621 309 94.445 c 304.586 92.277
 300.074 90.309 295.461 88.539 c 293.691 83.934 291.719 79.422 289.555 75
 c 280.379 56.266 267.77 39.422 252.375 25.344 c 307.324 33.539 350.461 
76.676 358.656 131.625 c h
240 89.234 m 255.73 89.789 271.289 92.688 286.16 97.84 c 291.309 112.711
 294.211 128.27 294.766 144 c 240 144 l h
228 144 m 173.234 144 l 173.789 128.27 176.688 112.711 181.84 97.84 c 196.711
 92.688 212.27 89.789 228 89.234 c h
161.23 144 m 114.426 144 l 129.016 126.871 147.137 113.094 167.543 103.609
 c 163.84 116.773 161.719 130.332 161.23 144 c h
161.23 156 m 161.719 169.668 163.84 183.227 167.543 196.391 c 147.137 186.906
 129.016 173.129 114.426 156 c h
173.234 156 m 228 156 l 228 210.766 l 212.27 210.211 196.711 207.312 181.84
 202.16 c 176.688 187.289 173.789 171.73 173.234 156 c h
240 156 m 294.766 156 l 294.211 171.73 291.309 187.289 286.16 202.16 c 
271.289 207.312 255.73 210.211 240 210.766 c h
306.77 156 m 353.574 156 l 338.984 173.129 320.863 186.906 300.457 196.391
 c 304.16 183.227 306.281 169.668 306.77 156 c h
306.77 144 m 306.281 130.332 304.16 116.773 300.457 103.609 c 320.863 113.094
 338.984 126.871 353.574 144 c h
280.391 83.543 m 267.227 79.84 253.668 77.719 240 77.23 c 240 30.426 l 
257.129 45.016 270.906 63.137 280.391 83.543 c h
228 30.426 m 228 77.23 l 214.332 77.719 200.773 79.84 187.609 83.543 c 
197.094 63.137 210.871 45.016 228 30.426 c h
215.625 25.344 m 200.23 39.422 187.621 56.266 178.445 75 c 176.277 79.414
 174.309 83.926 172.539 88.539 c 167.934 90.309 163.422 92.281 159 94.445
 c 140.266 103.621 123.422 116.23 109.344 131.625 c 117.539 76.676 160.676
 33.539 215.625 25.344 c h
109.344 168.375 m 123.422 183.77 140.266 196.379 159 205.555 c 163.414 
207.723 167.926 209.691 172.539 211.461 c 174.309 216.066 176.281 220.578
 178.445 225 c 187.621 243.734 200.23 260.578 215.625 274.656 c 160.676 
266.461 117.539 223.324 109.344 168.375 c h
187.609 216.457 m 200.773 220.16 214.332 222.281 228 222.77 c 228 269.574
 l 210.871 254.984 197.094 236.863 187.609 216.457 c h
240 269.574 m 240 222.77 l 253.668 222.281 267.227 220.16 280.391 216.457
 c 270.906 236.863 257.129 254.984 240 269.574 c h
252.375 274.656 m 267.77 260.578 280.379 243.734 289.555 225 c 291.723 
220.586 293.691 216.074 295.461 211.461 c 300.066 209.691 304.578 207.719
 309 205.555 c 327.734 196.379 344.578 183.77 358.656 168.375 c 350.461 
223.324 307.324 266.461 252.375 274.656 c h
252.375 274.656 m f
0.215686 0.65098 0.796078 rg
30 102 m 162 102 l 168.648 102 174 107.352 174 114 c 174 354 l 174 360.648
 168.648 366 162 366 c 30 366 l 23.352 366 18 360.648 18 354 c 18 114 l 
18 107.352 23.352 102 30 102 c h
30 102 m f
0.572549 0.831373 0.937255 rg
36 348 m 36 120 l 60 120 l 60 129.941 68.059 138 78 138 c 114 138 l 123.941
 138 132 129.941 132 120 c 156 120 l 156 348 l h
36 348 m f
0.223529 0.403922 0.615686 rg
84 114 18 12 re f
120 120 m 120 123.312 117.312 126 114 126 c 110.688 126 108 123.312 108
 120 c 108 116.688 110.688 114 114 114 c 117.312 114 120 116.688 120 120
 c h
120 120 m f
18 126 18 12 re f
156 126 18 12 re f
18 330 18 12 re f
156 330 18 12 re f
0.407843 0.74902 0.25098 rg
60 300 12 12 re f
78 300 12 12 re f
102 300 12 12 re f
120 300 12 12 re f
0.215686 0.647059 0.792157 rg
54 282 84 12 re f
54 318 84 12 re f
0.984314 0.835294 0.713726 rg
108 210 m 114 186 l 120 180 l 114 162 l 90 162 l 78 204 l h
108 210 m f
0.215686 0.647059 0.792157 rg
121.266 254.199 m 120 258 l 60 258 l 60 225.367 l 60 215.902 64.359 206.961
 71.82 201.137 c 79.285 195.309 89.016 193.25 98.199 195.547 c 108 198 l
 122.707 212.707 127.844 234.465 121.266 254.199 c h
121.266 254.199 m f
0.176471 0.501961 0.729412 rg
95.879 229.176 m 90.121 258 l 77.879 258 l 84.121 226.824 l h
95.879 229.176 m f
0.705882 0.490196 0.301961 rg
132 168 m 88.285 168 l 91.715 156 l 132 156 l h
132 168 m f
Q Q
showpage
%%Trailer
end
%%EOF
