%!PS-Adobe-3.0 EPSF-3.0
%%Creator: cairo 1.16.0 (https://cairographics.org)
%%CreationDate: Fri Mar 13 07:35:40 2020
%%Pages: 1
%%DocumentData: Clean7Bit
%%LanguageLevel: 2
%%BoundingBox: 12 30 372 348
%%EndComments
%%BeginProlog
50 dict begin
/q { gsave } bind def
/Q { grestore } bind def
/cm { 6 array astore concat } bind def
/w { setlinewidth } bind def
/J { setlinecap } bind def
/j { setlinejoin } bind def
/M { setmiterlimit } bind def
/d { setdash } bind def
/m { moveto } bind def
/l { lineto } bind def
/c { curveto } bind def
/h { closepath } bind def
/re { exch dup neg 3 1 roll 5 3 roll moveto 0 rlineto
      0 exch rlineto 0 rlineto closepath } bind def
/S { stroke } bind def
/f { fill } bind def
/f* { eofill } bind def
/n { newpath } bind def
/W { clip } bind def
/W* { eoclip } bind def
/BT { } bind def
/ET { } bind def
/BDC { mark 3 1 roll /BDC pdfmark } bind def
/EMC { mark /EMC pdfmark } bind def
/cairo_store_point { /cairo_point_y exch def /cairo_point_x exch def } def
/Tj { show currentpoint cairo_store_point } bind def
/TJ {
  {
    dup
    type /stringtype eq
    { show } { -0.001 mul 0 cairo_font_matrix dtransform rmoveto } ifelse
  } forall
  currentpoint cairo_store_point
} bind def
/cairo_selectfont { cairo_font_matrix aload pop pop pop 0 0 6 array astore
    cairo_font exch selectfont cairo_point_x cairo_point_y moveto } bind def
/Tf { pop /cairo_font exch def /cairo_font_matrix where
      { pop cairo_selectfont } if } bind def
/Td { matrix translate cairo_font_matrix matrix concatmatrix dup
      /cairo_font_matrix exch def dup 4 get exch 5 get cairo_store_point
      /cairo_font where { pop cairo_selectfont } if } bind def
/Tm { 2 copy 8 2 roll 6 array astore /cairo_font_matrix exch def
      cairo_store_point /cairo_font where { pop cairo_selectfont } if } bind def
/g { setgray } bind def
/rg { setrgbcolor } bind def
/d1 { setcachedevice } bind def
/cairo_data_source {
  CairoDataIndex CairoData length lt
    { CairoData CairoDataIndex get /CairoDataIndex CairoDataIndex 1 add def }
    { () } ifelse
} def
/cairo_flush_ascii85_file { cairo_ascii85_file status { cairo_ascii85_file flushfile } if } def
/cairo_image { image cairo_flush_ascii85_file } def
/cairo_imagemask { imagemask cairo_flush_ascii85_file } def
%%EndProlog
%%BeginSetup
%%EndSetup
%%Page: 1 1
%%BeginPageSetup
%%PageBoundingBox: 12 30 372 348
%%EndPageSetup
q 12 30 360 318 rectclip
1 0 0 -1 0 384 cm q
0.568627 0.827451 0.933333 rg
198 186 m 198 235.707 157.707 276 108 276 c 58.293 276 18 235.707 18 186
 c 18 162.129 27.48 139.238 44.359 122.359 c 61.238 105.48 84.129 96 108
 96 c 157.707 96 198 136.293 198 186 c h
198 186 m f
0.921569 0.25098 0.258824 rg
131.297 99.051 m 108 186 l 44.363 122.363 l 67.105 99.637 100.234 90.754
 131.297 99.051 c h
131.297 99.051 m f
0.176471 0.501961 0.729412 rg
108 186 m 18 186 l 17.969 162.125 27.453 139.219 44.363 122.363 c h
108 186 m f
0.701961 0.560784 0.760784 rg
108 186 m 62.992 263.953 l 35.141 247.879 17.988 218.16 18 186 c h
108 186 m f
0.960784 0.772549 0.2 rg
171.637 249.637 m 142.832 278.438 98.277 284.309 62.992 263.953 c 108 186
 l h
171.637 249.637 m f
0.960784 0.890196 0.631373 rg
144 144 m 174 114 l 174 36 l 282 36 l 282 156 l 174 156 l 174 144 l h
144 144 m f
0.960784 0.772549 0.2 rg
204 54 24 12 re f
240 54 24 12 re f
192 78 24 12 re f
228 78 36 12 re f
192 102 48 12 re f
252 102 12 12 re f
192 126 36 12 re f
0.921569 0.25098 0.258824 rg
24 324 36 24 re f
0.960784 0.772549 0.2 rg
84 300 36 48 re f
0.176471 0.501961 0.729412 rg
144 240 36 108 re f
0.701961 0.560784 0.760784 rg
204 264 36 84 re f
0.568627 0.827451 0.933333 rg
264 252 36 96 re f
0.662745 0.792157 0.164706 rg
324 174 36 174 re f
366 102 m 330 102 l 330 114 l 350.574 114 l 221.246 232.551 l 165.086 198.855
 l 162.938 197.566 160.211 197.75 158.25 199.316 c 38.25 295.316 l 45.75
 304.684 l 162.492 211.293 l 218.914 245.145 l 221.191 246.512 224.098 246.219
 226.055 244.422 c 360 121.641 l 360 144 l 372 144 l 372 108 l 372 104.688
 369.312 102 366 102 c h
366 102 m f
0.215686 0.647059 0.792157 rg
12 342 360 12 re f
Q Q
showpage
%%Trailer
end
%%EOF
