%!PS-Adobe-3.0 EPSF-3.0
%%Creator: cairo 1.16.0 (https://cairographics.org)
%%CreationDate: Fri Mar 13 07:35:41 2020
%%Pages: 1
%%DocumentData: Clean7Bit
%%LanguageLevel: 2
%%BoundingBox: 18 66 366 318
%%EndComments
%%BeginProlog
50 dict begin
/q { gsave } bind def
/Q { grestore } bind def
/cm { 6 array astore concat } bind def
/w { setlinewidth } bind def
/J { setlinecap } bind def
/j { setlinejoin } bind def
/M { setmiterlimit } bind def
/d { setdash } bind def
/m { moveto } bind def
/l { lineto } bind def
/c { curveto } bind def
/h { closepath } bind def
/re { exch dup neg 3 1 roll 5 3 roll moveto 0 rlineto
      0 exch rlineto 0 rlineto closepath } bind def
/S { stroke } bind def
/f { fill } bind def
/f* { eofill } bind def
/n { newpath } bind def
/W { clip } bind def
/W* { eoclip } bind def
/BT { } bind def
/ET { } bind def
/BDC { mark 3 1 roll /BDC pdfmark } bind def
/EMC { mark /EMC pdfmark } bind def
/cairo_store_point { /cairo_point_y exch def /cairo_point_x exch def } def
/Tj { show currentpoint cairo_store_point } bind def
/TJ {
  {
    dup
    type /stringtype eq
    { show } { -0.001 mul 0 cairo_font_matrix dtransform rmoveto } ifelse
  } forall
  currentpoint cairo_store_point
} bind def
/cairo_selectfont { cairo_font_matrix aload pop pop pop 0 0 6 array astore
    cairo_font exch selectfont cairo_point_x cairo_point_y moveto } bind def
/Tf { pop /cairo_font exch def /cairo_font_matrix where
      { pop cairo_selectfont } if } bind def
/Td { matrix translate cairo_font_matrix matrix concatmatrix dup
      /cairo_font_matrix exch def dup 4 get exch 5 get cairo_store_point
      /cairo_font where { pop cairo_selectfont } if } bind def
/Tm { 2 copy 8 2 roll 6 array astore /cairo_font_matrix exch def
      cairo_store_point /cairo_font where { pop cairo_selectfont } if } bind def
/g { setgray } bind def
/rg { setrgbcolor } bind def
/d1 { setcachedevice } bind def
/cairo_data_source {
  CairoDataIndex CairoData length lt
    { CairoData CairoDataIndex get /CairoDataIndex CairoDataIndex 1 add def }
    { () } ifelse
} def
/cairo_flush_ascii85_file { cairo_ascii85_file status { cairo_ascii85_file flushfile } if } def
/cairo_image { image cairo_flush_ascii85_file } def
/cairo_imagemask { imagemask cairo_flush_ascii85_file } def
%%EndProlog
%%BeginSetup
%%EndSetup
%%Page: 1 1
%%BeginPageSetup
%%PageBoundingBox: 18 66 366 318
%%EndPageSetup
q 18 66 348 252 rectclip
1 0 0 -1 0 384 cm q
0.568627 0.827451 0.933333 rg
144 276 m 144 294 l 144 307.254 133.254 318 120 318 c 216 318 l 202.746
 318 192 307.254 192 294 c 192 276 l h
144 276 m f
42 84 m 282 84 l 295.297 84 306 94.703 306 108 c 306 252 l 306 265.297 
295.297 276 282 276 c 42 276 l 28.703 276 18 265.297 18 252 c 18 108 l 18
 94.703 28.703 84 42 84 c h
42 84 m f
0.215686 0.647059 0.792157 rg
18 240 m 306 240 l 306 252 l 306 265.254 295.254 276 282 276 c 42 276 l
 28.746 276 18 265.254 18 252 c h
18 240 m f
0.662745 0.792157 0.164706 rg
48 108 m 276 108 l 279.312 108 282 110.688 282 114 c 282 240 l 42 240 l
 42 114 l 42 110.688 44.688 108 48 108 c h
48 108 m f
0.960784 0.772549 0.2 rg
352.801 150 m 351.266 157.523 348.297 164.684 344.055 171.082 c 353.398
 180.426 l 336.426 197.398 l 327.082 188.055 l 320.684 192.297 313.523 195.266
 306 196.801 c 306 210 l 282 210 l 282 196.801 l 274.477 195.266 267.316
 192.297 260.918 188.055 c 251.574 197.398 l 234.602 180.426 l 243.945 171.082
 l 239.703 164.684 236.734 157.523 235.199 150 c 222 150 l 222 126 l 235.199
 126 l 236.734 118.477 239.703 111.316 243.945 104.918 c 234.602 95.574 
l 251.574 78.602 l 260.918 87.945 l 267.316 83.703 274.477 80.734 282 79.199
 c 282 66 l 306 66 l 306 79.199 l 313.523 80.734 320.684 83.703 327.082 
87.945 c 336.426 78.602 l 353.398 95.574 l 344.055 104.918 l 348.297 111.316
 351.266 118.477 352.801 126 c 366 126 l 366 150 l h
352.801 150 m f
0.662745 0.792157 0.164706 rg
324 138 m 324 154.566 310.566 168 294 168 c 162 168 l 162 108 l 294 108
 l 308.254 108.008 320.539 118.035 323.398 132 c 323.797 133.977 324 135.984
 324 138 c h
324 138 m f
0.176471 0.501961 0.729412 rg
174 258 m 174 261.312 171.312 264 168 264 c 164.688 264 162 261.312 162
 258 c 162 254.688 164.688 252 168 252 c 171.312 252 174 254.688 174 258
 c h
174 258 m f
0.796078 0.858824 0.905882 rg
258 190.973 m 258 240 l 66 240 l 66 132 l 222 132 l 222 150 l 235.199 150
 l 236.734 157.523 239.703 164.684 243.945 171.082 c 234.602 180.426 l 251.574
 197.398 l h
258 190.973 m f
324 138 m 324 154.566 310.566 168 294 168 c 162 168 l 162 132 l 323.398
 132 l 323.797 133.977 324 135.984 324 138 c h
324 138 m f
0.176471 0.501961 0.729412 rg
247.758 154.242 m 235.758 142.242 l 234.633 141.117 234 139.59 234 138 
c 234 136.41 234.633 134.883 235.758 133.758 c 247.758 121.758 l 256.242
 130.242 l 248.484 138 l 256.242 145.758 l h
247.758 154.242 m f
292.242 154.242 m 283.758 145.758 l 291.516 138 l 283.758 130.242 l 292.242
 121.758 l 304.242 133.758 l 305.367 134.883 306 136.41 306 138 c 306 139.59
 305.367 141.117 304.242 142.242 c h
292.242 154.242 m f
258.512 147.387 m 270.508 123.398 l 281.234 128.762 l 269.238 152.75 l 
h
258.512 147.387 m f
0.678431 0.72549 0.764706 rg
72 222 m 60 222 l 60 132 l 60 128.688 62.688 126 66 126 c 168 126 l 168
 138 l 72 138 l h
72 222 m f
0.886275 0.235294 0.243137 rg
90 150 m 90 153.312 87.312 156 84 156 c 80.688 156 78 153.312 78 150 c 
78 146.688 80.688 144 84 144 c 87.312 144 90 146.688 90 150 c h
90 150 m f
0.960784 0.772549 0.2 rg
108 150 m 108 153.312 105.312 156 102 156 c 98.688 156 96 153.312 96 150
 c 96 146.688 98.688 144 102 144 c 105.312 144 108 146.688 108 150 c h
108 150 m f
0.560784 0.74902 0.396078 rg
126 150 m 126 153.312 123.312 156 120 156 c 116.688 156 114 153.312 114
 150 c 114 146.688 116.688 144 120 144 c 123.312 144 126 146.688 126 150
 c h
126 150 m f
0.678431 0.72549 0.764706 rg
84 162 54 12 re f
Q Q
showpage
%%Trailer
end
%%EOF
