%!PS-Adobe-3.0 EPSF-3.0
%%Creator: cairo 1.16.0 (https://cairographics.org)
%%CreationDate: Fri Mar 13 07:35:41 2020
%%Pages: 1
%%DocumentData: Clean7Bit
%%LanguageLevel: 2
%%BoundingBox: 18 18 366 366
%%EndComments
%%BeginProlog
50 dict begin
/q { gsave } bind def
/Q { grestore } bind def
/cm { 6 array astore concat } bind def
/w { setlinewidth } bind def
/J { setlinecap } bind def
/j { setlinejoin } bind def
/M { setmiterlimit } bind def
/d { setdash } bind def
/m { moveto } bind def
/l { lineto } bind def
/c { curveto } bind def
/h { closepath } bind def
/re { exch dup neg 3 1 roll 5 3 roll moveto 0 rlineto
      0 exch rlineto 0 rlineto closepath } bind def
/S { stroke } bind def
/f { fill } bind def
/f* { eofill } bind def
/n { newpath } bind def
/W { clip } bind def
/W* { eoclip } bind def
/BT { } bind def
/ET { } bind def
/BDC { mark 3 1 roll /BDC pdfmark } bind def
/EMC { mark /EMC pdfmark } bind def
/cairo_store_point { /cairo_point_y exch def /cairo_point_x exch def } def
/Tj { show currentpoint cairo_store_point } bind def
/TJ {
  {
    dup
    type /stringtype eq
    { show } { -0.001 mul 0 cairo_font_matrix dtransform rmoveto } ifelse
  } forall
  currentpoint cairo_store_point
} bind def
/cairo_selectfont { cairo_font_matrix aload pop pop pop 0 0 6 array astore
    cairo_font exch selectfont cairo_point_x cairo_point_y moveto } bind def
/Tf { pop /cairo_font exch def /cairo_font_matrix where
      { pop cairo_selectfont } if } bind def
/Td { matrix translate cairo_font_matrix matrix concatmatrix dup
      /cairo_font_matrix exch def dup 4 get exch 5 get cairo_store_point
      /cairo_font where { pop cairo_selectfont } if } bind def
/Tm { 2 copy 8 2 roll 6 array astore /cairo_font_matrix exch def
      cairo_store_point /cairo_font where { pop cairo_selectfont } if } bind def
/g { setgray } bind def
/rg { setrgbcolor } bind def
/d1 { setcachedevice } bind def
/cairo_data_source {
  CairoDataIndex CairoData length lt
    { CairoData CairoDataIndex get /CairoDataIndex CairoDataIndex 1 add def }
    { () } ifelse
} def
/cairo_flush_ascii85_file { cairo_ascii85_file status { cairo_ascii85_file flushfile } if } def
/cairo_image { image cairo_flush_ascii85_file } def
/cairo_imagemask { imagemask cairo_flush_ascii85_file } def
%%EndProlog
%%BeginSetup
%%EndSetup
%%Page: 1 1
%%BeginPageSetup
%%PageBoundingBox: 18 18 366 366
%%EndPageSetup
q 18 18 348 348 rectclip
1 0 0 -1 0 384 cm q
0.215686 0.65098 0.796078 rg
108 18 m 276 18 l 282.648 18 288 23.352 288 30 c 288 354 l 288 360.648 
282.648 366 276 366 c 108 366 l 101.352 366 96 360.648 96 354 c 96 30 l 
96 23.352 101.352 18 108 18 c h
108 18 m f
0.572549 0.831373 0.937255 rg
114 66 156 240 re f
0.223529 0.403922 0.615686 rg
180 36 36 12 re f
174 42 m 174 45.312 171.312 48 168 48 c 164.688 48 162 45.312 162 42 c 
162 38.688 164.688 36 168 36 c 171.312 36 174 38.688 174 42 c h
174 42 m f
192 354 m 184.719 354 178.156 349.613 175.371 342.887 c 172.586 336.164
 174.125 328.422 179.273 323.273 c 184.422 318.125 192.164 316.586 198.887
 319.371 c 205.613 322.156 210 328.719 210 336 c 209.988 345.938 201.938
 353.988 192 354 c h
192 330 m 189.574 330 187.387 331.461 186.457 333.703 c 185.527 335.945
 186.043 338.527 187.758 340.242 c 189.473 341.957 192.055 342.473 194.297
 341.543 c 196.539 340.613 198 338.426 198 336 c 197.996 332.688 195.312
 330.004 192 330 c h
192 330 m f
0.215686 0.65098 0.796078 rg
126 276 132 12 re f
0.921569 0.25098 0.258824 rg
138 222 24 36 re f
0.960784 0.772549 0.2 rg
180 192 24 66 re f
0.215686 0.647059 0.792157 rg
222 150 24 108 re f
0.960784 0.890196 0.631373 rg
138 198 m 114 198 l 114 228 l 84 198 l 18 198 l 18 90 l 138 90 l h
138 198 m f
0.223529 0.403922 0.615686 rg
103.453 169.453 m 96.703 176.207 87.547 180 78 180 c 68.453 180 59.297 
176.207 52.547 169.453 c 78 144 l h
103.453 169.453 m f
0.701961 0.560784 0.760784 rg
114 144 m 114.016 153.551 110.219 162.711 103.453 169.453 c 78 144 l h
114 144 m f
0.921569 0.25098 0.258824 rg
114 144 m 78 144 l 78 108 l 87.547 108 96.703 111.793 103.457 118.543 c
 110.207 125.297 114 134.453 114 144 c h
114 144 m f
0.572549 0.831373 0.937255 rg
78 108 m 78 144 l 52.547 169.453 l 42.25 159.16 39.168 143.676 44.738 130.223
 c 50.312 116.77 63.438 108 78 108 c h
78 108 m f
0.960784 0.890196 0.631373 rg
246 114 m 270 114 l 270 144 l 300 114 l 366 114 l 366 18 l 246 18 l h
246 114 m f
0.960784 0.772549 0.2 rg
288 36 24 12 re f
324 36 24 12 re f
264 60 36 12 re f
312 60 36 12 re f
264 84 48 12 re f
324 84 12 12 re f
Q Q
showpage
%%Trailer
end
%%EOF
