%!PS-Adobe-3.0 EPSF-3.0
%%Creator: cairo 1.16.0 (https://cairographics.org)
%%CreationDate: Fri Mar 13 07:35:42 2020
%%Pages: 1
%%DocumentData: Clean7Bit
%%LanguageLevel: 2
%%BoundingBox: 18 18 372 366
%%EndComments
%%BeginProlog
50 dict begin
/q { gsave } bind def
/Q { grestore } bind def
/cm { 6 array astore concat } bind def
/w { setlinewidth } bind def
/J { setlinecap } bind def
/j { setlinejoin } bind def
/M { setmiterlimit } bind def
/d { setdash } bind def
/m { moveto } bind def
/l { lineto } bind def
/c { curveto } bind def
/h { closepath } bind def
/re { exch dup neg 3 1 roll 5 3 roll moveto 0 rlineto
      0 exch rlineto 0 rlineto closepath } bind def
/S { stroke } bind def
/f { fill } bind def
/f* { eofill } bind def
/n { newpath } bind def
/W { clip } bind def
/W* { eoclip } bind def
/BT { } bind def
/ET { } bind def
/BDC { mark 3 1 roll /BDC pdfmark } bind def
/EMC { mark /EMC pdfmark } bind def
/cairo_store_point { /cairo_point_y exch def /cairo_point_x exch def } def
/Tj { show currentpoint cairo_store_point } bind def
/TJ {
  {
    dup
    type /stringtype eq
    { show } { -0.001 mul 0 cairo_font_matrix dtransform rmoveto } ifelse
  } forall
  currentpoint cairo_store_point
} bind def
/cairo_selectfont { cairo_font_matrix aload pop pop pop 0 0 6 array astore
    cairo_font exch selectfont cairo_point_x cairo_point_y moveto } bind def
/Tf { pop /cairo_font exch def /cairo_font_matrix where
      { pop cairo_selectfont } if } bind def
/Td { matrix translate cairo_font_matrix matrix concatmatrix dup
      /cairo_font_matrix exch def dup 4 get exch 5 get cairo_store_point
      /cairo_font where { pop cairo_selectfont } if } bind def
/Tm { 2 copy 8 2 roll 6 array astore /cairo_font_matrix exch def
      cairo_store_point /cairo_font where { pop cairo_selectfont } if } bind def
/g { setgray } bind def
/rg { setrgbcolor } bind def
/d1 { setcachedevice } bind def
/cairo_data_source {
  CairoDataIndex CairoData length lt
    { CairoData CairoDataIndex get /CairoDataIndex CairoDataIndex 1 add def }
    { () } ifelse
} def
/cairo_flush_ascii85_file { cairo_ascii85_file status { cairo_ascii85_file flushfile } if } def
/cairo_image { image cairo_flush_ascii85_file } def
/cairo_imagemask { imagemask cairo_flush_ascii85_file } def
%%EndProlog
%%BeginSetup
%%EndSetup
%%Page: 1 1
%%BeginPageSetup
%%PageBoundingBox: 18 18 372 366
%%EndPageSetup
q 18 18 354 348 rectclip
1 0 0 -1 0 384 cm q
0.960784 0.772549 0.2 rg
150 234 m 120 264 l 110.184 254.184 l 88.664 232.668 75.352 204.301 72.555
 174 c 72.188 170.023 72.004 166.023 72 162 c 114 162 l 113.996 166.016 
114.277 170.023 114.84 174 c 117.445 192.723 126.086 210.086 139.453 223.453
 c h
150 234 m f
0.572549 0.831373 0.937255 rg
264 234 m 255.551 234.004 247.129 233.016 238.91 231.059 c 241.699 219.387
 l 270.293 226.199 300.434 219.535 323.488 201.305 c 346.547 183.074 359.98
 155.285 359.949 125.891 c 359.914 96.496 346.418 68.738 323.32 50.559 c
 300.219 32.383 270.066 25.789 241.488 32.664 c 238.672 21 l 246.969 19.004
 255.469 17.996 264 18 c 323.551 18 372 66.449 372 126 c 372 185.551 323.551
 234 264 234 c h
264 234 m f
252 210 m 247.676 210 243.355 209.668 239.082 209.008 c 240.918 197.148
 l 261.688 200.371 282.828 194.359 298.789 180.688 c 314.754 167.02 323.945
 147.055 323.957 126.039 c 323.969 105.023 314.797 85.051 298.848 71.363
 c 282.898 57.676 261.766 51.641 240.996 54.84 c 239.168 42.98 l 262.289
 39.406 285.855 45.637 304.188 60.176 c 322.52 74.711 333.961 96.234 335.754
 119.562 c 337.547 142.891 329.527 165.91 313.629 183.074 c 297.734 200.242
 275.398 210 252 210 c h
252 210 m f
240 186 m 240 174 l 266.508 174 288 152.508 288 126 c 288 99.492 266.508
 78 240 78 c 240 66 l 273.137 66 300 92.863 300 126 c 300 159.137 273.137
 186 240 186 c h
240 186 m f
0.921569 0.25098 0.258824 rg
18 318 36 48 re f
0.572549 0.831373 0.937255 rg
54 270 36 96 re f
0.960784 0.772549 0.2 rg
90 294 36 72 re f
0.662745 0.792157 0.164706 rg
126 246 36 120 re f
0.572549 0.831373 0.937255 rg
204 324 m 204 322.879 203.934 321.762 203.805 320.648 c 216.375 313.395
 l 204.375 292.605 l 191.812 299.859 l 190.004 298.527 188.055 297.402 186
 296.504 c 186 282 l 162 282 l 162 296.504 l 159.945 297.402 157.996 298.527
 156.188 299.859 c 143.625 292.605 l 131.625 313.395 l 144.195 320.648 l
 143.934 322.875 143.934 325.125 144.195 327.352 c 131.625 334.605 l 143.625
 355.395 l 156.188 348.141 l 157.996 349.473 159.945 350.598 162 351.496
 c 162 366 l 186 366 l 186 351.496 l 188.055 350.598 190.004 349.473 191.812
 348.141 c 204.375 355.395 l 216.375 334.605 l 203.805 327.352 l 203.934
 326.238 204 325.121 204 324 c h
174 336 m 169.145 336 164.77 333.078 162.914 328.594 c 161.055 324.109 
162.082 318.945 165.516 315.516 c 168.945 312.082 174.109 311.055 178.594
 312.914 c 183.078 314.77 186 319.145 186 324 c 186 327.184 184.738 330.234
 182.484 332.484 c 180.234 334.738 177.184 336 174 336 c h
174 336 m f
0.215686 0.647059 0.792157 rg
174 342 m 166.719 342 160.156 337.613 157.371 330.887 c 154.586 324.164
 156.125 316.422 161.273 311.273 c 166.422 306.125 174.164 304.586 180.887
 307.371 c 187.613 310.156 192 316.719 192 324 c 191.988 333.938 183.938
 341.988 174 342 c h
174 318 m 171.574 318 169.387 319.461 168.457 321.703 c 167.527 323.945
 168.043 326.527 169.758 328.242 c 171.473 329.957 174.055 330.473 176.297
 329.543 c 178.539 328.613 180 326.426 180 324 c 179.996 320.688 177.312
 318.004 174 318 c h
174 318 m f
0.937255 0.552941 0.0156863 rg
114.84 174 m 72.555 174 l 72.188 170.023 72.004 166.023 72 162 c 114 162
 l 113.996 166.016 114.277 170.023 114.84 174 c h
114.84 174 m f
0.921569 0.25098 0.258824 rg
60 90 78 72 re f
0.960784 0.772549 0.2 rg
138 162 m 228 234 l 228 18 l 138 90 l h
138 162 m f
0.921569 0.25098 0.258824 rg
258 126 m 258 142.566 244.566 156 228 156 c 228 96 l 244.566 96 258 109.434
 258 126 c h
258 126 m f
0.960784 0.772549 0.2 rg
54 90 m 66 90 l 66 162 l 54 162 l 34.117 162 18 145.883 18 126 c 18 106.117
 34.117 90 54 90 c h
54 90 m f
Q Q
showpage
%%Trailer
end
%%EOF
