%!PS-Adobe-3.0 EPSF-3.0
%%Creator: cairo 1.16.0 (https://cairographics.org)
%%CreationDate: Fri Mar 13 07:35:43 2020
%%Pages: 1
%%DocumentData: Clean7Bit
%%LanguageLevel: 2
%%BoundingBox: 12 18 372 366
%%EndComments
%%BeginProlog
50 dict begin
/q { gsave } bind def
/Q { grestore } bind def
/cm { 6 array astore concat } bind def
/w { setlinewidth } bind def
/J { setlinecap } bind def
/j { setlinejoin } bind def
/M { setmiterlimit } bind def
/d { setdash } bind def
/m { moveto } bind def
/l { lineto } bind def
/c { curveto } bind def
/h { closepath } bind def
/re { exch dup neg 3 1 roll 5 3 roll moveto 0 rlineto
      0 exch rlineto 0 rlineto closepath } bind def
/S { stroke } bind def
/f { fill } bind def
/f* { eofill } bind def
/n { newpath } bind def
/W { clip } bind def
/W* { eoclip } bind def
/BT { } bind def
/ET { } bind def
/BDC { mark 3 1 roll /BDC pdfmark } bind def
/EMC { mark /EMC pdfmark } bind def
/cairo_store_point { /cairo_point_y exch def /cairo_point_x exch def } def
/Tj { show currentpoint cairo_store_point } bind def
/TJ {
  {
    dup
    type /stringtype eq
    { show } { -0.001 mul 0 cairo_font_matrix dtransform rmoveto } ifelse
  } forall
  currentpoint cairo_store_point
} bind def
/cairo_selectfont { cairo_font_matrix aload pop pop pop 0 0 6 array astore
    cairo_font exch selectfont cairo_point_x cairo_point_y moveto } bind def
/Tf { pop /cairo_font exch def /cairo_font_matrix where
      { pop cairo_selectfont } if } bind def
/Td { matrix translate cairo_font_matrix matrix concatmatrix dup
      /cairo_font_matrix exch def dup 4 get exch 5 get cairo_store_point
      /cairo_font where { pop cairo_selectfont } if } bind def
/Tm { 2 copy 8 2 roll 6 array astore /cairo_font_matrix exch def
      cairo_store_point /cairo_font where { pop cairo_selectfont } if } bind def
/g { setgray } bind def
/rg { setrgbcolor } bind def
/d1 { setcachedevice } bind def
/cairo_data_source {
  CairoDataIndex CairoData length lt
    { CairoData CairoDataIndex get /CairoDataIndex CairoDataIndex 1 add def }
    { () } ifelse
} def
/cairo_flush_ascii85_file { cairo_ascii85_file status { cairo_ascii85_file flushfile } if } def
/cairo_image { image cairo_flush_ascii85_file } def
/cairo_imagemask { imagemask cairo_flush_ascii85_file } def
%%EndProlog
%%BeginSetup
%%EndSetup
%%Page: 1 1
%%BeginPageSetup
%%PageBoundingBox: 12 18 372 366
%%EndPageSetup
q 12 18 360 348 rectclip
1 0 0 -1 0 384 cm q
0.921569 0.25098 0.258824 rg
336 366 m 48 366 l 192 126 l h
336 366 m f
0.960784 0.772549 0.2 rg
300 306 m 84 306 l 120 246 l 264 246 l h
300 306 m f
0.568627 0.827451 0.933333 rg
264 246 m 120 246 l 156 186 l 228 186 l h
264 246 m f
138 60 m 138 76.988 127.766 92.301 112.074 98.805 c 96.379 105.305 78.312
 101.711 66.301 89.699 c 54.289 77.688 50.695 59.621 57.195 43.926 c 63.699
 28.234 79.012 18 96 18 c 107.148 17.973 117.848 22.391 125.73 30.27 c 133.609
 38.152 138.027 48.852 138 60 c h
138 60 m f
0.662745 0.792157 0.164706 rg
125.699 89.699 m 117.828 97.586 107.141 102.012 96 102 c 96 60 l h
125.699 89.699 m f
0.568627 0.827451 0.933333 rg
276 114 24 36 re f
300 90 24 60 re f
0.215686 0.647059 0.792157 rg
294 114 6 36 re f
0.568627 0.827451 0.933333 rg
324 66 24 84 re f
0.215686 0.647059 0.792157 rg
342 66 5.75 84 re f
318 90 6 60 re f
0.921569 0.25098 0.258824 rg
370.246 274.246 m 354 290.488 l 346.246 298.246 l 343.898 300.586 340.102
 300.586 337.754 298.246 c 330 290.484 l 316.246 304.246 l 307.754 295.754
 l 325.754 277.754 l 328.102 275.414 331.898 275.414 334.246 277.754 c 342
 285.516 l 345.516 282 l 361.754 265.754 l h
370.246 274.246 m f
0.776471 0.133333 0.14902 rg
354 290.488 m 354 282 l 345.516 282 l 361.754 265.754 l 370.246 274.246
 l h
354 290.488 m f
0.921569 0.25098 0.258824 rg
372 294 m 360 294 l 360 276 l 342 276 l 342 264 l 366 264 l 369.312 264
 372 266.688 372 270 c h
372 294 m f
0.960784 0.890196 0.631373 rg
88.219 191.258 m 115.727 163.75 l 124.211 172.234 l 96.703 199.742 l h
88.219 191.258 m f
13.734 205.738 m 41.242 178.234 l 49.727 186.719 l 22.219 214.223 l h
13.734 205.738 m f
58.223 186.723 m 66.707 178.238 l 79.723 191.254 l 71.238 199.738 l h
58.223 186.723 m f
0.960784 0.772549 0.2 rg
84 222 m 76.719 222 70.156 217.613 67.371 210.887 c 64.586 204.164 66.125
 196.422 71.273 191.273 c 76.422 186.125 84.164 184.586 90.887 187.371 c
 97.613 190.156 102 196.719 102 204 c 101.988 213.938 93.938 221.988 84 
222 c h
84 198 m 81.574 198 79.387 199.461 78.457 201.703 c 77.527 203.945 78.043
 206.527 79.758 208.242 c 81.473 209.957 84.055 210.473 86.297 209.543 c
 88.539 208.613 90 206.426 90 204 c 89.996 200.688 87.312 198.004 84 198
 c h
84 198 m f
54 192 m 46.719 192 40.156 187.613 37.371 180.887 c 34.586 174.164 36.125
 166.422 41.273 161.273 c 46.422 156.125 54.164 154.586 60.887 157.371 c
 67.613 160.156 72 166.719 72 174 c 71.988 183.938 63.938 191.988 54 192
 c h
54 168 m 51.574 168 49.387 169.461 48.457 171.703 c 47.527 173.945 48.043
 176.527 49.758 178.242 c 51.473 179.957 54.055 180.473 56.297 179.543 c
 58.539 178.613 60 176.426 60 174 c 59.996 170.688 57.312 168.004 54 168
 c h
54 168 m f
0.662745 0.792157 0.164706 rg
228 186 m 156 186 l 192 126 l h
228 186 m f
0.796078 0.858824 0.905882 rg
181.758 172.242 m 135.516 126 l 90 126 l 90 114 l 138 114 l 139.59 114 
141.117 114.633 142.242 115.758 c 190.242 163.758 l h
181.758 172.242 m f
226.242 232.242 m 217.758 223.758 l 271.758 169.758 l 272.883 168.633 274.41
 168 276 168 c 354 168 l 354 180 l 278.484 180 l h
226.242 232.242 m f
304.242 352.242 m 295.758 343.758 l 331.758 307.758 l 332.883 306.633 334.41
 306 336 306 c 372 306 l 372 318 l 338.484 318 l h
304.242 352.242 m f
115.758 286.242 m 69.516 240 l 12 240 l 12 228 l 72 228 l 73.59 228 75.117
 228.633 76.242 229.758 c 124.242 277.758 l h
115.758 286.242 m f
Q Q
showpage
%%Trailer
end
%%EOF
