%!PS-Adobe-3.0 EPSF-3.0
%%Creator: cairo 1.16.0 (https://cairographics.org)
%%CreationDate: Fri Mar 13 07:35:44 2020
%%Pages: 1
%%DocumentData: Clean7Bit
%%LanguageLevel: 2
%%BoundingBox: 18 18 365 366
%%EndComments
%%BeginProlog
50 dict begin
/q { gsave } bind def
/Q { grestore } bind def
/cm { 6 array astore concat } bind def
/w { setlinewidth } bind def
/J { setlinecap } bind def
/j { setlinejoin } bind def
/M { setmiterlimit } bind def
/d { setdash } bind def
/m { moveto } bind def
/l { lineto } bind def
/c { curveto } bind def
/h { closepath } bind def
/re { exch dup neg 3 1 roll 5 3 roll moveto 0 rlineto
      0 exch rlineto 0 rlineto closepath } bind def
/S { stroke } bind def
/f { fill } bind def
/f* { eofill } bind def
/n { newpath } bind def
/W { clip } bind def
/W* { eoclip } bind def
/BT { } bind def
/ET { } bind def
/BDC { mark 3 1 roll /BDC pdfmark } bind def
/EMC { mark /EMC pdfmark } bind def
/cairo_store_point { /cairo_point_y exch def /cairo_point_x exch def } def
/Tj { show currentpoint cairo_store_point } bind def
/TJ {
  {
    dup
    type /stringtype eq
    { show } { -0.001 mul 0 cairo_font_matrix dtransform rmoveto } ifelse
  } forall
  currentpoint cairo_store_point
} bind def
/cairo_selectfont { cairo_font_matrix aload pop pop pop 0 0 6 array astore
    cairo_font exch selectfont cairo_point_x cairo_point_y moveto } bind def
/Tf { pop /cairo_font exch def /cairo_font_matrix where
      { pop cairo_selectfont } if } bind def
/Td { matrix translate cairo_font_matrix matrix concatmatrix dup
      /cairo_font_matrix exch def dup 4 get exch 5 get cairo_store_point
      /cairo_font where { pop cairo_selectfont } if } bind def
/Tm { 2 copy 8 2 roll 6 array astore /cairo_font_matrix exch def
      cairo_store_point /cairo_font where { pop cairo_selectfont } if } bind def
/g { setgray } bind def
/rg { setrgbcolor } bind def
/d1 { setcachedevice } bind def
/cairo_data_source {
  CairoDataIndex CairoData length lt
    { CairoData CairoDataIndex get /CairoDataIndex CairoDataIndex 1 add def }
    { () } ifelse
} def
/cairo_flush_ascii85_file { cairo_ascii85_file status { cairo_ascii85_file flushfile } if } def
/cairo_image { image cairo_flush_ascii85_file } def
/cairo_imagemask { imagemask cairo_flush_ascii85_file } def
%%EndProlog
%%BeginSetup
%%EndSetup
%%Page: 1 1
%%BeginPageSetup
%%PageBoundingBox: 18 18 365 366
%%EndPageSetup
q 18 18 347 348 rectclip
1 0 0 -1 0 384 cm q
0.796078 0.858824 0.905882 rg
30 342 m 180 342 l 186.648 342 192 347.352 192 354 c 192 360.648 186.648
 366 180 366 c 30 366 l 23.352 366 18 360.648 18 354 c 18 347.352 23.352
 342 30 342 c h
30 342 m f
0.678431 0.72549 0.764706 rg
180 342 m 306 342 l 312.648 342 318 347.352 318 354 c 318 360.648 312.648
 366 306 366 c 180 366 l 173.352 366 168 360.648 168 354 c 168 347.352 173.352
 342 180 342 c h
180 342 m f
0.796078 0.858824 0.905882 rg
116.684 324.633 m 176.684 204.633 l 178.715 200.566 182.871 198 187.418
 198 c 352.582 198 l 356.742 198 360.605 200.152 362.793 203.691 c 364.977
 207.23 365.176 211.648 363.316 215.367 c 303.316 335.367 l 301.285 339.434
 297.129 342 292.582 342 c 127.418 342 l 123.258 342 119.395 339.848 117.207
 336.309 c 115.023 332.77 114.824 328.352 116.684 324.633 c h
116.684 324.633 m f
0.662745 0.792157 0.164706 rg
116.684 324.633 m 176.684 204.633 l 178.715 200.566 182.871 198 187.418
 198 c 328.582 198 l 332.742 198 336.605 200.152 338.793 203.691 c 340.977
 207.23 341.176 211.648 339.316 215.367 c 279.316 335.367 l 277.285 339.434
 273.129 342 268.582 342 c 127.418 342 l 123.258 342 119.395 339.848 117.207
 336.309 c 115.023 332.77 114.824 328.352 116.684 324.633 c h
116.684 324.633 m f
0.960784 0.890196 0.631373 rg
144 174 m 96 174 l 96 56.832 l 96 40.387 105.293 25.355 120 18 c 134.707
 25.355 144 40.387 144 56.832 c h
144 174 m f
0.960784 0.772549 0.2 rg
96 174 m 60 174 l 60 162.477 64.578 151.422 72.727 143.273 c 96 120 l h
96 174 m f
96 174 48 18 re f
0.937255 0.552941 0.0156863 rg
102 192 36 18 re f
0.960784 0.772549 0.2 rg
144 174 m 180 174 l 180 162.477 175.422 151.422 167.273 143.273 c 144 120
 l h
144 174 m f
0.568627 0.827451 0.933333 rg
222 318 m 222 331.254 211.254 342 198 342 c 42 342 l 28.746 342 18 331.254
 18 318 c 18 304.746 28.746 294 42 294 c 42.141 294 42.285 294 42.426 294.008
 c 46.547 294.066 50.578 295.195 54.129 297.285 c 55.531 281.832 68.484 
270 84 270 c 84.676 270 85.344 270.023 86.012 270.066 c 90.062 270.336 94.02
 271.426 97.637 273.277 c 100.52 266.047 102 258.332 102 250.547 c 102 210
 l 138 210 l 138 250.547 l 138 258.332 139.48 266.047 142.363 273.277 c 
145.98 271.426 149.938 270.336 153.988 270.066 c 154.656 270.023 155.324
 270 156 270 c 171.516 270 184.469 281.832 185.871 297.285 c 189.422 295.195
 193.453 294.066 197.574 294.008 c 197.715 294 197.859 294 198 294 c 211.254
 294 222 304.746 222 318 c h
222 318 m f
0.215686 0.647059 0.792157 rg
97.637 273.277 m 94.555 281.043 89.914 288.098 84 294 c 75.516 285.516 
l 79.965 281.082 83.527 275.836 86.012 270.066 c 90.062 270.336 94.02 271.426
 97.637 273.277 c h
97.637 273.277 m f
164.484 285.516 m 156 294 l 150.094 288.09 145.453 281.039 142.363 273.277
 c 145.98 271.426 149.938 270.336 153.988 270.066 c 156.473 275.836 160.035
 281.082 164.484 285.516 c h
164.484 285.516 m f
56.496 312 m 45.504 316.809 l 42.383 309.641 41.316 301.746 42.426 294.008
 c 46.547 294.066 50.578 295.195 54.129 297.285 c 54.047 298.184 54 299.086
 54 300 c 53.992 304.129 54.84 308.215 56.496 312 c h
56.496 312 m f
198 300 m 198.012 305.785 196.816 311.508 194.496 316.809 c 183.504 312
 l 185.16 308.215 186.008 304.129 186 300 c 186 299.086 185.953 298.176 
185.871 297.285 c 189.422 295.195 193.453 294.066 197.574 294.008 c 197.859
 295.992 198.004 297.996 198 300 c h
198 300 m f
Q Q
showpage
%%Trailer
end
%%EOF
