%!PS-Adobe-3.0 EPSF-3.0
%%Creator: cairo 1.16.0 (https://cairographics.org)
%%CreationDate: Fri Mar 13 07:35:45 2020
%%Pages: 1
%%DocumentData: Clean7Bit
%%LanguageLevel: 2
%%BoundingBox: 18 90 372 288
%%EndComments
%%BeginProlog
50 dict begin
/q { gsave } bind def
/Q { grestore } bind def
/cm { 6 array astore concat } bind def
/w { setlinewidth } bind def
/J { setlinecap } bind def
/j { setlinejoin } bind def
/M { setmiterlimit } bind def
/d { setdash } bind def
/m { moveto } bind def
/l { lineto } bind def
/c { curveto } bind def
/h { closepath } bind def
/re { exch dup neg 3 1 roll 5 3 roll moveto 0 rlineto
      0 exch rlineto 0 rlineto closepath } bind def
/S { stroke } bind def
/f { fill } bind def
/f* { eofill } bind def
/n { newpath } bind def
/W { clip } bind def
/W* { eoclip } bind def
/BT { } bind def
/ET { } bind def
/BDC { mark 3 1 roll /BDC pdfmark } bind def
/EMC { mark /EMC pdfmark } bind def
/cairo_store_point { /cairo_point_y exch def /cairo_point_x exch def } def
/Tj { show currentpoint cairo_store_point } bind def
/TJ {
  {
    dup
    type /stringtype eq
    { show } { -0.001 mul 0 cairo_font_matrix dtransform rmoveto } ifelse
  } forall
  currentpoint cairo_store_point
} bind def
/cairo_selectfont { cairo_font_matrix aload pop pop pop 0 0 6 array astore
    cairo_font exch selectfont cairo_point_x cairo_point_y moveto } bind def
/Tf { pop /cairo_font exch def /cairo_font_matrix where
      { pop cairo_selectfont } if } bind def
/Td { matrix translate cairo_font_matrix matrix concatmatrix dup
      /cairo_font_matrix exch def dup 4 get exch 5 get cairo_store_point
      /cairo_font where { pop cairo_selectfont } if } bind def
/Tm { 2 copy 8 2 roll 6 array astore /cairo_font_matrix exch def
      cairo_store_point /cairo_font where { pop cairo_selectfont } if } bind def
/g { setgray } bind def
/rg { setrgbcolor } bind def
/d1 { setcachedevice } bind def
/cairo_data_source {
  CairoDataIndex CairoData length lt
    { CairoData CairoDataIndex get /CairoDataIndex CairoDataIndex 1 add def }
    { () } ifelse
} def
/cairo_flush_ascii85_file { cairo_ascii85_file status { cairo_ascii85_file flushfile } if } def
/cairo_image { image cairo_flush_ascii85_file } def
/cairo_imagemask { imagemask cairo_flush_ascii85_file } def
%%EndProlog
%%BeginSetup
%%EndSetup
%%Page: 1 1
%%BeginPageSetup
%%PageBoundingBox: 18 90 372 288
%%EndPageSetup
q 18 90 354 198 rectclip
1 0 0 -1 0 384 cm q
0.568627 0.827451 0.933333 rg
18 96 m 264 96 l 297.137 96 324 122.863 324 156 c 324 171.914 317.68 187.176
 306.426 198.426 c 295.176 209.68 279.914 216 264 216 c 18 216 l h
18 96 m f
0.796078 0.858824 0.905882 rg
287.949 198.012 m 305.945 180.016 l 335.941 210.012 l 317.945 228.008 l
 h
287.949 198.012 m f
0.705882 0.490196 0.301961 rg
372 234 m 342.125 204 l 311.75 234 l 372 294 l h
372 234 m f
0.215686 0.647059 0.792157 rg
42 144 72 24 re f
138 144 42 24 re f
126 252 132 12 re f
0.662745 0.792157 0.164706 rg
198 234 12 12 re f
174 234 12 12 re f
150 234 12 12 re f
126 234 12 12 re f
246 234 12 12 re f
222 234 12 12 re f
0.678431 0.72549 0.764706 rg
324 156 m 324 189.137 297.137 216 264 216 c 230.863 216 204 189.137 204
 156 c 204 122.863 230.863 96 264 96 c 297.137 96 324 122.863 324 156 c 
h
324 156 m f
0.666667 0.866667 0.94902 rg
306 156 m 306 179.195 287.195 198 264 198 c 240.805 198 222 179.195 222
 156 c 222 132.805 240.805 114 264 114 c 287.195 114 306 132.805 306 156
 c h
306 156 m f
0.854902 0.909804 0.941176 rg
234 162 m 230.688 162 228 159.312 228 156 c 228.023 136.129 244.129 120.023
 264 120 c 267.312 120 270 122.688 270 126 c 270 129.312 267.312 132 264
 132 c 250.75 132.016 240.016 142.75 240 156 c 240 159.312 237.312 162 234
 162 c h
234 162 m f
Q Q
showpage
%%Trailer
end
%%EOF
