%!PS-Adobe-3.0 EPSF-3.0
%%Creator: cairo 1.16.0 (https://cairographics.org)
%%CreationDate: Fri Mar 13 07:35:46 2020
%%Pages: 1
%%DocumentData: Clean7Bit
%%LanguageLevel: 2
%%BoundingBox: 18 18 366 366
%%EndComments
%%BeginProlog
50 dict begin
/q { gsave } bind def
/Q { grestore } bind def
/cm { 6 array astore concat } bind def
/w { setlinewidth } bind def
/J { setlinecap } bind def
/j { setlinejoin } bind def
/M { setmiterlimit } bind def
/d { setdash } bind def
/m { moveto } bind def
/l { lineto } bind def
/c { curveto } bind def
/h { closepath } bind def
/re { exch dup neg 3 1 roll 5 3 roll moveto 0 rlineto
      0 exch rlineto 0 rlineto closepath } bind def
/S { stroke } bind def
/f { fill } bind def
/f* { eofill } bind def
/n { newpath } bind def
/W { clip } bind def
/W* { eoclip } bind def
/BT { } bind def
/ET { } bind def
/BDC { mark 3 1 roll /BDC pdfmark } bind def
/EMC { mark /EMC pdfmark } bind def
/cairo_store_point { /cairo_point_y exch def /cairo_point_x exch def } def
/Tj { show currentpoint cairo_store_point } bind def
/TJ {
  {
    dup
    type /stringtype eq
    { show } { -0.001 mul 0 cairo_font_matrix dtransform rmoveto } ifelse
  } forall
  currentpoint cairo_store_point
} bind def
/cairo_selectfont { cairo_font_matrix aload pop pop pop 0 0 6 array astore
    cairo_font exch selectfont cairo_point_x cairo_point_y moveto } bind def
/Tf { pop /cairo_font exch def /cairo_font_matrix where
      { pop cairo_selectfont } if } bind def
/Td { matrix translate cairo_font_matrix matrix concatmatrix dup
      /cairo_font_matrix exch def dup 4 get exch 5 get cairo_store_point
      /cairo_font where { pop cairo_selectfont } if } bind def
/Tm { 2 copy 8 2 roll 6 array astore /cairo_font_matrix exch def
      cairo_store_point /cairo_font where { pop cairo_selectfont } if } bind def
/g { setgray } bind def
/rg { setrgbcolor } bind def
/d1 { setcachedevice } bind def
/cairo_data_source {
  CairoDataIndex CairoData length lt
    { CairoData CairoDataIndex get /CairoDataIndex CairoDataIndex 1 add def }
    { () } ifelse
} def
/cairo_flush_ascii85_file { cairo_ascii85_file status { cairo_ascii85_file flushfile } if } def
/cairo_image { image cairo_flush_ascii85_file } def
/cairo_imagemask { imagemask cairo_flush_ascii85_file } def
%%EndProlog
%%BeginSetup
%%EndSetup
%%Page: 1 1
%%BeginPageSetup
%%PageBoundingBox: 18 18 366 366
%%EndPageSetup
q 18 18 348 348 rectclip
1 0 0 -1 0 384 cm q
0.796078 0.858824 0.905882 rg
18 138 204 60 re f
18 222 204 60 re f
18 306 204 60 re f
0.223529 0.309804 0.352941 rg
36 282 24 24 re f
180 282 24 24 re f
36 198 24 24 re f
180 198 24 24 re f
0.662745 0.792157 0.164706 rg
36 162 48 12 re f
0.921569 0.25098 0.258824 rg
108 168 m 108 171.312 105.312 174 102 174 c 98.688 174 96 171.312 96 168
 c 96 164.688 98.688 162 102 162 c 105.312 162 108 164.688 108 168 c h
108 168 m f
0.215686 0.647059 0.792157 rg
132 168 m 132 171.312 129.312 174 126 174 c 122.688 174 120 171.312 120
 168 c 120 164.688 122.688 162 126 162 c 129.312 162 132 164.688 132 168
 c h
132 168 m f
0.662745 0.792157 0.164706 rg
36 246 48 12 re f
0.921569 0.25098 0.258824 rg
108 252 m 108 255.312 105.312 258 102 258 c 98.688 258 96 255.312 96 252
 c 96 248.688 98.688 246 102 246 c 105.312 246 108 248.688 108 252 c h
108 252 m f
0.215686 0.647059 0.792157 rg
132 252 m 132 255.312 129.312 258 126 258 c 122.688 258 120 255.312 120
 252 c 120 248.688 122.688 246 126 246 c 129.312 246 132 248.688 132 252
 c h
132 252 m f
0.662745 0.792157 0.164706 rg
36 330 48 12 re f
0.921569 0.25098 0.258824 rg
108 336 m 108 339.312 105.312 342 102 342 c 98.688 342 96 339.312 96 336
 c 96 332.688 98.688 330 102 330 c 105.312 330 108 332.688 108 336 c h
108 336 m f
0.215686 0.647059 0.792157 rg
132 336 m 132 339.312 129.312 342 126 342 c 122.688 342 120 339.312 120
 336 c 120 332.688 122.688 330 126 330 c 129.312 330 132 332.688 132 336
 c h
132 336 m f
0.952941 0.941176 0.780392 rg
366 240 m 204 240 l 180 264 l 180 240 l 162 240 l 162 18 l 366 18 l h
366 240 m f
0.568627 0.827451 0.933333 rg
282 186 m 186 186 l 186 42 l 246 42 l 282 78 l h
282 186 m f
0.215686 0.647059 0.792157 rg
246 42 m 246 78 l 282 78 l h
246 42 m f
204 72 24 12 re f
204 96 24 12 re f
240 96 24 12 re f
204 120 36 12 re f
252 120 12 12 re f
204 144 12 12 re f
228 144 36 12 re f
0.662745 0.792157 0.164706 rg
270 168 72 48 re f
336 168 m 324 168 l 324 156 l 324 146.059 315.941 138 306 138 c 296.059
 138 288 146.059 288 156 c 288 168 l 276 168 l 276 156 l 276 139.43 289.43
 126 306 126 c 322.57 126 336 139.43 336 156 c h
336 168 m f
0.407843 0.74902 0.25098 rg
324 162 12 6 re f
276 162 12 6 re f
342 168 m 342 216 l 270 216 l 270 204 l 282 204 l 303.891 204 323.012 189.195
 328.492 168 c h
342 168 m f
Q Q
showpage
%%Trailer
end
%%EOF
