%!PS-Adobe-3.0 EPSF-3.0
%%Creator: cairo 1.16.0 (https://cairographics.org)
%%CreationDate: Fri Mar 13 07:35:49 2020
%%Pages: 1
%%DocumentData: Clean7Bit
%%LanguageLevel: 2
%%BoundingBox: 30 18 354 366
%%EndComments
%%BeginProlog
50 dict begin
/q { gsave } bind def
/Q { grestore } bind def
/cm { 6 array astore concat } bind def
/w { setlinewidth } bind def
/J { setlinecap } bind def
/j { setlinejoin } bind def
/M { setmiterlimit } bind def
/d { setdash } bind def
/m { moveto } bind def
/l { lineto } bind def
/c { curveto } bind def
/h { closepath } bind def
/re { exch dup neg 3 1 roll 5 3 roll moveto 0 rlineto
      0 exch rlineto 0 rlineto closepath } bind def
/S { stroke } bind def
/f { fill } bind def
/f* { eofill } bind def
/n { newpath } bind def
/W { clip } bind def
/W* { eoclip } bind def
/BT { } bind def
/ET { } bind def
/BDC { mark 3 1 roll /BDC pdfmark } bind def
/EMC { mark /EMC pdfmark } bind def
/cairo_store_point { /cairo_point_y exch def /cairo_point_x exch def } def
/Tj { show currentpoint cairo_store_point } bind def
/TJ {
  {
    dup
    type /stringtype eq
    { show } { -0.001 mul 0 cairo_font_matrix dtransform rmoveto } ifelse
  } forall
  currentpoint cairo_store_point
} bind def
/cairo_selectfont { cairo_font_matrix aload pop pop pop 0 0 6 array astore
    cairo_font exch selectfont cairo_point_x cairo_point_y moveto } bind def
/Tf { pop /cairo_font exch def /cairo_font_matrix where
      { pop cairo_selectfont } if } bind def
/Td { matrix translate cairo_font_matrix matrix concatmatrix dup
      /cairo_font_matrix exch def dup 4 get exch 5 get cairo_store_point
      /cairo_font where { pop cairo_selectfont } if } bind def
/Tm { 2 copy 8 2 roll 6 array astore /cairo_font_matrix exch def
      cairo_store_point /cairo_font where { pop cairo_selectfont } if } bind def
/g { setgray } bind def
/rg { setrgbcolor } bind def
/d1 { setcachedevice } bind def
/cairo_data_source {
  CairoDataIndex CairoData length lt
    { CairoData CairoDataIndex get /CairoDataIndex CairoDataIndex 1 add def }
    { () } ifelse
} def
/cairo_flush_ascii85_file { cairo_ascii85_file status { cairo_ascii85_file flushfile } if } def
/cairo_image { image cairo_flush_ascii85_file } def
/cairo_imagemask { imagemask cairo_flush_ascii85_file } def
%%EndProlog
%%BeginSetup
%%EndSetup
%%Page: 1 1
%%BeginPageSetup
%%PageBoundingBox: 30 18 354 366
%%EndPageSetup
q 30 18 324 348 rectclip
1 0 0 -1 0 384 cm q
0.796078 0.858824 0.905882 rg
30 18 228 72 re f
30 114 228 72 re f
30 210 228 72 re f
0.223529 0.309804 0.352941 rg
48 186 24 24 re f
216 186 24 24 re f
48 90 24 24 re f
216 90 24 24 re f
0.662745 0.792157 0.164706 rg
54 138 48 24 re f
0.921569 0.25098 0.258824 rg
144 150 m 144 156.629 138.629 162 132 162 c 125.371 162 120 156.629 120
 150 c 120 143.371 125.371 138 132 138 c 138.629 138 144 143.371 144 150
 c h
144 150 m f
0.215686 0.647059 0.792157 rg
186 150 m 186 156.629 180.629 162 174 162 c 167.371 162 162 156.629 162
 150 c 162 143.371 167.371 138 174 138 c 180.629 138 186 143.371 186 150
 c h
186 150 m f
0.662745 0.792157 0.164706 rg
54 234 48 24 re f
0.921569 0.25098 0.258824 rg
144 246 m 144 252.629 138.629 258 132 258 c 125.371 258 120 252.629 120
 246 c 120 239.371 125.371 234 132 234 c 138.629 234 144 239.371 144 246
 c h
144 246 m f
0.215686 0.647059 0.792157 rg
186 246 m 186 252.629 180.629 258 174 258 c 167.371 258 162 252.629 162
 246 c 162 239.371 167.371 234 174 234 c 180.629 234 186 239.371 186 246
 c h
186 246 m f
0.662745 0.792157 0.164706 rg
54 42 48 24 re f
0.921569 0.25098 0.258824 rg
144 54 m 144 60.629 138.629 66 132 66 c 125.371 66 120 60.629 120 54 c 
120 47.371 125.371 42 132 42 c 138.629 42 144 47.371 144 54 c h
144 54 m f
0.215686 0.647059 0.792157 rg
186 54 m 186 60.629 180.629 66 174 66 c 167.371 66 162 60.629 162 54 c 
162 47.371 167.371 42 174 42 c 180.629 42 186 47.371 186 54 c h
186 54 m f
0.568627 0.827451 0.933333 rg
306 204 m 306 312 l 210 312 l 210 168 l 270 168 l h
306 204 m f
0.419608 0.780392 0.909804 rg
246 210 60 102 re f
0.215686 0.647059 0.792157 rg
270 168 m 270 204 l 306 204 l h
270 168 m f
228 198 24 12 re f
228 270 12 12 re f
228 222 24 12 re f
228 246 36 12 re f
0.568627 0.827451 0.933333 rg
354 366 m 258 366 l 258 222 l 318 222 l 354 258 l h
354 366 m f
0.215686 0.647059 0.792157 rg
318 222 m 318 258 l 354 258 l h
318 222 m f
276 252 24 12 re f
276 276 24 12 re f
312 276 24 12 re f
276 300 36 12 re f
324 300 12 12 re f
276 324 12 12 re f
300 324 36 12 re f
Q Q
showpage
%%Trailer
end
%%EOF
