<?xml version="1.0" ?><svg id="Layer_1" style="enable-background:new 0 0 512 512;" version="1.1" viewBox="0 0 512 512" xml:space="preserve" xmlns="http://www.w3.org/2000/svg" xmlns:xlink="http://www.w3.org/1999/xlink"><style type="text/css">
	.st0{fill:#E87C23;}
	.st1{fill:#FFFFFF;}
</style><g id="XMLID_4789_"><circle class="st0" cx="256" cy="256" id="XMLID_4765_" r="256"/><g id="XMLID_4907_"><g id="XMLID_4958_"><g id="XMLID_4962_"><path class="st1" d="M216,360.7h-85.1v-30.8H216V360.7z M137.2,354.5h72.5v-18.2h-72.5V354.5z" id="XMLID_5650_"/></g><g id="XMLID_4961_"><path class="st1" d="M216,326.9h-85.1v-30.8H216V326.9z M137.2,320.6h72.5v-18.2h-72.5V320.6z" id="XMLID_5647_"/></g><g id="XMLID_4960_"><path class="st1" d="M216,293h-85.1v-30.8H216V293z M137.2,286.7h72.5v-18.2h-72.5V286.7z" id="XMLID_5644_"/></g><g id="XMLID_4959_"><path class="st1" d="M216,259.1h-85.1v-30.8H216V259.1z M137.2,252.8h72.5v-18.2h-72.5V252.8z" id="XMLID_5641_"/></g></g><g id="XMLID_4946_"><path class="st1" d="M141.7,211.6l1.5-14.5h13.7v3.7h-10.1l-0.8,6.6c0.5-0.4,1.1-0.7,1.8-0.9     c0.7-0.2,1.5-0.4,2.3-0.4c2.4,0,4.3,0.7,5.6,2.3c1.3,1.5,2,3.7,2,6.4c0,2.6-0.7,4.7-2.1,6.3c-1.4,1.6-3.5,2.4-6.4,2.4     c-2.3,0-4.2-0.6-5.8-1.8c-1.6-1.2-2.3-3-2.3-5.3l0-0.1l4.1-0.1c0,1.2,0.4,2.2,1.1,2.8c0.7,0.7,1.7,1,2.9,1c1.4,0,2.4-0.5,3.1-1.4     c0.7-0.9,1.1-2.2,1.1-3.8c0-1.6-0.4-2.8-1.1-3.8c-0.7-0.9-1.8-1.4-3.1-1.4c-1.2,0-2.1,0.2-2.7,0.6c-0.6,0.4-1,0.9-1.3,1.7     L141.7,211.6z" id="XMLID_4956_"/><path class="st1" d="M178.5,213.8c0,3-0.8,5.4-2.3,7.1c-1.5,1.7-3.6,2.6-6.2,2.6c-2.6,0-4.7-0.9-6.2-2.6     c-1.6-1.7-2.3-4.1-2.3-7.1v-7.4c0-3,0.8-5.3,2.3-7.1c1.5-1.7,3.6-2.6,6.2-2.6c2.6,0,4.7,0.9,6.2,2.6c1.6,1.7,2.3,4.1,2.3,7.1     V213.8z M174.2,205.7c0-1.7-0.4-3.1-1.1-4.1c-0.7-1-1.8-1.5-3.1-1.5c-1.3,0-2.4,0.5-3.1,1.5c-0.7,1-1.1,2.3-1.1,4.1v8.7     c0,1.8,0.4,3.1,1.1,4.1c0.7,1,1.8,1.5,3.1,1.5c1.3,0,2.4-0.5,3.1-1.5c0.7-1,1.1-2.4,1.1-4.1V205.7z" id="XMLID_4953_"/><path class="st1" d="M182.2,202.1c0-1.5,0.5-2.8,1.5-3.8c1-1,2.3-1.5,4-1.5c1.7,0,3.1,0.5,4,1.5     c1,1,1.5,2.3,1.5,3.8v1.4c0,1.5-0.5,2.8-1.5,3.8c-1,1-2.3,1.5-4,1.5c-1.7,0-3.1-0.5-4.1-1.5c-1-1-1.5-2.3-1.5-3.8V202.1z      M185.2,203.5c0,0.8,0.2,1.4,0.7,1.9c0.4,0.5,1.1,0.8,1.9,0.8c0.8,0,1.4-0.3,1.8-0.8c0.4-0.5,0.6-1.2,0.6-1.9v-1.4     c0-0.8-0.2-1.4-0.7-2c-0.4-0.5-1-0.8-1.8-0.8c-0.8,0-1.4,0.3-1.8,0.8s-0.6,1.2-0.6,2V203.5z M188.6,221.1l-2.2-1.3l12.7-20.3     l2.2,1.3L188.6,221.1z M194.7,216.7c0-1.5,0.5-2.8,1.5-3.8c1-1,2.3-1.5,4-1.5c1.7,0,3.1,0.5,4,1.5c1,1,1.5,2.3,1.5,3.8v1.4     c0,1.5-0.5,2.8-1.5,3.8c-1,1-2.3,1.5-4,1.5c-1.7,0-3.1-0.5-4.1-1.5c-1-1-1.5-2.3-1.5-3.8V216.7z M197.7,218.1     c0,0.8,0.2,1.4,0.7,1.9c0.4,0.5,1.1,0.8,1.8,0.8c0.8,0,1.5-0.3,1.9-0.8c0.4-0.5,0.6-1.2,0.6-2v-1.4c0-0.8-0.2-1.4-0.7-1.9     c-0.4-0.5-1.1-0.8-1.8-0.8c-0.8,0-1.4,0.3-1.8,0.8s-0.6,1.2-0.6,1.9V218.1z" id="XMLID_4947_"/></g><g id="XMLID_4940_"><g id="XMLID_4945_"><path class="st1" d="M310,360.7h-85.1v-30.8H310V360.7z M231.2,354.5h72.5v-18.2h-72.5V354.5z" id="XMLID_5638_"/></g><g id="XMLID_4944_"><path class="st1" d="M310,326.9h-85.1v-30.8H310V326.9z M231.2,320.6h72.5v-18.2h-72.5V320.6z" id="XMLID_5635_"/></g><g id="XMLID_4943_"><path class="st1" d="M310,293h-85.1v-30.8H310V293z M231.2,286.7h72.5v-18.2h-72.5V286.7z" id="XMLID_5632_"/></g><g id="XMLID_4942_"><path class="st1" d="M310,259.1h-85.1v-30.8H310V259.1z M231.2,252.8h72.5v-18.2h-72.5V252.8z" id="XMLID_5629_"/></g><g id="XMLID_4941_"><path class="st1" d="M310,225.2h-85.1v-30.8H310V225.2z M231.2,219h72.5v-18.2h-72.5V219z" id="XMLID_5626_"/></g></g><g id="XMLID_4927_"><path class="st1" d="M244.7,163c1,0,2,0.1,2.9,0.3c0.9,0.2,1.8,0.5,2.5,0.8l-0.8,3.4c-0.7-0.3-1.4-0.5-2.1-0.7     c-0.7-0.2-1.5-0.2-2.5-0.2c-1.6,0-2.9,0.6-3.8,1.9c-1,1.3-1.5,3-1.5,5.1v1.4c0.7-0.7,1.5-1.2,2.5-1.6c1-0.4,2-0.6,3.2-0.6     c2.2,0,4,0.8,5.3,2.3c1.3,1.5,1.9,3.5,1.9,6c0,2.6-0.8,4.8-2.3,6.4c-1.5,1.6-3.6,2.4-6.1,2.4c-2.6,0-4.7-0.9-6.3-2.8     c-1.7-1.8-2.5-4.4-2.5-7.6v-5.7c0-3.2,0.9-5.8,2.7-7.8C239.6,164,241.9,163,244.7,163z M243.7,175.9c-1,0-1.9,0.2-2.6,0.6     c-0.7,0.4-1.3,0.9-1.7,1.5v1.6c0,2.1,0.4,3.7,1.3,4.9c0.8,1.2,1.9,1.8,3.2,1.8c1.3,0,2.3-0.5,3-1.5c0.7-1,1.1-2.3,1.1-3.8     c0-1.5-0.4-2.7-1.1-3.6C246.1,176.4,245,175.9,243.7,175.9z" id="XMLID_4937_"/><path class="st1" d="M272.7,180c0,3-0.8,5.4-2.3,7.1c-1.5,1.7-3.6,2.6-6.2,2.6c-2.6,0-4.7-0.9-6.2-2.6     c-1.6-1.7-2.3-4.1-2.3-7.1v-7.4c0-3,0.8-5.3,2.3-7.1c1.5-1.7,3.6-2.6,6.2-2.6c2.6,0,4.7,0.9,6.2,2.6c1.6,1.7,2.3,4.1,2.3,7.1V180     z M268.3,172c0-1.7-0.4-3.1-1.1-4.1c-0.7-1-1.8-1.5-3.1-1.5c-1.3,0-2.4,0.5-3.1,1.5c-0.7,1-1.1,2.3-1.1,4.1v8.7     c0,1.8,0.4,3.1,1.1,4.1c0.7,1,1.8,1.5,3.1,1.5c1.3,0,2.4-0.5,3.1-1.5c0.7-1,1.1-2.4,1.1-4.1V172z" id="XMLID_4934_"/><path class="st1" d="M276.3,168.3c0-1.5,0.5-2.8,1.5-3.8c1-1,2.3-1.5,4-1.5c1.7,0,3.1,0.5,4,1.5     c1,1,1.5,2.3,1.5,3.8v1.4c0,1.5-0.5,2.8-1.5,3.8c-1,1-2.3,1.5-4,1.5c-1.7,0-3.1-0.5-4.1-1.5c-1-1-1.5-2.3-1.5-3.8V168.3z      M279.3,169.7c0,0.8,0.2,1.4,0.7,1.9c0.4,0.5,1.1,0.8,1.9,0.8c0.8,0,1.4-0.3,1.8-0.8c0.4-0.5,0.6-1.2,0.6-1.9v-1.4     c0-0.8-0.2-1.4-0.7-2c-0.4-0.5-1-0.8-1.8-0.8c-0.8,0-1.4,0.3-1.8,0.8c-0.4,0.5-0.6,1.2-0.6,2V169.7z M282.8,187.4l-2.2-1.3     l12.7-20.3l2.2,1.3L282.8,187.4z M288.8,183c0-1.5,0.5-2.8,1.5-3.8c1-1,2.3-1.5,4-1.5c1.7,0,3.1,0.5,4,1.5c1,1,1.5,2.3,1.5,3.8     v1.4c0,1.5-0.5,2.8-1.5,3.8c-1,1-2.3,1.5-4,1.5c-1.7,0-3.1-0.5-4.1-1.5c-1-1-1.5-2.3-1.5-3.8V183z M291.8,184.4     c0,0.8,0.2,1.4,0.7,1.9c0.4,0.5,1.1,0.8,1.8,0.8c0.8,0,1.5-0.3,1.9-0.8c0.4-0.5,0.6-1.2,0.6-2V183c0-0.8-0.2-1.4-0.7-1.9     c-0.4-0.5-1.1-0.8-1.8-0.8c-0.8,0-1.4,0.3-1.8,0.8s-0.6,1.2-0.6,1.9V184.4z" id="XMLID_4928_"/></g><g id="XMLID_4926_"><path class="st1" d="M404,360.7h-85.1v-30.8H404V360.7z M325.2,354.5h72.5v-18.2h-72.5V354.5z" id="XMLID_5623_"/></g><g id="XMLID_4925_"><path class="st1" d="M404,326.9h-85.1v-30.8H404V326.9z M325.2,320.6h72.5v-18.2h-72.5V320.6z" id="XMLID_5620_"/></g><g id="XMLID_4924_"><path class="st1" d="M404,293h-85.1v-30.8H404V293z M325.2,286.7h72.5v-18.2h-72.5V286.7z" id="XMLID_5617_"/></g><g id="XMLID_4923_"><path class="st1" d="M404,259.1h-85.1v-30.8H404V259.1z M325.2,252.8h72.5v-18.2h-72.5V252.8z" id="XMLID_5614_"/></g><g id="XMLID_4922_"><path class="st1" d="M404,225.2h-85.1v-30.8H404V225.2z M325.2,219h72.5v-18.2h-72.5V219z" id="XMLID_5611_"/></g><g id="XMLID_4921_"><path class="st1" d="M404,191.4h-85.1v-30.8H404V191.4z M325.2,185.1h72.5v-18.2h-72.5V185.1z" id="XMLID_5608_"/></g><g id="XMLID_4909_"><path class="st1" d="M346.5,132.6c-3.1,3.7-5.2,7-6.3,9.8c-1.1,2.8-1.7,6.1-1.7,9.7v3.1h-4.3v-3.1     c0-3.7,0.7-7.1,2.1-10.2c1.4-3,3.4-6.1,6-9.3h-13.5v-3.5h17.7V132.6z" id="XMLID_4919_"/><path class="st1" d="M366.9,145.8c0,3-0.8,5.4-2.3,7.1c-1.5,1.7-3.6,2.6-6.2,2.6c-2.6,0-4.7-0.9-6.2-2.6     c-1.6-1.7-2.3-4.1-2.3-7.1v-7.4c0-3,0.8-5.3,2.3-7.1c1.5-1.7,3.6-2.6,6.2-2.6c2.6,0,4.7,0.9,6.2,2.6c1.6,1.7,2.3,4.1,2.3,7.1     V145.8z M362.6,137.8c0-1.7-0.4-3.1-1.1-4.1c-0.7-1-1.8-1.5-3.1-1.5c-1.3,0-2.4,0.5-3.1,1.5c-0.7,1-1.1,2.3-1.1,4.1v8.7     c0,1.8,0.4,3.1,1.1,4.1c0.7,1,1.8,1.5,3.1,1.5c1.3,0,2.4-0.5,3.1-1.5c0.7-1,1.1-2.4,1.1-4.1V137.8z" id="XMLID_4916_"/><path class="st1" d="M370.6,134.2c0-1.5,0.5-2.8,1.5-3.8c1-1,2.3-1.5,4-1.5c1.7,0,3.1,0.5,4,1.5     c1,1,1.5,2.3,1.5,3.8v1.4c0,1.5-0.5,2.8-1.5,3.8c-1,1-2.3,1.5-4,1.5c-1.7,0-3.1-0.5-4.1-1.5c-1-1-1.5-2.3-1.5-3.8V134.2z      M373.6,135.5c0,0.8,0.2,1.4,0.7,1.9c0.4,0.5,1.1,0.8,1.9,0.8c0.8,0,1.4-0.3,1.8-0.8c0.4-0.5,0.6-1.2,0.6-1.9v-1.4     c0-0.8-0.2-1.4-0.7-2c-0.4-0.5-1-0.8-1.8-0.8c-0.8,0-1.4,0.3-1.8,0.8c-0.4,0.5-0.6,1.2-0.6,2V135.5z M377,153.2l-2.2-1.3     l12.7-20.3l2.2,1.3L377,153.2z M383.1,148.8c0-1.5,0.5-2.8,1.5-3.8c1-1,2.3-1.5,4-1.5c1.7,0,3.1,0.5,4,1.5c1,1,1.5,2.3,1.5,3.8     v1.4c0,1.5-0.5,2.8-1.5,3.8c-1,1-2.3,1.5-4,1.5c-1.7,0-3.1-0.5-4.1-1.5c-1-1-1.5-2.3-1.5-3.8V148.8z M386.1,150.2     c0,0.8,0.2,1.4,0.7,1.9c0.4,0.5,1.1,0.8,1.8,0.8c0.8,0,1.5-0.3,1.9-0.8c0.4-0.5,0.6-1.2,0.6-2v-1.4c0-0.8-0.2-1.4-0.7-1.9     c-0.4-0.5-1.1-0.8-1.8-0.8c-0.8,0-1.4,0.3-1.8,0.8s-0.6,1.2-0.6,1.9V150.2z" id="XMLID_4910_"/></g><g id="XMLID_4908_"><path class="st1" d="M416,394.8H96V117.2h27.6v250.1H416V394.8z M102.3,388.6h307.5v-15H117.3V123.4h-15V388.6z     " id="XMLID_5605_"/></g></g></g></svg>