%!PS-Adobe-3.0 EPSF-3.0
%%Creator: cairo 1.16.0 (https://cairographics.org)
%%CreationDate: Fri Mar 13 07:34:26 2020
%%Pages: 1
%%DocumentData: Clean7Bit
%%LanguageLevel: 2
%%BoundingBox: 12 12 372 372
%%EndComments
%%BeginProlog
50 dict begin
/q { gsave } bind def
/Q { grestore } bind def
/cm { 6 array astore concat } bind def
/w { setlinewidth } bind def
/J { setlinecap } bind def
/j { setlinejoin } bind def
/M { setmiterlimit } bind def
/d { setdash } bind def
/m { moveto } bind def
/l { lineto } bind def
/c { curveto } bind def
/h { closepath } bind def
/re { exch dup neg 3 1 roll 5 3 roll moveto 0 rlineto
      0 exch rlineto 0 rlineto closepath } bind def
/S { stroke } bind def
/f { fill } bind def
/f* { eofill } bind def
/n { newpath } bind def
/W { clip } bind def
/W* { eoclip } bind def
/BT { } bind def
/ET { } bind def
/BDC { mark 3 1 roll /BDC pdfmark } bind def
/EMC { mark /EMC pdfmark } bind def
/cairo_store_point { /cairo_point_y exch def /cairo_point_x exch def } def
/Tj { show currentpoint cairo_store_point } bind def
/TJ {
  {
    dup
    type /stringtype eq
    { show } { -0.001 mul 0 cairo_font_matrix dtransform rmoveto } ifelse
  } forall
  currentpoint cairo_store_point
} bind def
/cairo_selectfont { cairo_font_matrix aload pop pop pop 0 0 6 array astore
    cairo_font exch selectfont cairo_point_x cairo_point_y moveto } bind def
/Tf { pop /cairo_font exch def /cairo_font_matrix where
      { pop cairo_selectfont } if } bind def
/Td { matrix translate cairo_font_matrix matrix concatmatrix dup
      /cairo_font_matrix exch def dup 4 get exch 5 get cairo_store_point
      /cairo_font where { pop cairo_selectfont } if } bind def
/Tm { 2 copy 8 2 roll 6 array astore /cairo_font_matrix exch def
      cairo_store_point /cairo_font where { pop cairo_selectfont } if } bind def
/g { setgray } bind def
/rg { setrgbcolor } bind def
/d1 { setcachedevice } bind def
/cairo_data_source {
  CairoDataIndex CairoData length lt
    { CairoData CairoDataIndex get /CairoDataIndex CairoDataIndex 1 add def }
    { () } ifelse
} def
/cairo_flush_ascii85_file { cairo_ascii85_file status { cairo_ascii85_file flushfile } if } def
/cairo_image { image cairo_flush_ascii85_file } def
/cairo_imagemask { imagemask cairo_flush_ascii85_file } def
%%EndProlog
%%BeginSetup
%%EndSetup
%%Page: 1 1
%%BeginPageSetup
%%PageBoundingBox: 12 12 372 372
%%EndPageSetup
q 12 12 360 360 rectclip
1 0 0 -1 0 384 cm q
0.839216 0.878431 0.435294 rg
12 12 360 360 re f
0.666667 0.796078 0.164706 rg
198 252 132 48 re f
0.203922 0.631373 0.4 rg
216 276 96 90 re f
0.407843 0.733333 0.619608 rg
288 276 m 288 289.254 277.254 300 264 300 c 250.746 300 240 289.254 240
 276 c h
288 276 m f
0 0.560784 0.333333 rg
216 276 18 90 re f
294 276 18 90 re f
0.407843 0.733333 0.619608 rg
276 330 m 276 336.629 270.629 342 264 342 c 257.371 342 252 336.629 252
 330 c 252 323.371 257.371 318 264 318 c 270.629 318 276 323.371 276 330
 c h
276 330 m f
0.666667 0.796078 0.164706 rg
66 18 252 204 re f
0.34902 0.721569 0.364706 rg
192 186 m 168.816 185.973 150.027 167.184 150 144 c 150 96 l 150 72.805
 168.805 54 192 54 c 215.195 54 234 72.805 234 96 c 234 144 l 222 144 l 
222 96 l 222 79.43 208.57 66 192 66 c 175.43 66 162 79.43 162 96 c 162 144
 l 162.02 160.562 175.438 173.98 192 174 c h
192 186 m f
192 168 m 178.75 167.984 168.016 157.25 168 144 c 168 96 l 168 82.746 178.746
 72 192 72 c 205.254 72 216 82.746 216 96 c 216 108 l 204 108 l 204 96 l
 204 89.371 198.629 84 192 84 c 185.371 84 180 89.371 180 96 c 180 144 l
 180 150.629 185.371 156 192 156 c 198.629 156 204 150.629 204 144 c 204
 132 l 216 132 l 216 144 l 215.984 157.25 205.25 167.984 192 168 c h
192 168 m f
192 150 m 190.41 150 188.883 149.367 187.758 148.242 c 186.633 147.117 
186 145.59 186 144 c 186 96 l 186 92.688 188.688 90 192 90 c 195.312 90 
198 92.688 198 96 c 198 144 l 198 145.59 197.367 147.117 196.242 148.242
 c 195.117 149.367 193.59 150 192 150 c h
192 150 m f
192 204 m 158.879 203.961 132.039 177.121 132 144 c 132 96 l 132 62.863
 158.863 36 192 36 c 225.137 36 252 62.863 252 96 c 252 144 l 240 144 l 
240 96 l 240 69.492 218.508 48 192 48 c 165.492 48 144 69.492 144 96 c 144
 144 l 144.031 170.496 165.504 191.969 192 192 c h
192 204 m f
0.666667 0.796078 0.164706 rg
342 36 24 24 re f
342 84 24 24 re f
342 132 24 24 re f
342 180 24 24 re f
18 36 24 24 re f
18 84 24 24 re f
0.215686 0.65098 0.796078 rg
30 102 m 162 102 l 168.648 102 174 107.352 174 114 c 174 354 l 174 360.648
 168.648 366 162 366 c 30 366 l 23.352 366 18 360.648 18 354 c 18 114 l 
18 107.352 23.352 102 30 102 c h
30 102 m f
0.572549 0.831373 0.937255 rg
36 348 m 36 120 l 60 120 l 60 129.941 68.059 138 78 138 c 114 138 l 123.941
 138 132 129.941 132 120 c 156 120 l 156 348 l h
36 348 m f
0.223529 0.403922 0.615686 rg
84 114 18 12 re f
120 120 m 120 123.312 117.312 126 114 126 c 110.688 126 108 123.312 108
 120 c 108 116.688 110.688 114 114 114 c 117.312 114 120 116.688 120 120
 c h
120 120 m f
18 126 18 12 re f
156 126 18 12 re f
18 330 18 12 re f
156 330 18 12 re f
0.964706 0.894118 0.635294 rg
96 336 m 76.129 335.977 60.023 319.871 60 300 c 60 264 l 60 244.117 76.117
 228 96 228 c 115.883 228 132 244.117 132 264 c 132 300 l 120 300 l 120 
264 l 120 250.746 109.254 240 96 240 c 82.746 240 72 250.746 72 264 c 72
 300 l 72.016 313.25 82.75 323.984 96 324 c h
96 336 m f
90 300 m 78 300 l 78 264 l 78 254.059 86.059 246 96 246 c 105.941 246 114
 254.059 114 264 c 114 276 l 102 276 l 102 264 l 102 260.688 99.312 258 
96 258 c 92.688 258 90 260.688 90 264 c h
90 300 m f
96 318 m 96 306 l 99.312 305.996 101.996 303.312 102 300 c 102 288 l 114
 288 l 114 300 l 113.988 309.938 105.938 317.988 96 318 c h
96 318 m f
Q Q
showpage
%%Trailer
end
%%EOF
