%!PS-Adobe-3.0 EPSF-3.0
%%Creator: cairo 1.16.0 (https://cairographics.org)
%%CreationDate: Fri Mar 13 07:34:26 2020
%%Pages: 1
%%DocumentData: Clean7Bit
%%LanguageLevel: 2
%%BoundingBox: 18 18 372 372
%%EndComments
%%BeginProlog
50 dict begin
/q { gsave } bind def
/Q { grestore } bind def
/cm { 6 array astore concat } bind def
/w { setlinewidth } bind def
/J { setlinecap } bind def
/j { setlinejoin } bind def
/M { setmiterlimit } bind def
/d { setdash } bind def
/m { moveto } bind def
/l { lineto } bind def
/c { curveto } bind def
/h { closepath } bind def
/re { exch dup neg 3 1 roll 5 3 roll moveto 0 rlineto
      0 exch rlineto 0 rlineto closepath } bind def
/S { stroke } bind def
/f { fill } bind def
/f* { eofill } bind def
/n { newpath } bind def
/W { clip } bind def
/W* { eoclip } bind def
/BT { } bind def
/ET { } bind def
/BDC { mark 3 1 roll /BDC pdfmark } bind def
/EMC { mark /EMC pdfmark } bind def
/cairo_store_point { /cairo_point_y exch def /cairo_point_x exch def } def
/Tj { show currentpoint cairo_store_point } bind def
/TJ {
  {
    dup
    type /stringtype eq
    { show } { -0.001 mul 0 cairo_font_matrix dtransform rmoveto } ifelse
  } forall
  currentpoint cairo_store_point
} bind def
/cairo_selectfont { cairo_font_matrix aload pop pop pop 0 0 6 array astore
    cairo_font exch selectfont cairo_point_x cairo_point_y moveto } bind def
/Tf { pop /cairo_font exch def /cairo_font_matrix where
      { pop cairo_selectfont } if } bind def
/Td { matrix translate cairo_font_matrix matrix concatmatrix dup
      /cairo_font_matrix exch def dup 4 get exch 5 get cairo_store_point
      /cairo_font where { pop cairo_selectfont } if } bind def
/Tm { 2 copy 8 2 roll 6 array astore /cairo_font_matrix exch def
      cairo_store_point /cairo_font where { pop cairo_selectfont } if } bind def
/g { setgray } bind def
/rg { setrgbcolor } bind def
/d1 { setcachedevice } bind def
/cairo_data_source {
  CairoDataIndex CairoData length lt
    { CairoData CairoDataIndex get /CairoDataIndex CairoDataIndex 1 add def }
    { () } ifelse
} def
/cairo_flush_ascii85_file { cairo_ascii85_file status { cairo_ascii85_file flushfile } if } def
/cairo_image { image cairo_flush_ascii85_file } def
/cairo_imagemask { imagemask cairo_flush_ascii85_file } def
%%EndProlog
%%BeginSetup
%%EndSetup
%%Page: 1 1
%%BeginPageSetup
%%PageBoundingBox: 18 18 372 372
%%EndPageSetup
q 18 18 354 354 rectclip
1 0 0 -1 0 384 cm q
0.572549 0.831373 0.937255 rg
305.699 105.148 m 303.527 89.586 290.215 78 274.5 78 c 180 78 l 18 240 
l 144 366 l 306 204 l 306 109.5 l 306 108.043 305.898 106.59 305.699 105.148
 c h
270 132 m 262.719 132 256.156 127.613 253.371 120.887 c 250.586 114.164
 252.125 106.422 257.273 101.273 c 262.422 96.125 270.164 94.586 276.887
 97.371 c 283.613 100.156 288 106.719 288 114 c 287.996 123.941 279.941 
131.996 270 132 c h
270 132 m f
0.666667 0.796078 0.164706 rg
292.359 105.27 m 287.852 93.727 275.301 87.508 263.387 90.922 c 251.473
 94.336 244.117 106.254 246.406 118.434 c 248.699 130.613 259.883 139.047
 272.223 137.895 c 284.562 136.746 294 126.395 294 114 c 294 111.012 293.441
 108.051 292.359 105.27 c h
270 126 m 269.602 126 269.203 125.977 268.824 125.941 c 262.355 125.289
 257.582 119.598 258.074 113.117 c 258.566 106.633 264.137 101.727 270.629
 102.055 c 277.121 102.387 282.168 107.836 281.996 114.336 c 281.824 120.836
 276.5 126.012 270 126 c h
270 126 m f
0.964706 0.894118 0.635294 rg
360.496 23.504 m 353.148 16.117 343.148 11.973 332.73 12 c 332.062 12 l
 321.461 11.969 311.293 16.184 303.816 23.699 c 265.754 61.754 l 250.184
 77.367 250.184 102.633 265.754 118.246 c 268.422 120.918 271.457 123.195
 274.77 125.012 c 278.75 123.277 281.488 119.539 281.941 115.223 c 273.773
 111.293 268.012 103.652 266.484 94.719 c 264.957 85.785 267.848 76.664 
274.246 70.246 c 312.301 32.184 l 317.531 26.926 324.648 23.98 332.062 24
 c 332.73 24 l 339.965 24 346.902 26.875 352.016 31.988 c 357.129 37.105
 360 44.043 360 51.277 c 360 51.945 l 360.02 59.359 357.07 66.469 351.816
 71.699 c 313.754 109.754 l 311.5 112.016 308.879 113.875 306 115.254 c 
306 128.086 l 312.133 126.168 317.707 122.793 322.246 118.246 c 360.301 
80.184 l 367.816 72.711 372.027 62.543 372 51.945 c 372 51.277 l 372.027
 40.855 367.887 30.855 360.496 23.504 c h
360.496 23.504 m f
0.223529 0.309804 0.352941 rg
43.723 244.23 m 52.207 235.746 l 148.191 331.73 l 139.711 340.215 l h
43.723 244.23 m f
142.109 313.824 m 150.594 305.34 l 162.59 317.34 l 154.105 325.824 l h
142.109 313.824 m f
58.125 229.828 m 66.609 221.344 l 126.602 281.336 l 118.117 289.82 l h
58.125 229.828 m f
156.508 299.43 m 164.992 290.945 l 176.992 302.941 l 168.508 311.426 l 
h
156.508 299.43 m f
72.523 215.434 m 81.008 206.949 l 141 266.938 l 132.516 275.422 l h
72.523 215.434 m f
170.91 285.031 m 179.391 276.547 l 191.391 288.547 l 182.906 297.027 l 
h
170.91 285.031 m f
86.926 201.035 m 95.41 192.551 l 155.402 252.543 l 146.918 261.027 l h
86.926 201.035 m f
185.309 270.633 m 193.793 262.148 l 205.789 274.148 l 197.305 282.633 l
 h
185.309 270.633 m f
101.324 186.637 m 109.809 178.156 l 169.801 238.145 l 161.316 246.629 l
 h
101.324 186.637 m f
115.723 172.242 m 124.207 163.762 l 220.191 259.746 l 211.711 268.23 l 
h
115.723 172.242 m f
214.109 241.84 m 222.594 233.355 l 234.59 245.355 l 226.105 253.84 l h
214.109 241.84 m f
130.125 157.844 m 138.609 149.359 l 198.602 209.352 l 190.117 217.836 l
 h
130.125 157.844 m f
228.508 227.445 m 236.992 218.961 l 248.992 230.957 l 240.508 239.441 l
 h
228.508 227.445 m f
144.523 143.449 m 153.008 134.965 l 213 194.953 l 204.516 203.438 l h
144.523 143.449 m f
242.91 213.047 m 251.391 204.562 l 263.391 216.562 l 254.906 225.043 l 
h
242.91 213.047 m f
158.926 129.051 m 167.41 120.566 l 227.402 180.559 l 218.918 189.043 l 
h
158.926 129.051 m f
257.309 198.648 m 265.793 190.168 l 277.789 202.164 l 269.305 210.648 l
 h
257.309 198.648 m f
173.324 114.652 m 181.809 106.172 l 241.801 166.16 l 233.316 174.645 l 
h
173.324 114.652 m f
187.723 100.258 m 196.207 91.777 l 292.191 187.762 l 283.711 196.246 l 
h
187.723 100.258 m f
Q Q
showpage
%%Trailer
end
%%EOF
