%!PS-Adobe-3.0 EPSF-3.0
%%Creator: cairo 1.16.0 (https://cairographics.org)
%%CreationDate: Fri Mar 13 07:34:27 2020
%%Pages: 1
%%DocumentData: Clean7Bit
%%LanguageLevel: 2
%%BoundingBox: 24 18 366 366
%%EndComments
%%BeginProlog
50 dict begin
/q { gsave } bind def
/Q { grestore } bind def
/cm { 6 array astore concat } bind def
/w { setlinewidth } bind def
/J { setlinecap } bind def
/j { setlinejoin } bind def
/M { setmiterlimit } bind def
/d { setdash } bind def
/m { moveto } bind def
/l { lineto } bind def
/c { curveto } bind def
/h { closepath } bind def
/re { exch dup neg 3 1 roll 5 3 roll moveto 0 rlineto
      0 exch rlineto 0 rlineto closepath } bind def
/S { stroke } bind def
/f { fill } bind def
/f* { eofill } bind def
/n { newpath } bind def
/W { clip } bind def
/W* { eoclip } bind def
/BT { } bind def
/ET { } bind def
/BDC { mark 3 1 roll /BDC pdfmark } bind def
/EMC { mark /EMC pdfmark } bind def
/cairo_store_point { /cairo_point_y exch def /cairo_point_x exch def } def
/Tj { show currentpoint cairo_store_point } bind def
/TJ {
  {
    dup
    type /stringtype eq
    { show } { -0.001 mul 0 cairo_font_matrix dtransform rmoveto } ifelse
  } forall
  currentpoint cairo_store_point
} bind def
/cairo_selectfont { cairo_font_matrix aload pop pop pop 0 0 6 array astore
    cairo_font exch selectfont cairo_point_x cairo_point_y moveto } bind def
/Tf { pop /cairo_font exch def /cairo_font_matrix where
      { pop cairo_selectfont } if } bind def
/Td { matrix translate cairo_font_matrix matrix concatmatrix dup
      /cairo_font_matrix exch def dup 4 get exch 5 get cairo_store_point
      /cairo_font where { pop cairo_selectfont } if } bind def
/Tm { 2 copy 8 2 roll 6 array astore /cairo_font_matrix exch def
      cairo_store_point /cairo_font where { pop cairo_selectfont } if } bind def
/g { setgray } bind def
/rg { setrgbcolor } bind def
/d1 { setcachedevice } bind def
/cairo_data_source {
  CairoDataIndex CairoData length lt
    { CairoData CairoDataIndex get /CairoDataIndex CairoDataIndex 1 add def }
    { () } ifelse
} def
/cairo_flush_ascii85_file { cairo_ascii85_file status { cairo_ascii85_file flushfile } if } def
/cairo_image { image cairo_flush_ascii85_file } def
/cairo_imagemask { imagemask cairo_flush_ascii85_file } def
%%EndProlog
%%BeginSetup
%%EndSetup
%%Page: 1 1
%%BeginPageSetup
%%PageBoundingBox: 24 18 366 366
%%EndPageSetup
q 24 18 342 348 rectclip
1 0 0 -1 0 384 cm q
0.176471 0.501961 0.733333 rg
174 18 m 366 18 l 366 210 l 366 229.883 349.883 246 330 246 c 174 246 l
 h
174 18 m f
0.215686 0.65098 0.796078 rg
294 210 m 294 229.883 310.117 246 330 246 c 222 246 l 222 150 l 222 130.117
 238.117 114 258 114 c 277.883 114 294 130.117 294 150 c h
294 210 m f
0.572549 0.831373 0.937255 rg
222 150 m 222 130.117 238.117 114 258 114 c 60 114 l 40.117 114 24 130.117
 24 150 c 24 366 l 222 366 l h
222 150 m f
0.223529 0.309804 0.352941 rg
228 36 84 12 re f
192 60 60 12 re f
288 60 60 12 re f
192 84 156 12 re f
312 108 24 12 re f
312 132 24 12 re f
312 156 24 12 re f
312 180 24 12 re f
312 204 24 12 re f
36 276 12 72 re f
55.5 336 12 12 re f
55.5 276 12 36 re f
75 336 12 12 re f
75 276 12 36 re f
94.5 336 12 12 re f
94.5 276 12 36 re f
114 276 12 72 re f
133.5 336 12 12 re f
133.5 276 12 36 re f
153 336 12 12 re f
153 276 12 36 re f
172.5 336 12 12 re f
172.5 276 12 36 re f
192 276 12 72 re f
168 156 24 12 re f
168 180 24 12 re f
42 204 162 12 re f
72 132 120 12 re f
48 156 54 12 re f
48 180 54 12 re f
156 228 36 12 re f
156 252 36 12 re f
Q Q
showpage
%%Trailer
end
%%EOF
