%!PS-Adobe-3.0 EPSF-3.0
%%Creator: cairo 1.16.0 (https://cairographics.org)
%%CreationDate: Fri Mar 13 07:34:28 2020
%%Pages: 1
%%DocumentData: Clean7Bit
%%LanguageLevel: 2
%%BoundingBox: 18 18 366 366
%%EndComments
%%BeginProlog
50 dict begin
/q { gsave } bind def
/Q { grestore } bind def
/cm { 6 array astore concat } bind def
/w { setlinewidth } bind def
/J { setlinecap } bind def
/j { setlinejoin } bind def
/M { setmiterlimit } bind def
/d { setdash } bind def
/m { moveto } bind def
/l { lineto } bind def
/c { curveto } bind def
/h { closepath } bind def
/re { exch dup neg 3 1 roll 5 3 roll moveto 0 rlineto
      0 exch rlineto 0 rlineto closepath } bind def
/S { stroke } bind def
/f { fill } bind def
/f* { eofill } bind def
/n { newpath } bind def
/W { clip } bind def
/W* { eoclip } bind def
/BT { } bind def
/ET { } bind def
/BDC { mark 3 1 roll /BDC pdfmark } bind def
/EMC { mark /EMC pdfmark } bind def
/cairo_store_point { /cairo_point_y exch def /cairo_point_x exch def } def
/Tj { show currentpoint cairo_store_point } bind def
/TJ {
  {
    dup
    type /stringtype eq
    { show } { -0.001 mul 0 cairo_font_matrix dtransform rmoveto } ifelse
  } forall
  currentpoint cairo_store_point
} bind def
/cairo_selectfont { cairo_font_matrix aload pop pop pop 0 0 6 array astore
    cairo_font exch selectfont cairo_point_x cairo_point_y moveto } bind def
/Tf { pop /cairo_font exch def /cairo_font_matrix where
      { pop cairo_selectfont } if } bind def
/Td { matrix translate cairo_font_matrix matrix concatmatrix dup
      /cairo_font_matrix exch def dup 4 get exch 5 get cairo_store_point
      /cairo_font where { pop cairo_selectfont } if } bind def
/Tm { 2 copy 8 2 roll 6 array astore /cairo_font_matrix exch def
      cairo_store_point /cairo_font where { pop cairo_selectfont } if } bind def
/g { setgray } bind def
/rg { setrgbcolor } bind def
/d1 { setcachedevice } bind def
/cairo_data_source {
  CairoDataIndex CairoData length lt
    { CairoData CairoDataIndex get /CairoDataIndex CairoDataIndex 1 add def }
    { () } ifelse
} def
/cairo_flush_ascii85_file { cairo_ascii85_file status { cairo_ascii85_file flushfile } if } def
/cairo_image { image cairo_flush_ascii85_file } def
/cairo_imagemask { imagemask cairo_flush_ascii85_file } def
%%EndProlog
%%BeginSetup
%%EndSetup
%%Page: 1 1
%%BeginPageSetup
%%PageBoundingBox: 18 18 366 366
%%EndPageSetup
q 18 18 348 348 rectclip
1 0 0 -1 0 384 cm q
0.666667 0.796078 0.164706 rg
282 54 m 252 174 l 72 174 l 42 54 l h
282 54 m f
0.407843 0.752941 0.25098 rg
90 78 m 102 78 l 108.648 78 114 83.352 114 90 c 114 96.648 108.648 102 
102 102 c 90 102 l 83.352 102 78 96.648 78 90 c 78 83.352 83.352 78 90 78
 c h
90 78 m f
156 78 m 168 78 l 174.648 78 180 83.352 180 90 c 180 96.648 174.648 102
 168 102 c 156 102 l 149.352 102 144 96.648 144 90 c 144 83.352 149.352 
78 156 78 c h
156 78 m f
222 78 m 234 78 l 240.648 78 246 83.352 246 90 c 246 96.648 240.648 102
 234 102 c 222 102 l 215.352 102 210 96.648 210 90 c 210 83.352 215.352 
78 222 78 c h
222 78 m f
96 126 m 108 126 l 114.648 126 120 131.352 120 138 c 120 144.648 114.648
 150 108 150 c 96 150 l 89.352 150 84 144.648 84 138 c 84 131.352 89.352
 126 96 126 c h
96 126 m f
156 126 m 168 126 l 174.648 126 180 131.352 180 138 c 180 144.648 174.648
 150 168 150 c 156 150 l 149.352 150 144 144.648 144 138 c 144 131.352 149.352
 126 156 126 c h
156 126 m f
216 126 m 228 126 l 234.648 126 240 131.352 240 138 c 240 144.648 234.648
 150 228 150 c 216 150 l 209.352 150 204 144.648 204 138 c 204 131.352 209.352
 126 216 126 c h
216 126 m f
36 18 m 288 18 l 297.973 18 306 26.027 306 36 c 306 45.973 297.973 54 288
 54 c 36 54 l 26.027 54 18 45.973 18 36 c 18 26.027 26.027 18 36 18 c h
36 18 m f
0.333333 0.658824 0.321569 rg
128.273 45.727 m 39.727 134.273 l 37.34 136.66 34.105 138 30.727 138 c 
27.352 138 24.113 136.66 21.727 134.273 c 19.34 131.887 18 128.648 18 125.273
 c 18 121.895 19.34 118.66 21.727 116.273 c 110.273 27.727 l 112.66 25.34
 115.895 24 119.273 24 c 122.648 24 125.887 25.34 128.273 27.727 c 130.66
 30.113 132 33.352 132 36.727 c 132 40.105 130.66 43.34 128.273 45.727 c
 h
128.273 45.727 m f
189.727 45.727 m 278.273 134.273 l 280.66 136.66 283.895 138 287.273 138
 c 290.648 138 293.887 136.66 296.273 134.273 c 298.66 131.887 300 128.648
 300 125.273 c 300 121.895 298.66 118.66 296.273 116.273 c 207.727 27.727
 l 205.34 25.34 202.105 24 198.727 24 c 195.352 24 192.113 25.34 189.727
 27.727 c 187.34 30.113 186 33.352 186 36.727 c 186 40.105 187.34 43.34 
189.727 45.727 c h
189.727 45.727 m f
0.176471 0.501961 0.733333 rg
222 126 m 366 126 l 366 264 l 366 280.57 352.57 294 336 294 c 222 294 l
 h
222 126 m f
0.215686 0.65098 0.796078 rg
276 198 m 259.43 198 246 211.43 246 228 c 246 294 l 336 294 l 319.43 294
 306 280.57 306 264 c 306 228 l 306 211.43 292.57 198 276 198 c h
276 198 m f
0.223529 0.309804 0.352941 rg
264 144 60 12 re f
240 168 48 12 re f
300 168 48 12 re f
324 192 24 12 re f
324 216 24 12 re f
324 240 24 12 re f
324 264 24 12 re f
0.572549 0.831373 0.937255 rg
246 228 m 246 211.43 259.43 198 276 198 c 120 198 l 103.43 198 90 211.43
 90 228 c 90 366 l 246 366 l h
246 228 m f
0.223529 0.309804 0.352941 rg
198 240 24 12 re f
108 264 114 12 re f
198 288 24 12 re f
108 240 54 12 re f
120 216 96 12 re f
108 312 12 36 re f
126 312 12 12 re f
144 312 12 12 re f
180 312 12 12 re f
162 312 12 36 re f
198 312 12 12 re f
126 336 12 12 re f
144 336 12 12 re f
180 336 12 12 re f
198 336 12 12 re f
216 312 12 36 re f
Q Q
showpage
%%Trailer
end
%%EOF
