%!PS-Adobe-3.0 EPSF-3.0
%%Creator: cairo 1.16.0 (https://cairographics.org)
%%CreationDate: Fri Mar 13 07:34:28 2020
%%Pages: 1
%%DocumentData: Clean7Bit
%%LanguageLevel: 2
%%BoundingBox: 18 18 366 366
%%EndComments
%%BeginProlog
50 dict begin
/q { gsave } bind def
/Q { grestore } bind def
/cm { 6 array astore concat } bind def
/w { setlinewidth } bind def
/J { setlinecap } bind def
/j { setlinejoin } bind def
/M { setmiterlimit } bind def
/d { setdash } bind def
/m { moveto } bind def
/l { lineto } bind def
/c { curveto } bind def
/h { closepath } bind def
/re { exch dup neg 3 1 roll 5 3 roll moveto 0 rlineto
      0 exch rlineto 0 rlineto closepath } bind def
/S { stroke } bind def
/f { fill } bind def
/f* { eofill } bind def
/n { newpath } bind def
/W { clip } bind def
/W* { eoclip } bind def
/BT { } bind def
/ET { } bind def
/BDC { mark 3 1 roll /BDC pdfmark } bind def
/EMC { mark /EMC pdfmark } bind def
/cairo_store_point { /cairo_point_y exch def /cairo_point_x exch def } def
/Tj { show currentpoint cairo_store_point } bind def
/TJ {
  {
    dup
    type /stringtype eq
    { show } { -0.001 mul 0 cairo_font_matrix dtransform rmoveto } ifelse
  } forall
  currentpoint cairo_store_point
} bind def
/cairo_selectfont { cairo_font_matrix aload pop pop pop 0 0 6 array astore
    cairo_font exch selectfont cairo_point_x cairo_point_y moveto } bind def
/Tf { pop /cairo_font exch def /cairo_font_matrix where
      { pop cairo_selectfont } if } bind def
/Td { matrix translate cairo_font_matrix matrix concatmatrix dup
      /cairo_font_matrix exch def dup 4 get exch 5 get cairo_store_point
      /cairo_font where { pop cairo_selectfont } if } bind def
/Tm { 2 copy 8 2 roll 6 array astore /cairo_font_matrix exch def
      cairo_store_point /cairo_font where { pop cairo_selectfont } if } bind def
/g { setgray } bind def
/rg { setrgbcolor } bind def
/d1 { setcachedevice } bind def
/cairo_data_source {
  CairoDataIndex CairoData length lt
    { CairoData CairoDataIndex get /CairoDataIndex CairoDataIndex 1 add def }
    { () } ifelse
} def
/cairo_flush_ascii85_file { cairo_ascii85_file status { cairo_ascii85_file flushfile } if } def
/cairo_image { image cairo_flush_ascii85_file } def
/cairo_imagemask { imagemask cairo_flush_ascii85_file } def
%%EndProlog
%%BeginSetup
%%EndSetup
%%Page: 1 1
%%BeginPageSetup
%%PageBoundingBox: 18 18 366 366
%%EndPageSetup
q 18 18 348 348 rectclip
1 0 0 -1 0 384 cm q
0.215686 0.65098 0.796078 rg
18 18 276 48 re f
0.176471 0.501961 0.733333 rg
246 18 48 48 re f
0.572549 0.831373 0.937255 rg
42 66 228 216 re f
0.215686 0.65098 0.796078 rg
270 66 24 216 re f
0.176471 0.501961 0.733333 rg
138 102 36 36 re f
198 102 36 36 re f
78 162 36 36 re f
138 162 36 36 re f
198 162 36 36 re f
78 222 36 36 re f
138 222 36 36 re f
0.666667 0.796078 0.164706 rg
174 246 192 120 re f
0.964706 0.776471 0.2 rg
204 276 30 24 re f
0.215686 0.65098 0.796078 rg
192 318 24 12 re f
228 318 24 12 re f
264 318 24 12 re f
192 336 36 12 re f
240 336 36 12 re f
0.8 0.862745 0.909804 rg
300 324 m 312 342 l 348 342 l 336 324 l h
300 324 m f
0.176471 0.501961 0.733333 rg
288 264 36 12 re f
348 270 m 348 273.312 345.312 276 342 276 c 338.688 276 336 273.312 336
 270 c 336 266.688 338.688 264 342 264 c 345.312 264 348 266.688 348 270
 c h
348 270 m f
Q Q
showpage
%%Trailer
end
%%EOF
