%!PS-Adobe-3.0 EPSF-3.0
%%Creator: cairo 1.16.0 (https://cairographics.org)
%%CreationDate: Fri Mar 13 07:34:29 2020
%%Pages: 1
%%DocumentData: Clean7Bit
%%LanguageLevel: 2
%%BoundingBox: 18 18 366 366
%%EndComments
%%BeginProlog
50 dict begin
/q { gsave } bind def
/Q { grestore } bind def
/cm { 6 array astore concat } bind def
/w { setlinewidth } bind def
/J { setlinecap } bind def
/j { setlinejoin } bind def
/M { setmiterlimit } bind def
/d { setdash } bind def
/m { moveto } bind def
/l { lineto } bind def
/c { curveto } bind def
/h { closepath } bind def
/re { exch dup neg 3 1 roll 5 3 roll moveto 0 rlineto
      0 exch rlineto 0 rlineto closepath } bind def
/S { stroke } bind def
/f { fill } bind def
/f* { eofill } bind def
/n { newpath } bind def
/W { clip } bind def
/W* { eoclip } bind def
/BT { } bind def
/ET { } bind def
/BDC { mark 3 1 roll /BDC pdfmark } bind def
/EMC { mark /EMC pdfmark } bind def
/cairo_store_point { /cairo_point_y exch def /cairo_point_x exch def } def
/Tj { show currentpoint cairo_store_point } bind def
/TJ {
  {
    dup
    type /stringtype eq
    { show } { -0.001 mul 0 cairo_font_matrix dtransform rmoveto } ifelse
  } forall
  currentpoint cairo_store_point
} bind def
/cairo_selectfont { cairo_font_matrix aload pop pop pop 0 0 6 array astore
    cairo_font exch selectfont cairo_point_x cairo_point_y moveto } bind def
/Tf { pop /cairo_font exch def /cairo_font_matrix where
      { pop cairo_selectfont } if } bind def
/Td { matrix translate cairo_font_matrix matrix concatmatrix dup
      /cairo_font_matrix exch def dup 4 get exch 5 get cairo_store_point
      /cairo_font where { pop cairo_selectfont } if } bind def
/Tm { 2 copy 8 2 roll 6 array astore /cairo_font_matrix exch def
      cairo_store_point /cairo_font where { pop cairo_selectfont } if } bind def
/g { setgray } bind def
/rg { setrgbcolor } bind def
/d1 { setcachedevice } bind def
/cairo_data_source {
  CairoDataIndex CairoData length lt
    { CairoData CairoDataIndex get /CairoDataIndex CairoDataIndex 1 add def }
    { () } ifelse
} def
/cairo_flush_ascii85_file { cairo_ascii85_file status { cairo_ascii85_file flushfile } if } def
/cairo_image { image cairo_flush_ascii85_file } def
/cairo_imagemask { imagemask cairo_flush_ascii85_file } def
%%EndProlog
%%BeginSetup
%%EndSetup
%%Page: 1 1
%%BeginPageSetup
%%PageBoundingBox: 18 18 366 366
%%EndPageSetup
q 18 18 348 348 rectclip
1 0 0 -1 0 384 cm q
0.407843 0.752941 0.25098 rg
132 120 234 246 re f
0.666667 0.796078 0.164706 rg
252 366 m 252 264 l 252 237.492 273.492 216 300 216 c 300 186 l 300 149.551
 329.551 120 366 120 c 132 120 l 95.551 120 66 149.551 66 186 c 66 216 l
 39.492 216 18 237.492 18 264 c 18 366 l h
252 366 m f
0.407843 0.752941 0.25098 rg
234 366 m 222 366 l 222 312 l 48 312 l 48 366 l 36 366 l 36 306 l 36 302.688
 38.688 300 42 300 c 228 300 l 231.312 300 234 302.688 234 306 c h
234 366 m f
0.839216 0.878431 0.435294 rg
144 336 m 144 342.629 138.629 348 132 348 c 125.371 348 120 342.629 120
 336 c 120 329.371 125.371 324 132 324 c 138.629 324 144 329.371 144 336
 c h
144 336 m f
0.964706 0.894118 0.635294 rg
186 222 36 24 re f
174 246 36 24 re f
204 198 36 24 re f
0.8 0.862745 0.909804 rg
66 240 12 12 re f
90 240 12 12 re f
54 264 12 12 re f
78 264 12 12 re f
84 216 12 12 re f
108 216 12 12 re f
114 240 12 12 re f
102 264 12 12 re f
132 216 12 12 re f
0.964706 0.894118 0.635294 rg
192 144 60 36 re f
0.964706 0.776471 0.2 rg
282 144 m 252 144 l 252 180 l h
282 144 m f
0.223529 0.309804 0.352941 rg
210 156 12 12 re f
228 156 12 12 re f
0.176471 0.501961 0.733333 rg
90 66 m 144 66 l 153.941 66 162 74.059 162 84 c 162 180 l 90 180 l h
90 66 m f
0.215686 0.65098 0.796078 rg
126 84 m 126 74.059 134.059 66 144 66 c 90 66 l 90 108 l 90 117.941 98.059
 126 108 126 c 117.941 126 126 117.941 126 108 c h
126 84 m f
0.572549 0.831373 0.937255 rg
90 18 m 18 18 l 18 108 l 18 117.941 26.059 126 36 126 c 108 126 l 98.059
 126 90 117.941 90 108 c h
90 18 m f
0.223529 0.309804 0.352941 rg
42 30 24 12 re f
30 48 48 12 re f
30 66 24 12 re f
66 66 12 12 re f
30 84 24 12 re f
66 84 12 12 re f
30 102 24 12 re f
66 102 12 12 re f
0.964706 0.776471 0.2 rg
186 240 36 6 re f
174 264 36 6 re f
204 216 36 6 re f
Q Q
showpage
%%Trailer
end
%%EOF
