%!PS-Adobe-3.0 EPSF-3.0
%%Creator: cairo 1.16.0 (https://cairographics.org)
%%CreationDate: Fri Mar 13 07:34:29 2020
%%Pages: 1
%%DocumentData: Clean7Bit
%%LanguageLevel: 2
%%BoundingBox: 12 12 372 366
%%EndComments
%%BeginProlog
50 dict begin
/q { gsave } bind def
/Q { grestore } bind def
/cm { 6 array astore concat } bind def
/w { setlinewidth } bind def
/J { setlinecap } bind def
/j { setlinejoin } bind def
/M { setmiterlimit } bind def
/d { setdash } bind def
/m { moveto } bind def
/l { lineto } bind def
/c { curveto } bind def
/h { closepath } bind def
/re { exch dup neg 3 1 roll 5 3 roll moveto 0 rlineto
      0 exch rlineto 0 rlineto closepath } bind def
/S { stroke } bind def
/f { fill } bind def
/f* { eofill } bind def
/n { newpath } bind def
/W { clip } bind def
/W* { eoclip } bind def
/BT { } bind def
/ET { } bind def
/BDC { mark 3 1 roll /BDC pdfmark } bind def
/EMC { mark /EMC pdfmark } bind def
/cairo_store_point { /cairo_point_y exch def /cairo_point_x exch def } def
/Tj { show currentpoint cairo_store_point } bind def
/TJ {
  {
    dup
    type /stringtype eq
    { show } { -0.001 mul 0 cairo_font_matrix dtransform rmoveto } ifelse
  } forall
  currentpoint cairo_store_point
} bind def
/cairo_selectfont { cairo_font_matrix aload pop pop pop 0 0 6 array astore
    cairo_font exch selectfont cairo_point_x cairo_point_y moveto } bind def
/Tf { pop /cairo_font exch def /cairo_font_matrix where
      { pop cairo_selectfont } if } bind def
/Td { matrix translate cairo_font_matrix matrix concatmatrix dup
      /cairo_font_matrix exch def dup 4 get exch 5 get cairo_store_point
      /cairo_font where { pop cairo_selectfont } if } bind def
/Tm { 2 copy 8 2 roll 6 array astore /cairo_font_matrix exch def
      cairo_store_point /cairo_font where { pop cairo_selectfont } if } bind def
/g { setgray } bind def
/rg { setrgbcolor } bind def
/d1 { setcachedevice } bind def
/cairo_data_source {
  CairoDataIndex CairoData length lt
    { CairoData CairoDataIndex get /CairoDataIndex CairoDataIndex 1 add def }
    { () } ifelse
} def
/cairo_flush_ascii85_file { cairo_ascii85_file status { cairo_ascii85_file flushfile } if } def
/cairo_image { image cairo_flush_ascii85_file } def
/cairo_imagemask { imagemask cairo_flush_ascii85_file } def
%%EndProlog
%%BeginSetup
%%EndSetup
%%Page: 1 1
%%BeginPageSetup
%%PageBoundingBox: 12 12 372 366
%%EndPageSetup
q 12 12 360 354 rectclip
1 0 0 -1 0 384 cm q
0.988235 0.839216 0.717647 rg
174 102 m 180 102 l 173.371 102 168 107.371 168 114 c 168 120.629 173.371
 126 180 126 c 186 126 l 179.371 126 174 131.371 174 138 c 174 144.629 179.371
 150 186 150 c 276 150 l 312 138 l 372 138 l 372 66 l 318 66 l 306 54 l 
186 54 l 179.371 54 174 59.371 174 66 c 174 72.629 179.371 78 186 78 c 174
 78 l 167.371 78 162 83.371 162 90 c 162 96.629 167.371 102 174 102 c h
174 102 m f
0.968627 0.713726 0.537255 rg
243.211 54 m 247.5 61.426 255.426 66 264 66 c 282 66 l 285.312 66 288 63.312
 288 60 c 288 56.688 285.312 54 282 54 c h
243.211 54 m f
186 132 m 240 132 l 243.312 132 246 129.312 246 126 c 246 122.688 243.312
 120 240 120 c 186 120 l 182.688 120 180 122.688 180 126 c 180 129.312 182.688
 132 186 132 c h
186 132 m f
180 108 m 240 108 l 243.312 108 246 105.312 246 102 c 246 98.688 243.312
 96 240 96 c 180 96 l 176.688 96 174 98.688 174 102 c 174 105.312 176.688
 108 180 108 c h
180 108 m f
186 84 m 240 84 l 243.312 84 246 81.312 246 78 c 246 74.688 243.312 72 
240 72 c 186 72 l 182.688 72 180 74.688 180 78 c 180 81.312 182.688 84 186
 84 c h
186 84 m f
0.964706 0.776471 0.2 rg
78 174 168 168 re f
0.941176 0.556863 0.0156863 rg
144 174 36 48 re f
0.666667 0.796078 0.164706 rg
102 18 162 108 re f
0.964706 0.776471 0.2 rg
126 42 24 24 re f
0.223529 0.309804 0.352941 rg
120 78 24 12 re f
156 78 24 12 re f
120 96 36 12 re f
168 96 36 12 re f
192 78 24 12 re f
0.215686 0.65098 0.796078 rg
180 36 30 12 re f
234 42 m 234 45.312 231.312 48 228 48 c 224.688 48 222 45.312 222 42 c 
222 38.688 224.688 36 228 36 c 231.312 36 234 38.688 234 42 c h
234 42 m f
0.988235 0.839216 0.717647 rg
204 324 m 198 324 l 204.629 324 210 329.371 210 336 c 210 342.629 204.629
 348 198 348 c 192 348 l 198.629 348 204 353.371 204 360 c 204 366.629 198.629
 372 192 372 c 102 372 l 66 360 l 12 360 l 12 288 l 60 288 l 72 276 l 192
 276 l 198.629 276 204 281.371 204 288 c 204 294.629 198.629 300 192 300
 c 204 300 l 210.629 300 216 305.371 216 312 c 216 318.629 210.629 324 204
 324 c h
204 324 m f
0.968627 0.713726 0.537255 rg
134.789 276 m 130.5 283.426 122.574 288 114 288 c 96 288 l 92.688 288 90
 285.312 90 282 c 90 278.688 92.688 276 96 276 c h
134.789 276 m f
0.988235 0.839216 0.717647 rg
66 282 m 90 258 l 132 258 l 132 271.254 121.254 282 108 282 c h
66 282 m f
0.968627 0.713726 0.537255 rg
192 354 m 138 354 l 134.688 354 132 351.312 132 348 c 132 344.688 134.688
 342 138 342 c 192 342 l 195.312 342 198 344.688 198 348 c 198 351.312 195.312
 354 192 354 c h
192 354 m f
198 330 m 138 330 l 134.688 330 132 327.312 132 324 c 132 320.688 134.688
 318 138 318 c 198 318 l 201.312 318 204 320.688 204 324 c 204 327.312 201.312
 330 198 330 c h
198 330 m f
192 306 m 138 306 l 134.688 306 132 303.312 132 300 c 132 296.688 134.688
 294 138 294 c 192 294 l 195.312 294 198 296.688 198 300 c 198 303.312 195.312
 306 192 306 c h
192 306 m f
0.988235 0.839216 0.717647 rg
312 60 m 288 36 l 246 36 l 246 49.254 256.746 60 270 60 c h
312 60 m f
Q Q
showpage
%%Trailer
end
%%EOF
