%!PS-Adobe-3.0 EPSF-3.0
%%Creator: cairo 1.16.0 (https://cairographics.org)
%%CreationDate: Fri Mar 13 07:34:30 2020
%%Pages: 1
%%DocumentData: Clean7Bit
%%LanguageLevel: 2
%%BoundingBox: 12 12 366 366
%%EndComments
%%BeginProlog
50 dict begin
/q { gsave } bind def
/Q { grestore } bind def
/cm { 6 array astore concat } bind def
/w { setlinewidth } bind def
/J { setlinecap } bind def
/j { setlinejoin } bind def
/M { setmiterlimit } bind def
/d { setdash } bind def
/m { moveto } bind def
/l { lineto } bind def
/c { curveto } bind def
/h { closepath } bind def
/re { exch dup neg 3 1 roll 5 3 roll moveto 0 rlineto
      0 exch rlineto 0 rlineto closepath } bind def
/S { stroke } bind def
/f { fill } bind def
/f* { eofill } bind def
/n { newpath } bind def
/W { clip } bind def
/W* { eoclip } bind def
/BT { } bind def
/ET { } bind def
/BDC { mark 3 1 roll /BDC pdfmark } bind def
/EMC { mark /EMC pdfmark } bind def
/cairo_store_point { /cairo_point_y exch def /cairo_point_x exch def } def
/Tj { show currentpoint cairo_store_point } bind def
/TJ {
  {
    dup
    type /stringtype eq
    { show } { -0.001 mul 0 cairo_font_matrix dtransform rmoveto } ifelse
  } forall
  currentpoint cairo_store_point
} bind def
/cairo_selectfont { cairo_font_matrix aload pop pop pop 0 0 6 array astore
    cairo_font exch selectfont cairo_point_x cairo_point_y moveto } bind def
/Tf { pop /cairo_font exch def /cairo_font_matrix where
      { pop cairo_selectfont } if } bind def
/Td { matrix translate cairo_font_matrix matrix concatmatrix dup
      /cairo_font_matrix exch def dup 4 get exch 5 get cairo_store_point
      /cairo_font where { pop cairo_selectfont } if } bind def
/Tm { 2 copy 8 2 roll 6 array astore /cairo_font_matrix exch def
      cairo_store_point /cairo_font where { pop cairo_selectfont } if } bind def
/g { setgray } bind def
/rg { setrgbcolor } bind def
/d1 { setcachedevice } bind def
/cairo_data_source {
  CairoDataIndex CairoData length lt
    { CairoData CairoDataIndex get /CairoDataIndex CairoDataIndex 1 add def }
    { () } ifelse
} def
/cairo_flush_ascii85_file { cairo_ascii85_file status { cairo_ascii85_file flushfile } if } def
/cairo_image { image cairo_flush_ascii85_file } def
/cairo_imagemask { imagemask cairo_flush_ascii85_file } def
%%EndProlog
%%BeginSetup
%%EndSetup
%%Page: 1 1
%%BeginPageSetup
%%PageBoundingBox: 12 12 366 366
%%EndPageSetup
q 12 12 354 354 rectclip
1 0 0 -1 0 384 cm q
0.988235 0.839216 0.717647 rg
360 192 m 318 258 l 234 294 l 150 294 l 72 372 l 12 372 l 12 348 l 114.262
 245.738 l 125.621 234.379 141.023 228 157.086 228 c 192 228 l 193.246 226.754
 l 211.656 208.344 236.629 198 262.664 198 c 276 198 l 222 252 l 240 252
 l 294 234 l 303.074 221.297 l 316.207 202.914 337.41 192.004 360 192 c 
h
360 192 m f
0.968627 0.713726 0.537255 rg
238.965 252 m 218.484 272.484 l 210 264 l 222 252 l h
238.965 252 m f
0.203922 0.631373 0.4 rg
114 18 252 156 re f
0.564706 0.752941 0.396078 rg
18 18 96 156 re f
0 0.560784 0.333333 rg
114 18 252 24 re f
114 150 252 24 re f
0.407843 0.733333 0.619608 rg
180 96 m 180 102.629 174.629 108 168 108 c 161.371 108 156 102.629 156 
96 c 156 89.371 161.371 84 168 84 c 174.629 84 180 89.371 180 96 c h
180 96 m f
324 96 m 324 102.629 318.629 108 312 108 c 305.371 108 300 102.629 300 
96 c 300 89.371 305.371 84 312 84 c 318.629 84 324 89.371 324 96 c h
324 96 m f
0 0.560784 0.333333 rg
84 36 12 138 re f
60 36 12 138 re f
36 36 12 138 re f
330 126 24 12 re f
0.964706 0.894118 0.635294 rg
216 18 48 156 re f
Q Q
showpage
%%Trailer
end
%%EOF
