%!PS-Adobe-3.0 EPSF-3.0
%%Creator: cairo 1.16.0 (https://cairographics.org)
%%CreationDate: Fri Mar 13 07:34:30 2020
%%Pages: 1
%%DocumentData: Clean7Bit
%%LanguageLevel: 2
%%BoundingBox: 12 60 366 324
%%EndComments
%%BeginProlog
50 dict begin
/q { gsave } bind def
/Q { grestore } bind def
/cm { 6 array astore concat } bind def
/w { setlinewidth } bind def
/J { setlinecap } bind def
/j { setlinejoin } bind def
/M { setmiterlimit } bind def
/d { setdash } bind def
/m { moveto } bind def
/l { lineto } bind def
/c { curveto } bind def
/h { closepath } bind def
/re { exch dup neg 3 1 roll 5 3 roll moveto 0 rlineto
      0 exch rlineto 0 rlineto closepath } bind def
/S { stroke } bind def
/f { fill } bind def
/f* { eofill } bind def
/n { newpath } bind def
/W { clip } bind def
/W* { eoclip } bind def
/BT { } bind def
/ET { } bind def
/BDC { mark 3 1 roll /BDC pdfmark } bind def
/EMC { mark /EMC pdfmark } bind def
/cairo_store_point { /cairo_point_y exch def /cairo_point_x exch def } def
/Tj { show currentpoint cairo_store_point } bind def
/TJ {
  {
    dup
    type /stringtype eq
    { show } { -0.001 mul 0 cairo_font_matrix dtransform rmoveto } ifelse
  } forall
  currentpoint cairo_store_point
} bind def
/cairo_selectfont { cairo_font_matrix aload pop pop pop 0 0 6 array astore
    cairo_font exch selectfont cairo_point_x cairo_point_y moveto } bind def
/Tf { pop /cairo_font exch def /cairo_font_matrix where
      { pop cairo_selectfont } if } bind def
/Td { matrix translate cairo_font_matrix matrix concatmatrix dup
      /cairo_font_matrix exch def dup 4 get exch 5 get cairo_store_point
      /cairo_font where { pop cairo_selectfont } if } bind def
/Tm { 2 copy 8 2 roll 6 array astore /cairo_font_matrix exch def
      cairo_store_point /cairo_font where { pop cairo_selectfont } if } bind def
/g { setgray } bind def
/rg { setrgbcolor } bind def
/d1 { setcachedevice } bind def
/cairo_data_source {
  CairoDataIndex CairoData length lt
    { CairoData CairoDataIndex get /CairoDataIndex CairoDataIndex 1 add def }
    { () } ifelse
} def
/cairo_flush_ascii85_file { cairo_ascii85_file status { cairo_ascii85_file flushfile } if } def
/cairo_image { image cairo_flush_ascii85_file } def
/cairo_imagemask { imagemask cairo_flush_ascii85_file } def
%%EndProlog
%%BeginSetup
%%EndSetup
%%Page: 1 1
%%BeginPageSetup
%%PageBoundingBox: 12 60 366 324
%%EndPageSetup
q 12 60 354 264 rectclip
1 0 0 -1 0 384 cm q
0.666667 0.796078 0.164706 rg
18 60 348 180 re f
0.572549 0.831373 0.937255 rg
78 102 m 78 111.941 69.941 120 60 120 c 50.059 120 42 111.941 42 102 c 
42 92.059 50.059 84 60 84 c 69.941 84 78 92.059 78 102 c h
78 102 m f
0.215686 0.65098 0.796078 rg
102 84 60 12 re f
102 108 42 12 re f
156 108 42 12 re f
0.223529 0.309804 0.352941 rg
36 144 120 12 re f
168 144 66 12 re f
246 144 48 12 re f
36 168 108 12 re f
168 168 90 12 re f
0.215686 0.65098 0.796078 rg
90 222 m 88.41 222.004 86.883 221.371 85.758 220.242 c 72 206.484 l 58.242
 220.242 l 49.758 211.758 l 67.758 193.758 l 70.102 191.414 73.898 191.414
 76.242 193.758 c 90 207.516 l 97.758 199.758 l 100.102 197.414 103.898 
197.414 106.242 199.758 c 110.484 204 l 126 204 l 126 216 l 108 216 l 106.41
 216 104.883 215.367 103.758 214.242 c 102 212.484 l 94.242 220.242 l 93.117
 221.371 91.59 222.004 90 222 c h
90 222 m f
132 204 12 12 re f
324 222 m 322.41 222.004 320.883 221.371 319.758 220.242 c 306 206.484 
l 298.242 214.242 l 297.117 215.367 295.59 216 294 216 c 264 216 l 262.41
 216 260.883 215.367 259.758 214.242 c 252 206.484 l 238.242 220.242 l 235.898
 222.586 232.102 222.586 229.758 220.242 c 216 206.484 l 202.242 220.242
 l 193.758 211.758 l 211.758 193.758 l 214.102 191.414 217.898 191.414 220.242
 193.758 c 234 207.516 l 247.758 193.758 l 250.102 191.414 253.898 191.414
 256.242 193.758 c 266.484 204 l 291.516 204 l 301.758 193.758 l 304.102
 191.414 307.898 191.414 310.242 193.758 c 324 207.516 l 331.758 199.758
 l 340.242 208.242 l 328.242 220.242 l 327.117 221.371 325.59 222.004 324
 222 c h
324 222 m f
0.819608 0.14902 0.152941 rg
258 78 12 12 re f
282 78 24 12 re f
318 78 24 12 re f
0.215686 0.65098 0.796078 rg
30 276 m 84 264 l 84 300 l 30 288 l h
30 276 m f
0.572549 0.831373 0.937255 rg
84 264 228 36 re f
0.215686 0.65098 0.796078 rg
246 324 m 324 324 l 330.629 324 336 318.629 336 312 c 336 264 l 312 264
 l 312 300 l 246 300 l 239.371 300 234 305.371 234 312 c 234 318.629 239.371
 324 246 324 c h
246 324 m f
0.572549 0.831373 0.937255 rg
336 270 30 24 re f
0.223529 0.403922 0.615686 rg
12 276 18 12 re f
Q Q
showpage
%%Trailer
end
%%EOF
