%!PS-Adobe-3.0 EPSF-3.0
%%Creator: cairo 1.16.0 (https://cairographics.org)
%%CreationDate: Fri Mar 13 07:34:31 2020
%%Pages: 1
%%DocumentData: Clean7Bit
%%LanguageLevel: 2
%%BoundingBox: 17 48 366 366
%%EndComments
%%BeginProlog
50 dict begin
/q { gsave } bind def
/Q { grestore } bind def
/cm { 6 array astore concat } bind def
/w { setlinewidth } bind def
/J { setlinecap } bind def
/j { setlinejoin } bind def
/M { setmiterlimit } bind def
/d { setdash } bind def
/m { moveto } bind def
/l { lineto } bind def
/c { curveto } bind def
/h { closepath } bind def
/re { exch dup neg 3 1 roll 5 3 roll moveto 0 rlineto
      0 exch rlineto 0 rlineto closepath } bind def
/S { stroke } bind def
/f { fill } bind def
/f* { eofill } bind def
/n { newpath } bind def
/W { clip } bind def
/W* { eoclip } bind def
/BT { } bind def
/ET { } bind def
/BDC { mark 3 1 roll /BDC pdfmark } bind def
/EMC { mark /EMC pdfmark } bind def
/cairo_store_point { /cairo_point_y exch def /cairo_point_x exch def } def
/Tj { show currentpoint cairo_store_point } bind def
/TJ {
  {
    dup
    type /stringtype eq
    { show } { -0.001 mul 0 cairo_font_matrix dtransform rmoveto } ifelse
  } forall
  currentpoint cairo_store_point
} bind def
/cairo_selectfont { cairo_font_matrix aload pop pop pop 0 0 6 array astore
    cairo_font exch selectfont cairo_point_x cairo_point_y moveto } bind def
/Tf { pop /cairo_font exch def /cairo_font_matrix where
      { pop cairo_selectfont } if } bind def
/Td { matrix translate cairo_font_matrix matrix concatmatrix dup
      /cairo_font_matrix exch def dup 4 get exch 5 get cairo_store_point
      /cairo_font where { pop cairo_selectfont } if } bind def
/Tm { 2 copy 8 2 roll 6 array astore /cairo_font_matrix exch def
      cairo_store_point /cairo_font where { pop cairo_selectfont } if } bind def
/g { setgray } bind def
/rg { setrgbcolor } bind def
/d1 { setcachedevice } bind def
/cairo_data_source {
  CairoDataIndex CairoData length lt
    { CairoData CairoDataIndex get /CairoDataIndex CairoDataIndex 1 add def }
    { () } ifelse
} def
/cairo_flush_ascii85_file { cairo_ascii85_file status { cairo_ascii85_file flushfile } if } def
/cairo_image { image cairo_flush_ascii85_file } def
/cairo_imagemask { imagemask cairo_flush_ascii85_file } def
%%EndProlog
%%BeginSetup
%%EndSetup
%%Page: 1 1
%%BeginPageSetup
%%PageBoundingBox: 17 48 366 366
%%EndPageSetup
q 17 48 349 318 rectclip
1 0 0 -1 0 384 cm q
0.572549 0.831373 0.937255 rg
366 198 m 366 210.73 360.945 222.941 351.941 231.941 c 342.941 240.945 
330.73 246 318 246 c 72 246 l 44.996 246 22.141 226.051 18.496 199.293 c
 14.852 172.531 31.535 147.195 57.555 139.973 c 50.098 113.422 54.418 84.945
 69.414 61.801 c 84.41 38.656 108.637 23.078 135.918 19.035 c 163.199 14.996
 190.898 22.879 211.961 40.684 c 233.027 58.484 245.418 84.484 245.977 112.059
 c 249.734 110.27 253.738 109.055 257.859 108.449 c 259.891 108.152 261.945
 108 264 108 c 275.141 108 285.824 112.426 293.699 120.301 c 301.574 128.176
 306 138.859 306 150 c 318 150 l 330.73 150 342.941 155.055 351.941 164.059
 c 360.945 173.059 366 185.27 366 198 c h
366 198 m f
0.215686 0.65098 0.796078 rg
57.555 139.973 m 59.562 147.125 62.395 154.02 66 160.516 c 55.508 166.336
 l 51.668 159.406 48.609 152.07 46.387 144.465 c 49.93 142.559 53.676 141.051
 57.555 139.973 c h
57.555 139.973 m f
258 114 m 258 120.789 257.367 127.562 256.102 134.234 c 244.312 132 l 245.434
 126.066 246 120.039 246 114 c 246 113.348 245.984 112.703 245.977 112.059
 c 249.734 110.27 253.738 109.055 257.859 108.449 c 257.953 110.289 258.004
 112.137 258 114 c h
258 114 m f
0.666667 0.796078 0.164706 rg
72 180 240 156 re f
0.964706 0.776471 0.2 rg
96 216 48 36 re f
0.223529 0.309804 0.352941 rg
90 270 24 12 re f
126 270 24 12 re f
162 270 24 12 re f
90 288 36 12 re f
138 288 36 12 re f
0.8 0.862745 0.909804 rg
222 282 m 234 306 l 288 306 l 276 282 l h
222 282 m f
0.215686 0.65098 0.796078 rg
210 210 36 12 re f
0.941176 0.556863 0.0156863 rg
126 252 m 114 252 l 114 240 l 96 240 l 96 228 l 120 228 l 123.312 228 126
 230.688 126 234 c h
126 252 m f
0.223529 0.309804 0.352941 rg
90 306 12 12 re f
114 306 12 12 re f
0.215686 0.65098 0.796078 rg
288 216 m 288 222.629 282.629 228 276 228 c 269.371 228 264 222.629 264
 216 c 264 209.371 269.371 204 276 204 c 282.629 204 288 209.371 288 216
 c h
288 216 m f
Q Q
showpage
%%Trailer
end
%%EOF
