%!PS-Adobe-3.0 EPSF-3.0
%%Creator: cairo 1.16.0 (https://cairographics.org)
%%CreationDate: Fri Mar 13 07:34:34 2020
%%Pages: 1
%%DocumentData: Clean7Bit
%%LanguageLevel: 2
%%BoundingBox: 18 18 366 366
%%EndComments
%%BeginProlog
50 dict begin
/q { gsave } bind def
/Q { grestore } bind def
/cm { 6 array astore concat } bind def
/w { setlinewidth } bind def
/J { setlinecap } bind def
/j { setlinejoin } bind def
/M { setmiterlimit } bind def
/d { setdash } bind def
/m { moveto } bind def
/l { lineto } bind def
/c { curveto } bind def
/h { closepath } bind def
/re { exch dup neg 3 1 roll 5 3 roll moveto 0 rlineto
      0 exch rlineto 0 rlineto closepath } bind def
/S { stroke } bind def
/f { fill } bind def
/f* { eofill } bind def
/n { newpath } bind def
/W { clip } bind def
/W* { eoclip } bind def
/BT { } bind def
/ET { } bind def
/BDC { mark 3 1 roll /BDC pdfmark } bind def
/EMC { mark /EMC pdfmark } bind def
/cairo_store_point { /cairo_point_y exch def /cairo_point_x exch def } def
/Tj { show currentpoint cairo_store_point } bind def
/TJ {
  {
    dup
    type /stringtype eq
    { show } { -0.001 mul 0 cairo_font_matrix dtransform rmoveto } ifelse
  } forall
  currentpoint cairo_store_point
} bind def
/cairo_selectfont { cairo_font_matrix aload pop pop pop 0 0 6 array astore
    cairo_font exch selectfont cairo_point_x cairo_point_y moveto } bind def
/Tf { pop /cairo_font exch def /cairo_font_matrix where
      { pop cairo_selectfont } if } bind def
/Td { matrix translate cairo_font_matrix matrix concatmatrix dup
      /cairo_font_matrix exch def dup 4 get exch 5 get cairo_store_point
      /cairo_font where { pop cairo_selectfont } if } bind def
/Tm { 2 copy 8 2 roll 6 array astore /cairo_font_matrix exch def
      cairo_store_point /cairo_font where { pop cairo_selectfont } if } bind def
/g { setgray } bind def
/rg { setrgbcolor } bind def
/d1 { setcachedevice } bind def
/cairo_data_source {
  CairoDataIndex CairoData length lt
    { CairoData CairoDataIndex get /CairoDataIndex CairoDataIndex 1 add def }
    { () } ifelse
} def
/cairo_flush_ascii85_file { cairo_ascii85_file status { cairo_ascii85_file flushfile } if } def
/cairo_image { image cairo_flush_ascii85_file } def
/cairo_imagemask { imagemask cairo_flush_ascii85_file } def
%%EndProlog
%%BeginSetup
%%EndSetup
%%Page: 1 1
%%BeginPageSetup
%%PageBoundingBox: 18 18 366 366
%%EndPageSetup
q 18 18 348 348 rectclip
1 0 0 -1 0 384 cm q
0.215686 0.65098 0.796078 rg
108 18 m 276 18 l 282.648 18 288 23.352 288 30 c 288 354 l 288 360.648 
282.648 366 276 366 c 108 366 l 101.352 366 96 360.648 96 354 c 96 30 l 
96 23.352 101.352 18 108 18 c h
108 18 m f
0.572549 0.831373 0.937255 rg
114 348 m 114 36 l 150 36 l 150 45.941 158.059 54 168 54 c 216 54 l 225.941
 54 234 45.941 234 36 c 270 36 l 270 348 l h
114 348 m f
0.223529 0.403922 0.615686 rg
180 30 24 12 re f
222 36 m 222 39.312 219.312 42 216 42 c 212.688 42 210 39.312 210 36 c 
210 32.688 212.688 30 216 30 c 219.312 30 222 32.688 222 36 c h
222 36 m f
96 42 18 12 re f
270 42 18 12 re f
96 330 18 12 re f
270 330 18 12 re f
0.203922 0.631373 0.4 rg
150 258 216 108 re f
0 0.560784 0.333333 rg
150 258 168 18 re f
150 348 168 18 re f
0.0235294 0.478431 0.294118 rg
318 258 48 108 re f
0.0196078 0.411765 0.25098 rg
336 276 12 90 re f
0.964706 0.894118 0.635294 rg
222 258 24 108 re f
0.407843 0.733333 0.619608 rg
288 312 m 288 315.312 285.312 318 282 318 c 278.688 318 276 315.312 276
 312 c 276 308.688 278.688 306 282 306 c 285.312 306 288 308.688 288 312
 c h
288 312 m f
192 312 m 192 315.312 189.312 318 186 318 c 182.688 318 180 315.312 180
 312 c 180 308.688 182.688 306 186 306 c 189.312 306 192 308.688 192 312
 c h
192 312 m f
0 0.560784 0.333333 rg
294 324 12 12 re f
0.964706 0.894118 0.635294 rg
18 342 48 24 re f
66 342 48 24 re f
114 342 48 24 re f
18 318 48 24 re f
66 318 48 24 re f
114 318 48 24 re f
18 294 48 24 re f
66 294 48 24 re f
66 270 48 24 re f
0.666667 0.796078 0.164706 rg
138 72 108 168 re f
0.964706 0.776471 0.2 rg
192 90 24 30 re f
0.223529 0.309804 0.352941 rg
168 84 12 18 re f
168 114 12 18 re f
168 138 12 18 re f
0.215686 0.65098 0.796078 rg
216 162 12 36 re f
0.223529 0.309804 0.352941 rg
150 84 12 24 re f
150 114 12 24 re f
0.215686 0.65098 0.796078 rg
228 216 m 228 219.312 225.312 222 222 222 c 218.688 222 216 219.312 216
 216 c 216 212.688 218.688 210 222 210 c 225.312 210 228 212.688 228 216
 c h
228 216 m f
0.8 0.862745 0.909804 rg
156 186 m 174 174 l 174 210 l 156 222 l h
156 186 m f
0.964706 0.776471 0.2 rg
60 312 m 18 312 l 18 318 l 66 318 l 66 294 l 60 294 l h
60 312 m f
60 336 m 18 336 l 18 342 l 66 342 l 66 318 l 60 318 l h
60 336 m f
60 360 m 18 360 l 18 366 l 66 366 l 66 342 l 60 342 l h
60 360 m f
108 288 m 66 288 l 66 294 l 114 294 l 114 270 l 108 270 l h
108 288 m f
108 312 m 66 312 l 66 318 l 114 318 l 114 294 l 108 294 l h
108 312 m f
108 336 m 66 336 l 66 342 l 114 342 l 114 318 l 108 318 l h
108 336 m f
108 360 m 66 360 l 66 366 l 114 366 l 114 342 l 108 342 l h
108 360 m f
156 336 m 114 336 l 114 342 l 162 342 l 162 318 l 156 318 l h
156 336 m f
156 360 m 114 360 l 114 366 l 162 366 l 162 342 l 156 342 l h
156 360 m f
Q Q
showpage
%%Trailer
end
%%EOF
