%!PS-Adobe-3.0 EPSF-3.0
%%Creator: cairo 1.16.0 (https://cairographics.org)
%%CreationDate: Fri Mar 13 07:34:34 2020
%%Pages: 1
%%DocumentData: Clean7Bit
%%LanguageLevel: 2
%%BoundingBox: 18 18 378 372
%%EndComments
%%BeginProlog
50 dict begin
/q { gsave } bind def
/Q { grestore } bind def
/cm { 6 array astore concat } bind def
/w { setlinewidth } bind def
/J { setlinecap } bind def
/j { setlinejoin } bind def
/M { setmiterlimit } bind def
/d { setdash } bind def
/m { moveto } bind def
/l { lineto } bind def
/c { curveto } bind def
/h { closepath } bind def
/re { exch dup neg 3 1 roll 5 3 roll moveto 0 rlineto
      0 exch rlineto 0 rlineto closepath } bind def
/S { stroke } bind def
/f { fill } bind def
/f* { eofill } bind def
/n { newpath } bind def
/W { clip } bind def
/W* { eoclip } bind def
/BT { } bind def
/ET { } bind def
/BDC { mark 3 1 roll /BDC pdfmark } bind def
/EMC { mark /EMC pdfmark } bind def
/cairo_store_point { /cairo_point_y exch def /cairo_point_x exch def } def
/Tj { show currentpoint cairo_store_point } bind def
/TJ {
  {
    dup
    type /stringtype eq
    { show } { -0.001 mul 0 cairo_font_matrix dtransform rmoveto } ifelse
  } forall
  currentpoint cairo_store_point
} bind def
/cairo_selectfont { cairo_font_matrix aload pop pop pop 0 0 6 array astore
    cairo_font exch selectfont cairo_point_x cairo_point_y moveto } bind def
/Tf { pop /cairo_font exch def /cairo_font_matrix where
      { pop cairo_selectfont } if } bind def
/Td { matrix translate cairo_font_matrix matrix concatmatrix dup
      /cairo_font_matrix exch def dup 4 get exch 5 get cairo_store_point
      /cairo_font where { pop cairo_selectfont } if } bind def
/Tm { 2 copy 8 2 roll 6 array astore /cairo_font_matrix exch def
      cairo_store_point /cairo_font where { pop cairo_selectfont } if } bind def
/g { setgray } bind def
/rg { setrgbcolor } bind def
/d1 { setcachedevice } bind def
/cairo_data_source {
  CairoDataIndex CairoData length lt
    { CairoData CairoDataIndex get /CairoDataIndex CairoDataIndex 1 add def }
    { () } ifelse
} def
/cairo_flush_ascii85_file { cairo_ascii85_file status { cairo_ascii85_file flushfile } if } def
/cairo_image { image cairo_flush_ascii85_file } def
/cairo_imagemask { imagemask cairo_flush_ascii85_file } def
%%EndProlog
%%BeginSetup
%%EndSetup
%%Page: 1 1
%%BeginPageSetup
%%PageBoundingBox: 18 18 378 372
%%EndPageSetup
q 18 18 360 354 rectclip
1 0 0 -1 0 384 cm q
0.176471 0.501961 0.733333 rg
330 78 m 318 78 l 318 60 l 318 40.117 301.883 24 282 24 c 262.117 24 246
 40.117 246 60 c 246 78 l 234 78 l 234 60 l 234 33.492 255.492 12 282 12
 c 308.508 12 330 33.492 330 60 c h
330 78 m f
0.572549 0.831373 0.937255 rg
138 78 192 252 re f
0.215686 0.65098 0.796078 rg
330 78 48 252 re f
282 114 m 270 114 l 270 60 l 270 40.117 253.883 24 234 24 c 214.117 24 
198 40.117 198 60 c 198 114 l 186 114 l 186 60 l 186 33.492 207.492 12 234
 12 c 260.508 12 282 33.492 282 60 c h
282 114 m f
0.176471 0.501961 0.733333 rg
378 330 m 330 330 l 348 307.5 l 348 120 l 360 120 l 360 307.5 l h
378 330 m f
0.666667 0.796078 0.164706 rg
18 246 192 120 re f
0.964706 0.776471 0.2 rg
48 276 30 24 re f
0.223529 0.309804 0.352941 rg
36 318 24 12 re f
72 318 24 12 re f
108 318 24 12 re f
36 336 36 12 re f
84 336 36 12 re f
0.8 0.862745 0.909804 rg
144 324 m 156 342 l 192 342 l 180 324 l h
144 324 m f
0.215686 0.65098 0.796078 rg
132 264 36 12 re f
192 270 m 192 273.312 189.312 276 186 276 c 182.688 276 180 273.312 180
 270 c 180 266.688 182.688 264 186 264 c 189.312 264 192 266.688 192 270
 c h
192 270 m f
Q Q
showpage
%%Trailer
end
%%EOF
