%!PS-Adobe-3.0 EPSF-3.0
%%Creator: cairo 1.16.0 (https://cairographics.org)
%%CreationDate: Fri Mar 13 07:34:35 2020
%%Pages: 1
%%DocumentData: Clean7Bit
%%LanguageLevel: 2
%%BoundingBox: 60 12 324 366
%%EndComments
%%BeginProlog
50 dict begin
/q { gsave } bind def
/Q { grestore } bind def
/cm { 6 array astore concat } bind def
/w { setlinewidth } bind def
/J { setlinecap } bind def
/j { setlinejoin } bind def
/M { setmiterlimit } bind def
/d { setdash } bind def
/m { moveto } bind def
/l { lineto } bind def
/c { curveto } bind def
/h { closepath } bind def
/re { exch dup neg 3 1 roll 5 3 roll moveto 0 rlineto
      0 exch rlineto 0 rlineto closepath } bind def
/S { stroke } bind def
/f { fill } bind def
/f* { eofill } bind def
/n { newpath } bind def
/W { clip } bind def
/W* { eoclip } bind def
/BT { } bind def
/ET { } bind def
/BDC { mark 3 1 roll /BDC pdfmark } bind def
/EMC { mark /EMC pdfmark } bind def
/cairo_store_point { /cairo_point_y exch def /cairo_point_x exch def } def
/Tj { show currentpoint cairo_store_point } bind def
/TJ {
  {
    dup
    type /stringtype eq
    { show } { -0.001 mul 0 cairo_font_matrix dtransform rmoveto } ifelse
  } forall
  currentpoint cairo_store_point
} bind def
/cairo_selectfont { cairo_font_matrix aload pop pop pop 0 0 6 array astore
    cairo_font exch selectfont cairo_point_x cairo_point_y moveto } bind def
/Tf { pop /cairo_font exch def /cairo_font_matrix where
      { pop cairo_selectfont } if } bind def
/Td { matrix translate cairo_font_matrix matrix concatmatrix dup
      /cairo_font_matrix exch def dup 4 get exch 5 get cairo_store_point
      /cairo_font where { pop cairo_selectfont } if } bind def
/Tm { 2 copy 8 2 roll 6 array astore /cairo_font_matrix exch def
      cairo_store_point /cairo_font where { pop cairo_selectfont } if } bind def
/g { setgray } bind def
/rg { setrgbcolor } bind def
/d1 { setcachedevice } bind def
/cairo_data_source {
  CairoDataIndex CairoData length lt
    { CairoData CairoDataIndex get /CairoDataIndex CairoDataIndex 1 add def }
    { () } ifelse
} def
/cairo_flush_ascii85_file { cairo_ascii85_file status { cairo_ascii85_file flushfile } if } def
/cairo_image { image cairo_flush_ascii85_file } def
/cairo_imagemask { imagemask cairo_flush_ascii85_file } def
%%EndProlog
%%BeginSetup
%%EndSetup
%%Page: 1 1
%%BeginPageSetup
%%PageBoundingBox: 60 12 324 366
%%EndPageSetup
q 60 12 264 354 rectclip
1 0 0 -1 0 384 cm q
0.988235 0.839216 0.717647 rg
192 282 m 180 282 l 173.371 282 168 276.629 168 270 c 168 252 l 161.371
 252 156 246.629 156 240 c 156 227.617 l 156 204.812 165.059 182.941 181.184
 166.816 c 198 150 l 288 132 l 316.969 160.969 l 321.473 165.473 324 171.574
 324 177.941 c 324 262.734 l 324 267.473 322.598 272.105 319.969 276.047
 c 308.152 293.77 l 295.012 313.48 288 336.641 288 360.332 c 288 372 l 216
 372 l 216 340.969 l 216 330.105 211.684 319.684 204 312 c 196.316 304.316
 192 293.895 192 283.031 c h
192 282 m f
192 204 m 192 252 l 168 252 l 164.816 252 161.766 250.738 159.516 248.484
 c 157.262 246.234 156 243.184 156 240 c 156 198.062 l h
192 204 m f
0.968627 0.713726 0.537255 rg
192 204 m 192 248.484 l 156 212.484 l 156 198.062 l h
192 204 m f
0.988235 0.839216 0.717647 rg
192 240 m 158.484 206.484 l 156.234 204.234 154.969 201.184 154.969 198
 c 154.969 194.816 156.234 191.766 158.484 189.516 c 186 162 l 222 162 l
 222 240 l h
192 240 m f
0.968627 0.713726 0.537255 rg
186 282 m 186 220.973 l 185.969 208.508 190.922 196.551 199.762 187.762
 c 206.336 181.211 210.023 172.309 210 163.027 c 210 132.562 l 210 116.18
 222.898 102.395 239.277 102.008 c 247.355 101.824 255.164 104.898 260.945
 110.543 c 266.727 116.188 269.992 123.922 270 132 c 270 189.512 l 285.895
 205.406 l 288.676 208.188 289.504 212.367 288 216 c 276 216 l 270 282 l
 h
186 282 m f
0.666667 0.796078 0.164706 rg
60 18 228 144 re f
0.964706 0.776471 0.2 rg
84 42 48 36 re f
0.941176 0.556863 0.0156863 rg
114 78 m 102 78 l 102 66 l 84 66 l 84 54 l 108 54 l 109.59 54 111.117 54.633
 112.242 55.758 c 113.367 56.883 114 58.41 114 60 c h
114 78 m f
0.223529 0.309804 0.352941 rg
78 96 24 12 re f
114 96 24 12 re f
150 96 24 12 re f
78 114 48 12 re f
138 114 60 12 re f
78 132 12 12 re f
102 132 12 12 re f
0.215686 0.65098 0.796078 rg
264 54 m 264 60.629 258.629 66 252 66 c 245.371 66 240 60.629 240 54 c 
240 47.371 245.371 42 252 42 c 258.629 42 264 47.371 264 54 c h
264 54 m f
180 48 42 12 re f
0.988235 0.839216 0.717647 rg
288 216 m 264 192 l 264 132 l 264 118.746 253.254 108 240 108 c 226.746
 108 216 118.746 216 132 c 216 163.031 l 216 173.895 211.684 184.316 204
 192 c 196.316 199.684 192 210.105 192 220.969 c 192 283.031 l 192 293.895
 196.316 304.316 204 312 c 211.684 319.684 216 330.105 216 340.969 c 216
 372 l 288 372 l h
288 216 m f
0.968627 0.713726 0.537255 rg
168 252 24 6 re f
Q Q
showpage
%%Trailer
end
%%EOF
