%!PS-Adobe-3.0 EPSF-3.0
%%Creator: cairo 1.16.0 (https://cairographics.org)
%%CreationDate: Fri Mar 13 07:34:37 2020
%%Pages: 1
%%DocumentData: Clean7Bit
%%LanguageLevel: 2
%%BoundingBox: 18 18 366 366
%%EndComments
%%BeginProlog
50 dict begin
/q { gsave } bind def
/Q { grestore } bind def
/cm { 6 array astore concat } bind def
/w { setlinewidth } bind def
/J { setlinecap } bind def
/j { setlinejoin } bind def
/M { setmiterlimit } bind def
/d { setdash } bind def
/m { moveto } bind def
/l { lineto } bind def
/c { curveto } bind def
/h { closepath } bind def
/re { exch dup neg 3 1 roll 5 3 roll moveto 0 rlineto
      0 exch rlineto 0 rlineto closepath } bind def
/S { stroke } bind def
/f { fill } bind def
/f* { eofill } bind def
/n { newpath } bind def
/W { clip } bind def
/W* { eoclip } bind def
/BT { } bind def
/ET { } bind def
/BDC { mark 3 1 roll /BDC pdfmark } bind def
/EMC { mark /EMC pdfmark } bind def
/cairo_store_point { /cairo_point_y exch def /cairo_point_x exch def } def
/Tj { show currentpoint cairo_store_point } bind def
/TJ {
  {
    dup
    type /stringtype eq
    { show } { -0.001 mul 0 cairo_font_matrix dtransform rmoveto } ifelse
  } forall
  currentpoint cairo_store_point
} bind def
/cairo_selectfont { cairo_font_matrix aload pop pop pop 0 0 6 array astore
    cairo_font exch selectfont cairo_point_x cairo_point_y moveto } bind def
/Tf { pop /cairo_font exch def /cairo_font_matrix where
      { pop cairo_selectfont } if } bind def
/Td { matrix translate cairo_font_matrix matrix concatmatrix dup
      /cairo_font_matrix exch def dup 4 get exch 5 get cairo_store_point
      /cairo_font where { pop cairo_selectfont } if } bind def
/Tm { 2 copy 8 2 roll 6 array astore /cairo_font_matrix exch def
      cairo_store_point /cairo_font where { pop cairo_selectfont } if } bind def
/g { setgray } bind def
/rg { setrgbcolor } bind def
/d1 { setcachedevice } bind def
/cairo_data_source {
  CairoDataIndex CairoData length lt
    { CairoData CairoDataIndex get /CairoDataIndex CairoDataIndex 1 add def }
    { () } ifelse
} def
/cairo_flush_ascii85_file { cairo_ascii85_file status { cairo_ascii85_file flushfile } if } def
/cairo_image { image cairo_flush_ascii85_file } def
/cairo_imagemask { imagemask cairo_flush_ascii85_file } def
%%EndProlog
%%BeginSetup
%%EndSetup
%%Page: 1 1
%%BeginPageSetup
%%PageBoundingBox: 18 18 366 366
%%EndPageSetup
q 18 18 348 348 rectclip
1 0 0 -1 0 384 cm q
0.572549 0.831373 0.937255 rg
18 78 180 288 re f
0.223529 0.403922 0.615686 rg
49.5 222 m 166.5 222 l 173.957 222 180 228.043 180 235.5 c 180 366 l 36
 366 l 36 235.5 l 36 228.043 42.043 222 49.5 222 c h
49.5 222 m f
0.215686 0.65098 0.796078 rg
54 240 24 24 re f
96 240 24 24 re f
138 240 24 24 re f
54 282 24 24 re f
96 282 24 24 re f
138 282 24 24 re f
54 324 24 24 re f
96 324 24 24 re f
138 324 24 24 re f
60 150 96 48 re f
180 150 m 180 153.312 177.312 156 174 156 c 170.688 156 168 153.312 168
 150 c 168 146.688 170.688 144 174 144 c 177.312 144 180 146.688 180 150
 c h
180 150 m f
180 174 m 180 177.312 177.312 180 174 180 c 170.688 180 168 177.312 168
 174 c 168 170.688 170.688 168 174 168 c 177.312 168 180 170.688 180 174
 c h
180 174 m f
180 198 m 180 201.312 177.312 204 174 204 c 170.688 204 168 201.312 168
 198 c 168 194.688 170.688 192 174 192 c 177.312 192 180 194.688 180 198
 c h
180 198 m f
0.964706 0.894118 0.635294 rg
48 18 120 108 re f
0.223529 0.309804 0.352941 rg
84 30 48 12 re f
66 48 36 12 re f
114 48 36 12 re f
66 66 84 12 re f
66 84 36 12 re f
66 102 36 12 re f
126 84 24 12 re f
126 102 24 12 re f
0.223529 0.403922 0.615686 rg
198 192 24 174 re f
0.572549 0.831373 0.937255 rg
222 168 24 198 re f
0.666667 0.796078 0.164706 rg
198 18 168 108 re f
0.941176 0.556863 0.0156863 rg
222 42 30 24 re f
0.223529 0.309804 0.352941 rg
216 78 12 12 re f
240 78 12 12 re f
264 78 24 12 re f
216 96 24 12 re f
252 96 24 12 re f
0.215686 0.65098 0.796078 rg
306 36 24 12 re f
348 42 m 348 45.312 345.312 48 342 48 c 338.688 48 336 45.312 336 42 c 
336 38.688 338.688 36 342 36 c 345.312 36 348 38.688 348 42 c h
348 42 m f
0.8 0.862745 0.909804 rg
300 84 m 312 102 l 348 102 l 336 84 l h
300 84 m f
Q Q
showpage
%%Trailer
end
%%EOF
