%!PS-Adobe-3.0 EPSF-3.0
%%Creator: cairo 1.16.0 (https://cairographics.org)
%%CreationDate: Fri Mar 13 07:34:38 2020
%%Pages: 1
%%DocumentData: Clean7Bit
%%LanguageLevel: 2
%%BoundingBox: 18 18 366 366
%%EndComments
%%BeginProlog
50 dict begin
/q { gsave } bind def
/Q { grestore } bind def
/cm { 6 array astore concat } bind def
/w { setlinewidth } bind def
/J { setlinecap } bind def
/j { setlinejoin } bind def
/M { setmiterlimit } bind def
/d { setdash } bind def
/m { moveto } bind def
/l { lineto } bind def
/c { curveto } bind def
/h { closepath } bind def
/re { exch dup neg 3 1 roll 5 3 roll moveto 0 rlineto
      0 exch rlineto 0 rlineto closepath } bind def
/S { stroke } bind def
/f { fill } bind def
/f* { eofill } bind def
/n { newpath } bind def
/W { clip } bind def
/W* { eoclip } bind def
/BT { } bind def
/ET { } bind def
/BDC { mark 3 1 roll /BDC pdfmark } bind def
/EMC { mark /EMC pdfmark } bind def
/cairo_store_point { /cairo_point_y exch def /cairo_point_x exch def } def
/Tj { show currentpoint cairo_store_point } bind def
/TJ {
  {
    dup
    type /stringtype eq
    { show } { -0.001 mul 0 cairo_font_matrix dtransform rmoveto } ifelse
  } forall
  currentpoint cairo_store_point
} bind def
/cairo_selectfont { cairo_font_matrix aload pop pop pop 0 0 6 array astore
    cairo_font exch selectfont cairo_point_x cairo_point_y moveto } bind def
/Tf { pop /cairo_font exch def /cairo_font_matrix where
      { pop cairo_selectfont } if } bind def
/Td { matrix translate cairo_font_matrix matrix concatmatrix dup
      /cairo_font_matrix exch def dup 4 get exch 5 get cairo_store_point
      /cairo_font where { pop cairo_selectfont } if } bind def
/Tm { 2 copy 8 2 roll 6 array astore /cairo_font_matrix exch def
      cairo_store_point /cairo_font where { pop cairo_selectfont } if } bind def
/g { setgray } bind def
/rg { setrgbcolor } bind def
/d1 { setcachedevice } bind def
/cairo_data_source {
  CairoDataIndex CairoData length lt
    { CairoData CairoDataIndex get /CairoDataIndex CairoDataIndex 1 add def }
    { () } ifelse
} def
/cairo_flush_ascii85_file { cairo_ascii85_file status { cairo_ascii85_file flushfile } if } def
/cairo_image { image cairo_flush_ascii85_file } def
/cairo_imagemask { imagemask cairo_flush_ascii85_file } def
%%EndProlog
%%BeginSetup
%%EndSetup
%%Page: 1 1
%%BeginPageSetup
%%PageBoundingBox: 18 18 366 366
%%EndPageSetup
q 18 18 348 348 rectclip
1 0 0 -1 0 384 cm q
0.964706 0.894118 0.635294 rg
114 222 252 144 re f
0.203922 0.631373 0.4 rg
18 18 252 144 re f
0.92549 0.25098 0.258824 rg
186 258 m 114 258 l 114 282 l 186 282 l 186 366 l 366 366 l 366 222 l 186
 222 l h
186 258 m f
0.819608 0.14902 0.152941 rg
348 246 m 348 249.312 345.312 252 342 252 c 338.688 252 336 249.312 336
 246 c 336 242.688 338.688 240 342 240 c 345.312 240 348 242.688 348 246
 c h
348 246 m f
228 336 m 228 342.629 222.629 348 216 348 c 209.371 348 204 342.629 204
 336 c 204 329.371 209.371 324 216 324 c 222.629 324 228 329.371 228 336
 c h
228 336 m f
0 0.560784 0.333333 rg
18 138 252 24 re f
18 18 252 24.25 re f
0.407843 0.733333 0.619608 rg
174 90 m 174 106.57 160.57 120 144 120 c 127.43 120 114 106.57 114 90 c
 114 73.43 127.43 60 144 60 c 160.57 60 174 73.43 174 90 c h
174 90 m f
234 90 m 234 96.629 228.629 102 222 102 c 215.371 102 210 96.629 210 90
 c 210 83.371 215.371 78 222 78 c 228.629 78 234 83.371 234 90 c h
234 90 m f
78 90 m 78 96.629 72.629 102 66 102 c 59.371 102 54 96.629 54 90 c 54 83.371
 59.371 78 66 78 c 72.629 78 78 83.371 78 90 c h
78 90 m f
0.215686 0.65098 0.796078 rg
18 222 m 54 186 l 90 222 l h
18 222 m f
0.572549 0.831373 0.937255 rg
42 222 m 42 306 l 96 306 l 96 282 l 66 282 l 66 222 l h
42 222 m f
0.215686 0.65098 0.796078 rg
366 162 m 330 198 l 294 162 l h
366 162 m f
0.572549 0.831373 0.937255 rg
342 162 m 342 78 l 288 78 l 288 102 l 318 102 l 318 162 l h
342 162 m f
0.945098 0.556863 0.596078 rg
250.836 319.164 m 264 306 l 276 306 l 276 300 l 272.16 296.16 270 290.949
 270 285.516 c 270 276 l 266.484 272.484 l 263.051 269.051 262.027 263.887
 263.887 259.406 c 265.742 254.922 270.121 252 274.973 252 c 301.027 252
 l 302.605 252 304.168 252.309 305.625 252.914 c 309.324 254.449 312.016
 257.73 312.801 261.66 c 313.582 265.59 312.352 269.648 309.516 272.484 
c 306 276 l 306 285.516 l 306 290.949 303.84 296.16 300 300 c 300 306 l 
312 306 l 325.164 319.164 l f
0.917647 0.47451 0.180392 rg
325.164 319.164 m 318.137 336.309 304.133 348 288 348 c 271.867 348 257.863
 336.309 250.836 319.164 c 264 306 l 276 306 l 276 300 l 272.16 296.16 270
 290.949 270 285.516 c 270 276 l 266.484 272.484 l 263.051 269.051 262.027
 263.887 263.887 259.406 c 265.742 254.922 270.121 252 274.973 252 c 301.027
 252 l 302.605 252 304.168 252.309 305.625 252.914 c 309.328 254.449 312.02
 257.73 312.801 261.66 c 313.582 265.59 312.352 269.648 309.516 272.484 
c 306 276 l 306 285.516 l 306 290.949 303.84 296.16 300 300 c 300 306 l 
312 306 l h
325.164 319.164 m f
0.905882 0.396078 0.215686 rg
311.422 270 m 310.898 270.906 310.258 271.742 309.516 272.484 c 306 276
 l 306 282 l 294 282 l 294 288 l 282 288 l 282 276 l 282 274.41 282.633 
272.883 283.758 271.758 c 284.883 270.633 286.41 270 288 270 c h
311.422 270 m f
0.819608 0.14902 0.152941 rg
174 270 m 174 279.941 165.941 288 156 288 c 146.059 288 138 279.941 138
 270 c 138 260.059 146.059 252 156 252 c 165.941 252 174 260.059 174 270
 c h
174 270 m f
Q Q
showpage
%%Trailer
end
%%EOF
