%!PS-Adobe-3.0 EPSF-3.0
%%Creator: cairo 1.16.0 (https://cairographics.org)
%%CreationDate: Fri Mar 13 07:34:38 2020
%%Pages: 1
%%DocumentData: Clean7Bit
%%LanguageLevel: 2
%%BoundingBox: 18 18 366 366
%%EndComments
%%BeginProlog
50 dict begin
/q { gsave } bind def
/Q { grestore } bind def
/cm { 6 array astore concat } bind def
/w { setlinewidth } bind def
/J { setlinecap } bind def
/j { setlinejoin } bind def
/M { setmiterlimit } bind def
/d { setdash } bind def
/m { moveto } bind def
/l { lineto } bind def
/c { curveto } bind def
/h { closepath } bind def
/re { exch dup neg 3 1 roll 5 3 roll moveto 0 rlineto
      0 exch rlineto 0 rlineto closepath } bind def
/S { stroke } bind def
/f { fill } bind def
/f* { eofill } bind def
/n { newpath } bind def
/W { clip } bind def
/W* { eoclip } bind def
/BT { } bind def
/ET { } bind def
/BDC { mark 3 1 roll /BDC pdfmark } bind def
/EMC { mark /EMC pdfmark } bind def
/cairo_store_point { /cairo_point_y exch def /cairo_point_x exch def } def
/Tj { show currentpoint cairo_store_point } bind def
/TJ {
  {
    dup
    type /stringtype eq
    { show } { -0.001 mul 0 cairo_font_matrix dtransform rmoveto } ifelse
  } forall
  currentpoint cairo_store_point
} bind def
/cairo_selectfont { cairo_font_matrix aload pop pop pop 0 0 6 array astore
    cairo_font exch selectfont cairo_point_x cairo_point_y moveto } bind def
/Tf { pop /cairo_font exch def /cairo_font_matrix where
      { pop cairo_selectfont } if } bind def
/Td { matrix translate cairo_font_matrix matrix concatmatrix dup
      /cairo_font_matrix exch def dup 4 get exch 5 get cairo_store_point
      /cairo_font where { pop cairo_selectfont } if } bind def
/Tm { 2 copy 8 2 roll 6 array astore /cairo_font_matrix exch def
      cairo_store_point /cairo_font where { pop cairo_selectfont } if } bind def
/g { setgray } bind def
/rg { setrgbcolor } bind def
/d1 { setcachedevice } bind def
/cairo_data_source {
  CairoDataIndex CairoData length lt
    { CairoData CairoDataIndex get /CairoDataIndex CairoDataIndex 1 add def }
    { () } ifelse
} def
/cairo_flush_ascii85_file { cairo_ascii85_file status { cairo_ascii85_file flushfile } if } def
/cairo_image { image cairo_flush_ascii85_file } def
/cairo_imagemask { imagemask cairo_flush_ascii85_file } def
%%EndProlog
%%BeginSetup
%%EndSetup
%%Page: 1 1
%%BeginPageSetup
%%PageBoundingBox: 18 18 366 366
%%EndPageSetup
q 18 18 348 348 rectclip
1 0 0 -1 0 384 cm q
0.670588 0.870588 0.952941 rg
114 18 240 342 re f
0.666667 0.796078 0.164706 rg
18 168 156 198 re f
0.203922 0.631373 0.4 rg
66 252 m 66 258.629 60.629 264 54 264 c 47.371 264 42 258.629 42 252 c 
42 245.371 47.371 240 54 240 c 60.629 240 66 245.371 66 252 c h
66 252 m f
108 252 m 108 258.629 102.629 264 96 264 c 89.371 264 84 258.629 84 252
 c 84 245.371 89.371 240 96 240 c 102.629 240 108 245.371 108 252 c h
108 252 m f
150 252 m 150 258.629 144.629 264 138 264 c 131.371 264 126 258.629 126
 252 c 126 245.371 131.371 240 138 240 c 144.629 240 150 245.371 150 252
 c h
150 252 m f
66 294 m 66 300.629 60.629 306 54 306 c 47.371 306 42 300.629 42 294 c 
42 287.371 47.371 282 54 282 c 60.629 282 66 287.371 66 294 c h
66 294 m f
108 294 m 108 300.629 102.629 306 96 306 c 89.371 306 84 300.629 84 294
 c 84 287.371 89.371 282 96 282 c 102.629 282 108 287.371 108 294 c h
108 294 m f
150 294 m 150 300.629 144.629 306 138 306 c 131.371 306 126 300.629 126
 294 c 126 287.371 131.371 282 138 282 c 144.629 282 150 287.371 150 294
 c h
150 294 m f
66 336 m 66 342.629 60.629 348 54 348 c 47.371 348 42 342.629 42 336 c 
42 329.371 47.371 324 54 324 c 60.629 324 66 329.371 66 336 c h
66 336 m f
108 336 m 108 342.629 102.629 348 96 348 c 89.371 348 84 342.629 84 336
 c 84 329.371 89.371 324 96 324 c 102.629 324 108 329.371 108 336 c h
108 336 m f
150 336 m 150 342.629 144.629 348 138 348 c 131.371 348 126 342.629 126
 336 c 126 329.371 131.371 324 138 324 c 144.629 324 150 329.371 150 336
 c h
150 336 m f
0.670588 0.870588 0.952941 rg
48 186 96 36 re f
0.964706 0.894118 0.635294 rg
318 342 48 24 re f
270 342 48 24 re f
318 318 48 24 re f
270 318 48 24 re f
318 294 48 24 re f
318 270 48 24 re f
270 294 48 24 re f
270 270 48 24 re f
270 246 48 24 re f
0.964706 0.776471 0.2 rg
318 246 m 318 270 l 270 270 l 270 264 l 312 264 l 312 246 l h
318 246 m f
366 270 m 366 294 l 318 294 l 318 288 l 360 288 l 360 270 l h
366 270 m f
318 270 m 318 294 l 270 294 l 270 288 l 312 288 l 312 270 l h
318 270 m f
366 294 m 366 318 l 318 318 l 318 312 l 360 312 l 360 294 l h
366 294 m f
318 294 m 318 318 l 270 318 l 270 312 l 312 312 l 312 294 l h
318 294 m f
366 318 m 366 342 l 318 342 l 318 336 l 360 336 l 360 318 l h
366 318 m f
318 318 m 318 342 l 270 342 l 270 336 l 312 336 l 312 318 l h
318 318 m f
366 342 m 366 366 l 318 366 l 318 360 l 360 360 l 360 342 l h
366 342 m f
318 342 m 318 366 l 270 366 l 270 360 l 312 360 l 312 342 l h
318 342 m f
0.964706 0.894118 0.635294 rg
222 318 48 24 re f
174 342 48 24 re f
222 342 48 24 re f
0.223529 0.309804 0.352941 rg
186 36 96 12 re f
132 60 84 12 re f
264 60 72 12 re f
132 84 204 12 re f
132 108 120 12 re f
288 108 24 12 re f
324 108 12 12 re f
288 132 24 12 re f
324 132 12 12 re f
288 156 24 12 re f
324 156 12 12 re f
132 132 84 12 re f
132 156 96 12 re f
174 180 162 12 re f
288 204 48 12 re f
288 228 48 12 re f
174 204 54 12 re f
174 228 36 12 re f
0.215686 0.65098 0.796078 rg
78 198 24 12 re f
114 198 12 12 re f
0.964706 0.776471 0.2 rg
270 318 m 270 342 l 222 342 l 222 336 l 264 336 l 264 318 l h
270 318 m f
270 342 m 270 366 l 222 366 l 222 360 l 264 360 l 264 342 l h
270 342 m f
222 342 m 222 366 l 174 366 l 174 360 l 216 360 l 216 342 l h
222 342 m f
Q Q
showpage
%%Trailer
end
%%EOF
