%!PS-Adobe-3.0 EPSF-3.0
%%Creator: cairo 1.16.0 (https://cairographics.org)
%%CreationDate: Fri Mar 13 07:34:39 2020
%%Pages: 1
%%DocumentData: Clean7Bit
%%LanguageLevel: 2
%%BoundingBox: 18 84 366 300
%%EndComments
%%BeginProlog
50 dict begin
/q { gsave } bind def
/Q { grestore } bind def
/cm { 6 array astore concat } bind def
/w { setlinewidth } bind def
/J { setlinecap } bind def
/j { setlinejoin } bind def
/M { setmiterlimit } bind def
/d { setdash } bind def
/m { moveto } bind def
/l { lineto } bind def
/c { curveto } bind def
/h { closepath } bind def
/re { exch dup neg 3 1 roll 5 3 roll moveto 0 rlineto
      0 exch rlineto 0 rlineto closepath } bind def
/S { stroke } bind def
/f { fill } bind def
/f* { eofill } bind def
/n { newpath } bind def
/W { clip } bind def
/W* { eoclip } bind def
/BT { } bind def
/ET { } bind def
/BDC { mark 3 1 roll /BDC pdfmark } bind def
/EMC { mark /EMC pdfmark } bind def
/cairo_store_point { /cairo_point_y exch def /cairo_point_x exch def } def
/Tj { show currentpoint cairo_store_point } bind def
/TJ {
  {
    dup
    type /stringtype eq
    { show } { -0.001 mul 0 cairo_font_matrix dtransform rmoveto } ifelse
  } forall
  currentpoint cairo_store_point
} bind def
/cairo_selectfont { cairo_font_matrix aload pop pop pop 0 0 6 array astore
    cairo_font exch selectfont cairo_point_x cairo_point_y moveto } bind def
/Tf { pop /cairo_font exch def /cairo_font_matrix where
      { pop cairo_selectfont } if } bind def
/Td { matrix translate cairo_font_matrix matrix concatmatrix dup
      /cairo_font_matrix exch def dup 4 get exch 5 get cairo_store_point
      /cairo_font where { pop cairo_selectfont } if } bind def
/Tm { 2 copy 8 2 roll 6 array astore /cairo_font_matrix exch def
      cairo_store_point /cairo_font where { pop cairo_selectfont } if } bind def
/g { setgray } bind def
/rg { setrgbcolor } bind def
/d1 { setcachedevice } bind def
/cairo_data_source {
  CairoDataIndex CairoData length lt
    { CairoData CairoDataIndex get /CairoDataIndex CairoDataIndex 1 add def }
    { () } ifelse
} def
/cairo_flush_ascii85_file { cairo_ascii85_file status { cairo_ascii85_file flushfile } if } def
/cairo_image { image cairo_flush_ascii85_file } def
/cairo_imagemask { imagemask cairo_flush_ascii85_file } def
%%EndProlog
%%BeginSetup
%%EndSetup
%%Page: 1 1
%%BeginPageSetup
%%PageBoundingBox: 18 84 366 300
%%EndPageSetup
q 18 84 348 216 rectclip
1 0 0 -1 0 384 cm q
0.666667 0.796078 0.164706 rg
18 84 348 216 re f
0.964706 0.776471 0.2 rg
60 120 72 72 re f
0.941176 0.556863 0.0156863 rg
114 168 m 114 192 l 102 192 l 102 174 l 90 174 l 90 192 l 78 192 l 78 174
 l 60 174 l 60 162 l 108 162 l 109.59 162 111.117 162.633 112.242 163.758
 c 113.367 164.883 114 166.41 114 168 c h
114 168 m f
132 138 m 132 150 l 60 150 l 60 138 l 78 138 l 78 120 l 90 120 l 90 138
 l 102 138 l 102 120 l 114 120 l 114 138 l h
132 138 m f
0.223529 0.309804 0.352941 rg
54 216 48 12 re f
114 216 48 12 re f
174 216 48 12 re f
54 240 60 12 re f
126 240 60 12 re f
54 264 24 12 re f
90 264 24 12 re f
0.8 0.862745 0.909804 rg
246 240 m 264 270 l 342 270 l 324 240 l h
246 240 m f
0.215686 0.65098 0.796078 rg
204 114 72 24 re f
336 126 m 336 135.941 327.941 144 318 144 c 308.059 144 300 135.941 300
 126 c 300 116.059 308.059 108 318 108 c 327.941 108 336 116.059 336 126
 c h
336 126 m f
Q Q
showpage
%%Trailer
end
%%EOF
