%!PS-Adobe-3.0 EPSF-3.0
%%Creator: cairo 1.16.0 (https://cairographics.org)
%%CreationDate: Fri Mar 13 07:34:40 2020
%%Pages: 1
%%DocumentData: Clean7Bit
%%LanguageLevel: 2
%%BoundingBox: 18 18 366 372
%%EndComments
%%BeginProlog
50 dict begin
/q { gsave } bind def
/Q { grestore } bind def
/cm { 6 array astore concat } bind def
/w { setlinewidth } bind def
/J { setlinecap } bind def
/j { setlinejoin } bind def
/M { setmiterlimit } bind def
/d { setdash } bind def
/m { moveto } bind def
/l { lineto } bind def
/c { curveto } bind def
/h { closepath } bind def
/re { exch dup neg 3 1 roll 5 3 roll moveto 0 rlineto
      0 exch rlineto 0 rlineto closepath } bind def
/S { stroke } bind def
/f { fill } bind def
/f* { eofill } bind def
/n { newpath } bind def
/W { clip } bind def
/W* { eoclip } bind def
/BT { } bind def
/ET { } bind def
/BDC { mark 3 1 roll /BDC pdfmark } bind def
/EMC { mark /EMC pdfmark } bind def
/cairo_store_point { /cairo_point_y exch def /cairo_point_x exch def } def
/Tj { show currentpoint cairo_store_point } bind def
/TJ {
  {
    dup
    type /stringtype eq
    { show } { -0.001 mul 0 cairo_font_matrix dtransform rmoveto } ifelse
  } forall
  currentpoint cairo_store_point
} bind def
/cairo_selectfont { cairo_font_matrix aload pop pop pop 0 0 6 array astore
    cairo_font exch selectfont cairo_point_x cairo_point_y moveto } bind def
/Tf { pop /cairo_font exch def /cairo_font_matrix where
      { pop cairo_selectfont } if } bind def
/Td { matrix translate cairo_font_matrix matrix concatmatrix dup
      /cairo_font_matrix exch def dup 4 get exch 5 get cairo_store_point
      /cairo_font where { pop cairo_selectfont } if } bind def
/Tm { 2 copy 8 2 roll 6 array astore /cairo_font_matrix exch def
      cairo_store_point /cairo_font where { pop cairo_selectfont } if } bind def
/g { setgray } bind def
/rg { setrgbcolor } bind def
/d1 { setcachedevice } bind def
/cairo_data_source {
  CairoDataIndex CairoData length lt
    { CairoData CairoDataIndex get /CairoDataIndex CairoDataIndex 1 add def }
    { () } ifelse
} def
/cairo_flush_ascii85_file { cairo_ascii85_file status { cairo_ascii85_file flushfile } if } def
/cairo_image { image cairo_flush_ascii85_file } def
/cairo_imagemask { imagemask cairo_flush_ascii85_file } def
%%EndProlog
%%BeginSetup
%%EndSetup
%%Page: 1 1
%%BeginPageSetup
%%PageBoundingBox: 18 18 366 372
%%EndPageSetup
q 18 18 348 354 rectclip
1 0 0 -1 0 384 cm q
0.572549 0.831373 0.937255 rg
282 192 m 281.961 230.449 257.473 264.617 221.074 277.012 c 184.68 289.406
 144.43 277.281 120.93 246.848 c 97.434 216.414 95.891 174.406 117.094 142.332
 c 138.293 110.254 177.547 95.211 214.754 104.902 c 254.434 115.168 282.109
 151.016 282 192 c h
282 192 m f
0.203922 0.631373 0.4 rg
282 192 m 282.031 217.352 271.336 241.531 252.562 258.562 c 240 246 l 246
 228 l 234 210 l 246 198 l 252 180 l 246 168 l 228 168 l 198 144 l 214.754
 104.902 l 254.367 115.27 281.996 151.055 282 192 c h
282 192 m f
138 210 m 168 222 l 162 234 l 138 234 l 127.582 254.836 l 108.844 235.629
 99.648 209.062 102.516 182.383 c 105.379 155.703 120 131.691 142.387 116.902
 c 174 144 l 162 174 l 132 162 l 126 180 l 138 186 l h
138 210 m f
0.941176 0.556863 0.0156863 rg
342 54 m 330 54 l 330 36 l 330 29.371 324.629 24 318 24 c 311.371 24 306
 29.371 306 36 c 306 54 l 294 54 l 294 36 l 294 22.746 304.746 12 318 12
 c 331.254 12 342 22.746 342 36 c h
342 54 m f
0.964706 0.894118 0.635294 rg
246 54 120 132 re f
0.964706 0.776471 0.2 rg
342 54 24 132 re f
318 72 m 306 72 l 306 36 l 306 29.371 300.629 24 294 24 c 287.371 24 282
 29.371 282 36 c 282 72 l 270 72 l 270 36 l 270 22.746 280.746 12 294 12
 c 307.254 12 318 22.746 318 36 c h
318 72 m f
0.321569 0.615686 0.87451 rg
229.633 59.195 m 217.387 55.738 204.723 53.992 192 54 c 115.906 54 54 115.906
 54 192 c 53.992 203.418 55.402 214.793 58.191 225.863 c 43.457 222.18 l
 40.543 233.82 l 64.543 239.82 l 66.59 240.332 68.754 239.734 70.242 238.242
 c 88.242 220.242 l 79.758 211.758 l 69.578 221.934 l 67.195 212.137 65.992
 202.086 66 192 c 66 122.523 122.523 66 192 66 c 203.621 65.992 215.184 
67.586 226.367 70.742 c h
229.633 59.195 m f
346.25 223.766 m 328.312 205.766 l 326.824 204.27 324.66 203.668 322.613
 204.18 c 298.547 210.18 l 301.453 221.82 l 315.219 218.391 l 303.656 272.312
 258.379 312.457 203.461 317.484 c 204.539 329.438 l 264.539 323.949 314.055
 280.188 326.863 221.312 c 337.75 232.234 l h
346.25 223.766 m f
0.666667 0.796078 0.164706 rg
18 258 168 108 re f
0.964706 0.776471 0.2 rg
36 288 30 24 re f
0.223529 0.309804 0.352941 rg
30 324 18 12 re f
60 324 18 12 re f
84 324 18 12 re f
0.215686 0.65098 0.796078 rg
108 276 36 12 re f
0.223529 0.309804 0.352941 rg
30 342 24 12 re f
60 342 24 12 re f
0.215686 0.65098 0.796078 rg
168 282 m 168 285.312 165.312 288 162 288 c 158.688 288 156 285.312 156
 282 c 156 278.688 158.688 276 162 276 c 165.312 276 168 278.688 168 282
 c h
168 282 m f
0.8 0.862745 0.909804 rg
132 348 m 120 330 l 156 330 l 168 348 l h
132 348 m f
Q Q
showpage
%%Trailer
end
%%EOF
