%!PS-Adobe-3.0 EPSF-3.0
%%Creator: cairo 1.16.0 (https://cairographics.org)
%%CreationDate: Fri Mar 13 07:34:42 2020
%%Pages: 1
%%DocumentData: Clean7Bit
%%LanguageLevel: 2
%%BoundingBox: 18 60 366 324
%%EndComments
%%BeginProlog
50 dict begin
/q { gsave } bind def
/Q { grestore } bind def
/cm { 6 array astore concat } bind def
/w { setlinewidth } bind def
/J { setlinecap } bind def
/j { setlinejoin } bind def
/M { setmiterlimit } bind def
/d { setdash } bind def
/m { moveto } bind def
/l { lineto } bind def
/c { curveto } bind def
/h { closepath } bind def
/re { exch dup neg 3 1 roll 5 3 roll moveto 0 rlineto
      0 exch rlineto 0 rlineto closepath } bind def
/S { stroke } bind def
/f { fill } bind def
/f* { eofill } bind def
/n { newpath } bind def
/W { clip } bind def
/W* { eoclip } bind def
/BT { } bind def
/ET { } bind def
/BDC { mark 3 1 roll /BDC pdfmark } bind def
/EMC { mark /EMC pdfmark } bind def
/cairo_store_point { /cairo_point_y exch def /cairo_point_x exch def } def
/Tj { show currentpoint cairo_store_point } bind def
/TJ {
  {
    dup
    type /stringtype eq
    { show } { -0.001 mul 0 cairo_font_matrix dtransform rmoveto } ifelse
  } forall
  currentpoint cairo_store_point
} bind def
/cairo_selectfont { cairo_font_matrix aload pop pop pop 0 0 6 array astore
    cairo_font exch selectfont cairo_point_x cairo_point_y moveto } bind def
/Tf { pop /cairo_font exch def /cairo_font_matrix where
      { pop cairo_selectfont } if } bind def
/Td { matrix translate cairo_font_matrix matrix concatmatrix dup
      /cairo_font_matrix exch def dup 4 get exch 5 get cairo_store_point
      /cairo_font where { pop cairo_selectfont } if } bind def
/Tm { 2 copy 8 2 roll 6 array astore /cairo_font_matrix exch def
      cairo_store_point /cairo_font where { pop cairo_selectfont } if } bind def
/g { setgray } bind def
/rg { setrgbcolor } bind def
/d1 { setcachedevice } bind def
/cairo_data_source {
  CairoDataIndex CairoData length lt
    { CairoData CairoDataIndex get /CairoDataIndex CairoDataIndex 1 add def }
    { () } ifelse
} def
/cairo_flush_ascii85_file { cairo_ascii85_file status { cairo_ascii85_file flushfile } if } def
/cairo_image { image cairo_flush_ascii85_file } def
/cairo_imagemask { imagemask cairo_flush_ascii85_file } def
%%EndProlog
%%BeginSetup
%%EndSetup
%%Page: 1 1
%%BeginPageSetup
%%PageBoundingBox: 18 60 366 324
%%EndPageSetup
q 18 60 348 264 rectclip
1 0 0 -1 0 384 cm q
0.666667 0.796078 0.164706 rg
18 144 300 180 re f
0.964706 0.776471 0.2 rg
48 180 66 48 re f
0.941176 0.556863 0.0156863 rg
102 204 m 102 228 l 90 228 l 90 210 l 78 210 l 78 228 l 66 228 l 66 210
 l 48 210 l 48 198 l 96 198 l 97.59 198 99.117 198.633 100.242 199.758 c
 101.367 200.883 102 202.41 102 204 c h
102 204 m f
0.223529 0.309804 0.352941 rg
42 246 36 12 re f
90 246 36 12 re f
138 246 36 12 re f
42 270 48 12 re f
102 270 48 12 re f
42 294 24 12 re f
78 294 24 12 re f
0.8 0.862745 0.909804 rg
198 270 m 216 300 l 294 300 l 276 270 l h
198 270 m f
0.215686 0.65098 0.796078 rg
156 174 72 24 re f
288 186 m 288 195.941 279.941 204 270 204 c 260.059 204 252 195.941 252
 186 c 252 176.059 260.059 168 270 168 c 279.941 168 288 176.059 288 186
 c h
288 186 m f
0.572549 0.831373 0.937255 rg
366 132 m 366 171.766 333.766 204 294 204 c 254.234 204 222 171.766 222
 132 c 222 92.234 254.234 60 294 60 c 333.766 60 366 92.234 366 132 c h
366 132 m f
0.203922 0.631373 0.4 rg
330 96 m 330 144.758 l 330 151.883 326.836 158.637 321.367 163.199 c 294
 186 l 266.633 163.199 l 261.164 158.637 258 151.883 258 144.758 c 258 96
 l 262.25 101.664 268.918 105 276 105 c 283.082 105 289.75 101.664 294 96
 c 298.25 101.664 304.918 105 312 105 c 319.082 105 325.75 101.664 330 96
 c h
330 96 m f
0.541176 0.803922 0.639216 rg
312 105 m 312 144.758 l 312 146.539 311.211 148.23 309.84 149.371 c 294
 162.57 l 278.16 149.371 l 276.789 148.23 276 146.539 276 144.758 c 276 
105 l 283.086 105.02 289.766 101.684 294 96 c 298.234 101.684 304.914 105.02
 312 105 c h
312 105 m f
Q Q
showpage
%%Trailer
end
%%EOF
