%!PS-Adobe-3.0 EPSF-3.0
%%Creator: cairo 1.16.0 (https://cairographics.org)
%%CreationDate: Fri Mar 13 07:34:42 2020
%%Pages: 1
%%DocumentData: Clean7Bit
%%LanguageLevel: 2
%%BoundingBox: 18 36 366 348
%%EndComments
%%BeginProlog
50 dict begin
/q { gsave } bind def
/Q { grestore } bind def
/cm { 6 array astore concat } bind def
/w { setlinewidth } bind def
/J { setlinecap } bind def
/j { setlinejoin } bind def
/M { setmiterlimit } bind def
/d { setdash } bind def
/m { moveto } bind def
/l { lineto } bind def
/c { curveto } bind def
/h { closepath } bind def
/re { exch dup neg 3 1 roll 5 3 roll moveto 0 rlineto
      0 exch rlineto 0 rlineto closepath } bind def
/S { stroke } bind def
/f { fill } bind def
/f* { eofill } bind def
/n { newpath } bind def
/W { clip } bind def
/W* { eoclip } bind def
/BT { } bind def
/ET { } bind def
/BDC { mark 3 1 roll /BDC pdfmark } bind def
/EMC { mark /EMC pdfmark } bind def
/cairo_store_point { /cairo_point_y exch def /cairo_point_x exch def } def
/Tj { show currentpoint cairo_store_point } bind def
/TJ {
  {
    dup
    type /stringtype eq
    { show } { -0.001 mul 0 cairo_font_matrix dtransform rmoveto } ifelse
  } forall
  currentpoint cairo_store_point
} bind def
/cairo_selectfont { cairo_font_matrix aload pop pop pop 0 0 6 array astore
    cairo_font exch selectfont cairo_point_x cairo_point_y moveto } bind def
/Tf { pop /cairo_font exch def /cairo_font_matrix where
      { pop cairo_selectfont } if } bind def
/Td { matrix translate cairo_font_matrix matrix concatmatrix dup
      /cairo_font_matrix exch def dup 4 get exch 5 get cairo_store_point
      /cairo_font where { pop cairo_selectfont } if } bind def
/Tm { 2 copy 8 2 roll 6 array astore /cairo_font_matrix exch def
      cairo_store_point /cairo_font where { pop cairo_selectfont } if } bind def
/g { setgray } bind def
/rg { setrgbcolor } bind def
/d1 { setcachedevice } bind def
/cairo_data_source {
  CairoDataIndex CairoData length lt
    { CairoData CairoDataIndex get /CairoDataIndex CairoDataIndex 1 add def }
    { () } ifelse
} def
/cairo_flush_ascii85_file { cairo_ascii85_file status { cairo_ascii85_file flushfile } if } def
/cairo_image { image cairo_flush_ascii85_file } def
/cairo_imagemask { imagemask cairo_flush_ascii85_file } def
%%EndProlog
%%BeginSetup
%%EndSetup
%%Page: 1 1
%%BeginPageSetup
%%PageBoundingBox: 18 36 366 348
%%EndPageSetup
q 18 36 348 312 rectclip
1 0 0 -1 0 384 cm q
0.215686 0.65098 0.796078 rg
48 120 m 246 120 l 246 180 l 48 180 l 31.43 180 18 166.57 18 150 c 18 133.43
 31.43 120 48 120 c h
48 120 m f
0.666667 0.796078 0.164706 rg
126 36 240 156 re f
0.964706 0.776471 0.2 rg
150 72 48 36 re f
0.223529 0.309804 0.352941 rg
144 126 24 12 re f
180 126 24 12 re f
216 126 24 12 re f
144 144 36 12 re f
192 144 36 12 re f
0.8 0.862745 0.909804 rg
276 138 m 288 162 l 342 162 l 330 138 l h
276 138 m f
0.215686 0.65098 0.796078 rg
264 66 36 12 re f
0.941176 0.556863 0.0156863 rg
180 108 m 168 108 l 168 96 l 150 96 l 150 84 l 174 84 l 177.312 84 180 
86.688 180 90 c h
180 108 m f
0.223529 0.309804 0.352941 rg
144 162 12 12 re f
168 162 12 12 re f
0.215686 0.65098 0.796078 rg
342 72 m 342 78.629 336.629 84 330 84 c 323.371 84 318 78.629 318 72 c 
318 65.371 323.371 60 330 60 c 336.629 60 342 65.371 342 72 c h
342 72 m f
0.572549 0.831373 0.937255 rg
246 180 m 246 348 l 48 348 l 31.434 348 18 334.566 18 318 c 18 150 l 18
 166.566 31.434 180 48 180 c h
246 180 m f
0.215686 0.65098 0.796078 rg
246 234 m 246 294 l 222 294 l 205.43 294 192 280.57 192 264 c 192 247.43
 205.43 234 222 234 c h
246 234 m f
0.572549 0.831373 0.937255 rg
270 288 m 222 288 l 208.746 288 198 277.254 198 264 c 198 250.746 208.746
 240 222 240 c 270 240 l 283.254 240 294 229.254 294 216 c 294 264 l 294
 277.254 283.254 288 270 288 c h
270 288 m f
0.176471 0.501961 0.733333 rg
246 192 m 270 192 l 283.254 192 294 202.746 294 216 c 294 229.254 283.254
 240 270 240 c 246 240 l h
246 192 m f
0.8 0.862745 0.909804 rg
228 264 m 228 267.312 225.312 270 222 270 c 218.688 270 216 267.312 216
 264 c 216 260.688 218.688 258 222 258 c 225.312 258 228 260.688 228 264
 c h
228 264 m f
Q Q
showpage
%%Trailer
end
%%EOF
