%!PS-Adobe-3.0 EPSF-3.0
%%Creator: cairo 1.16.0 (https://cairographics.org)
%%CreationDate: Fri Mar 13 07:34:43 2020
%%Pages: 1
%%DocumentData: Clean7Bit
%%LanguageLevel: 2
%%BoundingBox: 18 18 366 366
%%EndComments
%%BeginProlog
50 dict begin
/q { gsave } bind def
/Q { grestore } bind def
/cm { 6 array astore concat } bind def
/w { setlinewidth } bind def
/J { setlinecap } bind def
/j { setlinejoin } bind def
/M { setmiterlimit } bind def
/d { setdash } bind def
/m { moveto } bind def
/l { lineto } bind def
/c { curveto } bind def
/h { closepath } bind def
/re { exch dup neg 3 1 roll 5 3 roll moveto 0 rlineto
      0 exch rlineto 0 rlineto closepath } bind def
/S { stroke } bind def
/f { fill } bind def
/f* { eofill } bind def
/n { newpath } bind def
/W { clip } bind def
/W* { eoclip } bind def
/BT { } bind def
/ET { } bind def
/BDC { mark 3 1 roll /BDC pdfmark } bind def
/EMC { mark /EMC pdfmark } bind def
/cairo_store_point { /cairo_point_y exch def /cairo_point_x exch def } def
/Tj { show currentpoint cairo_store_point } bind def
/TJ {
  {
    dup
    type /stringtype eq
    { show } { -0.001 mul 0 cairo_font_matrix dtransform rmoveto } ifelse
  } forall
  currentpoint cairo_store_point
} bind def
/cairo_selectfont { cairo_font_matrix aload pop pop pop 0 0 6 array astore
    cairo_font exch selectfont cairo_point_x cairo_point_y moveto } bind def
/Tf { pop /cairo_font exch def /cairo_font_matrix where
      { pop cairo_selectfont } if } bind def
/Td { matrix translate cairo_font_matrix matrix concatmatrix dup
      /cairo_font_matrix exch def dup 4 get exch 5 get cairo_store_point
      /cairo_font where { pop cairo_selectfont } if } bind def
/Tm { 2 copy 8 2 roll 6 array astore /cairo_font_matrix exch def
      cairo_store_point /cairo_font where { pop cairo_selectfont } if } bind def
/g { setgray } bind def
/rg { setrgbcolor } bind def
/d1 { setcachedevice } bind def
/cairo_data_source {
  CairoDataIndex CairoData length lt
    { CairoData CairoDataIndex get /CairoDataIndex CairoDataIndex 1 add def }
    { () } ifelse
} def
/cairo_flush_ascii85_file { cairo_ascii85_file status { cairo_ascii85_file flushfile } if } def
/cairo_image { image cairo_flush_ascii85_file } def
/cairo_imagemask { imagemask cairo_flush_ascii85_file } def
%%EndProlog
%%BeginSetup
%%EndSetup
%%Page: 1 1
%%BeginPageSetup
%%PageBoundingBox: 18 18 366 366
%%EndPageSetup
q 18 18 348 348 rectclip
1 0 0 -1 0 384 cm q
0.215686 0.65098 0.796078 rg
60 102 m 324 102 l 324 186 l 60 186 l 36.805 186 18 167.195 18 144 c 18
 132.859 22.426 122.18 30.301 114.301 c 38.18 106.426 48.859 102 60 102 
c h
60 102 m f
0.203922 0.631373 0.4 rg
96 18 192 168 re f
0 0.560784 0.333333 rg
96 18 24 168 re f
264 18 24 168 re f
0.407843 0.733333 0.619608 rg
246 186 m 246 215.824 221.824 240 192 240 c 162.176 240 138 215.824 138
 186 c 138 156.176 162.176 132 192 132 c 221.824 132 246 156.176 246 186
 c h
246 186 m f
210 78 m 210 87.941 201.941 96 192 96 c 182.059 96 174 87.941 174 78 c 
174 68.059 182.059 60 192 60 c 201.941 60 210 68.059 210 78 c h
210 78 m f
0.572549 0.831373 0.937255 rg
330 186 m 330 366 l 60 366 l 48.859 366 38.176 361.574 30.301 353.699 c
 22.426 345.824 18 335.141 18 324 c 18 144 l 18 155.141 22.426 165.824 30.301
 173.699 c 38.176 181.574 48.859 186 60 186 c h
330 186 m f
0.215686 0.65098 0.796078 rg
330 246 m 330 306 l 294 306 l 277.43 306 264 292.57 264 276 c 264 259.43
 277.43 246 294 246 c h
330 246 m f
0.572549 0.831373 0.937255 rg
342 300 m 294 300 l 280.746 300 270 289.254 270 276 c 270 262.746 280.746
 252 294 252 c 342 252 l 355.254 252 366 241.254 366 228 c 366 276 l 366
 289.254 355.254 300 342 300 c h
342 300 m f
0.176471 0.501961 0.733333 rg
330 204 m 342 204 l 355.254 204 366 214.746 366 228 c 366 241.254 355.254
 252 342 252 c 330 252 l h
330 204 m f
0.8 0.862745 0.909804 rg
300 276 m 300 279.312 297.312 282 294 282 c 290.688 282 288 279.312 288
 276 c 288 272.688 290.688 270 294 270 c 297.312 270 300 272.688 300 276
 c h
300 276 m f
Q Q
showpage
%%Trailer
end
%%EOF
