%!PS-Adobe-3.0 EPSF-3.0
%%Creator: cairo 1.16.0 (https://cairographics.org)
%%CreationDate: Fri Mar 13 07:34:43 2020
%%Pages: 1
%%DocumentData: Clean7Bit
%%LanguageLevel: 2
%%BoundingBox: 18 18 354 366
%%EndComments
%%BeginProlog
50 dict begin
/q { gsave } bind def
/Q { grestore } bind def
/cm { 6 array astore concat } bind def
/w { setlinewidth } bind def
/J { setlinecap } bind def
/j { setlinejoin } bind def
/M { setmiterlimit } bind def
/d { setdash } bind def
/m { moveto } bind def
/l { lineto } bind def
/c { curveto } bind def
/h { closepath } bind def
/re { exch dup neg 3 1 roll 5 3 roll moveto 0 rlineto
      0 exch rlineto 0 rlineto closepath } bind def
/S { stroke } bind def
/f { fill } bind def
/f* { eofill } bind def
/n { newpath } bind def
/W { clip } bind def
/W* { eoclip } bind def
/BT { } bind def
/ET { } bind def
/BDC { mark 3 1 roll /BDC pdfmark } bind def
/EMC { mark /EMC pdfmark } bind def
/cairo_store_point { /cairo_point_y exch def /cairo_point_x exch def } def
/Tj { show currentpoint cairo_store_point } bind def
/TJ {
  {
    dup
    type /stringtype eq
    { show } { -0.001 mul 0 cairo_font_matrix dtransform rmoveto } ifelse
  } forall
  currentpoint cairo_store_point
} bind def
/cairo_selectfont { cairo_font_matrix aload pop pop pop 0 0 6 array astore
    cairo_font exch selectfont cairo_point_x cairo_point_y moveto } bind def
/Tf { pop /cairo_font exch def /cairo_font_matrix where
      { pop cairo_selectfont } if } bind def
/Td { matrix translate cairo_font_matrix matrix concatmatrix dup
      /cairo_font_matrix exch def dup 4 get exch 5 get cairo_store_point
      /cairo_font where { pop cairo_selectfont } if } bind def
/Tm { 2 copy 8 2 roll 6 array astore /cairo_font_matrix exch def
      cairo_store_point /cairo_font where { pop cairo_selectfont } if } bind def
/g { setgray } bind def
/rg { setrgbcolor } bind def
/d1 { setcachedevice } bind def
/cairo_data_source {
  CairoDataIndex CairoData length lt
    { CairoData CairoDataIndex get /CairoDataIndex CairoDataIndex 1 add def }
    { () } ifelse
} def
/cairo_flush_ascii85_file { cairo_ascii85_file status { cairo_ascii85_file flushfile } if } def
/cairo_image { image cairo_flush_ascii85_file } def
/cairo_imagemask { imagemask cairo_flush_ascii85_file } def
%%EndProlog
%%BeginSetup
%%EndSetup
%%Page: 1 1
%%BeginPageSetup
%%PageBoundingBox: 18 18 354 366
%%EndPageSetup
q 18 18 336 348 rectclip
1 0 0 -1 0 384 cm q
0.964706 0.894118 0.635294 rg
60 48 264 198 re f
0.964706 0.776471 0.2 rg
198 108 126 60 re f
0.666667 0.796078 0.164706 rg
97.711 18 m 73.082 72.18 l 69.809 79.379 62.633 84 54.727 84 c 47.367 84
 40.594 79.992 37.055 73.539 c 33.512 67.09 33.766 59.223 37.719 53.016 
c 60 18 l h
97.711 18 m f
173.145 18 m 168.812 65.664 l 167.867 76.047 159.16 84 148.734 84 c 143.824
 84 l 137.539 84 131.617 81.07 127.801 76.078 c 123.988 71.082 122.719 64.598
 124.371 58.535 c 135.426 18 l h
173.145 18 m f
0.839216 0.878431 0.435294 rg
97.711 18 m 135.426 18 l 121.48 69.145 l 119.086 77.914 111.121 84 102.027
 84 c 99.02 84 l 92.168 84 85.781 80.516 82.07 74.754 c 78.359 68.988 77.828
 61.734 80.668 55.496 c h
97.711 18 m f
194.781 84 m 189.223 84 l 183.559 84 178.156 81.617 174.336 77.434 c 170.516
 73.25 168.633 67.656 169.145 62.012 c 173.145 18 l 210.855 18 l 214.859
 62.012 l 215.375 67.652 213.492 73.25 209.672 77.434 c 205.852 81.617 200.449
 84 194.781 84 c h
194.781 84 m f
0.666667 0.796078 0.164706 rg
240.176 84 m 235.273 84 l 224.844 84 216.141 76.051 215.195 65.668 c 210.855
 18 l 248.574 18 l 259.629 58.535 l 261.281 64.598 260.012 71.082 256.199
 76.078 c 252.383 81.07 246.461 84 240.176 84 c h
240.176 84 m f
0.839216 0.878431 0.435294 rg
284.973 84 m 281.973 84 l 272.879 84 264.914 77.914 262.52 69.145 c 248.574
 18 l 286.281 18 l 303.324 55.496 l 306.164 61.734 305.633 68.988 301.922
 74.754 c 298.211 80.516 291.828 84 284.973 84 c h
284.973 84 m f
0.666667 0.796078 0.164706 rg
329.273 84 m 329.266 84 l 321.359 84 314.184 79.379 310.91 72.18 c 286.281
 18 l 324 18 l 346.281 53.016 l 350.234 59.223 350.488 67.09 346.945 73.539
 c 343.406 79.992 336.633 84 329.273 84 c h
329.273 84 m f
246 198 108 48 re f
0.215686 0.65098 0.796078 rg
30 102 m 162 102 l 168.648 102 174 107.352 174 114 c 174 354 l 174 360.648
 168.648 366 162 366 c 30 366 l 23.352 366 18 360.648 18 354 c 18 114 l 
18 107.352 23.352 102 30 102 c h
30 102 m f
0.572549 0.831373 0.937255 rg
36 348 m 36 120 l 60 120 l 60 129.941 68.059 138 78 138 c 114 138 l 123.941
 138 132 129.941 132 120 c 156 120 l 156 348 l h
36 348 m f
0.223529 0.403922 0.615686 rg
84 114 18 12 re f
120 120 m 120 123.312 117.312 126 114 126 c 110.688 126 108 123.312 108
 120 c 108 116.688 110.688 114 114 114 c 117.312 114 120 116.688 120 120
 c h
120 120 m f
18 126 18 12 re f
156 126 18 12 re f
18 330 18 12 re f
156 330 18 12 re f
0.964706 0.894118 0.635294 rg
96 336 m 76.129 335.977 60.023 319.871 60 300 c 60 276 l 60 256.117 76.117
 240 96 240 c 115.883 240 132 256.117 132 276 c 132 300 l 120 300 l 120 
276 l 120 262.746 109.254 252 96 252 c 82.746 252 72 262.746 72 276 c 72
 300 l 72.016 313.25 82.75 323.984 96 324 c h
96 336 m f
90 300 m 78 300 l 78 276 l 78 266.059 86.059 258 96 258 c 105.941 258 114
 266.059 114 276 c 102 276 l 102 272.688 99.312 270 96 270 c 92.688 270 
90 272.688 90 276 c h
90 300 m f
96 318 m 96 306 l 99.312 305.996 101.996 303.312 102 300 c 102 288 l 114
 288 l 114 300 l 113.988 309.938 105.938 317.988 96 318 c h
96 318 m f
0.964706 0.776471 0.2 rg
91.242 178.758 m 88.617 176.129 88.617 171.871 91.242 169.242 c 93.871 
166.617 98.129 166.617 100.758 169.242 c 109.758 178.242 l 118.242 169.758
 l 109.242 160.758 l 107.207 158.719 104.73 157.184 102 156.266 c 102 150
 l 90 150 l 90 156.266 l 83.863 158.336 79.234 163.434 77.758 169.738 c 
76.285 176.047 78.176 182.668 82.758 187.242 c 100.758 205.242 l 102.02 
206.504 102.727 208.215 102.727 210 c 102.727 211.785 102.02 213.496 100.758
 214.758 c 99.496 216.02 97.785 216.727 96 216.727 c 94.215 216.727 92.504
 216.02 91.242 214.758 c 82.242 205.758 l 73.758 214.242 l 82.758 223.242
 l 84.793 225.281 87.27 226.816 90 227.734 c 90 234 l 102 234 l 102 227.734
 l 108.137 225.664 112.766 220.566 114.242 214.262 c 115.715 207.953 113.824
 201.336 109.242 196.758 c h
91.242 178.758 m f
Q Q
showpage
%%Trailer
end
%%EOF
