%!PS-Adobe-3.0 EPSF-3.0
%%Creator: cairo 1.16.0 (https://cairographics.org)
%%CreationDate: Fri Mar 13 07:34:44 2020
%%Pages: 1
%%DocumentData: Clean7Bit
%%LanguageLevel: 2
%%BoundingBox: 18 84 366 300
%%EndComments
%%BeginProlog
50 dict begin
/q { gsave } bind def
/Q { grestore } bind def
/cm { 6 array astore concat } bind def
/w { setlinewidth } bind def
/J { setlinecap } bind def
/j { setlinejoin } bind def
/M { setmiterlimit } bind def
/d { setdash } bind def
/m { moveto } bind def
/l { lineto } bind def
/c { curveto } bind def
/h { closepath } bind def
/re { exch dup neg 3 1 roll 5 3 roll moveto 0 rlineto
      0 exch rlineto 0 rlineto closepath } bind def
/S { stroke } bind def
/f { fill } bind def
/f* { eofill } bind def
/n { newpath } bind def
/W { clip } bind def
/W* { eoclip } bind def
/BT { } bind def
/ET { } bind def
/BDC { mark 3 1 roll /BDC pdfmark } bind def
/EMC { mark /EMC pdfmark } bind def
/cairo_store_point { /cairo_point_y exch def /cairo_point_x exch def } def
/Tj { show currentpoint cairo_store_point } bind def
/TJ {
  {
    dup
    type /stringtype eq
    { show } { -0.001 mul 0 cairo_font_matrix dtransform rmoveto } ifelse
  } forall
  currentpoint cairo_store_point
} bind def
/cairo_selectfont { cairo_font_matrix aload pop pop pop 0 0 6 array astore
    cairo_font exch selectfont cairo_point_x cairo_point_y moveto } bind def
/Tf { pop /cairo_font exch def /cairo_font_matrix where
      { pop cairo_selectfont } if } bind def
/Td { matrix translate cairo_font_matrix matrix concatmatrix dup
      /cairo_font_matrix exch def dup 4 get exch 5 get cairo_store_point
      /cairo_font where { pop cairo_selectfont } if } bind def
/Tm { 2 copy 8 2 roll 6 array astore /cairo_font_matrix exch def
      cairo_store_point /cairo_font where { pop cairo_selectfont } if } bind def
/g { setgray } bind def
/rg { setrgbcolor } bind def
/d1 { setcachedevice } bind def
/cairo_data_source {
  CairoDataIndex CairoData length lt
    { CairoData CairoDataIndex get /CairoDataIndex CairoDataIndex 1 add def }
    { () } ifelse
} def
/cairo_flush_ascii85_file { cairo_ascii85_file status { cairo_ascii85_file flushfile } if } def
/cairo_image { image cairo_flush_ascii85_file } def
/cairo_imagemask { imagemask cairo_flush_ascii85_file } def
%%EndProlog
%%BeginSetup
%%EndSetup
%%Page: 1 1
%%BeginPageSetup
%%PageBoundingBox: 18 84 366 300
%%EndPageSetup
q 18 84 348 216 rectclip
1 0 0 -1 0 384 cm q
0.333333 0.658824 0.321569 rg
42 84 m 342 84 l 355.297 84 366 94.703 366 108 c 366 276 l 366 289.297 
355.297 300 342 300 c 42 300 l 28.703 300 18 289.297 18 276 c 18 108 l 18
 94.703 28.703 84 42 84 c h
42 84 m f
0.666667 0.796078 0.164706 rg
42 102 m 342 102 l 345.324 102 348 104.676 348 108 c 348 276 l 348 279.324
 345.324 282 342 282 c 42 282 l 38.676 282 36 279.324 36 276 c 36 108 l 
36 104.676 38.676 102 42 102 c h
42 102 m f
0.964706 0.894118 0.635294 rg
90 84 36 216 re f
0.941176 0.556863 0.0156863 rg
126 117.801 m 126 244.816 l 110.953 267.383 l 100.816 216.668 l 97.004 
223.336 l 95.352 226.227 92.926 228.602 90 230.199 c 90 165.512 l 103.184
 152.324 l 105.871 147.621 l 118.996 124.664 l 120.648 121.773 123.074 119.398
 126 117.801 c h
126 117.801 m f
0.964706 0.894118 0.635294 rg
150 240 m 126 234 l 114 252 l 105.344 208.738 l 102 192 l 114 180 l 119.438
 189.059 l h
150 240 m f
168 192 m 174 216 l 123.059 185.438 l 114 180 l 126 168 l 142.738 171.344
 l 186 180 l h
168 192 m f
0.964706 0.776471 0.2 rg
102 192 m 114 180 l 119.438 189.059 l 112.816 195.676 l 110.129 200.379
 l 105.344 208.738 l h
102 192 m f
142.738 171.344 m 134.379 176.129 l 129.676 178.816 l 123.059 185.438 l
 114 180 l 126 168 l h
142.738 171.344 m f
0.964706 0.894118 0.635294 rg
108 192 m 104.918 197.398 l 91.793 220.359 l 89.938 223.605 86.676 225.801
 82.969 226.301 c 79.262 226.797 75.535 225.535 72.891 222.891 c 59.109 
209.109 l 56.465 206.465 55.203 202.738 55.699 199.031 c 56.199 195.324 
58.395 192.062 61.641 190.207 c 84.602 177.082 l 90 174 l h
108 192 m f
154.359 157.793 m 131.398 170.918 l 126 174 l 108 156 l 111.082 150.602
 l 124.207 127.641 l 126.062 124.395 129.324 122.199 133.031 121.699 c 136.738
 121.203 140.465 122.465 143.109 125.109 c 156.891 138.891 l 159.535 141.535
 160.797 145.262 160.301 148.969 c 159.801 152.676 157.605 155.938 154.359
 157.793 c h
154.359 157.793 m f
0.964706 0.776471 0.2 rg
90 174 m 108 192 l 104.918 197.398 l 84.602 177.082 l h
90 174 m f
131.398 170.918 m 126 174 l 108 156 l 111.082 150.602 l h
131.398 170.918 m f
0.964706 0.894118 0.635294 rg
89.973 173.992 m 107.969 155.996 l 125.965 173.992 l 107.969 191.992 l 
h
89.973 173.992 m f
0.8 0.862745 0.909804 rg
198 126 108 36 re f
0.964706 0.894118 0.635294 rg
282 240 m 281.984 253.246 271.246 263.984 258 264 c 258 270 l 246 270 l
 246 264 l 232.754 263.984 222.016 253.246 222 240 c 234 240 l 234.008 246.625
 239.375 251.992 246 252 c 258 252 l 264.629 252 270 246.629 270 240 c 270
 233.371 264.629 228 258 228 c 246 228 l 232.746 228 222 217.254 222 204
 c 222 190.746 232.746 180 246 180 c 246 174 l 258 174 l 258 180 l 271.246
 180.016 281.984 190.754 282 204 c 270 204 l 269.992 197.375 264.625 192.008
 258 192 c 246 192 l 239.371 192 234 197.371 234 204 c 234 210.629 239.371
 216 246 216 c 258 216 l 271.246 216.016 281.984 226.754 282 240 c h
282 240 m f
Q Q
showpage
%%Trailer
end
%%EOF
