%!PS-Adobe-3.0 EPSF-3.0
%%Creator: cairo 1.16.0 (https://cairographics.org)
%%CreationDate: Fri Mar 13 07:34:44 2020
%%Pages: 1
%%DocumentData: Clean7Bit
%%LanguageLevel: 2
%%BoundingBox: 18 18 366 366
%%EndComments
%%BeginProlog
50 dict begin
/q { gsave } bind def
/Q { grestore } bind def
/cm { 6 array astore concat } bind def
/w { setlinewidth } bind def
/J { setlinecap } bind def
/j { setlinejoin } bind def
/M { setmiterlimit } bind def
/d { setdash } bind def
/m { moveto } bind def
/l { lineto } bind def
/c { curveto } bind def
/h { closepath } bind def
/re { exch dup neg 3 1 roll 5 3 roll moveto 0 rlineto
      0 exch rlineto 0 rlineto closepath } bind def
/S { stroke } bind def
/f { fill } bind def
/f* { eofill } bind def
/n { newpath } bind def
/W { clip } bind def
/W* { eoclip } bind def
/BT { } bind def
/ET { } bind def
/BDC { mark 3 1 roll /BDC pdfmark } bind def
/EMC { mark /EMC pdfmark } bind def
/cairo_store_point { /cairo_point_y exch def /cairo_point_x exch def } def
/Tj { show currentpoint cairo_store_point } bind def
/TJ {
  {
    dup
    type /stringtype eq
    { show } { -0.001 mul 0 cairo_font_matrix dtransform rmoveto } ifelse
  } forall
  currentpoint cairo_store_point
} bind def
/cairo_selectfont { cairo_font_matrix aload pop pop pop 0 0 6 array astore
    cairo_font exch selectfont cairo_point_x cairo_point_y moveto } bind def
/Tf { pop /cairo_font exch def /cairo_font_matrix where
      { pop cairo_selectfont } if } bind def
/Td { matrix translate cairo_font_matrix matrix concatmatrix dup
      /cairo_font_matrix exch def dup 4 get exch 5 get cairo_store_point
      /cairo_font where { pop cairo_selectfont } if } bind def
/Tm { 2 copy 8 2 roll 6 array astore /cairo_font_matrix exch def
      cairo_store_point /cairo_font where { pop cairo_selectfont } if } bind def
/g { setgray } bind def
/rg { setrgbcolor } bind def
/d1 { setcachedevice } bind def
/cairo_data_source {
  CairoDataIndex CairoData length lt
    { CairoData CairoDataIndex get /CairoDataIndex CairoDataIndex 1 add def }
    { () } ifelse
} def
/cairo_flush_ascii85_file { cairo_ascii85_file status { cairo_ascii85_file flushfile } if } def
/cairo_image { image cairo_flush_ascii85_file } def
/cairo_imagemask { imagemask cairo_flush_ascii85_file } def
%%EndProlog
%%BeginSetup
%%EndSetup
%%Page: 1 1
%%BeginPageSetup
%%PageBoundingBox: 18 18 366 366
%%EndPageSetup
q 18 18 348 348 rectclip
1 0 0 -1 0 384 cm q
0.215686 0.65098 0.796078 rg
366 168 m 365.953 216.906 334.691 260.324 288.32 275.875 c 241.953 291.426
 190.832 275.637 161.309 236.648 c 131.785 197.656 130.449 144.172 157.988
 103.758 c 185.531 63.344 235.797 45.02 282.887 58.238 c 332.121 71.969 
366.133 116.883 366 168 c h
366 168 m f
0.407843 0.752941 0.25098 rg
366 168 m 366.039 199.715 352.824 230.008 329.551 251.551 c 312 234 l 324
 210 l 306 192 l 324 180 l 336 150 l 324 138 l 300 138 l 258 108 l 282.887
 58.238 l 332.043 72.086 366 116.93 366 168 c h
366 168 m f
180 186 m 222 204 l 216 222 l 180 222 l 169.941 247.133 l 146.32 222.633
 134.875 188.863 138.738 155.047 c 142.602 121.234 161.367 90.914 189.906
 72.375 c 228 102 l 213.703 145.027 l 174 126 l 168 150 l 180 156 l h
180 186 m f
0.176471 0.501961 0.733333 rg
30 18 m 198 18 l 204.648 18 210 23.352 210 30 c 210 354 l 210 360.648 204.648
 366 198 366 c 30 366 l 23.352 366 18 360.648 18 354 c 18 30 l 18 23.352
 23.352 18 30 18 c h
30 18 m f
0.572549 0.831373 0.937255 rg
36 54 156 270 re f
0.215686 0.65098 0.796078 rg
102 30 24 12 re f
144 36 m 144 39.312 141.312 42 138 42 c 134.688 42 132 39.312 132 36 c 
132 32.688 134.688 30 138 30 c 141.312 30 144 32.688 144 36 c h
144 36 m f
66 264 m 162 264 l 168.648 264 174 269.352 174 276 c 174 282.648 168.648
 288 162 288 c 66 288 l 59.352 288 54 282.648 54 276 c 54 269.352 59.352
 264 66 264 c h
66 264 m f
72 246 m 72 249.312 69.312 252 66 252 c 62.688 252 60 249.312 60 246 c 
60 242.688 62.688 240 66 240 c 69.312 240 72 242.688 72 246 c h
72 246 m f
96 246 m 96 249.312 93.312 252 90 252 c 86.688 252 84 249.312 84 246 c 
84 242.688 86.688 240 90 240 c 93.312 240 96 242.688 96 246 c h
96 246 m f
120 246 m 120 249.312 117.312 252 114 252 c 110.688 252 108 249.312 108
 246 c 108 242.688 110.688 240 114 240 c 117.312 240 120 242.688 120 246
 c h
120 246 m f
144 246 m 144 249.312 141.312 252 138 252 c 134.688 252 132 249.312 132
 246 c 132 242.688 134.688 240 138 240 c 141.312 240 144 242.688 144 246
 c h
144 246 m f
168 246 m 168 249.312 165.312 252 162 252 c 158.688 252 156 249.312 156
 246 c 156 242.688 158.688 240 162 240 c 165.312 240 168 242.688 168 246
 c h
168 246 m f
126 66 24 12 re f
162 66 12 12 re f
54 66 24 12 re f
102 300 24 12 re f
0.964706 0.894118 0.635294 rg
138 150 m 138 147 l 137.992 138.719 131.281 132.008 123 132 c 105 132 l
 96.715 132 90 138.715 90 147 c 90 155.285 96.715 162 105 162 c 123 162 
l 137.91 162 150 174.09 150 189 c 150 203.91 137.91 216 123 216 c 120 216
 l 120 228 l 108 228 l 108 216 l 105 216 l 90.094 215.984 78.016 203.906
 78 189 c 78 186 l 90 186 l 90 189 l 90.008 197.281 96.719 203.992 105 204
 c 123 204 l 131.285 204 138 197.285 138 189 c 138 180.715 131.285 174 123
 174 c 105 174 l 90.09 174 78 161.91 78 147 c 78 132.09 90.09 120 105 120
 c 108 120 l 108 108 l 120 108 l 120 120 l 123 120 l 137.906 120.016 149.984
 132.094 150 147 c 150 150 l h
138 150 m f
0.572549 0.831373 0.937255 rg
168 150 m 234 150 l 234 132 l 270 168 l 234 204 l 234 186 l 168 186 l h
168 150 m f
0.176471 0.501961 0.733333 rg
234 210 m 230.688 210 228 207.312 228 204 c 228 192 l 168 192 l 168 180
 l 234 180 l 237.312 180 240 182.688 240 186 c 240 189.516 l 261.516 168
 l 240 146.484 l 240 150 l 240 153.312 237.312 156 234 156 c 168 156 l 168
 144 l 228 144 l 228 132 l 228 129.574 229.461 127.387 231.703 126.457 c
 233.945 125.527 236.527 126.043 238.242 127.758 c 274.242 163.758 l 275.367
 164.883 276 166.41 276 168 c 276 169.59 275.367 171.117 274.242 172.242
 c 238.242 208.242 l 237.117 209.367 235.59 210 234 210 c h
234 210 m f
Q Q
showpage
%%Trailer
end
%%EOF
