%!PS-Adobe-3.0 EPSF-3.0
%%Creator: cairo 1.16.0 (https://cairographics.org)
%%CreationDate: Fri Mar 13 07:34:45 2020
%%Pages: 1
%%DocumentData: Clean7Bit
%%LanguageLevel: 2
%%BoundingBox: 18 18 367 366
%%EndComments
%%BeginProlog
50 dict begin
/q { gsave } bind def
/Q { grestore } bind def
/cm { 6 array astore concat } bind def
/w { setlinewidth } bind def
/J { setlinecap } bind def
/j { setlinejoin } bind def
/M { setmiterlimit } bind def
/d { setdash } bind def
/m { moveto } bind def
/l { lineto } bind def
/c { curveto } bind def
/h { closepath } bind def
/re { exch dup neg 3 1 roll 5 3 roll moveto 0 rlineto
      0 exch rlineto 0 rlineto closepath } bind def
/S { stroke } bind def
/f { fill } bind def
/f* { eofill } bind def
/n { newpath } bind def
/W { clip } bind def
/W* { eoclip } bind def
/BT { } bind def
/ET { } bind def
/BDC { mark 3 1 roll /BDC pdfmark } bind def
/EMC { mark /EMC pdfmark } bind def
/cairo_store_point { /cairo_point_y exch def /cairo_point_x exch def } def
/Tj { show currentpoint cairo_store_point } bind def
/TJ {
  {
    dup
    type /stringtype eq
    { show } { -0.001 mul 0 cairo_font_matrix dtransform rmoveto } ifelse
  } forall
  currentpoint cairo_store_point
} bind def
/cairo_selectfont { cairo_font_matrix aload pop pop pop 0 0 6 array astore
    cairo_font exch selectfont cairo_point_x cairo_point_y moveto } bind def
/Tf { pop /cairo_font exch def /cairo_font_matrix where
      { pop cairo_selectfont } if } bind def
/Td { matrix translate cairo_font_matrix matrix concatmatrix dup
      /cairo_font_matrix exch def dup 4 get exch 5 get cairo_store_point
      /cairo_font where { pop cairo_selectfont } if } bind def
/Tm { 2 copy 8 2 roll 6 array astore /cairo_font_matrix exch def
      cairo_store_point /cairo_font where { pop cairo_selectfont } if } bind def
/g { setgray } bind def
/rg { setrgbcolor } bind def
/d1 { setcachedevice } bind def
/cairo_data_source {
  CairoDataIndex CairoData length lt
    { CairoData CairoDataIndex get /CairoDataIndex CairoDataIndex 1 add def }
    { () } ifelse
} def
/cairo_flush_ascii85_file { cairo_ascii85_file status { cairo_ascii85_file flushfile } if } def
/cairo_image { image cairo_flush_ascii85_file } def
/cairo_imagemask { imagemask cairo_flush_ascii85_file } def
%%EndProlog
%%BeginSetup
%%EndSetup
%%Page: 1 1
%%BeginPageSetup
%%PageBoundingBox: 18 18 367 366
%%EndPageSetup
q 18 18 349 348 rectclip
1 0 0 -1 0 384 cm q
0.176471 0.501961 0.733333 rg
294 18 m 270 18 l 256.746 18 246 28.746 246 42 c 246 72 l 294 72 l h
294 18 m f
0.215686 0.65098 0.796078 rg
318.531 366 m 185.469 366 l 171.84 366 158.852 360.207 149.75 350.066 c
 140.645 339.922 136.281 326.391 137.746 312.84 c 148.648 212.016 l 153.082
 170.988 182.188 136.859 222 126 c 282 126 l 321.812 136.859 350.918 170.988
 355.352 212.016 c 366.254 312.84 l 367.719 326.391 363.355 339.922 354.25
 350.066 c 345.148 360.207 332.16 366 318.531 366 c h
318.531 366 m f
0.619608 0.388235 0.258824 rg
228 102 m 276 102 l 282.648 102 288 107.352 288 114 c 288 120.648 282.648
 126 276 126 c 228 126 l 221.352 126 216 120.648 216 114 c 216 107.352 221.352
 102 228 102 c h
228 102 m f
0.709804 0.490196 0.301961 rg
228 78 m 276 78 l 282.648 78 288 83.352 288 90 c 288 96.648 282.648 102
 276 102 c 228 102 l 221.352 102 216 96.648 216 90 c 216 83.352 221.352 
78 228 78 c h
228 78 m f
0.215686 0.65098 0.796078 rg
306 30 m 306 54 l 306 67.254 295.254 78 282 78 c 222 78 l 208.746 78 198
 67.254 198 54 c 198 42 l 198 28.746 208.746 18 222 18 c 235.254 18 246 
28.746 246 42 c 246 51.941 254.059 60 264 60 c 273.941 60 282 51.941 282
 42 c 282 30 l 282 23.371 287.371 18 294 18 c 300.629 18 306 23.371 306 
30 c h
306 30 m f
0.176471 0.501961 0.733333 rg
252 78 m 225.188 78 l 219.262 71.41 215.988 62.859 216 54 c 216 48 l 228
 48 l 228 54 l 228.016 67.25 238.75 77.984 252 78 c h
252 78 m f
318.531 366 m 185.469 366 l 170.887 366.027 157.09 359.398 147.996 348 
c 277.066 348 l 290.695 348 303.68 342.207 312.785 332.066 c 321.887 321.922
 326.254 308.391 324.789 294.84 c 313.891 194.016 l 311 167.203 297.426 
142.688 276.238 126 c 282 126 l 321.812 136.859 350.918 170.988 355.352 
212.016 c 366.254 312.84 l 367.719 326.391 363.355 339.922 354.25 350.066
 c 345.148 360.207 332.16 366 318.531 366 c h
318.531 366 m f
0.964706 0.894118 0.635294 rg
192 342 36 24 re f
192 318 36 24 re f
192 294 36 24 re f
192 270 36 24 re f
228 342 36 24 re f
228 318 36 24 re f
228 294 36 24 re f
228 270 36 24 re f
228 246 36 24 re f
0.964706 0.776471 0.2 rg
264 246 m 264 270 l 228 270 l 228 264 l 258 264 l 258 246 l h
264 246 m f
228 270 m 228 294 l 192 294 l 192 288 l 222 288 l 222 270 l h
228 270 m f
264 270 m 264 294 l 228 294 l 228 288 l 258 288 l 258 270 l h
264 270 m f
228 294 m 228 318 l 192 318 l 192 312 l 222 312 l 222 294 l h
228 294 m f
264 294 m 264 318 l 228 318 l 228 312 l 258 312 l 258 294 l h
264 294 m f
228 318 m 228 342 l 192 342 l 192 336 l 222 336 l 222 318 l h
228 318 m f
264 318 m 264 342 l 228 342 l 228 336 l 258 336 l 258 318 l h
264 318 m f
264 342 m 264 366 l 228 366 l 228 360 l 258 360 l 258 342 l h
264 342 m f
228 342 m 228 366 l 192 366 l 192 360 l 222 360 l 222 342 l h
228 342 m f
0.964706 0.894118 0.635294 rg
264 342 36 24 re f
264 318 36 24 re f
300 342 36 24 re f
0.964706 0.776471 0.2 rg
300 318 m 300 342 l 264 342 l 264 336 l 294 336 l 294 318 l h
300 318 m f
300 342 m 300 366 l 264 366 l 264 360 l 294 360 l 294 342 l h
300 342 m f
336 342 m 336 366 l 300 366 l 300 360 l 330 360 l 330 342 l h
336 342 m f
0.203922 0.631373 0.4 rg
18 222 174 144 re f
0 0.560784 0.333333 rg
18 294 174 72 re f
0.564706 0.752941 0.396078 rg
18 222 54 144 re f
0.34902 0.721569 0.364706 rg
18 294 54 72 re f
0.00392157 0.478431 0.290196 rg
48 312 12 54 re f
30 312 12 54 re f
0 0.560784 0.333333 rg
48 240 12 54 re f
30 240 12 54 re f
72 222 120 18 re f
0.407843 0.733333 0.619608 rg
102 258 m 102 261.312 99.312 264 96 264 c 92.688 264 90 261.312 90 258 
c 90 254.688 92.688 252 96 252 c 99.312 252 102 254.688 102 258 c h
102 258 m f
174 258 m 174 261.312 171.312 264 168 264 c 164.688 264 162 261.312 162
 258 c 162 254.688 164.688 252 168 252 c 171.312 252 174 254.688 174 258
 c h
174 258 m f
102 330 m 102 333.312 99.312 336 96 336 c 92.688 336 90 333.312 90 330 
c 90 326.688 92.688 324 96 324 c 99.312 324 102 326.688 102 330 c h
102 330 m f
174 330 m 174 333.312 171.312 336 168 336 c 164.688 336 162 333.312 162
 330 c 162 326.688 164.688 324 168 324 c 171.312 324 174 326.688 174 330
 c h
174 330 m f
0 0.560784 0.333333 rg
72 276 120 18 re f
0.00392157 0.478431 0.290196 rg
72 294 120 18 re f
72 348 120 18 re f
0.964706 0.894118 0.635294 rg
120 222 24 72 re f
120 294 24 72 re f
Q Q
showpage
%%Trailer
end
%%EOF
