%!PS-Adobe-3.0 EPSF-3.0
%%Creator: cairo 1.16.0 (https://cairographics.org)
%%CreationDate: Fri Mar 13 07:34:45 2020
%%Pages: 1
%%DocumentData: Clean7Bit
%%LanguageLevel: 2
%%BoundingBox: 18 12 366 366
%%EndComments
%%BeginProlog
50 dict begin
/q { gsave } bind def
/Q { grestore } bind def
/cm { 6 array astore concat } bind def
/w { setlinewidth } bind def
/J { setlinecap } bind def
/j { setlinejoin } bind def
/M { setmiterlimit } bind def
/d { setdash } bind def
/m { moveto } bind def
/l { lineto } bind def
/c { curveto } bind def
/h { closepath } bind def
/re { exch dup neg 3 1 roll 5 3 roll moveto 0 rlineto
      0 exch rlineto 0 rlineto closepath } bind def
/S { stroke } bind def
/f { fill } bind def
/f* { eofill } bind def
/n { newpath } bind def
/W { clip } bind def
/W* { eoclip } bind def
/BT { } bind def
/ET { } bind def
/BDC { mark 3 1 roll /BDC pdfmark } bind def
/EMC { mark /EMC pdfmark } bind def
/cairo_store_point { /cairo_point_y exch def /cairo_point_x exch def } def
/Tj { show currentpoint cairo_store_point } bind def
/TJ {
  {
    dup
    type /stringtype eq
    { show } { -0.001 mul 0 cairo_font_matrix dtransform rmoveto } ifelse
  } forall
  currentpoint cairo_store_point
} bind def
/cairo_selectfont { cairo_font_matrix aload pop pop pop 0 0 6 array astore
    cairo_font exch selectfont cairo_point_x cairo_point_y moveto } bind def
/Tf { pop /cairo_font exch def /cairo_font_matrix where
      { pop cairo_selectfont } if } bind def
/Td { matrix translate cairo_font_matrix matrix concatmatrix dup
      /cairo_font_matrix exch def dup 4 get exch 5 get cairo_store_point
      /cairo_font where { pop cairo_selectfont } if } bind def
/Tm { 2 copy 8 2 roll 6 array astore /cairo_font_matrix exch def
      cairo_store_point /cairo_font where { pop cairo_selectfont } if } bind def
/g { setgray } bind def
/rg { setrgbcolor } bind def
/d1 { setcachedevice } bind def
/cairo_data_source {
  CairoDataIndex CairoData length lt
    { CairoData CairoDataIndex get /CairoDataIndex CairoDataIndex 1 add def }
    { () } ifelse
} def
/cairo_flush_ascii85_file { cairo_ascii85_file status { cairo_ascii85_file flushfile } if } def
/cairo_image { image cairo_flush_ascii85_file } def
/cairo_imagemask { imagemask cairo_flush_ascii85_file } def
%%EndProlog
%%BeginSetup
%%EndSetup
%%Page: 1 1
%%BeginPageSetup
%%PageBoundingBox: 18 12 366 366
%%EndPageSetup
q 18 12 348 354 rectclip
1 0 0 -1 0 384 cm q
0.964706 0.894118 0.635294 rg
144 54 192 186 re f
0.964706 0.776471 0.2 rg
252 114 84 48 re f
0.666667 0.796078 0.164706 rg
264 186 102 54 re f
0.964706 0.776471 0.2 rg
144 114 60 126 re f
0.666667 0.796078 0.164706 rg
340.188 90 m 329.867 90 320.77 83.23 317.805 73.348 c 301.199 18 l 342 
18 l 361.09 56.18 l 364.711 63.422 364.324 72.027 360.066 78.918 c 355.809
 85.805 348.285 90 340.188 90 c h
340.188 90 m f
0.839216 0.878431 0.435294 rg
291.391 90 m 288.75 90 l 276.742 90 266.691 80.902 265.496 68.957 c 260.398
 18 l 301.199 18 l 313.773 59.914 l 315.898 66.992 314.551 74.652 310.141
 80.582 c 305.73 86.508 298.777 90 291.391 90 c h
291.391 90 m f
0.666667 0.796078 0.164706 rg
241.777 90 m 238.223 90 l 231.621 90 225.324 87.207 220.895 82.312 c 216.465
 77.418 214.312 70.875 214.969 64.305 c 219.602 18 l 260.398 18 l 265.031
 64.305 l 265.688 70.875 263.535 77.418 259.105 82.312 c 254.676 87.207 
248.379 90 241.777 90 c h
241.777 90 m f
0.839216 0.878431 0.435294 rg
219.602 18 m 214.504 68.957 l 213.309 80.902 203.258 90 191.25 90 c 188.609
 90 l 181.223 90 174.27 86.508 169.859 80.582 c 165.449 74.652 164.102 66.992
 166.227 59.914 c 178.801 18 l h
219.602 18 m f
0.666667 0.796078 0.164706 rg
178.801 18 m 162.195 73.348 l 159.23 83.23 150.133 90 139.812 90 c 131.715
 90 124.191 85.805 119.934 78.918 c 115.676 72.027 115.289 63.422 118.91
 56.18 c 138 18 l h
178.801 18 m f
0.215686 0.65098 0.796078 rg
30 66 m 162 66 l 168.648 66 174 71.352 174 78 c 174 318 l 174 324.648 168.648
 330 162 330 c 30 330 l 23.352 330 18 324.648 18 318 c 18 78 l 18 71.352
 23.352 66 30 66 c h
30 66 m f
0.572549 0.831373 0.937255 rg
36 312 m 36 84 l 60 84 l 60 93.941 68.059 102 78 102 c 114 102 l 123.941
 102 132 93.941 132 84 c 156 84 l 156 312 l h
36 312 m f
0.223529 0.403922 0.615686 rg
84 78 18 12 re f
120 84 m 120 87.312 117.312 90 114 90 c 110.688 90 108 87.312 108 84 c 
108 80.688 110.688 78 114 78 c 117.312 78 120 80.688 120 84 c h
120 84 m f
18 90 18 12 re f
156 90 18 12 re f
18 294 18 12 re f
156 294 18 12 re f
0.988235 0.839216 0.717647 rg
180 252 m 180 306 l 156 342 l 156 372 l 84 372 l 84 342 l 60 306 l 60 234
 l 66.367 234 72.473 236.527 76.973 241.027 c 81.473 245.527 84 251.633 
84 258 c 84 192 l 84 185.371 89.371 180 96 180 c 102.629 180 108 185.371
 108 192 c 108 252 l 108 245.371 113.371 240 120 240 c 126.629 240 132 245.371
 132 252 c 132 245.371 137.371 240 144 240 c 150.629 240 156 245.371 156
 252 c 156 245.371 161.371 240 168 240 c 174.629 240 180 245.371 180 252
 c h
180 252 m f
0.968627 0.713726 0.537255 rg
84 258 m 84 276 l 84 279.312 81.312 282 78 282 c 74.688 282 72 279.312 
72 276 c 72 237.219 l 73.82 238.262 75.492 239.543 76.973 241.027 c 81.48
 245.523 84.008 251.633 84 258 c h
84 258 m f
108 270 m 104.688 270 102 267.312 102 264 c 102 258 l 102 254.688 104.688
 252 108 252 c 111.312 252 114 254.688 114 258 c 114 264 l 114 267.312 111.312
 270 108 270 c h
108 270 m f
132 270 m 128.688 270 126 267.312 126 264 c 126 258 l 126 254.688 128.688
 252 132 252 c 135.312 252 138 254.688 138 258 c 138 264 l 138 267.312 135.312
 270 132 270 c h
132 270 m f
156 270 m 152.688 270 150 267.312 150 264 c 150 258 l 150 254.688 152.688
 252 156 252 c 159.312 252 162 254.688 162 258 c 162 264 l 162 267.312 159.312
 270 156 270 c h
156 270 m f
84 342 18 12 re f
138 342 18 12 re f
0.176471 0.501961 0.733333 rg
63 206.402 m 58.148 195.273 59.234 182.449 65.887 172.293 c 72.539 162.141
 83.859 156.02 96 156.02 c 108.141 156.02 119.461 162.141 126.113 172.293
 c 132.766 182.449 133.852 195.273 129.004 206.402 c 118.004 201.598 l 121.234
 194.18 120.508 185.633 116.074 178.863 c 111.637 172.098 104.09 168.02 
96 168.02 c 87.91 168.02 80.363 172.098 75.926 178.863 c 71.492 185.633 
70.766 194.18 73.996 201.598 c h
63 206.402 m f
59.246 171.656 m 48.754 165.832 l 54.766 155.02 64.289 146.586 75.75 141.93
 c 80.25 153.051 l 71.332 156.676 63.922 163.242 59.246 171.656 c h
59.246 171.656 m f
0.572549 0.831373 0.937255 rg
144 168 m 198 168 l 198 144 l 234 180 l 198 216 l 198 192 l 144 192 l h
144 168 m f
0.176471 0.501961 0.733333 rg
198 222 m 194.688 222 192 219.312 192 216 c 192 198 l 144 198 l 144 186
 l 198 186 l 201.312 186 204 188.688 204 192 c 204 201.516 l 225.516 180
 l 204 158.484 l 204 168 l 204 171.312 201.312 174 198 174 c 137.578 174
 l 135.438 174 133.457 172.859 132.387 171.004 c 127.684 162.898 120.426
 156.586 111.75 153.051 c 116.25 141.926 l 126.285 146.012 134.871 153.004
 140.906 162 c 192 162 l 192 144 l 192 141.574 193.461 139.387 195.703 138.457
 c 197.945 137.527 200.527 138.043 202.242 139.758 c 238.242 175.758 l 239.367
 176.883 240 178.41 240 180 c 240 181.59 239.367 183.117 238.242 184.242
 c 202.242 220.242 l 201.117 221.367 199.59 222 198 222 c h
198 222 m f
Q Q
showpage
%%Trailer
end
%%EOF
