%!PS-Adobe-3.0 EPSF-3.0
%%Creator: cairo 1.16.0 (https://cairographics.org)
%%CreationDate: Fri Mar 13 07:34:46 2020
%%Pages: 1
%%DocumentData: Clean7Bit
%%LanguageLevel: 2
%%BoundingBox: 18 18 366 366
%%EndComments
%%BeginProlog
50 dict begin
/q { gsave } bind def
/Q { grestore } bind def
/cm { 6 array astore concat } bind def
/w { setlinewidth } bind def
/J { setlinecap } bind def
/j { setlinejoin } bind def
/M { setmiterlimit } bind def
/d { setdash } bind def
/m { moveto } bind def
/l { lineto } bind def
/c { curveto } bind def
/h { closepath } bind def
/re { exch dup neg 3 1 roll 5 3 roll moveto 0 rlineto
      0 exch rlineto 0 rlineto closepath } bind def
/S { stroke } bind def
/f { fill } bind def
/f* { eofill } bind def
/n { newpath } bind def
/W { clip } bind def
/W* { eoclip } bind def
/BT { } bind def
/ET { } bind def
/BDC { mark 3 1 roll /BDC pdfmark } bind def
/EMC { mark /EMC pdfmark } bind def
/cairo_store_point { /cairo_point_y exch def /cairo_point_x exch def } def
/Tj { show currentpoint cairo_store_point } bind def
/TJ {
  {
    dup
    type /stringtype eq
    { show } { -0.001 mul 0 cairo_font_matrix dtransform rmoveto } ifelse
  } forall
  currentpoint cairo_store_point
} bind def
/cairo_selectfont { cairo_font_matrix aload pop pop pop 0 0 6 array astore
    cairo_font exch selectfont cairo_point_x cairo_point_y moveto } bind def
/Tf { pop /cairo_font exch def /cairo_font_matrix where
      { pop cairo_selectfont } if } bind def
/Td { matrix translate cairo_font_matrix matrix concatmatrix dup
      /cairo_font_matrix exch def dup 4 get exch 5 get cairo_store_point
      /cairo_font where { pop cairo_selectfont } if } bind def
/Tm { 2 copy 8 2 roll 6 array astore /cairo_font_matrix exch def
      cairo_store_point /cairo_font where { pop cairo_selectfont } if } bind def
/g { setgray } bind def
/rg { setrgbcolor } bind def
/d1 { setcachedevice } bind def
/cairo_data_source {
  CairoDataIndex CairoData length lt
    { CairoData CairoDataIndex get /CairoDataIndex CairoDataIndex 1 add def }
    { () } ifelse
} def
/cairo_flush_ascii85_file { cairo_ascii85_file status { cairo_ascii85_file flushfile } if } def
/cairo_image { image cairo_flush_ascii85_file } def
/cairo_imagemask { imagemask cairo_flush_ascii85_file } def
%%EndProlog
%%BeginSetup
%%EndSetup
%%Page: 1 1
%%BeginPageSetup
%%PageBoundingBox: 18 18 366 366
%%EndPageSetup
q 18 18 348 348 rectclip
1 0 0 -1 0 384 cm q
0.215686 0.65098 0.796078 rg
30 342 m 180 342 l 186.648 342 192 347.352 192 354 c 192 360.648 186.648
 366 180 366 c 30 366 l 23.352 366 18 360.648 18 354 c 18 347.352 23.352
 342 30 342 c h
30 342 m f
0.176471 0.501961 0.733333 rg
180 342 m 330 342 l 336.648 342 342 347.352 342 354 c 342 360.648 336.648
 366 330 366 c 180 366 l 173.352 366 168 360.648 168 354 c 168 347.352 173.352
 342 180 342 c h
180 342 m f
0.572549 0.831373 0.937255 rg
363.961 193.754 m 343.516 331.754 l 342.648 337.641 337.598 342 331.648
 342 c 133.914 342 l 130.422 342 127.105 340.484 124.824 337.844 c 122.547
 335.199 121.527 331.695 122.039 328.246 c 142.484 190.246 l 143.352 184.359
 148.402 180 154.352 180 c 352.086 180 l 355.578 180 358.895 181.516 361.176
 184.156 c 363.453 186.801 364.473 190.305 363.961 193.754 c h
363.961 193.754 m f
0.215686 0.65098 0.796078 rg
363.961 193.754 m 343.516 331.754 l 342.648 337.641 337.598 342 331.648
 342 c 309.555 342 l 315.504 342 320.551 337.641 321.422 331.754 c 341.863
 193.754 l 342.379 190.305 341.363 186.801 339.082 184.16 c 336.805 181.516
 333.488 180 330 180 c 352.086 180 l 355.578 180 358.895 181.516 361.176
 184.156 c 363.453 186.801 364.473 190.305 363.961 193.754 c h
363.961 193.754 m f
0.666667 0.796078 0.164706 rg
222 216 144 96 re f
0.964706 0.776471 0.2 rg
246 240 30 24 re f
0.223529 0.309804 0.352941 rg
240 282 18 12 re f
264 282 18 12 re f
288 282 18 12 re f
0.215686 0.65098 0.796078 rg
306 234 24 12 re f
348 240 m 348 243.312 345.312 246 342 246 c 338.688 246 336 243.312 336
 240 c 336 236.688 338.688 234 342 234 c 345.312 234 348 236.688 348 240
 c h
348 240 m f
0.203922 0.631373 0.4 rg
18 18 240 132 re f
0 0.560784 0.333333 rg
18 18 240 18 re f
18 132 240 18 re f
0.407843 0.733333 0.619608 rg
78 84 m 78 90.629 72.629 96 66 96 c 59.371 96 54 90.629 54 84 c 54 77.371
 59.371 72 66 72 c 72.629 72 78 77.371 78 84 c h
78 84 m f
222 84 m 222 90.629 216.629 96 210 96 c 203.371 96 198 90.629 198 84 c 
198 77.371 203.371 72 210 72 c 216.629 72 222 77.371 222 84 c h
222 84 m f
0 0.560784 0.333333 rg
222 102 24 12 re f
0.407843 0.733333 0.619608 rg
168 84 m 168 100.57 154.57 114 138 114 c 121.43 114 108 100.57 108 84 c
 108 67.43 121.43 54 138 54 c 154.57 54 168 67.43 168 84 c h
168 84 m f
0.572549 0.831373 0.937255 rg
168 270 m 78 270 l 78 204 l 60 204 l 90 174 l 120 204 l 102 204 l 102 246
 l 168 246 l h
168 270 m f
0.176471 0.501961 0.733333 rg
168 276 m 78 276 l 74.688 276 72 273.312 72 270 c 72 210 l 60 210 l 57.574
 210 55.387 208.539 54.457 206.297 c 53.527 204.055 54.043 201.473 55.758
 199.758 c 85.758 169.758 l 88.102 167.414 91.898 167.414 94.242 169.758
 c 124.242 199.758 l 125.957 201.473 126.473 204.055 125.543 206.297 c 124.613
 208.539 122.426 210 120 210 c 108 210 l 108 240 l 168 240 l 168 252 l 102
 252 l 98.688 252 96 249.312 96 246 c 96 204 l 96 200.688 98.688 198 102
 198 c 105.516 198 l 90 182.484 l 74.484 198 l 78 198 l 81.312 198 84 200.688
 84 204 c 84 264 l 168 264 l h
168 276 m f
Q Q
showpage
%%Trailer
end
%%EOF
