%!PS-Adobe-3.0 EPSF-3.0
%%Creator: cairo 1.16.0 (https://cairographics.org)
%%CreationDate: Fri Mar 13 07:34:46 2020
%%Pages: 1
%%DocumentData: Clean7Bit
%%LanguageLevel: 2
%%BoundingBox: 60 12 324 366
%%EndComments
%%BeginProlog
50 dict begin
/q { gsave } bind def
/Q { grestore } bind def
/cm { 6 array astore concat } bind def
/w { setlinewidth } bind def
/J { setlinecap } bind def
/j { setlinejoin } bind def
/M { setmiterlimit } bind def
/d { setdash } bind def
/m { moveto } bind def
/l { lineto } bind def
/c { curveto } bind def
/h { closepath } bind def
/re { exch dup neg 3 1 roll 5 3 roll moveto 0 rlineto
      0 exch rlineto 0 rlineto closepath } bind def
/S { stroke } bind def
/f { fill } bind def
/f* { eofill } bind def
/n { newpath } bind def
/W { clip } bind def
/W* { eoclip } bind def
/BT { } bind def
/ET { } bind def
/BDC { mark 3 1 roll /BDC pdfmark } bind def
/EMC { mark /EMC pdfmark } bind def
/cairo_store_point { /cairo_point_y exch def /cairo_point_x exch def } def
/Tj { show currentpoint cairo_store_point } bind def
/TJ {
  {
    dup
    type /stringtype eq
    { show } { -0.001 mul 0 cairo_font_matrix dtransform rmoveto } ifelse
  } forall
  currentpoint cairo_store_point
} bind def
/cairo_selectfont { cairo_font_matrix aload pop pop pop 0 0 6 array astore
    cairo_font exch selectfont cairo_point_x cairo_point_y moveto } bind def
/Tf { pop /cairo_font exch def /cairo_font_matrix where
      { pop cairo_selectfont } if } bind def
/Td { matrix translate cairo_font_matrix matrix concatmatrix dup
      /cairo_font_matrix exch def dup 4 get exch 5 get cairo_store_point
      /cairo_font where { pop cairo_selectfont } if } bind def
/Tm { 2 copy 8 2 roll 6 array astore /cairo_font_matrix exch def
      cairo_store_point /cairo_font where { pop cairo_selectfont } if } bind def
/g { setgray } bind def
/rg { setrgbcolor } bind def
/d1 { setcachedevice } bind def
/cairo_data_source {
  CairoDataIndex CairoData length lt
    { CairoData CairoDataIndex get /CairoDataIndex CairoDataIndex 1 add def }
    { () } ifelse
} def
/cairo_flush_ascii85_file { cairo_ascii85_file status { cairo_ascii85_file flushfile } if } def
/cairo_image { image cairo_flush_ascii85_file } def
/cairo_imagemask { imagemask cairo_flush_ascii85_file } def
%%EndProlog
%%BeginSetup
%%EndSetup
%%Page: 1 1
%%BeginPageSetup
%%PageBoundingBox: 60 12 324 366
%%EndPageSetup
q 60 12 264 354 rectclip
1 0 0 -1 0 384 cm q
0.215686 0.65098 0.796078 rg
132 18 m 312 18 l 318.648 18 324 23.352 324 30 c 324 354 l 324 360.648 
318.648 366 312 366 c 132 366 l 125.352 366 120 360.648 120 354 c 120 30
 l 120 23.352 125.352 18 132 18 c h
132 18 m f
0.572549 0.831373 0.937255 rg
120 36 204 312 re f
0.215686 0.65098 0.796078 rg
228 54 m 228 57.312 225.312 60 222 60 c 218.688 60 216 57.312 216 54 c 
216 50.688 218.688 48 222 48 c 225.312 48 228 50.688 228 54 c h
228 54 m f
0.419608 0.784314 0.913725 rg
156 318 12 12 re f
216 318 12 12 re f
276 318 12 12 re f
0.223529 0.403922 0.615686 rg
78 336 12 36 re f
0.215686 0.65098 0.796078 rg
84 354 m 72.754 346.504 66 333.883 66 320.367 c 66 174 l 102 174 l 102 
320.367 l 102 333.883 95.246 346.504 84 354 c h
84 354 m f
0.223529 0.403922 0.615686 rg
78 270 12 24 re f
72 150 24 24 re f
0.572549 0.831373 0.937255 rg
60 144 48 12 re f
0.666667 0.796078 0.164706 rg
150 108 144 96 re f
0.964706 0.776471 0.2 rg
174 132 30 24 re f
0.223529 0.309804 0.352941 rg
168 174 18 12 re f
192 174 18 12 re f
216 174 18 12 re f
0.215686 0.65098 0.796078 rg
234 126 24 12 re f
276 132 m 276 135.312 273.312 138 270 138 c 266.688 138 264 135.312 264
 132 c 264 128.688 266.688 126 270 126 c 273.312 126 276 128.688 276 132
 c h
276 132 m f
0.223529 0.309804 0.352941 rg
170.195 245.41 m 159.805 239.41 l 156 246 l 152.195 239.41 l 141.805 245.41
 l 145.609 252 l 138 252 l 138 264 l 145.609 264 l 141.805 270.59 l 152.195
 276.59 l 156 270 l 159.805 276.59 l 170.195 270.59 l 166.391 264 l 174 
264 l 174 252 l 166.391 252 l h
170.195 245.41 m f
212.195 245.41 m 201.805 239.41 l 198 246 l 194.195 239.41 l 183.805 245.41
 l 187.609 252 l 180 252 l 180 264 l 187.609 264 l 183.805 270.59 l 194.195
 276.59 l 198 270 l 201.805 276.59 l 212.195 270.59 l 208.391 264 l 216 
264 l 216 252 l 208.391 252 l h
212.195 245.41 m f
260.195 245.41 m 249.805 239.41 l 246 246 l 242.195 239.41 l 231.805 245.41
 l 235.609 252 l 228 252 l 228 264 l 235.609 264 l 231.805 270.59 l 242.195
 276.59 l 246 270 l 249.805 276.59 l 260.195 270.59 l 256.391 264 l 264 
264 l 264 252 l 256.391 252 l h
260.195 245.41 m f
306 252 m 298.391 252 l 302.195 245.41 l 291.805 239.41 l 288 246 l 284.195
 239.41 l 273.805 245.41 l 277.609 252 l 270 252 l 270 264 l 277.609 264
 l 273.805 270.59 l 284.195 276.59 l 288 270 l 291.805 276.59 l 302.195 
270.59 l 298.391 264 l 306 264 l h
306 252 m f
Q Q
showpage
%%Trailer
end
%%EOF
