%!PS-Adobe-3.0 EPSF-3.0
%%Creator: cairo 1.16.0 (https://cairographics.org)
%%CreationDate: Fri Mar 13 07:34:47 2020
%%Pages: 1
%%DocumentData: Clean7Bit
%%LanguageLevel: 2
%%BoundingBox: 108 0 270 366
%%EndComments
%%BeginProlog
50 dict begin
/q { gsave } bind def
/Q { grestore } bind def
/cm { 6 array astore concat } bind def
/w { setlinewidth } bind def
/J { setlinecap } bind def
/j { setlinejoin } bind def
/M { setmiterlimit } bind def
/d { setdash } bind def
/m { moveto } bind def
/l { lineto } bind def
/c { curveto } bind def
/h { closepath } bind def
/re { exch dup neg 3 1 roll 5 3 roll moveto 0 rlineto
      0 exch rlineto 0 rlineto closepath } bind def
/S { stroke } bind def
/f { fill } bind def
/f* { eofill } bind def
/n { newpath } bind def
/W { clip } bind def
/W* { eoclip } bind def
/BT { } bind def
/ET { } bind def
/BDC { mark 3 1 roll /BDC pdfmark } bind def
/EMC { mark /EMC pdfmark } bind def
/cairo_store_point { /cairo_point_y exch def /cairo_point_x exch def } def
/Tj { show currentpoint cairo_store_point } bind def
/TJ {
  {
    dup
    type /stringtype eq
    { show } { -0.001 mul 0 cairo_font_matrix dtransform rmoveto } ifelse
  } forall
  currentpoint cairo_store_point
} bind def
/cairo_selectfont { cairo_font_matrix aload pop pop pop 0 0 6 array astore
    cairo_font exch selectfont cairo_point_x cairo_point_y moveto } bind def
/Tf { pop /cairo_font exch def /cairo_font_matrix where
      { pop cairo_selectfont } if } bind def
/Td { matrix translate cairo_font_matrix matrix concatmatrix dup
      /cairo_font_matrix exch def dup 4 get exch 5 get cairo_store_point
      /cairo_font where { pop cairo_selectfont } if } bind def
/Tm { 2 copy 8 2 roll 6 array astore /cairo_font_matrix exch def
      cairo_store_point /cairo_font where { pop cairo_selectfont } if } bind def
/g { setgray } bind def
/rg { setrgbcolor } bind def
/d1 { setcachedevice } bind def
/cairo_data_source {
  CairoDataIndex CairoData length lt
    { CairoData CairoDataIndex get /CairoDataIndex CairoDataIndex 1 add def }
    { () } ifelse
} def
/cairo_flush_ascii85_file { cairo_ascii85_file status { cairo_ascii85_file flushfile } if } def
/cairo_image { image cairo_flush_ascii85_file } def
/cairo_imagemask { imagemask cairo_flush_ascii85_file } def
%%EndProlog
%%BeginSetup
%%EndSetup
%%Page: 1 1
%%BeginPageSetup
%%PageBoundingBox: 108 0 270 366
%%EndPageSetup
q 108 0 162 366 rectclip
1 0 0 -1 0 384 cm q
0.215686 0.65098 0.796078 rg
120 18 m 252 18 l 258.648 18 264 23.352 264 30 c 264 270 l 264 276.648 
258.648 282 252 282 c 120 282 l 113.352 282 108 276.648 108 270 c 108 30
 l 108 23.352 113.352 18 120 18 c h
120 18 m f
0.572549 0.831373 0.937255 rg
126 264 m 126 36 l 150 36 l 150 45.941 158.059 54 168 54 c 204 54 l 213.941
 54 222 45.941 222 36 c 246 36 l 246 264 l h
126 264 m f
0.223529 0.403922 0.615686 rg
174 30 18 12 re f
210 36 m 210 39.312 207.312 42 204 42 c 200.688 42 198 39.312 198 36 c 
198 32.688 200.688 30 204 30 c 207.312 30 210 32.688 210 36 c h
210 36 m f
108 42 18 12 re f
246 42 18 12 re f
108 246 18 12 re f
246 246 18 12 re f
0.176471 0.501961 0.733333 rg
153 218.402 m 148.148 207.273 149.234 194.449 155.887 184.293 c 162.539
 174.141 173.859 168.02 186 168.02 c 198.141 168.02 209.461 174.141 216.113
 184.293 c 222.766 194.449 223.852 207.273 219.004 218.402 c 208.004 213.598
 l 211.234 206.18 210.508 197.633 206.074 190.863 c 201.641 184.094 194.094
 180.02 186 180.02 c 177.91 180.02 170.363 184.094 165.926 190.863 c 161.492
 197.629 160.766 206.176 163.996 213.598 c h
153 218.402 m f
149.246 183.656 m 138.754 177.832 l 144.766 167.02 154.289 158.586 165.75
 153.93 c 170.25 165.051 l 161.332 168.676 153.922 175.242 149.246 183.656
 c h
149.246 183.656 m f
222.387 183.004 m 217.684 174.898 210.426 168.586 201.75 165.051 c 206.25
 153.926 l 217.402 158.469 226.73 166.582 232.773 176.996 c h
222.387 183.004 m f
0.988235 0.839216 0.717647 rg
270 264 m 270 318 l 246 354 l 246 384 l 174 384 l 174 354 l 150 318 l 150
 246 l 156.367 246 162.473 248.527 166.973 253.027 c 171.473 257.527 174
 263.633 174 270 c 174 204 l 174 197.371 179.371 192 186 192 c 192.629 192
 198 197.371 198 204 c 198 264 l 198 257.371 203.371 252 210 252 c 216.629
 252 222 257.371 222 264 c 222 257.371 227.371 252 234 252 c 240.629 252
 246 257.371 246 264 c 246 257.371 251.371 252 258 252 c 264.629 252 270
 257.371 270 264 c h
270 264 m f
0.968627 0.713726 0.537255 rg
174 270 m 174 288 l 174 291.312 171.312 294 168 294 c 164.688 294 162 291.312
 162 288 c 162 249.219 l 163.82 250.262 165.492 251.543 166.973 253.027 
c 171.48 257.523 174.008 263.633 174 270 c h
174 270 m f
198 282 m 194.688 282 192 279.312 192 276 c 192 270 l 192 266.688 194.688
 264 198 264 c 201.312 264 204 266.688 204 270 c 204 276 l 204 279.312 201.312
 282 198 282 c h
198 282 m f
222 282 m 218.688 282 216 279.312 216 276 c 216 270 l 216 266.688 218.688
 264 222 264 c 225.312 264 228 266.688 228 270 c 228 276 l 228 279.312 225.312
 282 222 282 c h
222 282 m f
246 282 m 242.688 282 240 279.312 240 276 c 240 270 l 240 266.688 242.688
 264 246 264 c 249.312 264 252 266.688 252 270 c 252 276 l 252 279.312 249.312
 282 246 282 c h
246 282 m f
174 354 18 12 re f
228 354 18 12 re f
0.964706 0.894118 0.635294 rg
210 120 m 209.988 129.938 201.938 137.988 192 138 c 192 144 l 180 144 l
 180 138 l 170.062 137.988 162.012 129.938 162 120 c 174 120 l 174.004 123.312
 176.688 125.996 180 126 c 192 126 l 195.312 126 198 123.312 198 120 c 198
 116.688 195.312 114 192 114 c 180 114 l 170.059 114 162 105.941 162 96 
c 162 86.059 170.059 78 180 78 c 180 72 l 192 72 l 192 78 l 201.938 78.012
 209.988 86.062 210 96 c 198 96 l 197.996 92.688 195.312 90.004 192 90 c
 180 90 l 176.688 90 174 92.688 174 96 c 174 99.312 176.688 102 180 102 
c 192 102 l 201.938 102.012 209.988 110.062 210 120 c h
210 120 m f
Q Q
showpage
%%Trailer
end
%%EOF
