%!PS-Adobe-3.0 EPSF-3.0
%%Creator: cairo 1.16.0 (https://cairographics.org)
%%CreationDate: Fri Mar 13 07:34:48 2020
%%Pages: 1
%%DocumentData: Clean7Bit
%%LanguageLevel: 2
%%BoundingBox: 24 18 366 366
%%EndComments
%%BeginProlog
50 dict begin
/q { gsave } bind def
/Q { grestore } bind def
/cm { 6 array astore concat } bind def
/w { setlinewidth } bind def
/J { setlinecap } bind def
/j { setlinejoin } bind def
/M { setmiterlimit } bind def
/d { setdash } bind def
/m { moveto } bind def
/l { lineto } bind def
/c { curveto } bind def
/h { closepath } bind def
/re { exch dup neg 3 1 roll 5 3 roll moveto 0 rlineto
      0 exch rlineto 0 rlineto closepath } bind def
/S { stroke } bind def
/f { fill } bind def
/f* { eofill } bind def
/n { newpath } bind def
/W { clip } bind def
/W* { eoclip } bind def
/BT { } bind def
/ET { } bind def
/BDC { mark 3 1 roll /BDC pdfmark } bind def
/EMC { mark /EMC pdfmark } bind def
/cairo_store_point { /cairo_point_y exch def /cairo_point_x exch def } def
/Tj { show currentpoint cairo_store_point } bind def
/TJ {
  {
    dup
    type /stringtype eq
    { show } { -0.001 mul 0 cairo_font_matrix dtransform rmoveto } ifelse
  } forall
  currentpoint cairo_store_point
} bind def
/cairo_selectfont { cairo_font_matrix aload pop pop pop 0 0 6 array astore
    cairo_font exch selectfont cairo_point_x cairo_point_y moveto } bind def
/Tf { pop /cairo_font exch def /cairo_font_matrix where
      { pop cairo_selectfont } if } bind def
/Td { matrix translate cairo_font_matrix matrix concatmatrix dup
      /cairo_font_matrix exch def dup 4 get exch 5 get cairo_store_point
      /cairo_font where { pop cairo_selectfont } if } bind def
/Tm { 2 copy 8 2 roll 6 array astore /cairo_font_matrix exch def
      cairo_store_point /cairo_font where { pop cairo_selectfont } if } bind def
/g { setgray } bind def
/rg { setrgbcolor } bind def
/d1 { setcachedevice } bind def
/cairo_data_source {
  CairoDataIndex CairoData length lt
    { CairoData CairoDataIndex get /CairoDataIndex CairoDataIndex 1 add def }
    { () } ifelse
} def
/cairo_flush_ascii85_file { cairo_ascii85_file status { cairo_ascii85_file flushfile } if } def
/cairo_image { image cairo_flush_ascii85_file } def
/cairo_imagemask { imagemask cairo_flush_ascii85_file } def
%%EndProlog
%%BeginSetup
%%EndSetup
%%Page: 1 1
%%BeginPageSetup
%%PageBoundingBox: 24 18 366 366
%%EndPageSetup
q 24 18 342 348 rectclip
1 0 0 -1 0 384 cm q
0.964706 0.894118 0.635294 rg
54 114 300 252 re f
0.964706 0.85098 0.352941 rg
270 114 84 180 re f
0.666667 0.796078 0.164706 rg
222 294 144 72 re f
0.964706 0.776471 0.2 rg
186 210 84 66 re f
0.709804 0.490196 0.301961 rg
78 210 60 156 re f
0.666667 0.796078 0.164706 rg
24 288 78 78 re f
0.839216 0.878431 0.435294 rg
270 114 m 255.402 167.52 l 253.395 174.887 246.703 180 239.062 180 c 236.164
 180 l 230.762 180 225.68 177.422 222.492 173.059 c 219.301 168.699 218.387
 163.074 220.023 157.926 c 234 114 l h
270 114 m f
0.666667 0.796078 0.164706 rg
234 114 m 216.754 168.199 l 214.52 175.227 207.992 180 200.613 180 c 198.184
 180 l 192.656 180 187.48 177.305 184.309 172.781 c 181.141 168.254 180.375
 162.465 182.266 157.273 c 198 114 l h
234 114 m f
0.839216 0.878431 0.435294 rg
198 114 m 178.055 168.852 l 175.621 175.543 169.258 180 162.137 180 c 160.23
 180 l 154.586 180 149.312 177.188 146.168 172.504 c 143.02 167.816 142.414
 161.871 144.551 156.648 c 162 114 l h
198 114 m f
0.666667 0.796078 0.164706 rg
162 114 m 139.305 169.477 l 136.703 175.84 130.508 180 123.629 180 c 122.305
 180 l 116.547 180 111.18 177.074 108.062 172.23 c 104.945 167.391 104.5
 161.297 106.883 156.055 c 126 114 l h
162 114 m f
0.839216 0.878431 0.435294 rg
126 114 m 100.512 170.07 l 97.766 176.117 91.734 180 85.094 180 c 84.406
 180 l 78.535 180 73.082 176.961 69.996 171.969 c 66.91 166.973 66.633 160.738
 69.258 155.488 c 90 114 l h
126 114 m f
0.666667 0.796078 0.164706 rg
90 114 m 61.68 170.637 l 58.812 176.375 52.949 180 46.531 180 c 40.555 
180 35.02 176.848 31.969 171.707 c 28.914 166.566 28.801 160.199 31.664 
154.953 c 54 114 l h
90 114 m f
0.223529 0.309804 0.352941 rg
144 90 36 24 re f
252 90 36 24 re f
0.572549 0.831373 0.937255 rg
108 18 192 72 re f
0.215686 0.65098 0.796078 rg
300 18 24 72 re f
0.619608 0.388235 0.258824 rg
126 282 m 126 285.312 123.312 288 120 288 c 116.688 288 114 285.312 114
 282 c 114 278.688 116.688 276 120 276 c 123.312 276 126 278.688 126 282
 c h
126 282 m f
Q Q
showpage
%%Trailer
end
%%EOF
