%!PS-Adobe-3.0 EPSF-3.0
%%Creator: cairo 1.16.0 (https://cairographics.org)
%%CreationDate: Fri Mar 13 07:34:48 2020
%%Pages: 1
%%DocumentData: Clean7Bit
%%LanguageLevel: 2
%%BoundingBox: 18 18 366 366
%%EndComments
%%BeginProlog
50 dict begin
/q { gsave } bind def
/Q { grestore } bind def
/cm { 6 array astore concat } bind def
/w { setlinewidth } bind def
/J { setlinecap } bind def
/j { setlinejoin } bind def
/M { setmiterlimit } bind def
/d { setdash } bind def
/m { moveto } bind def
/l { lineto } bind def
/c { curveto } bind def
/h { closepath } bind def
/re { exch dup neg 3 1 roll 5 3 roll moveto 0 rlineto
      0 exch rlineto 0 rlineto closepath } bind def
/S { stroke } bind def
/f { fill } bind def
/f* { eofill } bind def
/n { newpath } bind def
/W { clip } bind def
/W* { eoclip } bind def
/BT { } bind def
/ET { } bind def
/BDC { mark 3 1 roll /BDC pdfmark } bind def
/EMC { mark /EMC pdfmark } bind def
/cairo_store_point { /cairo_point_y exch def /cairo_point_x exch def } def
/Tj { show currentpoint cairo_store_point } bind def
/TJ {
  {
    dup
    type /stringtype eq
    { show } { -0.001 mul 0 cairo_font_matrix dtransform rmoveto } ifelse
  } forall
  currentpoint cairo_store_point
} bind def
/cairo_selectfont { cairo_font_matrix aload pop pop pop 0 0 6 array astore
    cairo_font exch selectfont cairo_point_x cairo_point_y moveto } bind def
/Tf { pop /cairo_font exch def /cairo_font_matrix where
      { pop cairo_selectfont } if } bind def
/Td { matrix translate cairo_font_matrix matrix concatmatrix dup
      /cairo_font_matrix exch def dup 4 get exch 5 get cairo_store_point
      /cairo_font where { pop cairo_selectfont } if } bind def
/Tm { 2 copy 8 2 roll 6 array astore /cairo_font_matrix exch def
      cairo_store_point /cairo_font where { pop cairo_selectfont } if } bind def
/g { setgray } bind def
/rg { setrgbcolor } bind def
/d1 { setcachedevice } bind def
/cairo_data_source {
  CairoDataIndex CairoData length lt
    { CairoData CairoDataIndex get /CairoDataIndex CairoDataIndex 1 add def }
    { () } ifelse
} def
/cairo_flush_ascii85_file { cairo_ascii85_file status { cairo_ascii85_file flushfile } if } def
/cairo_image { image cairo_flush_ascii85_file } def
/cairo_imagemask { imagemask cairo_flush_ascii85_file } def
%%EndProlog
%%BeginSetup
%%EndSetup
%%Page: 1 1
%%BeginPageSetup
%%PageBoundingBox: 18 18 366 366
%%EndPageSetup
q 18 18 348 348 rectclip
1 0 0 -1 0 384 cm q
0.176471 0.501961 0.733333 rg
150 18 m 294 18 l 294 264 l 294 280.57 280.57 294 264 294 c 150 294 l h
150 18 m f
0.215686 0.65098 0.796078 rg
204 108 m 187.43 108 174 121.43 174 138 c 174 294 l 264 294 l 247.43 294
 234 280.57 234 264 c 234 138 l 234 121.43 220.57 108 204 108 c h
204 108 m f
0.223529 0.309804 0.352941 rg
192 36 60 12 re f
168 60 48 12 re f
228 60 48 12 re f
252 84 24 12 re f
252 108 24 12 re f
252 132 24 12 re f
0.203922 0.631373 0.4 rg
126 150 240 144 re f
0 0.560784 0.333333 rg
126 150 240 24 re f
126 270 240 24 re f
0.407843 0.733333 0.619608 rg
186 222 m 186 228.629 180.629 234 174 234 c 167.371 234 162 228.629 162
 222 c 162 215.371 167.371 210 174 210 c 180.629 210 186 215.371 186 222
 c h
186 222 m f
330 222 m 330 228.629 324.629 234 318 234 c 311.371 234 306 228.629 306
 222 c 306 215.371 311.371 210 318 210 c 324.629 210 330 215.371 330 222
 c h
330 222 m f
0 0.560784 0.333333 rg
330 240 24 12 re f
0.407843 0.733333 0.619608 rg
276 222 m 276 238.57 262.57 252 246 252 c 229.43 252 216 238.57 216 222
 c 216 205.43 229.43 192 246 192 c 262.57 192 276 205.43 276 222 c h
276 222 m f
0.964706 0.776471 0.2 rg
294 306 m 293.98 324.316 280.172 339.68 261.961 341.645 c 243.75 343.605
 226.98 331.543 223.055 313.652 c 219.129 295.762 229.305 277.785 246.664
 271.945 c 264.023 266.102 282.996 274.27 290.684 290.895 c 292.879 295.629
 294.012 300.785 294 306 c h
294 306 m f
0.964706 0.894118 0.635294 rg
276 306 m 276 313.379 271.496 320.008 264.637 322.727 c 262.527 323.57 
260.273 324.004 258 324 c 251.152 324 244.895 320.113 241.859 313.977 c 
238.824 307.836 239.539 300.504 243.699 295.066 c 247.859 289.625 254.75
 287.016 261.469 288.34 c 268.188 289.66 273.578 294.68 275.371 301.289 
c 275.789 302.824 276.004 304.41 276 306 c h
276 306 m f
0.941176 0.556863 0.0156863 rg
294 306 m 294.008 310.848 293.031 315.648 291.129 320.109 c 285.207 312.695
 281.988 303.488 282 294 c 282 293.168 282.023 292.41 282.059 291.684 c 
282.25 288.09 282.906 284.539 284.012 281.113 c 290.43 287.809 294.012 296.727
 294 306 c h
294 306 m f
0.964706 0.776471 0.2 rg
360 294 m 360 313.883 343.883 330 324 330 c 304.117 330 288 313.883 288
 294 c 288 293.34 288.016 292.68 288.051 292.027 c 289.121 272.559 305.496
 257.477 324.984 258.012 c 344.477 258.547 360 274.5 360 294 c h
360 294 m f
0.964706 0.894118 0.635294 rg
342 294 m 342 301.277 337.613 307.84 330.887 310.625 c 324.164 313.41 316.422
 311.871 311.277 306.723 c 306.129 301.578 304.59 293.836 307.375 287.113
 c 310.16 280.387 316.723 276 324 276 c 328.781 275.969 333.379 277.855 
336.762 281.238 c 340.145 284.621 342.031 289.219 342 294 c h
342 294 m f
0.941176 0.556863 0.0156863 rg
294 306 m 293.996 322.984 282.129 337.656 265.523 341.211 c 259.781 320.469
 270.645 298.746 290.684 290.895 c 292.879 295.629 294.008 300.785 294 306
 c h
294 306 m f
0.964706 0.85098 0.352941 rg
276 306 m 276 313.379 271.496 320.008 264.637 322.727 c 266.051 314.688
 269.781 307.238 275.371 301.289 c 275.789 302.824 276.004 304.41 276 306
 c h
276 306 m f
0.941176 0.556863 0.0156863 rg
347.145 321.562 m 336.434 330.566 321.473 332.543 308.789 326.633 c 296.105
 320.723 287.996 307.992 288 294 c 288 293.34 288.016 292.68 288.051 292.027
 c 299.707 286.52 313.246 286.668 324.777 292.43 c 336.309 298.195 344.555
 308.934 347.145 321.562 c h
347.145 321.562 m f
0.964706 0.85098 0.352941 rg
338.961 303.996 m 334.559 310.59 326.359 313.527 318.773 311.227 c 311.188
 308.926 306 301.93 306 294 c 305.996 291.961 306.344 289.938 307.027 288.016
 c 319.523 288.316 331.23 294.18 338.961 303.996 c h
338.961 303.996 m f
0.964706 0.776471 0.2 rg
342 330 m 342 349.883 325.883 366 306 366 c 286.117 366 270 349.883 270
 330 c 270 310.117 286.117 294 306 294 c 325.883 294 342 310.117 342 330
 c h
342 330 m f
0.964706 0.894118 0.635294 rg
324 330 m 324 339.941 315.941 348 306 348 c 296.059 348 288 339.941 288
 330 c 288 320.059 296.059 312 306 312 c 315.941 312 324 320.059 324 330
 c h
324 330 m f
0.572549 0.831373 0.937255 rg
174 138 m 174 121.43 187.43 108 204 108 c 48 108 l 31.43 108 18 121.43 
18 138 c 18 366 l 174 366 l h
174 138 m f
0.223529 0.309804 0.352941 rg
126 150 24 12 re f
126 174 24 12 re f
126 198 24 12 re f
36 222 114 12 re f
126 246 24 12 re f
36 150 54 12 re f
48 126 96 12 re f
126 270 24 12 re f
36 174 42 12 re f
36 198 54 12 re f
36 246 54 12 re f
36 300 120 12 re f
Q Q
showpage
%%Trailer
end
%%EOF
