%!PS-Adobe-3.0 EPSF-3.0
%%Creator: cairo 1.16.0 (https://cairographics.org)
%%CreationDate: Fri Mar 13 07:34:50 2020
%%Pages: 1
%%DocumentData: Clean7Bit
%%LanguageLevel: 2
%%BoundingBox: 18 18 372 366
%%EndComments
%%BeginProlog
50 dict begin
/q { gsave } bind def
/Q { grestore } bind def
/cm { 6 array astore concat } bind def
/w { setlinewidth } bind def
/J { setlinecap } bind def
/j { setlinejoin } bind def
/M { setmiterlimit } bind def
/d { setdash } bind def
/m { moveto } bind def
/l { lineto } bind def
/c { curveto } bind def
/h { closepath } bind def
/re { exch dup neg 3 1 roll 5 3 roll moveto 0 rlineto
      0 exch rlineto 0 rlineto closepath } bind def
/S { stroke } bind def
/f { fill } bind def
/f* { eofill } bind def
/n { newpath } bind def
/W { clip } bind def
/W* { eoclip } bind def
/BT { } bind def
/ET { } bind def
/BDC { mark 3 1 roll /BDC pdfmark } bind def
/EMC { mark /EMC pdfmark } bind def
/cairo_store_point { /cairo_point_y exch def /cairo_point_x exch def } def
/Tj { show currentpoint cairo_store_point } bind def
/TJ {
  {
    dup
    type /stringtype eq
    { show } { -0.001 mul 0 cairo_font_matrix dtransform rmoveto } ifelse
  } forall
  currentpoint cairo_store_point
} bind def
/cairo_selectfont { cairo_font_matrix aload pop pop pop 0 0 6 array astore
    cairo_font exch selectfont cairo_point_x cairo_point_y moveto } bind def
/Tf { pop /cairo_font exch def /cairo_font_matrix where
      { pop cairo_selectfont } if } bind def
/Td { matrix translate cairo_font_matrix matrix concatmatrix dup
      /cairo_font_matrix exch def dup 4 get exch 5 get cairo_store_point
      /cairo_font where { pop cairo_selectfont } if } bind def
/Tm { 2 copy 8 2 roll 6 array astore /cairo_font_matrix exch def
      cairo_store_point /cairo_font where { pop cairo_selectfont } if } bind def
/g { setgray } bind def
/rg { setrgbcolor } bind def
/d1 { setcachedevice } bind def
/cairo_data_source {
  CairoDataIndex CairoData length lt
    { CairoData CairoDataIndex get /CairoDataIndex CairoDataIndex 1 add def }
    { () } ifelse
} def
/cairo_flush_ascii85_file { cairo_ascii85_file status { cairo_ascii85_file flushfile } if } def
/cairo_image { image cairo_flush_ascii85_file } def
/cairo_imagemask { imagemask cairo_flush_ascii85_file } def
%%EndProlog
%%BeginSetup
%%EndSetup
%%Page: 1 1
%%BeginPageSetup
%%PageBoundingBox: 18 18 372 366
%%EndPageSetup
q 18 18 354 348 rectclip
1 0 0 -1 0 384 cm q
0.215686 0.65098 0.796078 rg
30 18 m 198 18 l 204.648 18 210 23.352 210 30 c 210 354 l 210 360.648 204.648
 366 198 366 c 30 366 l 23.352 366 18 360.648 18 354 c 18 30 l 18 23.352
 23.352 18 30 18 c h
30 18 m f
0.572549 0.831373 0.937255 rg
36 348 m 36 36 l 96 36 l 96 45.941 104.059 54 114 54 c 123.941 54 132 45.941
 132 36 c 192 36 l 192 348 l h
36 348 m f
0.223529 0.403922 0.615686 rg
120 36 m 120 39.312 117.312 42 114 42 c 110.688 42 108 39.312 108 36 c 
108 32.688 110.688 30 114 30 c 117.312 30 120 32.688 120 36 c h
120 36 m f
0.964706 0.894118 0.635294 rg
66 108 96 96 re f
0.964706 0.776471 0.2 rg
138 108 24 96 re f
0.941176 0.556863 0.0156863 rg
150 108 m 138 108 l 138 96 l 138 89.371 132.629 84 126 84 c 119.371 84 
114 89.371 114 96 c 114 108 l 102 108 l 102 96 l 102 82.746 112.746 72 126
 72 c 139.254 72 150 82.746 150 96 c h
150 108 m f
0.964706 0.776471 0.2 rg
126 126 m 114 126 l 114 96 l 114 89.371 108.629 84 102 84 c 95.371 84 90
 89.371 90 96 c 90 126 l 78 126 l 78 96 l 78 82.746 88.746 72 102 72 c 115.254
 72 126 82.746 126 96 c h
126 126 m f
0.666667 0.796078 0.164706 rg
192 204 180 114 re f
0.964706 0.776471 0.2 rg
216 234 30 24 re f
0.223529 0.309804 0.352941 rg
210 270 18 12 re f
240 270 18 12 re f
264 270 18 12 re f
0.215686 0.65098 0.796078 rg
288 222 36 12 re f
0.223529 0.309804 0.352941 rg
210 288 24 12 re f
240 288 24 12 re f
0.215686 0.65098 0.796078 rg
348 228 m 348 231.312 345.312 234 342 234 c 338.688 234 336 231.312 336
 228 c 336 224.688 338.688 222 342 222 c 345.312 222 348 224.688 348 228
 c h
348 228 m f
0.8 0.862745 0.909804 rg
312 294 m 300 276 l 336 276 l 348 294 l h
312 294 m f
0.419608 0.784314 0.913725 rg
60 234 108 36 re f
0.223529 0.309804 0.352941 rg
78 246 12 12 re f
96 246 12 12 re f
120 246 12 12 re f
138 246 12 12 re f
Q Q
showpage
%%Trailer
end
%%EOF
