%!PS-Adobe-3.0 EPSF-3.0
%%Creator: cairo 1.16.0 (https://cairographics.org)
%%CreationDate: Fri Mar 13 07:34:50 2020
%%Pages: 1
%%DocumentData: Clean7Bit
%%LanguageLevel: 2
%%BoundingBox: 17 18 366 366
%%EndComments
%%BeginProlog
50 dict begin
/q { gsave } bind def
/Q { grestore } bind def
/cm { 6 array astore concat } bind def
/w { setlinewidth } bind def
/J { setlinecap } bind def
/j { setlinejoin } bind def
/M { setmiterlimit } bind def
/d { setdash } bind def
/m { moveto } bind def
/l { lineto } bind def
/c { curveto } bind def
/h { closepath } bind def
/re { exch dup neg 3 1 roll 5 3 roll moveto 0 rlineto
      0 exch rlineto 0 rlineto closepath } bind def
/S { stroke } bind def
/f { fill } bind def
/f* { eofill } bind def
/n { newpath } bind def
/W { clip } bind def
/W* { eoclip } bind def
/BT { } bind def
/ET { } bind def
/BDC { mark 3 1 roll /BDC pdfmark } bind def
/EMC { mark /EMC pdfmark } bind def
/cairo_store_point { /cairo_point_y exch def /cairo_point_x exch def } def
/Tj { show currentpoint cairo_store_point } bind def
/TJ {
  {
    dup
    type /stringtype eq
    { show } { -0.001 mul 0 cairo_font_matrix dtransform rmoveto } ifelse
  } forall
  currentpoint cairo_store_point
} bind def
/cairo_selectfont { cairo_font_matrix aload pop pop pop 0 0 6 array astore
    cairo_font exch selectfont cairo_point_x cairo_point_y moveto } bind def
/Tf { pop /cairo_font exch def /cairo_font_matrix where
      { pop cairo_selectfont } if } bind def
/Td { matrix translate cairo_font_matrix matrix concatmatrix dup
      /cairo_font_matrix exch def dup 4 get exch 5 get cairo_store_point
      /cairo_font where { pop cairo_selectfont } if } bind def
/Tm { 2 copy 8 2 roll 6 array astore /cairo_font_matrix exch def
      cairo_store_point /cairo_font where { pop cairo_selectfont } if } bind def
/g { setgray } bind def
/rg { setrgbcolor } bind def
/d1 { setcachedevice } bind def
/cairo_data_source {
  CairoDataIndex CairoData length lt
    { CairoData CairoDataIndex get /CairoDataIndex CairoDataIndex 1 add def }
    { () } ifelse
} def
/cairo_flush_ascii85_file { cairo_ascii85_file status { cairo_ascii85_file flushfile } if } def
/cairo_image { image cairo_flush_ascii85_file } def
/cairo_imagemask { imagemask cairo_flush_ascii85_file } def
%%EndProlog
%%BeginSetup
%%EndSetup
%%Page: 1 1
%%BeginPageSetup
%%PageBoundingBox: 17 18 366 366
%%EndPageSetup
q 17 18 349 348 rectclip
1 0 0 -1 0 384 cm q
0.666667 0.796078 0.164706 rg
17.988 108.004 m 107.977 18.016 l 245.953 155.996 l 155.969 245.984 l h
17.988 108.004 m f
0.964706 0.776471 0.2 rg
89.984 72.004 m 107.98 54.008 l 131.977 78.004 l 113.98 96 l h
89.984 72.004 m f
0.223529 0.309804 0.352941 rg
67.738 88.242 m 76.223 79.758 l 94.223 97.754 l 85.738 106.238 l h
67.738 88.242 m f
91.734 112.242 m 100.219 103.758 l 118.215 121.754 l 109.73 130.238 l h
91.734 112.242 m f
115.73 136.242 m 124.215 127.758 l 142.211 145.754 l 133.727 154.238 l 
h
115.73 136.242 m f
0.215686 0.65098 0.796078 rg
157.727 112.25 m 166.211 103.766 l 196.207 133.762 l 187.723 142.246 l 
h
157.727 112.25 m f
0.223529 0.309804 0.352941 rg
49.738 106.238 m 58.223 97.754 l 82.223 121.75 l 73.738 130.234 l h
49.738 106.238 m f
79.734 136.238 m 88.219 127.754 l 112.215 151.75 l 103.73 160.234 l h
79.734 136.238 m f
0.215686 0.65098 0.796078 rg
210 150 m 210 153.312 207.312 156 204 156 c 200.688 156 198 153.312 198
 150 c 198 146.688 200.688 144 204 144 c 207.312 144 210 146.688 210 150
 c h
210 150 m f
54 324 m 228 324 l 228 348 l 54 348 l 47.371 348 42 342.629 42 336 c 42
 329.371 47.371 324 54 324 c h
54 324 m f
0.572549 0.831373 0.937255 rg
252 282 m 42 282 l 18 168 l 275.469 168 l h
252 282 m f
0.215686 0.65098 0.796078 rg
366 138 m 366.004 141.184 364.742 144.238 362.488 146.488 c 360.238 148.742
 357.184 150.004 354 150 c 312 150 l 222 348 l 204 330 l 294 126 l 354 126
 l 357.184 126 360.234 127.262 362.484 129.516 c 364.738 131.766 366 134.816
 366 138 c h
366 138 m f
0.223529 0.309804 0.352941 rg
366 138 m 366.004 141.184 364.742 144.238 362.488 146.488 c 360.238 148.742
 357.184 150.004 354 150 c 318 150 l 318 126 l 354 126 l 357.184 126 360.234
 127.262 362.484 129.516 c 364.738 131.766 366 134.816 366 138 c h
366 138 m f
132 336 m 132 352.57 118.57 366 102 366 c 85.43 366 72 352.57 72 336 c 
72 319.43 85.43 306 102 306 c 118.57 306 132 319.43 132 336 c h
132 336 m f
0.572549 0.831373 0.937255 rg
114 336 m 114 342.629 108.629 348 102 348 c 95.371 348 90 342.629 90 336
 c 90 329.371 95.371 324 102 324 c 108.629 324 114 329.371 114 336 c h
114 336 m f
0.223529 0.309804 0.352941 rg
234 336 m 234 352.57 220.57 366 204 366 c 187.43 366 174 352.57 174 336
 c 174 319.43 187.43 306 204 306 c 220.57 306 234 319.43 234 336 c h
234 336 m f
0.572549 0.831373 0.937255 rg
216 336 m 216 342.629 210.629 348 204 348 c 197.371 348 192 342.629 192
 336 c 192 329.371 197.371 324 204 324 c 210.629 324 216 329.371 216 336
 c h
216 336 m f
0.215686 0.65098 0.796078 rg
60 186 m 78 186 l 84.648 186 90 191.352 90 198 c 90 204.648 84.648 210 
78 210 c 60 210 l 53.352 210 48 204.648 48 198 c 48 191.352 53.352 186 60
 186 c h
60 186 m f
132 186 m 150 186 l 156.648 186 162 191.352 162 198 c 162 204.648 156.648
 210 150 210 c 132 210 l 125.352 210 120 204.648 120 198 c 120 191.352 125.352
 186 132 186 c h
132 186 m f
204 186 m 222 186 l 228.648 186 234 191.352 234 198 c 234 204.648 228.648
 210 222 210 c 204 210 l 197.352 210 192 204.648 192 198 c 192 191.352 197.352
 186 204 186 c h
204 186 m f
72 234 m 90 234 l 96.648 234 102 239.352 102 246 c 102 252.648 96.648 258
 90 258 c 72 258 l 65.352 258 60 252.648 60 246 c 60 239.352 65.352 234 
72 234 c h
72 234 m f
132 234 m 150 234 l 156.648 234 162 239.352 162 246 c 162 252.648 156.648
 258 150 258 c 132 258 l 125.352 258 120 252.648 120 246 c 120 239.352 125.352
 234 132 234 c h
132 234 m f
192 234 m 210 234 l 216.648 234 222 239.352 222 246 c 222 252.648 216.648
 258 210 258 c 192 258 l 185.352 258 180 252.648 180 246 c 180 239.352 185.352
 234 192 234 c h
192 234 m f
Q Q
showpage
%%Trailer
end
%%EOF
