%!PS-Adobe-3.0 EPSF-3.0
%%Creator: cairo 1.16.0 (https://cairographics.org)
%%CreationDate: Fri Mar 13 07:34:51 2020
%%Pages: 1
%%DocumentData: Clean7Bit
%%LanguageLevel: 2
%%BoundingBox: 18 18 372 366
%%EndComments
%%BeginProlog
50 dict begin
/q { gsave } bind def
/Q { grestore } bind def
/cm { 6 array astore concat } bind def
/w { setlinewidth } bind def
/J { setlinecap } bind def
/j { setlinejoin } bind def
/M { setmiterlimit } bind def
/d { setdash } bind def
/m { moveto } bind def
/l { lineto } bind def
/c { curveto } bind def
/h { closepath } bind def
/re { exch dup neg 3 1 roll 5 3 roll moveto 0 rlineto
      0 exch rlineto 0 rlineto closepath } bind def
/S { stroke } bind def
/f { fill } bind def
/f* { eofill } bind def
/n { newpath } bind def
/W { clip } bind def
/W* { eoclip } bind def
/BT { } bind def
/ET { } bind def
/BDC { mark 3 1 roll /BDC pdfmark } bind def
/EMC { mark /EMC pdfmark } bind def
/cairo_store_point { /cairo_point_y exch def /cairo_point_x exch def } def
/Tj { show currentpoint cairo_store_point } bind def
/TJ {
  {
    dup
    type /stringtype eq
    { show } { -0.001 mul 0 cairo_font_matrix dtransform rmoveto } ifelse
  } forall
  currentpoint cairo_store_point
} bind def
/cairo_selectfont { cairo_font_matrix aload pop pop pop 0 0 6 array astore
    cairo_font exch selectfont cairo_point_x cairo_point_y moveto } bind def
/Tf { pop /cairo_font exch def /cairo_font_matrix where
      { pop cairo_selectfont } if } bind def
/Td { matrix translate cairo_font_matrix matrix concatmatrix dup
      /cairo_font_matrix exch def dup 4 get exch 5 get cairo_store_point
      /cairo_font where { pop cairo_selectfont } if } bind def
/Tm { 2 copy 8 2 roll 6 array astore /cairo_font_matrix exch def
      cairo_store_point /cairo_font where { pop cairo_selectfont } if } bind def
/g { setgray } bind def
/rg { setrgbcolor } bind def
/d1 { setcachedevice } bind def
/cairo_data_source {
  CairoDataIndex CairoData length lt
    { CairoData CairoDataIndex get /CairoDataIndex CairoDataIndex 1 add def }
    { () } ifelse
} def
/cairo_flush_ascii85_file { cairo_ascii85_file status { cairo_ascii85_file flushfile } if } def
/cairo_image { image cairo_flush_ascii85_file } def
/cairo_imagemask { imagemask cairo_flush_ascii85_file } def
%%EndProlog
%%BeginSetup
%%EndSetup
%%Page: 1 1
%%BeginPageSetup
%%PageBoundingBox: 18 18 372 366
%%EndPageSetup
q 18 18 354 348 rectclip
1 0 0 -1 0 384 cm q
0.215686 0.65098 0.796078 rg
180 18 m 360 18 l 366.648 18 372 23.352 372 30 c 372 354 l 372 360.648 
366.648 366 360 366 c 180 366 l 173.352 366 168 360.648 168 354 c 168 30
 l 168 23.352 173.352 18 180 18 c h
180 18 m f
0.572549 0.831373 0.937255 rg
186 66 168 240 re f
0.223529 0.403922 0.615686 rg
258 36 36 12 re f
252 42 m 252 45.312 249.312 48 246 48 c 242.688 48 240 45.312 240 42 c 
240 38.688 242.688 36 246 36 c 249.312 36 252 38.688 252 42 c h
252 42 m f
0.572549 0.831373 0.937255 rg
282 336 m 282 342.629 276.629 348 270 348 c 263.371 348 258 342.629 258
 336 c 258 329.371 263.371 324 270 324 c 276.629 324 282 329.371 282 336
 c h
282 336 m f
0.223529 0.403922 0.615686 rg
270 354 m 262.719 354 256.156 349.613 253.371 342.887 c 250.586 336.164
 252.125 328.422 257.273 323.273 c 262.422 318.125 270.164 316.586 276.887
 319.371 c 283.613 322.156 288 328.719 288 336 c 287.988 345.938 279.938
 353.988 270 354 c h
270 330 m 267.574 330 265.387 331.461 264.457 333.703 c 263.527 335.945
 264.043 338.527 265.758 340.242 c 267.473 341.957 270.055 342.473 272.297
 341.543 c 274.539 340.613 276 338.426 276 336 c 275.996 332.688 273.312
 330.004 270 330 c h
270 330 m f
0.666667 0.796078 0.164706 rg
117.938 123.938 m 99.195 105.195 68.805 105.195 50.062 123.938 c 18 156
 l 18 348 l 150 348 l 150 156 l h
84 168 m 76.719 168 70.156 163.613 67.371 156.887 c 64.586 150.164 66.125
 142.422 71.273 137.273 c 76.422 132.125 84.164 130.586 90.887 133.371 c
 97.613 136.156 102 142.719 102 150 c 101.996 159.941 93.941 167.996 84 
168 c h
84 168 m f
0.333333 0.658824 0.321569 rg
84 174 m 74.293 174 65.543 168.152 61.828 159.184 c 58.113 150.215 60.164
 139.895 67.031 133.031 c 73.895 126.164 84.215 124.113 93.184 127.828 c
 102.152 131.543 108 140.293 108 150 c 107.984 163.25 97.25 173.984 84 174
 c h
84 138 m 79.145 138 74.77 140.922 72.914 145.406 c 71.055 149.891 72.082
 155.055 75.516 158.484 c 78.945 161.918 84.109 162.945 88.594 161.086 c
 93.078 159.23 96 154.855 96 150 c 95.992 143.375 90.625 138.008 84 138 
c h
84 138 m f
0.709804 0.490196 0.301961 rg
114 60 m 114 120 l 114 120.137 114 120.27 113.992 120.406 c 110.363 117.484
 106.32 115.117 102 113.379 c 102 60 l 102 50.059 93.941 42 84 42 c 74.059
 42 66 50.059 66 60 c 66 120 l 66.008 129.938 74.062 137.992 84 138 c 89.699
 138.008 94.605 142.02 95.754 147.602 c 86.484 151.535 75.863 150.562 67.465
 145.012 c 59.066 139.461 54.008 130.066 54 120 c 54 60 l 54 43.43 67.43
 30 84 30 c 100.57 30 114 43.43 114 60 c h
114 60 m f
0.964706 0.894118 0.635294 rg
36 192 96 96 re f
0.223529 0.309804 0.352941 rg
66 228 m 48 228 l 48 216 l 60 216 l 60 204 l 72 204 l 72 222 l 72 225.312
 69.312 228 66 228 c h
66 228 m f
72 276 m 60 276 l 60 264 l 48 264 l 48 252 l 66 252 l 69.312 252 72 254.688
 72 258 c h
72 276 m f
120 228 m 102 228 l 98.688 228 96 225.312 96 222 c 96 204 l 108 204 l 108
 216 l 120 216 l h
120 228 m f
84 246 m 48 246 l 48 234 l 78 234 l 78 204 l 90 204 l 90 240 l 90 243.312
 87.312 246 84 246 c h
84 246 m f
108 264 12 12 re f
114 258 m 96 258 l 96 246 l 108 246 l 108 234 l 120 234 l 120 252 l 120
 255.312 117.312 258 114 258 c h
114 258 m f
78 252 12 24 re f
0.964706 0.894118 0.635294 rg
222 144 96 96 re f
0.223529 0.309804 0.352941 rg
252 180 m 234 180 l 234 168 l 246 168 l 246 156 l 258 156 l 258 174 l 258
 177.312 255.312 180 252 180 c h
252 180 m f
258 228 m 246 228 l 246 216 l 234 216 l 234 204 l 252 204 l 255.312 204
 258 206.688 258 210 c h
258 228 m f
306 180 m 288 180 l 284.688 180 282 177.312 282 174 c 282 156 l 294 156
 l 294 168 l 306 168 l h
306 180 m f
270 198 m 234 198 l 234 186 l 264 186 l 264 156 l 276 156 l 276 192 l 276
 195.312 273.312 198 270 198 c h
270 198 m f
294 216 12 12 re f
300 210 m 282 210 l 282 198 l 294 198 l 294 186 l 306 186 l 306 204 l 306
 207.312 303.312 210 300 210 c h
300 210 m f
264 204 12 24 re f
210 132 m 198 132 l 198 84 l 198 80.688 200.688 78 204 78 c 252 78 l 252
 90 l 210 90 l h
210 132 m f
342 132 m 330 132 l 330 90 l 288 90 l 288 78 l 336 78 l 339.312 78 342 
80.688 342 84 c h
342 132 m f
336 294 m 288 294 l 288 282 l 330 282 l 330 240 l 342 240 l 342 288 l 342
 291.312 339.312 294 336 294 c h
336 294 m f
252 294 m 204 294 l 200.688 294 198 291.312 198 288 c 198 240 l 210 240
 l 210 282 l 252 282 l h
252 294 m f
Q Q
showpage
%%Trailer
end
%%EOF
