%!PS-Adobe-3.0 EPSF-3.0
%%Creator: cairo 1.16.0 (https://cairographics.org)
%%CreationDate: Fri Mar 13 07:34:51 2020
%%Pages: 1
%%DocumentData: Clean7Bit
%%LanguageLevel: 2
%%BoundingBox: 18 48 366 336
%%EndComments
%%BeginProlog
50 dict begin
/q { gsave } bind def
/Q { grestore } bind def
/cm { 6 array astore concat } bind def
/w { setlinewidth } bind def
/J { setlinecap } bind def
/j { setlinejoin } bind def
/M { setmiterlimit } bind def
/d { setdash } bind def
/m { moveto } bind def
/l { lineto } bind def
/c { curveto } bind def
/h { closepath } bind def
/re { exch dup neg 3 1 roll 5 3 roll moveto 0 rlineto
      0 exch rlineto 0 rlineto closepath } bind def
/S { stroke } bind def
/f { fill } bind def
/f* { eofill } bind def
/n { newpath } bind def
/W { clip } bind def
/W* { eoclip } bind def
/BT { } bind def
/ET { } bind def
/BDC { mark 3 1 roll /BDC pdfmark } bind def
/EMC { mark /EMC pdfmark } bind def
/cairo_store_point { /cairo_point_y exch def /cairo_point_x exch def } def
/Tj { show currentpoint cairo_store_point } bind def
/TJ {
  {
    dup
    type /stringtype eq
    { show } { -0.001 mul 0 cairo_font_matrix dtransform rmoveto } ifelse
  } forall
  currentpoint cairo_store_point
} bind def
/cairo_selectfont { cairo_font_matrix aload pop pop pop 0 0 6 array astore
    cairo_font exch selectfont cairo_point_x cairo_point_y moveto } bind def
/Tf { pop /cairo_font exch def /cairo_font_matrix where
      { pop cairo_selectfont } if } bind def
/Td { matrix translate cairo_font_matrix matrix concatmatrix dup
      /cairo_font_matrix exch def dup 4 get exch 5 get cairo_store_point
      /cairo_font where { pop cairo_selectfont } if } bind def
/Tm { 2 copy 8 2 roll 6 array astore /cairo_font_matrix exch def
      cairo_store_point /cairo_font where { pop cairo_selectfont } if } bind def
/g { setgray } bind def
/rg { setrgbcolor } bind def
/d1 { setcachedevice } bind def
/cairo_data_source {
  CairoDataIndex CairoData length lt
    { CairoData CairoDataIndex get /CairoDataIndex CairoDataIndex 1 add def }
    { () } ifelse
} def
/cairo_flush_ascii85_file { cairo_ascii85_file status { cairo_ascii85_file flushfile } if } def
/cairo_image { image cairo_flush_ascii85_file } def
/cairo_imagemask { imagemask cairo_flush_ascii85_file } def
%%EndProlog
%%BeginSetup
%%EndSetup
%%Page: 1 1
%%BeginPageSetup
%%PageBoundingBox: 18 48 366 336
%%EndPageSetup
q 18 48 348 288 rectclip
1 0 0 -1 0 384 cm q
0.176471 0.501961 0.733333 rg
30 48 m 162 48 l 168.648 48 174 53.352 174 60 c 174 324 l 174 330.648 168.648
 336 162 336 c 30 336 l 23.352 336 18 330.648 18 324 c 18 60 l 18 53.352
 23.352 48 30 48 c h
30 48 m f
0.572549 0.831373 0.937255 rg
36 96 120 192 re f
0.215686 0.65098 0.796078 rg
84 66 36 12 re f
78 72 m 78 75.312 75.312 78 72 78 c 68.688 78 66 75.312 66 72 c 66 68.688
 68.688 66 72 66 c 75.312 66 78 68.688 78 72 c h
78 72 m f
222 48 m 354 48 l 360.648 48 366 53.352 366 60 c 366 324 l 366 330.648 
360.648 336 354 336 c 222 336 l 215.352 336 210 330.648 210 324 c 210 60
 l 210 53.352 215.352 48 222 48 c h
222 48 m f
0.572549 0.831373 0.937255 rg
228 318 m 228 66 l 252 66 l 252 75.941 260.059 84 270 84 c 306 84 l 315.941
 84 324 75.941 324 66 c 348 66 l 348 318 l h
228 318 m f
0.223529 0.403922 0.615686 rg
282 60 12 12 re f
312 66 m 312 69.312 309.312 72 306 72 c 302.688 72 300 69.312 300 66 c 
300 62.688 302.688 60 306 60 c 309.312 60 312 62.688 312 66 c h
312 66 m f
210 72 18 12 re f
348 72 18 12 re f
210 300 18 12 re f
348 300 18 12 re f
0.964706 0.894118 0.635294 rg
126 138 m 126 135 l 125.988 123.406 116.594 114.012 105 114 c 102 114 l
 102 108 l 90 108 l 90 114 l 87 114 l 75.402 114 66 123.402 66 135 c 66 
146.598 75.402 156 87 156 c 105 156 l 109.969 156 114 160.031 114 165 c 
114 169.969 109.969 174 105 174 c 87 174 l 82.031 173.996 78.004 169.969
 78 165 c 78 162 l 66 162 l 66 165 l 66.012 176.594 75.406 185.988 87 186
 c 90 186 l 90 192 l 102 192 l 102 186 l 105 186 l 116.598 186 126 176.598
 126 165 c 126 153.402 116.598 144 105 144 c 87 144 l 82.031 144 78 139.969
 78 135 c 78 130.031 82.031 126 87 126 c 105 126 l 109.969 126.004 113.996
 130.031 114 135 c 114 138 l h
126 138 m f
318 240 m 318 237 l 317.988 225.406 308.594 216.012 297 216 c 294 216 l
 294 210 l 282 210 l 282 216 l 279 216 l 267.402 216 258 225.402 258 237
 c 258 248.598 267.402 258 279 258 c 297 258 l 301.969 258 306 262.031 306
 267 c 306 271.969 301.969 276 297 276 c 279 276 l 274.031 275.996 270.004
 271.969 270 267 c 270 264 l 258 264 l 258 267 l 258.012 278.594 267.406
 287.988 279 288 c 282 288 l 282 294 l 294 294 l 294 288 l 297 288 l 308.598
 288 318 278.598 318 267 c 318 255.402 308.598 246 297 246 c 279 246 l 274.031
 246 270 241.969 270 237 c 270 232.031 274.031 228 279 228 c 297 228 l 301.969
 228.004 305.996 232.031 306 237 c 306 240 l h
318 240 m f
0.215686 0.65098 0.796078 rg
102 312 m 102 315.312 99.312 318 96 318 c 92.688 318 90 315.312 90 312 
c 90 308.688 92.688 306 96 306 c 99.312 306 102 308.688 102 312 c h
102 312 m f
0.572549 0.831373 0.937255 rg
252 252 m 132 252 l 132 270 l 102 240 l 132 210 l 132 228 l 252 228 l h
252 252 m f
132 132 m 252 132 l 252 114 l 282 144 l 252 174 l 252 156 l 132 156 l h
132 132 m f
0.215686 0.65098 0.796078 rg
132 276 m 130.41 276 128.883 275.367 127.758 274.242 c 97.758 244.242 l
 95.414 241.898 95.414 238.102 97.758 235.758 c 127.758 205.758 l 129.473
 204.043 132.055 203.527 134.297 204.457 c 136.539 205.387 138 207.574 138
 210 c 138 222 l 252 222 l 252 234 l 132 234 l 128.688 234 126 231.312 126
 228 c 126 224.484 l 110.484 240 l 126 255.516 l 126 252 l 126 248.688 128.688
 246 132 246 c 252 246 l 252 258 l 138 258 l 138 270 l 138 273.312 135.312
 276 132 276 c h
132 276 m f
0.176471 0.501961 0.733333 rg
252 180 m 248.688 180 246 177.312 246 174 c 246 162 l 132 162 l 132 150
 l 252 150 l 255.312 150 258 152.688 258 156 c 258 159.516 l 273.516 144
 l 258 128.484 l 258 132 l 258 135.312 255.312 138 252 138 c 132 138 l 132
 126 l 246 126 l 246 114 l 246 111.574 247.461 109.387 249.703 108.457 c
 251.945 107.527 254.527 108.043 256.242 109.758 c 286.242 139.758 l 288.586
 142.102 288.586 145.898 286.242 148.242 c 256.242 178.242 l 255.117 179.367
 253.59 180 252 180 c h
252 180 m f
Q Q
showpage
%%Trailer
end
%%EOF
